"","X0","X1","X2","X3","X4","X5","X6","X7","X8","X9","X10","X11","X12","X13","X14","X15","X16","X17","X18","X19","X20","X21","X22","X23","X24","X25","X26","X27"
"1",0.300266675739004,0.337295995958804,0.232624816572451,0.105198194665291,0.0224085932551755,0.00212377936041484,8.08965658813982e-05,1.04788297773832e-06,0,0,0,0,0,0,0,0,0,0,0,0,0,0,0,0,0,0,0,0
"2",0.0106255333942665,0.297814629571097,0.33402660106826,0.229355421681907,0.103563497220019,0.0224085932551755,0.00212377936041484,8.08965658813982e-05,1.04788297773832e-06,0,0,0,0,0,0,0,0,0,0,0,0,0,0,0,0,0,0,0
"3",0,0.0106255333942665,0.297814629571097,0.33402660106826,0.229355421681907,0.103563497220019,0.0224085932551755,0.00212377936041484,8.08965658813982e-05,1.04788297773832e-06,0,0,0,0,0,0,0,0,0,0,0,0,0,0,0,0,0,0
"4",0,0,0.0106255333942665,0.297814629571097,0.33402660106826,0.229355421681907,0.103563497220019,0.0224085932551755,0.00212377936041484,8.08965658813982e-05,1.04788297773832e-06,0,0,0,0,0,0,0,0,0,0,0,0,0,0,0,0,0
"5",0,0,0,0.0106255333942665,0.297814629571097,0.33402660106826,0.229355421681907,0.103563497220019,0.0224085932551755,0.00212377936041484,8.08965658813982e-05,1.04788297773832e-06,0,0,0,0,0,0,0,0,0,0,0,0,0,0,0,0
"6",0,0,0,0,0.0106255333942665,0.297814629571097,0.33402660106826,0.229355421681907,0.103563497220019,0.0224085932551755,0.00212377936041484,8.08965658813982e-05,1.04788297773832e-06,0,0,0,0,0,0,0,0,0,0,0,0,0,0,0
"7",0,0,0,0,0,0.0106255333942665,0.297814629571097,0.33402660106826,0.229355421681907,0.103563497220019,0.0224085932551755,0.00212377936041484,8.08965658813982e-05,1.04788297773832e-06,0,0,0,0,0,0,0,0,0,0,0,0,0,0
"8",0,0,0,0,0,0,0.0106255333942665,0.297814629571097,0.33402660106826,0.229355421681907,0.103563497220019,0.0224085932551755,0.00212377936041484,8.08965658813982e-05,1.04788297773832e-06,0,0,0,0,0,0,0,0,0,0,0,0,0
"9",0,0,0,0,0,0,0,0.0106255333942665,0.297814629571097,0.33402660106826,0.229355421681907,0.103563497220019,0.0224085932551755,0.00212377936041484,8.08965658813982e-05,1.04788297773832e-06,0,0,0,0,0,0,0,0,0,0,0,0
"10",0,0,0,0,0,0,0,0,0.0106255333942665,0.297814629571097,0.33402660106826,0.229355421681907,0.103563497220019,0.0224085932551755,0.00212377936041484,8.08965658813982e-05,1.04788297773832e-06,0,0,0,0,0,0,0,0,0,0,0
"11",0,0,0,0,0,0,0,0,0,0.0106255333942665,0.297814629571097,0.33402660106826,0.229355421681907,0.103563497220019,0.0224085932551755,0.00212377936041484,8.08965658813982e-05,1.04788297773832e-06,0,0,0,0,0,0,0,0,0,0
"12",0,0,0,0,0,0,0,0,0,0,0.0106255333942665,0.297814629571097,0.33402660106826,0.229355421681907,0.103563497220019,0.0224085932551755,0.00212377936041484,8.08965658813982e-05,1.04788297773832e-06,0,0,0,0,0,0,0,0,0
"13",0,0,0,0,0,0,0,0,0,0,0,0.0106255333942665,0.297814629571097,0.33402660106826,0.229355421681907,0.103563497220019,0.0224085932551755,0.00212377936041484,8.08965658813982e-05,1.04788297773832e-06,0,0,0,0,0,0,0,0
"14",0,0,0,0,0,0,0,0,0,0,0,0,0.0106255333942665,0.297814629571097,0.33402660106826,0.229355421681907,0.103563497220019,0.0224085932551755,0.00212377936041484,8.08965658813982e-05,1.04788297773832e-06,0,0,0,0,0,0,0
"15",0,0,0,0,0,0,0,0,0,0,0,0,0,0.0106255333942665,0.297814629571097,0.33402660106826,0.229355421681907,0.103563497220019,0.0224085932551755,0.00212377936041484,8.08965658813982e-05,1.04788297773832e-06,0,0,0,0,0,0
"16",0,0,0,0,0,0,0,0,0,0,0,0,0,0,0.0106255333942665,0.297814629571097,0.33402660106826,0.229355421681907,0.103563497220019,0.0224085932551755,0.00212377936041484,8.08965658813982e-05,1.04788297773832e-06,0,0,0,0,0
"17",0,0,0,0,0,0,0,0,0,0,0,0,0,0,0,0.0106255333942665,0.297814629571097,0.33402660106826,0.229355421681907,0.103563497220019,0.0224085932551755,0.00212377936041484,8.08965658813982e-05,1.04788297773832e-06,0,0,0,0
"18",0,0,0,0,0,0,0,0,0,0,0,0,0,0,0,0,0.0106255333942665,0.297814629571097,0.33402660106826,0.229355421681907,0.103563497220019,0.0224085932551755,0.00212377936041484,8.08965658813982e-05,1.04788297773832e-06,0,0,0
"19",0,0,0,0,0,0,0,0,0,0,0,0,0,0,0,0,0,0.0106255333942665,0.297814629571097,0.33402660106826,0.229355421681907,0.103563497220019,0.0224085932551755,0.00212377936041484,8.08965658813982e-05,1.04788297773832e-06,0,0
"20",0,0,0,0,0,0,0,0,0,0,0,0,0,0,0,0,0,0,0.0106255333942665,0.297814629571097,0.33402660106826,0.229355421681907,0.103563497220019,0.0224085932551755,0.00212377936041484,8.08965658813982e-05,1.04788297773832e-06,0
"21",0,0,0,0,0,0,0,0,0,0,0,0,0,0,0,0,0,0,0,0.0106255333942665,0.297814629571097,0.33402660106826,0.229355421681907,0.103563497220019,0.0224085932551755,0.00212377936041484,8.08965658813982e-05,1.04788297773832e-06
"22",0,0,0,0,0,0,0,0,0,0,0,0,0,0,0,0,0,0,0,0,0.0106255333942665,0.297814629571097,0.33402660106826,0.229355421681907,0.103563497220019,0.0224085932551755,0.00212377936041484,8.19444488591365e-05
"23",0,0,0,0,0,0,0,0,0,0,0,0,0,0,0,0,0,0,0,0,0,0.0106255333942665,0.297814629571097,0.33402660106826,0.229355421681907,0.103563497220019,0.0224085932551755,0.00220572380927398
"24",0,0,0,0,0,0,0,0,0,0,0,0,0,0,0,0,0,0,0,0,0,0,0.0106255333942665,0.297814629571097,0.33402660106826,0.229355421681907,0.103563497220019,0.0246143170644494
"25",0,0,0,0,0,0,0,0,0,0,0,0,0,0,0,0,0,0,0,0,0,0,0,0.0106255333942665,0.297814629571097,0.33402660106826,0.229355421681907,0.128177814284468
"26",0,0,0,0,0,0,0,0,0,0,0,0,0,0,0,0,0,0,0,0,0,0,0,0,0.0106255333942665,0.297814629571097,0.334028871481379,0.357530965553257
"27",0,0,0,0,0,0,0,0,0,0,0,0,0,0,0,0,0,0,0,0,0,0,0,0,0,0.0106255333942665,0.297964930919537,0.691409535686196
"28",0,0,0,0,0,0,0,0,0,0,0,0,0,0,0,0,0,0,0,0,0,0,0,0,0,0,0.0135275754422476,0.986472424557752
