"","X0","X1","X2","X3","X4","X5","X6","X7","X8","X9","X10","X11","X12","X13","X14","X15","X16","X17","X18","X19","X20","X21","X22","X23","X24","X25","X26","X27"
"1",0.0400536844735727,0.0982769305601925,0.151644990055305,0.17891921970461,0.172138037573358,0.140423564553268,0.0992314652642301,0.0611667523691251,0.0330106207921637,0.0156111848847058,0.00641519169719084,0.00225756127626466,0.000664842869848101,0.00015598324423617,2.67652548776831e-05,3.00512713522013e-06,1.94165482729035e-07,6.06408060696471e-09,7.03489629578272e-11,0,0,0,0,0,0,0,0,0
"2",0.00750046655806546,0.041687245829992,0.0985365695319706,0.150303477466038,0.176707919328353,0.170250825620904,0.138880918866724,0.0981151636990775,0.0605018806620646,0.0326552959186496,0.0154386392797695,0.00634473580380932,0.00223380161751529,0.00065842282348857,0.000154776056031813,2.66555104954689e-05,3.00512713522013e-06,1.94165482729035e-07,6.06408060696471e-09,7.03489629578272e-11,0,0,0,0,0,0,0,0
"3",0.000494625246931595,0.00740370859441327,0.0415926681213998,0.0983938213558785,0.150200716484679,0.176675105758071,0.170234418835763,0.13887378548188,0.0981137370221087,0.0605018806620646,0.0326552959186496,0.0154386392797695,0.00634473580380932,0.00223380161751529,0.00065842282348857,0.000154776056031813,2.66555104954689e-05,3.00512713522013e-06,1.94165482729035e-07,6.06408060696471e-09,7.03489629578272e-11,0,0,0,0,0,0,0
"4",9.98673878149316e-06,0.000491058554509633,0.00740156857896009,0.0415898147674622,0.0983923946789098,0.150200716484679,0.176675105758071,0.170234418835763,0.13887378548188,0.0981137370221087,0.0605018806620646,0.0326552959186496,0.0154386392797695,0.00634473580380932,0.00223380161751529,0.00065842282348857,0.000154776056031813,2.66555104954689e-05,3.00512713522013e-06,1.94165482729035e-07,6.06408060696471e-09,7.03489629578272e-11,0,0,0,0,0,0
"5",0,9.98673878149316e-06,0.000491058554509633,0.00740156857896009,0.0415898147674622,0.0983923946789098,0.150200716484679,0.176675105758071,0.170234418835763,0.13887378548188,0.0981137370221087,0.0605018806620646,0.0326552959186496,0.0154386392797695,0.00634473580380932,0.00223380161751529,0.00065842282348857,0.000154776056031813,2.66555104954689e-05,3.00512713522013e-06,1.94165482729035e-07,6.06408060696471e-09,7.03489629578272e-11,0,0,0,0,0
"6",0,0,9.98673878149316e-06,0.000491058554509633,0.00740156857896009,0.0415898147674622,0.0983923946789098,0.150200716484679,0.176675105758071,0.170234418835763,0.13887378548188,0.0981137370221087,0.0605018806620646,0.0326552959186496,0.0154386392797695,0.00634473580380932,0.00223380161751529,0.00065842282348857,0.000154776056031813,2.66555104954689e-05,3.00512713522013e-06,1.94165482729035e-07,6.06408060696471e-09,7.03489629578272e-11,0,0,0,0
"7",0,0,0,9.98673878149316e-06,0.000491058554509633,0.00740156857896009,0.0415898147674622,0.0983923946789098,0.150200716484679,0.176675105758071,0.170234418835763,0.13887378548188,0.0981137370221087,0.0605018806620646,0.0326552959186496,0.0154386392797695,0.00634473580380932,0.00223380161751529,0.00065842282348857,0.000154776056031813,2.66555104954689e-05,3.00512713522013e-06,1.94165482729035e-07,6.06408060696471e-09,7.03489629578272e-11,0,0,0
"8",0,0,0,0,9.98673878149316e-06,0.000491058554509633,0.00740156857896009,0.0415898147674622,0.0983923946789098,0.150200716484679,0.176675105758071,0.170234418835763,0.13887378548188,0.0981137370221087,0.0605018806620646,0.0326552959186496,0.0154386392797695,0.00634473580380932,0.00223380161751529,0.00065842282348857,0.000154776056031813,2.66555104954689e-05,3.00512713522013e-06,1.94165482729035e-07,6.06408060696471e-09,7.03489629578272e-11,0,0
"9",0,0,0,0,0,9.98673878149316e-06,0.000491058554509633,0.00740156857896009,0.0415898147674622,0.0983923946789098,0.150200716484679,0.176675105758071,0.170234418835763,0.13887378548188,0.0981137370221087,0.0605018806620646,0.0326552959186496,0.0154386392797695,0.00634473580380932,0.00223380161751529,0.00065842282348857,0.000154776056031813,2.66555104954689e-05,3.00512713522013e-06,1.94165482729035e-07,6.06408060696471e-09,7.03489629578272e-11,0
"10",0,0,0,0,0,0,9.98673878149316e-06,0.000491058554509633,0.00740156857896009,0.0415898147674622,0.0983923946789098,0.150200716484679,0.176675105758071,0.170234418835763,0.13887378548188,0.0981137370221087,0.0605018806620646,0.0326552959186496,0.0154386392797695,0.00634473580380932,0.00223380161751529,0.00065842282348857,0.000154776056031813,2.66555104954689e-05,3.00512713522013e-06,1.94165482729035e-07,6.06408060696471e-09,7.03489629578272e-11
"11",0,0,0,0,0,0,0,9.98673878149316e-06,0.000491058554509633,0.00740156857896009,0.0415898147674622,0.0983923946789098,0.150200716484679,0.176675105758071,0.170234418835763,0.13887378548188,0.0981137370221087,0.0605018806620646,0.0326552959186496,0.0154386392797695,0.00634473580380932,0.00223380161751529,0.00065842282348857,0.000154776056031813,2.66555104954689e-05,3.00512713522013e-06,1.94165482729035e-07,6.13442956992254e-09
"12",0,0,0,0,0,0,0,0,9.98673878149316e-06,0.000491058554509633,0.00740156857896009,0.0415898147674622,0.0983923946789098,0.150200716484679,0.176675105758071,0.170234418835763,0.13887378548188,0.0981137370221087,0.0605018806620646,0.0326552959186496,0.0154386392797695,0.00634473580380932,0.00223380161751529,0.00065842282348857,0.000154776056031813,2.66555104954689e-05,3.00512713522013e-06,2.00299912298958e-07
"13",0,0,0,0,0,0,0,0,0,9.98673878149316e-06,0.000491058554509633,0.00740156857896009,0.0415898147674622,0.0983923946789098,0.150200716484679,0.176675105758071,0.170234418835763,0.13887378548188,0.0981137370221087,0.0605018806620646,0.0326552959186496,0.0154386392797695,0.00634473580380932,0.00223380161751529,0.00065842282348857,0.000154776056031813,2.66555104954689e-05,3.20542704751908e-06
"14",0,0,0,0,0,0,0,0,0,0,9.98673878149316e-06,0.000491058554509633,0.00740156857896009,0.0415898147674622,0.0983923946789098,0.150200716484679,0.176675105758071,0.170234418835763,0.13887378548188,0.0981137370221087,0.0605018806620646,0.0326552959186496,0.0154386392797695,0.00634473580380932,0.00223380161751529,0.00065842282348857,0.000154776056031813,2.9860937542988e-05
"15",0,0,0,0,0,0,0,0,0,0,0,9.98673878149316e-06,0.000491058554509633,0.00740156857896009,0.0415898147674622,0.0983923946789098,0.150200716484679,0.176675105758071,0.170234418835763,0.13887378548188,0.0981137370221087,0.0605018806620646,0.0326552959186496,0.0154386392797695,0.00634473580380932,0.00223380161751529,0.00065842282348857,0.000184636993574801
"16",0,0,0,0,0,0,0,0,0,0,0,0,9.98673878149316e-06,0.000491058554509633,0.00740156857896009,0.0415898147674622,0.0983923946789098,0.150200716484679,0.176675105758071,0.170234418835763,0.13887378548188,0.0981137370221087,0.0605018806620646,0.0326552959186496,0.0154386392797695,0.00634473580380932,0.00223380161751529,0.000843059817063371
"17",0,0,0,0,0,0,0,0,0,0,0,0,0,9.98673878149316e-06,0.000491058554509633,0.00740156857896009,0.0415898147674622,0.0983923946789098,0.150200716484679,0.176675105758071,0.170234418835763,0.13887378548188,0.0981137370221087,0.0605018806620646,0.0326552959186496,0.0154386392797695,0.00634473580380932,0.00307686143457866
"18",0,0,0,0,0,0,0,0,0,0,0,0,0,0,9.98673878149316e-06,0.000491058554509633,0.00740156857896009,0.0415898147674622,0.0983923946789098,0.150200716484679,0.176675105758071,0.170234418835763,0.13887378548188,0.0981137370221087,0.0605018806620646,0.0326552959186496,0.0154386397722122,0.00942159674594524
"19",0,0,0,0,0,0,0,0,0,0,0,0,0,0,0,9.98673878149316e-06,0.000491058554509633,0.00740156857896009,0.0415898147674622,0.0983923946789098,0.150200716484679,0.176675105758071,0.170234418835763,0.13887378548188,0.0981137370221087,0.0605018806620646,0.0326553359050002,0.0248601965318069
"20",0,0,0,0,0,0,0,0,0,0,0,0,0,0,0,0,9.98673878149316e-06,0.000491058554509633,0.00740156857896009,0.0415898147674622,0.0983923946789098,0.150200716484679,0.176675105758071,0.170234418835763,0.13887378548188,0.0981137370221087,0.0605030342255995,0.0575143788732723
"21",0,0,0,0,0,0,0,0,0,0,0,0,0,0,0,0,0,9.98673878149316e-06,0.000491058554509633,0.00740156857896009,0.0415898147674622,0.0983923946789098,0.150200716484679,0.176675105758071,0.170234418835763,0.13887378548188,0.0981285339251666,0.118002616195814
"22",0,0,0,0,0,0,0,0,0,0,0,0,0,0,0,0,0,0,9.98673878149316e-06,0.000491058554509633,0.00740156857896009,0.0415898147674622,0.0983923946789098,0.150200716484679,0.176675105758071,0.170234419820648,0.138972199335837,0.216032735282138
"23",0,0,0,0,0,0,0,0,0,0,0,0,0,0,0,0,0,0,0,9.98673878149316e-06,0.000491058554509633,0.00740156857896009,0.0415898147674622,0.0983923946789098,0.150200716484679,0.176675182776115,0.170628729266095,0.354610548154484
"24",0,0,0,0,0,0,0,0,0,0,0,0,0,0,0,0,0,0,0,0,9.98673878149316e-06,0.000491058554509633,0.00740156857896009,0.0415898147674622,0.0983923946789098,0.150202789602958,0.177830804742735,0.52408158233568
"25",0,0,0,0,0,0,0,0,0,0,0,0,0,0,0,0,0,0,0,0,0,9.98673878149316e-06,0.000491058554509633,0.00740156857896009,0.0415898147674622,0.0984155292120844,0.153154890271708,0.698937151876492
"26",0,0,0,0,0,0,0,0,0,0,0,0,0,0,0,0,0,0,0,0,0,0,9.98673878149316e-06,0.000491058554509633,0.00740157071287863,0.041710329665014,0.105194305697234,0.845192748631581
"27",0,0,0,0,0,0,0,0,0,0,0,0,0,0,0,0,0,0,0,0,0,0,0,9.98673878149316e-06,0.000491199819917183,0.00774045282479202,0.0546915204068218,0.937066840209687
"28",0,0,0,0,0,0,0,0,0,0,0,0,0,0,0,0,0,0,0,0,0,0,0,0,1.27143134632249e-05,0.00119598377192533,0.0285537283309588,0.970237573583653
