"","X0","X1","X2","X3","X4","X5","X6","X7","X8","X9","X10","X11","X12","X13","X14","X15","X16","X17","X18","X19","X20","X21","X22","X23","X24","X25","X26","X27","X28","X29","X30","X31","X32","X33","X34","X35","X36"
"1",0.212483173792264,0.234377800650751,0.169911530284613,0.118644606198071,0.0807910573136946,0.0555174041324161,0.0390691930011778,0.0278782208464006,0.0198693090353643,0.0139820825199646,0.00965266874945925,0.00651668728031102,0.0042956317246243,0.00276253431484407,0.00173269070289745,0.00105984907416228,0.000632321182446773,0.000368058888145637,0.000209087589969782,0.000115965413617247,6.28167529955632e-05,3.32443424137156e-05,1.71944937759762e-05,8.69375252725552e-06,4.29803323123802e-06,2.07805391405e-06,9.8272199539026e-07,4.54608222338268e-07,2.05734804313624e-07,9.10877970322556e-08,3.94549664361845e-08,1.67198080471928e-08,6.93182968470337e-09,2.81173673257411e-09,1.1206753128942e-09,4.3562752904767e-10,2.48485028427967e-10
"2",0.203508795203095,0.225334505263315,0.164796928333354,0.116912731217755,0.0816027951042004,0.0579272230720096,0.0422798948752126,0.0313137858598854,0.0231470635227401,0.0168759659138625,0.0120580669793523,0.00841709616695482,0.00573145661622987,0.00380436342481653,0.00246099111842505,0.00155157289814607,0.000953612308732407,0.000571557570347305,0.000334203298709065,0.000190723416394883,0.000106270724332184,5.78361948337049e-05,3.07541896510806e-05,1.59826703897567e-05,8.1196326058216e-06,4.03317569655515e-06,1.95904781593353e-06,9.30629780117448e-07,4.32389576593343e-07,1.96498731339328e-07,8.73454817530377e-08,3.79769958670244e-08,1.61512346253411e-08,6.71938874205212e-09,2.74750371327319e-09,1.09541893115815e-09,6.47026436531012e-10
"3",0.19034826880671,0.211996901273199,0.157119697790557,0.114111417963836,0.0824971099033878,0.0611921990961266,0.0467970221501516,0.0362651827753536,0.027972776346756,0.021225752301188,0.0157490681490015,0.0113940143471835,0.00802731067356287,0.00550448916482757,0.0036736029188823,0.00238664443820177,0.00150996575785504,0.000930750959620714,0.000559251262282117,0.000327724271708322,0.000187391410186289,0.000104598335636587,5.70174426597407e-05,3.03633545071629e-05,1.5800796901865e-05,8.0371362786161e-06,3.99670245928183e-06,1.94333010740197e-06,9.24027681365742e-07,4.29686748429284e-07,1.95420827986065e-07,8.69275441146366e-08,3.7820716705952e-08,1.60966791336681e-08,6.73598097693651e-09,2.74835503668195e-09,1.67633904546499e-09
"4",0.174462258662713,0.195752920106444,0.147516019878214,0.110228844939825,0.0830018756570155,0.0645989350183521,0.0518524970386554,0.042038275075505,0.033797485623659,0.0266509181228578,0.0205025256310818,0.0153508032351708,0.0111751256927591,0.00790759487100029,0.00543939554961426,0.00363845956415199,0.00236784530803225,0.00150002935407455,0.000925576360132316,0.000556603046927991,0.000326395279738218,0.000186738505347105,0.000104284731122808,5.68703088714222e-05,3.02959723259611e-05,1.57706899807612e-05,8.0240168891849e-06,3.99112898744599e-06,1.94102295402969e-06,9.23098343971995e-07,4.29324355739647e-07,1.95286541579016e-07,8.68839564134053e-08,3.78137885209453e-08,1.61888641964574e-08,6.75730376473466e-09,4.25444434494426e-09
"5",0.156725092871595,0.177418059074429,0.136329557534152,0.105197248830685,0.0827530609943759,0.0676253930395865,0.0568890474178619,0.0481309062264008,0.0402294781423758,0.0328929137553184,0.0261892433374295,0.0202657742693523,0.0152300055540893,0.0111139613580765,0.00787682719442171,0.00542399429338476,0.00363078400574378,0.00236404030422314,0.00149815688212137,0.000924663977190166,0.000556164021409571,0.000326187172232412,0.000186641533691025,0.000104240392555882,5.68504458550394e-05,3.02872654432875e-05,1.5766960585078e-05,8.02245954490162e-06,3.9904979017124e-06,1.94077839971346e-06,9.23013249402879e-07,4.29305677352494e-07,1.9529800956647e-07,8.69119867616143e-08,3.80650461269064e-08,1.62532957296092e-08,1.05623046602608e-08
"6",0.13804097681149,0.157859505288483,0.123970048144197,0.099023075981893,0.0814522696548849,0.0697878330422047,0.0613478773045041,0.0539980043979518,0.0468018967033704,0.0396017935633471,0.0325897121264896,0.0260419583625527,0.0201947310591587,0.0151961253001572,0.0110979668133134,0.00786932835989601,0.00542049283364886,0.00362915334275874,0.00236328296021347,0.00149780656428083,0.000924502921846406,0.000556090605115647,0.000326154070720191,0.000186626807384809,0.000104233944190619,5.68476753438937e-05,3.0286103988538e-05,1.57664930320581e-05,8.02228665170951e-06,3.99045021606631e-06,1.94078841336554e-06,9.23054760194663e-07,4.29370530224226e-07,1.95383374156232e-07,8.75437026247837e-08,3.82381117243798e-08,2.56478233989318e-08
"7",0.119201114945402,0.137861402104425,0.110853776202508,0.0917935405678768,0.0789221403607032,0.0707235621366453,0.0647583224070962,0.0591316123419488,0.0530320291610941,0.0463699676733457,0.0394035753560798,0.0324980004884172,0.0259998737648166,0.0201757239724337,0.0151876811417748,0.0110942660703444,0.00786772255114958,0.00541980087445135,0.00362885667238943,0.00236315630223888,0.00149775271765555,0.000924480139057943,0.000556081022426858,0.000326150072908924,0.000186625162584015,0.000104233288161418,5.68474360351021e-05,3.02860462139057e-05,1.57665170572955e-05,8.02235414932673e-06,3.99055434017326e-06,1.94092938433438e-06,9.23236951962221e-07,4.29593184960814e-07,1.96927961618942e-07,8.79918419245016e-08,6.09149449989464e-08
"8",0.100910291146288,0.118152213069857,0.0974207725030344,0.0836875352099671,0.0751166322956492,0.070205303241605,0.0667572092081393,0.0630817547429216,0.0584375247661698,0.0527377792782219,0.0462413006105968,0.0393465405997193,0.0324728792495283,0.025989004423152,0.0201711184776424,0.0151857673802597,0.0110934838820152,0.00786740726412807,0.00541967532744248,0.00362880725331036,0.0023631370755267,0.00149774533098773,0.000924477345749178,0.000556079996797135,0.000326149729838287,0.000186625092752214,0.000104233340384706,5.68475630971647e-05,3.02862242307359e-05,1.57667432647386e-05,8.02264950487495e-06,3.99093271835961e-06,1.94140298880625e-06,9.23795873946557e-07,4.33283136842623e-07,1.98054551119391e-07,1.41508950438653e-07
"9",0.0837462099964147,0.0993601295517861,0.0841040304329065,0.0749594304000995,0.0701217645264735,0.0681605751277111,0.0671257702559223,0.0655056600554873,0.0625890896285461,0.0582395731509737,0.0526552921963026,0.0462061816919927,0.0393316114973214,0.0324666382583199,0.0259864528880214,0.0201700978839975,0.0151853668852703,0.0110933292684175,0.00786734844365863,0.00541965327574552,0.00362879912488338,0.00236313415124842,0.00149774433389191,0.000924477068665242,0.000556080011398333,0.000326149893757025,0.000186625363836715,0.000104233727821277,5.68480536115759e-05,3.02868276037126e-05,1.57675170416676e-05,8.0236248969813e-06,3.99212919539187e-06,1.94277151435631e-06,9.32413568456038e-07,4.36035974384283e-07,3.21535723840743e-07
"10",0.0681360136242516,0.0819817266883574,0.0712989747892967,0.0659114846368776,0.0641367878949558,0.0646682565820403,0.0658059424939399,0.066203514572157,0.0651601327956068,0.0624576917046388,0.0581875133267494,0.0526340248548699,0.046197447616868,0.039328074815638,0.0324652379599667,0.0259859111714815,0.0201698925418735,0.0151852903463868,0.0110933011460648,0.00786733826281662,0.00541964967514121,0.00362879792941656,0.00236313385881843,0.0014977444262813,0.000924477392219756,0.000556080540157572,0.000326150637556524,0.000186626384485586,0.000104235002887252,5.68496082420786e-05,3.02887993509e-05,1.57699674789813e-05,8.02657433252947e-06,3.99540086600979e-06,1.96244602304862e-06,9.38953649821437e-07,7.14578256297428e-07
"11",0.0543490894383414,0.0663649348057392,0.0593370665077741,0.0568606762620035,0.0574414831668143,0.0599354842381275,0.0628948243714879,0.0651347153600092,0.0659638037897322,0.0650739604151645,0.0624253290368024,0.0581748582238079,0.0526290074240801,0.0461954785573429,0.0393273190586651,0.0324649549796682,0.0259858075464897,0.0201698552811286,0.0151852771607642,0.0110932965868325,0.00786733680010356,0.00541964937153505,0.00362879814966393,0.00236313443681457,0.00149774537915093,0.000924478794422712,0.000556082460730775,0.00032615323993121,0.000186629612133157,0.000104238908899975,5.6854508630042e-05,3.02948035831252e-05,1.57770624452635e-05,8.03420950871399e-06,4.03930437875073e-06,1.97755413870246e-06,1.55319315529179e-06
"12",0.0425053218543626,0.0527074697792898,0.0484676137621689,0.0481063586082183,0.0503567391571015,0.054260671297057,0.0586196382685321,0.0624121461874686,0.0649700393997457,0.0659078704913613,0.0650541107696683,0.0624179218826534,0.058172026656961,0.0526279301523537,0.0461950773741668,0.0393271735769904,0.0324649035487861,0.0259857897791192,0.0201698493221886,0.0151852753378086,0.0110932963015588,0.00786733723140739,0.00541965035731135,0.0036287997731642,0.00236313690770096,0.00149774893468375,0.000924483614087539,0.000556088931713952,0.000326161212305603,0.000186639187526577,0.000104250789302656,5.68688581853799e-05,3.03114558998062e-05,1.57944514530644e-05,8.12995062931019e-06,4.07323874603889e-06,3.3015983223799e-06
"13",0.0325961275079461,0.041069649601011,0.0388500147384244,0.0399039052119201,0.0432054540552127,0.0479899683731199,0.0532988915142104,0.0582766731273759,0.0623000430834858,0.0649340479708367,0.0658958356397029,0.0650498405923591,0.0624163508425197,0.0581714471254628,0.0526277204881225,0.0461950036598902,0.039327148459357,0.0324648953328184,0.0259857873826854,0.0201698490565408,0.0151852761086028,0.0110932979129858,0.00786733990272859,0.00541965449409288,0.00362880593992109,0.00236314568561421,0.00149776073759879,0.000924499321072429,0.000556108151686082,0.000326184117589866,0.000186667285055974,0.000104284237951888,5.6906985425563e-05,3.03500914688015e-05,1.59984383852184e-05,8.20404563971826e-06,6.86278117942221e-06
"14",0.0245131089309072,0.0313973954698657,0.0305559018809115,0.0324472817858665,0.0362795284382167,0.0414747067915343,0.0472975662897415,0.0530581367856507,0.0582010275020477,0.0622770543463923,0.0649268218963973,0.0658934077405907,0.065048983145073,0.062416044250648,0.0581713392643802,0.0526276837342933,0.046194991735515,0.0393271450746203,0.0324648950523414,0.0259857886239611,0.0201698516337,0.015185280358816,0.0110933046151929,0.00786735009081014,0.00541966949718814,0.00362882709769133,0.00236317390998827,0.00149779796035448,0.000924544548781844,0.000556161617782927,0.000326248942016614,0.0001867433272911,0.000104369379869409,5.69906959570203e-05,3.07746008344515e-05,1.61556586157813e-05,1.39473261559659e-05
"15",0.0180791897476182,0.0235505809348825,0.0235791776286497,0.0258613654802384,0.0298164904379475,0.0350357300845697,0.0409838512649577,0.0471306563825361,0.0530075421834753,0.0581864390227391,0.0622727501414804,0.0649254585145616,0.0658929472114177,0.0650488237562453,0.0624159898004384,0.0581713214952144,0.0526276786904344,0.0461949913496481,0.0393271469745523,0.0324648989844649,0.0259857952756094,0.02016986215463,0.0151852966593454,0.0110933290912017,0.00786738574020253,0.00541971930679384,0.00362889300841284,0.00236326003391293,0.00149790184237959,0.00092466632864132,0.000556307507417725,0.000326417530323168,0.000186928720288012,0.000104546163788822,5.78532787536337e-05,3.10986194431958e-05,2.77086527849626e-05
"16",0.0130781471454349,0.0173324014492487,0.0178512560814897,0.0202031225838813,0.0239869506281597,0.0289381227224878,0.0346931630097483,0.0408696236842962,0.0470971272086372,0.052998339983331,0.0581838916055168,0.0622719928368947,0.0649252150680075,0.0658928660210399,0.0650487971837916,0.0624159821524822,0.0581713208431718,0.0526276814994078,0.0461949972227369,0.0393271569814236,0.0324649152304422,0.0259858205629023,0.0201699008396622,0.0151853540923059,0.0110934118393557,0.00786750027060815,0.00541986960994034,0.00362908755425563,0.0023634929181019,0.00149817248773225,0.000924986578923333,0.000556671956144175,0.000326811042205097,0.000187292402016774,0.000106256791134912,5.85013879252875e-05,5.37985251574036e-05
"17",0.00927980285227955,0.0125164309951189,0.0132587284330324,0.0154696318984905,0.0188921445938548,0.0233774408417416,0.028702827385599,0.034616034664253,0.0408476205204486,0.0470913571499989,0.0529968399985378,0.0581834749076514,0.0622718663402943,0.0649251750777722,0.0658928544513458,0.0650487960438279,0.0624159861786618,0.0581713294543015,0.0526276962743892,0.0461950213886504,0.0393271955344684,0.0324649745339996,0.0259859102236808,0.0201700324767701,0.0151855417057737,0.01109366902962,0.00786783494551593,0.00542029862117316,0.00362959707965977,0.0023640797442413,0.0014988580986307,0.000925754643715706,0.000557485875761046,0.00032753933531122,0.000190601587389066,0.000107513667829786,0.000102053446210821
"18",0.00645944923928216,0.00886919615085576,0.00966100325704472,0.0116104361271709,0.0145695225984551,0.0184765872835754,0.0232184254563893,0.0286514731094752,0.0346017466798013,0.0408440253903681,0.0470904777563041,0.0529966128003052,0.0581834109195543,0.0622718486047587,0.0649251730784113,0.0658928600902551,0.0650488083877829,0.0624160075952067,0.0581713647111895,0.0526277529554319,0.0461951106329551,0.039327331314938,0.0324651774705348,0.0259862048889277,0.0201704479131698,0.0151861056772603,0.0110943965861895,0.00786875839129261,0.00542138645132301,0.00363083826544482,0.00236551097221415,0.00150043570490049,0.000927394374432681,0.000558904323250408,0.000333779782619639,0.000192961447350951,0.000189073611579382
"19",0.00441119259156053,0.00616721695782436,0.00690606996531338,0.0085417277170159,0.0110037249336994,0.0142911687230308,0.0183708778765499,0.0231847253939195,0.0286422998426783,0.0345995225692887,0.0408435122695911,0.047090355669067,0.052996582961318,0.0581834071913734,0.0622718562281878,0.0649251903984638,0.0658928904263934,0.0650488588080879,0.0624160892352932,0.0581714943116698,0.0526279545629954,0.0461954141100649,0.0393277797820281,0.0324658215298962,0.0259871031392954,0.0201716553193247,0.0151876495985806,0.0110963364746576,0.007871024321999,0.0054239467629617,0.00363375082138362,0.00236866808876579,0.00150365153492711,0.000930078247757674,0.000570367183287859,0.000338061134571775,0.000341973317177345
"20",0.00295570283122353,0.0042083969633495,0.00484323279356882,0.0061602720143928,0.00814024188941742,0.0108205554803629,0.0142220592022719,0.0183490926315967,0.0231789074813309,0.0286409354699428,0.0345992256726496,0.0408434496332506,0.04709034709149,0.0529965927099759,0.0581834307812802,0.0622718982280422,0.0649252607705607,0.0658930054955733,0.0650490429575448,0.0624163782384937,0.0581719387124068,0.0526286165391068,0.0461963815057568,0.0393291540231679,0.0324677175372777,0.0259896263082507,0.0201748527543456,0.0151916257848457,0.0111009402811506,0.0078761737496533,0.00542972282607066,0.00363990377520487,0.00237480355327509,0.00150857807679897,0.000950567540458154,0.000577852275773452,0.000603516420139471
"21",0.00194335023464077,0.00281831866257284,0.00333233061675484,0.00435556698293597,0.0058994328948136,0.00802183557742733,0.0107761308894178,0.0142081925565554,0.0183454511356383,0.0231780797057278,0.0286407677172512,0.0345992000069782,0.0408434602761741,0.0470903781668436,0.0529966491616991,0.0581835266274901,0.0622720563034772,0.0649255163972254,0.0658934103117873,0.0650496713851937,0.0624173338039315,0.0581733475303127,0.0526306528731193,0.0461992431171416,0.0393330597813938,0.0324728628643744,0.0259960869034096,0.0201828025159086,0.015200746649342,0.0111110347272533,0.00788733209322089,0.00544139460387958,0.0036512818024112,0.00238356078013729,0.00154417329853226,0.000963129435496317,0.00103863160953192
"22",0.001253917960401,0.00185240079299332,0.00224950478321182,0.00301938235287696,0.00418918708662615,0.00582424606764789,0.00799376258837983,0.0107674442596943,0.0142059463335808,0.0183449579131079,0.0231779929750739,0.0286407723981641,0.0345992388524016,0.0408435338812561,0.0470905048099032,0.0529968607308788,0.0581838720082664,0.0622726093657881,0.0649263835305148,0.065894742365177,0.0650516749595482,0.0624202579813946,0.0581775287722813,0.052636466012994,0.0462070925144425,0.0393432950407138,0.0324855944049809,0.0260115849572941,0.0202004153950197,0.0152200250235178,0.0111320216292241,0.00790886730767157,0.00546188219847073,0.00366632015383875,0.00244357217672261,0.00156429547224105,0.00174184494370144
"23",0.000794068016482869,0.00119503002197397,0.00148995810159328,0.00205239821964806,0.00291518322654032,0.0041422914283275,0.0058068101161076,0.00798841062176984,0.0107660830671672,0.014205664559368,0.0183449304629714,0.023178036206203,0.0286408648828095,0.0345994011323799,0.0408438083045056,0.0470909587030296,0.0529975951088497,0.0581850370704305,0.0622744185299348,0.0649291346387434,0.0658988369484077,0.0650575917971687,0.062428628925454,0.058189043837204,0.0526518488649277,0.0462269447639949,0.0393677535548179,0.0325150408159157,0.0260447196686432,0.0202362648031936,0.015258430469666,0.0111706357788333,0.00794463929866216,0.00548675073784188,0.00376432200586607,0.00247406488555756,0.00284440042501068
"24",0.000493582717629153,0.000756747494160764,0.000968357312371741,0.00136810569765876,0.00198832620796622,0.00288645441950498,0.00413165106952865,0.00580357184167668,0.00798760811974536,0.0107659433504732,0.0142056968719486,0.0183450405394014,0.0231782371270128,0.0286412096381,0.0345999784538493,0.0408447550838812,0.0470924776650083,0.0529999834049242,0.0581887114187141,0.0622799514591169,0.0649372856956609,0.0659105012093838,0.0650739224585153,0.0624508583367378,0.0582184243525735,0.0526893721065004,0.0462727243834896,0.0394222496006286,0.0325757319181167,0.0261095861578376,0.0203045904356347,0.015325646086948,0.0112311004846771,0.00798406568106762,0.00564140280031369,0.00380738660556225,0.00451876179368119
"25",0.000301175043835281,0.000470416310587795,0.00061759146708049,0.000894414931790797,0.0013294236199821,0.00197104281082105,0.00288007940505066,0.00412973553044057,0.00580312750104794,0.00798758189359139,0.0107660615976874,0.0142059355391958,0.0183454587075485,0.0231789470425083,0.0286423890257978,0.0346018972696688,0.0408478087392985,0.0470972379078734,0.0530072417284076,0.0581995385064872,0.0622957446971376,0.0649596712691467,0.0659415226666288,0.0651157123557223,0.0625055077072334,0.0582874891957884,0.0527727966043998,0.0463708892420573,0.0395303985956518,0.0326898416914844,0.0262276447938889,0.0204180299754502,0.0154243798311283,0.0112906438202472,0.00821917177740163,0.00569649789588018,0.00697695330205238
"26",0.000180417135213994,0.000287081582810299,0.000386548401669064,0.00057354702427839,0.00087148764679097,0.00131921742375029,0.00196730203430453,0.00287898869873775,0.00412953808361483,0.00580322436255493,0.00798785007726521,0.010766549161595,0.0142067768885856,0.0183468760535406,0.02318128459878,0.028646163563459,0.0346078579238752,0.0408570245318066,0.04711116989071,0.053027836099301,0.0582292933573175,0.0623375284491775,0.0650169959685181,0.0660179583059042,0.0652146177202612,0.0626291854423447,0.0584353684111862,0.0529447512356672,0.0465582027881977,0.0397253609016653,0.0328877330213579,0.02641297971854,0.0205733740460513,0.0155092087654818,0.011633570344811,0.00827893590251581,0.0104581944383602
"27",0.000106115674575463,0.000172010251909264,0.00023745438068484,0.000360796435473035,0.00056021012850065,0.000865580857015273,0.0013170852013287,0.00196673823059916,0.00287899645403726,0.0041298130895924,0.00580376767874974,0.00798880760033059,0.0107681873146045,0.0142095179713234,0.018351365940424,0.0231884829004661,0.0286574474935731,0.0346251677396913,0.0408829785926566,0.0471492029607927,0.0530822827534218,0.0583050599995632,0.0624404606025994,0.0651528637487264,0.0661919321688149,0.0654298614459431,0.0628838925073684,0.0587279607801295,0.0532597250463738,0.0468813331867869,0.0400467006730544,0.0331803090086938,0.0266476888871481,0.0206855373341526,0.0159864881717422,0.0116769682966704,0.0152012084924838
"28",6.12872361691735e-05,0.000101197266773714,0.000143177340899452,0.000222678877674831,0.000353191061646161,0.00055687707474556,0.000864433933767496,0.00131689064403909,0.00196697342760625,0.00287956818950576,0.00413085582501064,0.00580558228851671,0.00799189162619741,0.0107733156929024,0.0142178641701663,0.0183646564217871,0.0232091713220856,0.0286889477823672,0.0346720294308332,0.0409510794440088,0.0472458332465807,0.0532155690469983,0.0584844092056701,0.06267485543385,0.0654498925598114,0.0665555136727493,0.0658555830553536,0.0633668756828061,0.0592414747186197,0.0537785021584766,0.0473859899518108,0.040491985574511,0.0335193642345066,0.0267811504338454,0.0213144079203529,0.0159685716593904,0.0213983523879656
"29",3.47621485068197e-05,5.84660100261169e-05,8.47520053567051e-05,0.000134865921281801,0.000218443684470773,0.000351389674836256,0.000556359965553931,0.000864557957531091,0.00131744790762244,0.00196805690386026,0.00288149394540982,0.00413418177262686,0.00581120107807245,0.00800117890928383,0.0107883357207618,0.0142416249924459,0.0184013916518889,0.0232646992734645,0.0287709248911839,0.034790196486517,0.0411173044607895,0.0474731277788991,0.0535185370243141,0.058876472741584,0.0631665436101263,0.0660452753329577,0.0672451433942233,0.0666279702285383,0.0641773939631143,0.0600469196203319,0.0545434658988811,0.0480374333285254,0.0409572745610526,0.0336519219748715,0.0275558642234333,0.0211525156410138,0.029132505316644
"30",1.93681856020986e-05,3.31790021756426e-05,4.92641647356267e-05,8.01832287032439e-05,0.000132592800310846,0.000217571316140876,0.000351330501679965,0.000556846825306299,0.000865627048927372,0.00131940524480554,0.00197149633541841,0.00288739707354117,0.00414409551505443,0.00582748864353964,0.00802735483282126,0.0108294723442964,0.0143047908615108,0.018496181397611,0.0234035768339086,0.0289694997451844,0.0350671359405903,0.04149270360999,0.0479687966493556,0.0541536332991895,0.0596646213225503,0.0641104325552737,0.0671263933606548,0.0684399080294224,0.0678643369633593,0.0653843055587338,0.0611633288708881,0.0554561330270135,0.0486382279838477,0.0410391962616813,0.0345250526208454,0.0271138475393227,0.0383052245060089
"31",1.06062084708914e-05,1.85061124448535e-05,2.81402155347559e-05,4.68364005231626e-05,7.9061022301853e-05,0.000132330020021025,0.000217933381152724,0.000352322667088492,0.000558746184297065,0.000869031417796275,0.00132534324645128,0.00198162712400238,0.00290430924692678,0.00417171095349131,0.00587158760197557,0.00809619872015245,0.0109344576406279,0.0144611939000366,0.0187235858185992,0.0237261146917532,0.0294154720090748,0.0356663968020929,0.0422764800569001,0.0489630528894789,0.0553744460134684,0.0611102852950669,0.0657471739206761,0.0689101834287912,0.0702585210551602,0.0696055639776538,0.0669485288127009,0.0623822734538533,0.0561756578091046,0.0485794316707163,0.0419013381526088,0.0336003791134939,0.0485751729655121
"32",5.72079605156049e-06,1.01686572532477e-05,1.58359293897786e-05,2.69532914743341e-05,4.64493089487494e-05,7.93182401499883e-05,0.000133259033086678,0.000219802261193449,0.000355728070281563,0.000564749375631737,0.000879379131058565,0.00134280527357281,0.00201047143760925,0.00295092627266685,0.00424540371327493,0.00598548281435941,0.00826816884906813,0.0111880956265174,0.0148262624441589,0.0192360638566531,0.024427232023998,0.0303476214293971,0.036871971691136,0.043788151440945,0.05079669988319,0.057518108613221,0.0635052508635274,0.0683164373830498,0.0714847828777168,0.0726682405253124,0.07169631005424,0.0684815653154286,0.0631487028810937,0.0558196801640348,0.0492267713489295,0.040206249830939,0.0593051792914412
"33",3.13761466711314e-06,5.68222950521179e-06,9.0629934245471e-06,1.57738178896071e-05,2.775266147245e-05,4.83538656876353e-05,8.2880957221484e-05,0.000139491175757893,0.000230394740405296,0.000373370864241871,0.000593585286242575,0.000925623626375554,0.00141554893745159,0.00212265677113167,0.00312047857404938,0.00449640014889226,0.00634914807924428,0.00878365904504319,0.0119022705640396,0.0157925388486379,0.0205115847751752,0.0260658573225667,0.0323963054056831,0.0393566877446292,0.0467037224785429,0.0540928298317583,0.061077364971729,0.067180756049159,0.0718465826162002,0.074611610417381,0.0751632761788075,0.0732453401784092,0.0688355037765709,0.0619110480691273,0.0555619299305641,0.0460352978656715,0.0689664915866446
"34",1.67050685277271e-06,3.08660456796236e-06,5.05035821901554e-06,9.00235758804428e-06,1.6195553667524e-05,2.88367028310408e-05,5.05097861333218e-05,8.68839593902058e-05,0.000146697984901261,0.000243074093021564,0.000395195091247112,0.00063033281941272,0.000986134447036831,0.00151295126678839,0.00227587123321955,0.00335588890756624,0.00484945490185924,0.00686583857267146,0.00952087795414451,0.0129270748174408,0.0171792770537079,0.0223337735803358,0.0283915776631941,0.0352705575586402,0.0427877406684132,0.0506444126068974,0.0584118949545588,0.0656014142329008,0.0715914549458,0.0758199744348559,0.0778478273193861,0.0772539191968018,0.0738602669592508,0.0674775458639748,0.0615242949063665,0.0516392965589275,0.0784541435774297
"35",9.19170570009092e-07,1.73603657981221e-06,2.92005503639072e-06,5.34012865504157e-06,9.83849847358545e-06,1.79266915879557e-05,3.21263417946586e-05,5.65376136191052e-05,9.76619535562221e-05,0.000165548935192057,0.00027533121874384,0.000449184693642421,0.000718689724374744,0.00112746299437314,0.00173381442944213,0.00261293434034241,0.00385787791429273,0.00557876503250111,0.00789853693770861,0.0109450103462708,0.0148379921108295,0.0196684448581523,0.0254810826073314,0.0322425095313617,0.039818185189398,0.0479497360277868,0.0562302266522007,0.0641718314670322,0.0711138218968151,0.0764281321211864,0.0795850204935067,0.0800374004424594,0.0774822527664183,0.0715894634313639,0.06602178379702,0.0559295545756687,0.0858243989747132
"36",5.61064251473894e-07,1.08387656212772e-06,1.87448251314113e-06,3.51577086171604e-06,6.62880055204963e-06,1.23475370057348e-05,2.26081729384869e-05,4.06330548153736e-05,7.16519477648439e-05,0.000123938491025343,0.000210242155382565,0.000349680872400793,0.000570112021081213,0.000910904848844263,0.00142593133858228,0.00218633394317822,0.00328236642040465,0.00482373474814432,0.00693665005141536,0.00975721678773931,0.013419624462821,0.0180355909354009,0.0236768317718612,0.0303409490463244,0.0379252676097794,0.0461993294442066,0.0547733695308917,0.0631644505005882,0.0706911853922677,0.0766873740607849,0.0805680915427682,0.081705754104676,0.0797148333010413,0.0741691465909191,0.0688855706779376,0.0586898806708166,0.0906147339714529
"37",4.23874673618167e-07,8.31944235307746e-07,1.4663949759293e-06,2.79708621341175e-06,5.35380296747672e-06,1.01139080803056e-05,1.87686931040474e-05,3.41700902131136e-05,6.1006415286134e-05,0.000106788056887861,0.000183230108576111,0.000308109100398362,0.00050762981796788,0.000819249382194842,0.00129480457796409,0.0020035267129489,0.00303425643824867,0.00449629407270463,0.0065170430064499,0.00923602143074745,0.0127935797204027,0.0173105233572179,0.0228705987411261,0.0294854318092666,0.0370670126069065,0.0453980436496072,0.05409731508458,0.0626851184700274,0.0704717347980928,0.0767746346612193,0.0809845185051778,0.0824372917162911,0.0807093713004467,0.0753294920527868,0.0701841169052204,0.0599485036151053,0.0928108280916888
