"","X0","X1","X2","X3","X4","X5","X6","X7","X8","X9","X10","X11","X12","X13","X14","X15","X16","X17","X18","X19","X20","X21","X22","X23","X24","X25","X26","X27","X28","X29","X30","X31","X32","X33","X34","X35","X36"
"1",0.223148906121691,0.227466137855955,0.169601539258166,0.117757147749733,0.0798323859155698,0.0548882074426761,0.0387470597986303,0.0277108769302031,0.0197645332736008,0.0139007905538543,0.00958394337075619,0.00645879640156891,0.0042485733004106,0.00272590249367548,0.00170539480083618,0.0010403483108004,0.000618934984808993,0.000359209981450283,0.00020344234976427,0.000112482921440489,6.07357506667528e-05,3.20379411136277e-05,1.65151082469104e-05,8.32167942458012e-06,4.0996830609792e-06,1.97504715229537e-06,9.30577946132881e-07,4.28864268151949e-07,1.93333739958377e-07,8.52573705759874e-08,3.67788092570002e-08,1.55203681700977e-08,6.40673045179033e-09,2.58694046249599e-09,1.02222489554676e-09,4.01672867334737e-10,2.24672691290266e-10
"2",0.213585825129776,0.218588642410435,0.164479793644702,0.116085147587424,0.0807347268594698,0.0573846016565359,0.0420291531599046,0.0312019983149581,0.0230826383619238,0.0168212991014155,0.012004523236698,0.00836577840976799,0.00568523046671956,0.00376528805522921,0.00242982021408606,0.00152796893397089,0.000936558822483991,0.000559752458685642,0.00032634591546881,0.000185680313460526,0.000103141951758804,5.59561424341853e-05,2.96582203888847e-05,1.53620218971671e-05,7.77781637421825e-06,3.84993094689066e-06,1.86335473059935e-06,8.81922216593031e-07,4.08213556392621e-07,1.84792706493682e-07,8.18145488074651e-08,3.54263457859168e-08,1.50027135928678e-08,6.21372963553379e-09,2.51830398343175e-09,1.0160453327383e-09,5.88188133226227e-10
"3",0.199574055735622,0.205503684159301,0.156789791788877,0.113363832946,0.0817516908467713,0.0607673308504174,0.0466448856794356,0.0362325265316727,0.0279684173831812,0.0212131118209466,0.0157216094768791,0.0113560082455345,0.00798524400825561,0.00546383404612338,0.00363788387307879,0.00235749075273227,0.00148756818016048,0.000914412333991728,0.000547863739550239,0.000320106227680414,0.000182482396957857,0.000101542804469058,5.51763280701461e-05,2.92875141131131e-05,1.5190261620663e-05,7.7002575299339e-06,3.81580020877628e-06,1.84871714555644e-06,8.75804243047444e-07,4.05721690319936e-07,1.83804228383818e-07,8.14335140643981e-08,3.5284217067587e-08,1.49516084899397e-08,6.20015335775444e-09,2.56275873600348e-09,1.53126089444674e-09
"4",0.182683426414673,0.189582984562914,0.147167056336411,0.10956393793626,0.0823857404489828,0.0642986505884253,0.0518069938504802,0.0420953973504469,0.0338660133178647,0.0266937119754427,0.0205133916967013,0.015335927990757,0.011144094928996,0.00786941626110066,0.00540089857712583,0.00360393430395859,0.00233935111827756,0.00147799553812612,0.000909437454342642,0.000545324178449932,0.000318835531320171,0.00018186021089569,0.000101245047576829,5.5037179982152e-05,2.9224056214373e-05,1.51620333531349e-05,7.68801369562826e-06,3.81062384466142e-06,1.84658516555747e-06,8.74950010637021e-07,4.05390676395387e-07,1.83682787551623e-07,8.13932895590497e-08,3.52730545395448e-08,1.49607938158674e-08,6.33335095691509e-09,3.9042526269199e-09
"5",0.163856081634398,0.171634712585226,0.135955579726057,0.104607248242129,0.0822567123401275,0.0674401202861882,0.056944255249226,0.0482781368995281,0.0403774805013501,0.0330021434906178,0.0262512738163385,0.020286345875294,0.0152201869690601,0.0110855651502673,0.00784000389257297,0.00538618615284337,0.00359660639540244,0.00233572112532819,0.00147621110421913,0.000908569285545685,0.000544907259644667,0.000318638387991939,0.000181768613335377,0.000101203303560479,5.50185473152726e-05,2.92159210665169e-05,1.5158563845325e-05,7.68657177822046e-06,3.81004261587777e-06,1.8463614173845e-06,8.74873527310873e-07,4.0537576146655e-07,1.83691348413482e-07,8.1405834587254e-08,3.53127512689624e-08,1.53100917795924e-08,9.73639552742381e-09
"6",0.144062615779698,0.152515808613454,0.123566936950823,0.0984929266430755,0.0810536665824365,0.0696942589783097,0.0614848570599039,0.0542244872132311,0.0470275810837265,0.0397834299673257,0.0327139931074478,0.026111176223153,0.0202188610657046,0.0151880697258168,0.011070429851993,0.00783291622405591,0.00538287881924685,0.00359506672608473,0.00233500632711687,0.00147588067648174,0.000908417527820216,0.000544838181932873,0.000318607302187005,0.000181754816613875,0.000101197279410831,5.50159677118361e-05,2.92148441066639e-05,1.51581330667588e-05,7.68641410070751e-06,3.81000057522408e-06,1.84637387495804e-06,8.74916955881922e-07,4.05430443546687e-07,1.8373634157153e-07,8.15140740652332e-08,3.61964901456612e-08,2.37452094382033e-08
"7",0.124148347774412,0.13299860097614,0.110420552291746,0.091305522859543,0.0785927782312015,0.0706900908038241,0.0649486701163872,0.0594164971754797,0.0533242911540399,0.0466226254841174,0.0395966296876518,0.0326274425154636,0.026071526816057,0.0202010081773585,0.0151801628604099,0.0110669733551395,0.00783141914959493,0.00538223453111703,0.00359479074675249,0.00233488859357489,0.00147583066289713,0.000908396385476955,0.00054482929862288,0.000318603601091529,0.000181753296871236,0.000101196675370135,5.50157496361868e-05,2.92147950456714e-05,1.51581593814843e-05,7.68648067991007e-06,3.81010477043034e-06,1.84651763738149e-06,8.75073637060216e-07,4.05552848286543e-07,1.84015577482617e-07,8.36962571364334e-08,5.66341905691484e-08
"8",0.104861534483305,0.113797390071348,0.096960361557403,0.0832250121917099,0.0748269381260304,0.0701974737423316,0.066967303027963,0.0633965477913682,0.0587761790802792,0.0530511375654969,0.0465023984913386,0.0395432017483714,0.0326039446173799,0.0260613965156929,0.0201967336444683,0.0151783934694547,0.0110662525450631,0.0078311294079643,0.00538211944098471,0.00359474555165239,0.00233487105305617,0.00147582394117835,0.000908393850613087,0.000544828371423291,0.000318603294340129,0.000181753239087815,0.000101196730763627,5.50158776320193e-05,2.92149701018439e-05,1.51583797759532e-05,7.68677509079114e-06,3.81049056481993e-06,1.84693083453923e-06,8.75390097256313e-07,4.0625297998565e-07,1.8927974310391e-07,1.32103112666882e-07
"9",0.0868105944701493,0.0955248259498652,0.0836232896310961,0.0745096717025462,0.0698457459606782,0.068146312305793,0.0673216726675573,0.0658179706172464,0.0629468490500601,0.0585943780692498,0.0529747554857628,0.0464697413852497,0.0395293285084569,0.032598166071355,0.0260590450273598,0.0201957973327584,0.0151780275068962,0.0110661117450242,0.00783107600878672,0.00538209948444261,0.00359473822139924,0.00233486842741347,0.00147582305236624,0.000908393609976072,0.000544828396007693,0.00031860345749411,0.000181753506383106,0.000101197116239271,5.50163591900466e-05,2.92155587391897e-05,1.51591517981237e-05,7.68777094973526e-06,3.8115478817845e-06,1.84772653470831e-06,8.7710168828046e-07,4.18660065885556e-07,3.01355539808197e-07
"10",0.0704402773620974,0.0786617662747117,0.0708080092630907,0.0654671926708599,0.0638552211089615,0.0646220355909893,0.0659580231397287,0.0664814901691321,0.0655060664239294,0.0628275839760399,0.0585466531776454,0.0529551340606319,0.0464616784816326,0.0395260745183845,0.0325968840661826,0.0260585515675994,0.0201956111060985,0.0151779583446051,0.0110660864105677,0.00783106686421297,0.00538209626224792,0.0035947371590785,0.00233486817665454,0.00147582315182985,0.000908393928217255,0.000544828912227881,0.00031860418826137,0.000181754521240665,0.000101198369331283,5.50178788839372e-05,2.92175283351272e-05,1.51616569314711e-05,7.69040766085211e-06,3.81349727034895e-06,1.85180664116375e-06,9.05669473794346e-07,6.72308613714284e-07
"11",0.0560255317530801,0.0635414961025356,0.0588480236421869,0.0564202033770797,0.0571433715359337,0.059840850474709,0.0629812945119229,0.0653512785989954,0.0662675761480691,0.0654288524261321,0.0627982498882199,0.0585350786526126,0.0529505343119923,0.0464598783719419,0.0395253871804119,0.0325966281482854,0.0260584583211461,0.0201955777113308,0.0151779465637934,0.0110660823498017,0.00783106557065353,0.00538209600641276,0.00359473738027417,0.00233486873557946,0.0014758240787075,0.000908395295383012,0.000544830799801872,0.00031860677694534,0.000181757697338007,0.000101202195258937,5.50227796807012e-05,2.92236739279125e-05,1.5168066421257e-05,7.69506069565903e-06,3.82297905023713e-06,1.91606004582159e-06,1.46677364432441e-06
"12",0.043681857286203,0.050349236650589,0.0479932289030985,0.0476728666614885,0.0500391605990288,0.0541109674846742,0.0586284961470111,0.0625482282310365,0.0652060237793612,0.0662181513689705,0.0654110884940353,0.0627915409558834,0.058532502024536,0.0529495558654001,0.0464595159201799,0.0395252565711031,0.0325965822465458,0.0260584425408191,0.020195572440851,0.0151779449650689,0.011066082121595,0.00783106599175443,0.00538209694956215,0.00359473894147851,0.00233487113791856,0.00147582754866553,0.00090840003661822,0.000544837240430711,0.000318614632310475,0.000181767094977757,0.000101214090424579,5.50374831626067e-05,2.92388611223039e-05,1.51788849456473e-05,7.71653506228246e-06,3.96412199436479e-06,3.12919209351763e-06
"13",0.0333890526636355,0.0391357105939992,0.0384021892427741,0.0394838579225004,0.0428721791680248,0.0477874794457993,0.0532281631577664,0.0583229341909056,0.0624504810032504,0.0651746888439514,0.0662075344535297,0.0654072633042399,0.0627901228179708,0.0585319791316005,0.0529493676718333,0.0464594502167074,0.0395252343414358,0.0325965750252359,0.0260584404587112,0.0201955722468274,0.0151779457111287,0.0110660836523041,0.00783106854139885,0.00538210093088366,0.00359474494341742,0.00233487971569018,0.00147583917143777,0.000908415679447085,0.000544856203280233,0.000318637155991454,0.000181795259590585,0.000101248398729313,5.50725580130295e-05,2.92633556340038e-05,1.52262652962673e-05,8.01928094759956e-06,6.52727611168734e-06
"14",0.0250226952356054,0.0298405051481443,0.0301445403228595,0.032048691010059,0.0359389239102702,0.0412286803052118,0.0471540782458301,0.0530150545369934,0.058257712096338,0.0624307744813493,0.0651684153430513,0.0662053868116668,0.0654064961398638,0.0627898480632674,0.0585318829259032,0.0529493351397731,0.0464594397583119,0.0395252314197249,0.032596574840791,0.0260584416506969,0.0201955746911743,0.0151779497452466,0.0110660900600793,0.00783107836395542,0.00538211555190955,0.00359476564674278,0.00233490753848988,0.00147587626536058,0.000908460360815755,0.000544908878469847,0.000318702208625163,0.000181873329656004,0.000101327344973989,5.51265437915131e-05,2.93651494507158e-05,1.58601997111242e-05,1.3310735836737e-05
"15",0.0183878204904358,0.0223204123071154,0.0232114229276993,0.0254921520436157,0.0294792201005256,0.0347598263016916,0.0407809988166965,0.0470072102872169,0.0529718961600913,0.0582454034600232,0.0624271030676911,0.0651672266768917,0.0662049788639874,0.0654063543173647,0.0627897997991881,0.0585318673132209,0.0529493307854068,0.0464594395159965,0.0395252332303872,0.0325965785528865,0.0260584479565232,0.0201955846988709,0.0151779653654465,0.0110661137028499,0.0078311131520557,0.00538216435771218,0.00359483068856275,0.00233499341921978,0.00147597902711151,0.00090858056231256,0.000545055445576362,0.000318875446270032,0.000182046477305914,0.000101443115395524,5.53393770112159e-05,3.06606041125536e-05,2.65315855320633e-05
"16",0.0132504780602282,0.016378484436952,0.0175311665883435,0.0198698385928331,0.0236638879069571,0.0286478135446888,0.0344482169428701,0.0406810262138752,0.0469788944766203,0.052964254545567,0.0582432718216866,0.0624264537111524,0.0651670134867554,0.0662049071832166,0.0654063309269935,0.0627897931691289,0.0585318668769309,0.0529493334611942,0.0464594450282912,0.0395252426766972,0.032596593986519,0.0260584720727143,0.0201956218559526,0.0151780209486226,0.0110661945606209,0.0078312255255505,0.00538231283741794,0.00359502481162395,0.00233522409293185,0.00147624665118371,0.000908902657296957,0.000545430261697367,0.000319245408656987,0.000182287893453397,0.000101875867388503,5.79219041709398e-05,5.16790132171346e-05
"17",0.00936433226670715,0.0117905658673443,0.0129873603305666,0.0151766634909795,0.0185927639043037,0.0230877557965249,0.0284342778557939,0.0343810386029056,0.0406626151824085,0.0469741770336988,0.0529630247588492,0.0582429212704683,0.0624263444253254,0.0651669785136674,0.066204897129006,0.0654063301070766,0.0627897969996605,0.0585318749502358,0.0529493473348947,0.0464594678937364,0.0395252793928357,0.0325966506900396,0.0260585583886576,0.0201957494915904,0.0151782045227517,0.0110664472444117,0.00783155649349647,0.00538274120103452,0.00359553015726197,0.00233580540377315,0.00147693697405015,0.000909693215670431,0.000546200152220588,0.000319734574856712,0.000183142809913968,0.000106895898790005,9.83396744929549e-05
"18",0.00649090378795382,0.00832723229114738,0.00943680669250487,0.0113596926221336,0.0143008860029758,0.018200446732168,0.0229437372844497,0.0283897406081985,0.0343691832287348,0.0406597195150144,0.0469734712455576,0.052962837747021,0.0582428669210476,0.0624263291734462,0.0651669770055427,0.0662049024855119,0.0654063416606433,0.0627898170817703,0.0585319081464391,0.0529494011090811,0.0464595530957191,0.0395254095451721,0.032596846487435,0.0260588446203664,0.0201961565279734,0.0151787593451052,0.0110671675121598,0.00783247917005814,0.0053838215047219,0.00359676182994575,0.00233724805921996,0.00147856207924572,0.000911253005287778,0.000547162304909286,0.000321373594672928,0.000192652211559804,0.000182747765107028
"19",0.00441322776908253,0.00577017962275508,0.00672548126049051,0.00833274162887265,0.0107700534448945,0.0140383896896914,0.0181048746435335,0.0229146222988403,0.0283821864553311,0.0343674168891236,0.040659316589471,0.046973373293426,0.0529628130985512,0.0582428641057189,0.0624263364123013,0.0651669931857835,0.0662049308762551,0.0654063890567147,0.0627898941799735,0.0585320314236814,0.052949594043643,0.0464598446925572,0.0395258431581732,0.0325974732343073,0.0260597258786218,0.0201973459001334,0.0151802894350273,0.0110691071225703,0.00783473232540045,0.00538636656063758,0.00359970088763156,0.00234050281177958,0.00148163715114315,0.000913087758481031,0.000550207099223934,0.000338915347072456,0.00033151066910592
"20",0.00294354649134804,0.00392301705291484,0.00470134466486572,0.00599058949452244,0.00794297310991126,0.010597490574093,0.0139760023186472,0.018086117184071,0.0229098635100909,0.0283811170217291,0.0343671889631236,0.0406592681108556,0.0469733670983003,0.0529628224470986,0.0582428860920807,0.0624263756338807,0.0651670591932155,0.0662050393445884,0.0654065634638817,0.0627901697741462,0.0585324576794443,0.0529502315700384,0.0464607819695203,0.0395271827982015,0.0325993358268053,0.0260622145733866,0.0202005180811274,0.0151842678467562,0.0110736908558769,0.00783985972808894,0.00539220166273005,0.00360604920483986,0.00234639834485857,0.00148502350155777,0.000918557504622036,0.000581690494115964,0.000586736814665903
"21",0.00192615106585598,0.00261706812593112,0.00322354066920845,0.00422129664677042,0.00573762112149901,0.00783152283837448,0.010557439479994,0.0139640988487378,0.0180831564930187,0.0229092226420199,0.0283809915995683,0.034367171025237,0.0406592789192449,0.0469733960356373,0.0529628750158503,0.0582429757785902,0.0624265242881819,0.0651673008076087,0.0662054237905939,0.0654071641690069,0.0627910883327017,0.0585338174564308,0.0529522084148835,0.0464635762871366,0.039531024728094,0.0326044173329746,0.0260686309953335,0.0202084779918537,0.0151933605850748,0.0110837588918505,0.00785114478704177,0.00540425391884426,0.00361703220390425,0.00235243415961995,0.00149449946212844,0.000973474351728137,0.00101258073947113
"22",0.00123667910875966,0.00171315932821542,0.00216807140662321,0.00291578397585641,0.00406009314595721,0.00566690817784657,0.00780624200920937,0.0105500026669948,0.0139622824920669,0.0180827794761385,0.0229091609030575,0.0283809993248584,0.0343672074376368,0.0406593472655,0.0469735141776154,0.0529630734611189,0.0582433013975762,0.062427048372524,0.0651681264220366,0.0662066999819487,0.0654090941935915,0.0627939166822437,0.058537884298285,0.0529578942833632,0.0464713073713697,0.0395411457840373,0.0326170753377581,0.0260841601748575,0.0202260590473685,0.0152126202370027,0.0111050083320497,0.00787340103497794,0.00542411517716861,0.00362738984237902,0.00236820553639873,0.00158747327529098,0.00170276886031821
"23",0.000779137127149668,0.00110051090414985,0.00143042458843733,0.00197442143003124,0.00281491920745854,0.00401601984664655,0.0056512215472301,0.00780167113466146,0.0105489077428952,0.0139620710039966,0.0180827651779223,0.0229092026861537,0.0283810851228269,0.0343673583050154,0.040659603841753,0.0469739409215681,0.0529637674880833,0.0582444080798307,0.0624287750764023,0.0651707678682504,0.0662106521871954,0.0654148287080461,0.0628020735697187,0.0585491654754479,0.0529730645916913,0.0464909625839617,0.0395654890131501,0.0326466028976264,0.0261172774229218,0.0202619322480195,0.0152515514161471,0.011144951528038,0.00790822045691076,0.00544115374713673,0.00365246872414081,0.00252072395785059,0.0027879023715355
"24",0.000481730595122072,0.000693797313106805,0.000925833537690027,0.00131082303221951,0.00191245363414153,0.00278793695396389,0.00400645489188988,0.00564846210244834,0.00780102972576367,0.0105488081436183,0.0139621071082595,0.0180828677140772,0.0229093889375684,0.0283814062829605,0.0343678992935553,0.0406604959993728,0.0469753796898911,0.0529660412628398,0.0582479229317088,0.0624340983991494,0.0651786506332116,0.0662219789093514,0.0654307699555628,0.0628238857513432,0.058578176531361,0.0530102611823208,0.0465365751206499,0.0396201768959366,0.0327073400293348,0.0261822927157939,0.0203312761114996,0.0153211484469171,0.0112040342728935,0.00793492011375392,0.00547893551063888,0.00389439744574329,0.00444024282434175
"25",0.000292328537859638,0.000429281256890864,0.000587904111168176,0.000853325918198196,0.00127344212504063,0.0018962303427812,0.00278221024180283,0.00400482646770143,0.00564811150501428,0.00780102247842586,0.0105489204050133,0.0139623279312593,0.0180832558903851,0.0229100516719977,0.028382513818208,0.0343697112601858,0.0406633946287324,0.0469799213457133,0.0529729993614267,0.0582583602134554,0.0624493998772825,0.0652004286451431,0.0662523122323274,0.0654718382249228,0.062877914939101,0.0586467235003371,0.0530934700732665,0.0466351623350294,0.0397285478353767,0.0328218977586356,0.0263022591617772,0.0204488605611159,0.0154179849852537,0.0112435002711669,0.00798810523540488,0.00584903708742547,0.00687241776517426
"26",0.000174123649708871,0.000260707262836521,0.000366284057310868,0.000544755502783176,0.000831186947913944,0.00126386661986226,0.00189287192667581,0.0027812862894541,0.00400467854625636,0.00564820975131407,0.00780127098861262,0.010549371379292,0.013963110380517,0.0180845817436274,0.0229122512455552,0.0283860852982546,0.0343753806663678,0.0406722048335158,0.0469933038635284,0.0529928890379692,0.058287239106731,0.0624901213981866,0.0652565734876047,0.0663275395329797,0.065569740827819,0.0630008129066872,0.0587943782638647,0.0532663023085876,0.0468231046574004,0.0399245949889328,0.0330232465357545,0.0264945953316794,0.0206017706797281,0.0154721093726749,0.0113116994151386,0.00853232424267338,0.010325426952202
"27",0.000101813832092274,0.000155417177761547,0.000223925452422944,0.00034108008075336,0.000531886115529569,0.000825646982912104,0.00126195323882962,0.00189239870828263,0.00278131164369016,0.00400493561584482,0.00564871084822777,0.00780215779458376,0.0105508976982932,0.0139656794449426,0.0180888145758866,0.0229190750547703,0.0283968380494538,0.0343919596971052,0.0406971822118037,0.0470300998834671,0.0530458210371017,0.0583612039862966,0.0625910933746385,0.0653904858945622,0.0664999568516897,0.0657838813634108,0.0632554053182974,0.0590887041068579,0.053582748406926,0.0471485666375021,0.0402519918928864,0.0333272861265264,0.0267264489060396,0.0206684728646999,0.0155473929928897,0.0120775671767433,0.0150411889562794
"28",5.84471493409482e-05,9.09529888766547e-05,0.000134340105812908,0.000209478034176951,0.000333745155079587,0.000528759788844329,0.000824618195238772,0.00126179834745501,0.00189262314736077,0.00278183832159291,0.00400589729520492,0.00565039417868416,0.0078050363900699,0.0105557128541796,0.0139735616792322,0.0181014356780039,0.0229388242634043,0.0284270614259375,0.034437137517958,0.040763177189038,0.0471241911887252,0.0531761465213026,0.0585374027445905,0.0628224367948452,0.0656852052513216,0.0668620982678586,0.0662098659413344,0.0637416561206201,0.0596053022597416,0.054106134356871,0.0476634721115862,0.0407154471387246,0.0336634091600121,0.0267948335297301,0.0207281399517899,0.0165728337072905,0.0212165852481654
"29",3.29445028211681e-05,5.22587167417498e-05,7.91017410000183e-05,0.00012622008159678,0.000205393625467113,0.000332053180728208,0.000528296307286644,0.000824742407721598,0.00126231188638153,0.00189361858593957,0.00278361656641946,0.00400898783937963,0.00565564769845873,0.0078137714039853,0.0105699218642522,0.0139961635851062,0.0181365621133869,0.0229921905306517,0.0285062257937075,0.0345518324281844,0.0409252821230191,0.0473467798202676,0.0534742260537492,0.0589248879929184,0.0633108720913407,0.0662789179121771,0.0675528939929485,0.0669881477435018,0.0645581381140894,0.060419267716976,0.0548878270354892,0.0483427516355929,0.0411783963768484,0.0337060212660569,0.026790726627522,0.0220232513206647,0.0289397513176229
"30",1.82373112161836e-05,2.94865198231795e-05,4.57259629551059e-05,7.46400862580512e-05,0.000124024614765808,0.000204569128934983,0.000332001044662176,0.000528744214678421,0.000825721157894608,0.00126411106742066,0.0018967996681144,0.00278911130090205,0.00401827289488901,0.00567099265558304,0.0078385750843737,0.0106091164227816,0.0140566623146942,0.0182278103066179,0.0231265219204163,0.0286992641735469,0.0348223107976238,0.0412934616583918,0.0478351445624503,0.0541027440442996,0.059708732899065,0.0642532024891195,0.0673630356950818,0.0687578488431659,0.068235315298179,0.065779906587779,0.0615619796590536,0.0558416310486009,0.0489428455956963,0.0411404342527949,0.0335508647070945,0.028313105019062,0.0381170489920146
"31",9.92038079271195e-06,1.63480203996302e-05,2.59676410953113e-05,4.33526822834682e-05,7.35485669551107e-05,0.000123765938936772,0.000204896276494186,0.000332905333424776,0.00053048213743001,0.000828854899813044,0.00126961254556595,0.00190624591033893,0.00280497794396493,0.00404433393490596,0.00571284861167505,0.00790427537782125,0.0107098310548645,0.0142074621401902,0.0184481204908099,0.0234405413240515,0.0291354677848385,0.0354109077818618,0.0420667613285461,0.0488203924941965,0.0553182940695218,0.061153673115031,0.065896274470989,0.0691636967414853,0.070594902560164,0.0700010634046583,0.0673838798694771,0.0628394368387825,0.056563473856772,0.0487301181292191,0.0406942804228099,0.0351791912787347,0.0484098946411004
"32",5.31363358536858e-06,8.9260076251775e-06,1.45233819618547e-05,2.47991593188659e-05,4.2960067918e-05,7.37684915673753e-05,0.000124607632112828,0.000206601540176223,0.000336030708946892,0.000536026471557887,0.000838472130733453,0.00128594209885722,0.00193338015936872,0.00284908212597416,0.00411444317008622,0.00582178378708255,0.0080695967811861,0.0109548705272742,0.0145618188220046,0.0189479506478017,0.0241274500674301,0.030052524617896,0.0366021798009086,0.0435668658764422,0.05064842467271,0.0574635287891846,0.0635607138252344,0.0684924625008094,0.0717682462323897,0.0730431095083303,0.0721494519531554,0.0689967578614679,0.0636125831890137,0.0560171260118325,0.0477759675550868,0.0421916383792892,0.0591800718136806
"33",2.89315080593499e-06,4.95461014135646e-06,8.25779190674867e-06,1.44214958262319e-05,2.55108473704e-05,4.47043164591826e-05,7.70567051125907e-05,0.000130389997278864,0.000216480292870887,0.000352569546017362,0.00056319470998393,0.000882257262896748,0.00135514758339682,0.00204060596341377,0.00301187802399482,0.00435650261779318,0.00617400178206281,0.00857094894318643,0.0116522636807793,0.0155092535153018,0.0202035100132821,0.0257463973230168,0.0320844702454403,0.0390760091768048,0.0464816852254764,0.0539555068481847,0.0610491624279363,0.0672824689960196,0.0720731456548292,0.0749554522416884,0.0756190841891974,0.0738011048261195,0.0693596894615541,0.0621462610629288,0.0538905410566884,0.0483933552552177,0.0688888631590171
"34",1.52789984807996e-06,2.67114729202482e-06,4.56777252152726e-06,8.17161554390779e-06,1.47838688822238e-05,2.64807464666577e-05,4.66545781714291e-05,8.07047931645935e-05,0.000137003937372442,0.00022819629334576,0.000372869235836124,0.000597593933419026,0.000939249312340667,0.00144742658623148,0.00218658993279041,0.00323740324623267,0.00469649836716612,0.00667408802508355,0.00928790401392459,0.0126536806098952,0.0168704911581514,0.0219997427784812,0.0280489826988681,0.0349421351733789,0.0425025281147241,0.0504323238331447,0.0583040159518631,0.065627944162793,0.071755252141138,0.0761228004343559,0.0782939791783554,0.0778379884867325,0.0744348630393354,0.0677444870651565,0.0596342358429826,0.0543695484884764,0.0784346155365349
"35",8.32986072616364e-07,1.48949962209991e-06,2.61895677739085e-06,4.80825568742242e-06,8.9112342093934e-06,1.63393256012857e-05,2.94621584537466e-05,5.21578359397337e-05,9.06142087836215e-05,0.000154453996352868,0.00025825280424822,0.000423495025365584,0.000680951223166845,0.0010733615233802,0.00165819873050553,0.00250999571165043,0.00372155062717002,0.00540340469589936,0.00767983958241836,0.0106814380245585,0.0145319274771916,0.0193273856243333,0.025119593084003,0.0318822092992641,0.0394886682095077,0.0476831747684733,0.0560622313209652,0.0641394691296286,0.0712259806738304,0.0766942073994092,0.0800176536915575,0.080637537755659,0.0780912561676178,0.0718779485851509,0.0639604887498607,0.0589520582158395,0.0858560334418463
"36",5.03470068301146e-07,9.21524304634474e-07,1.66660655873454e-06,3.13963008014413e-06,5.95752394245312e-06,1.11719477008711e-05,2.05907821532169e-05,3.72436494470379e-05,6.60803569778217e-05,0.000114982253810152,0.000196170966182259,0.000328087041307346,0.000537763726950102,0.000863635177922554,0.00135861814442798,0.0020930066511985,0.00315653090582895,0.00465898908676373,0.00672756943896943,0.0095008172779951,0.0131166008868333,0.017691686534748,0.0233051240182349,0.029962136030984,0.0375690395016373,0.0458990173018938,0.0545672262086055,0.0630937918236198,0.0707687243349546,0.0769275909756418,0.0809893984168027,0.0823137480510152,0.0803440451254084,0.0744701569306595,0.0667122725650363,0.0619036791679176,0.0906823159634188
"37",3.7765514429539e-07,7.02764287085069e-07,1.29593539274546e-06,2.48399553495187e-06,4.78704137468498e-06,9.10781590251964e-06,1.70196630831889e-05,3.11948230180352e-05,5.60568844557113e-05,9.87400214477348e-05,0.000170445759631971,0.000288281493627576,0.000477624154147286,0.000774972868812196,0.00123115984359361,0.00191448551537225,0.00291314932952032,0.00433639567882546,0.00631243816547385,0.00898308218756157,0.0124922363235938,0.0169657091365399,0.0224946856170149,0.0290986514070757,0.0366990378460818,0.0450826636886321,0.0538739221972806,0.0625969220313004,0.0705331739547506,0.0770025449903526,0.0814000358510996,0.0830482678982113,0.0813473213646188,0.0756358746672706,0.0679592877746848,0.0632503196455609,0.0928955440097258
