"","X0","X1","X2","X3","X4","X5","X6","X7","X8","X9","X10","X11","X12","X13","X14","X15","X16","X17","X18","X19","X20","X21","X22","X23","X24","X25","X26","X27","X28","X29","X30","X31","X32","X33","X34","X35","X36"
"1",0.577626926466653,0.29046160294906,0.0827644842039778,0.0171431906869011,0.00622045129225197,0.014334571350031,0.00836887651137236,0.00254322100101802,0.000481263792185638,5.24614998115689e-05,2.87515390870738e-06,7.4365888742719e-08,7.26939283897545e-10,0,0,0,0,0,0,0,0,0,0,0,0,0,0,0,0,0,0,0,0,0,0,0,0
"2",0.186628032483002,0.437462655472928,0.251242718998349,0.0766139650523882,0.0161164594615064,0.00615347837602649,0.0143339171046755,0.00836887651137236,0.00254322100101802,0.000481263792185638,5.24614998115689e-05,2.87515390870738e-06,7.4365888742719e-08,7.26939283897545e-10,0,0,0,0,0,0,0,0,0,0,0,0,0,0,0,0,0,0,0,0,0,0,0
"3",0.0584200321174636,0.13849355079918,0.427433141778347,0.251021106469078,0.0765808493333103,0.0161151509707953,0.00615347837602649,0.0143339171046755,0.00836887651137236,0.00254322100101802,0.000481263792185638,5.24614998115689e-05,2.87515390870738e-06,7.4365888742719e-08,7.26939283897545e-10,0,0,0,0,0,0,0,0,0,0,0,0,0,0,0,0,0,0,0,0,0,0
"4",0.00916386203734809,0.050363589385205,0.137389010173654,0.427430590221461,0.251020779346401,0.0765808493333103,0.0161151509707953,0.00615347837602649,0.0143339171046755,0.00836887651137236,0.00254322100101802,0.000481263792185638,5.24614998115689e-05,2.87515390870738e-06,7.4365888742719e-08,7.26939283897545e-10,0,0,0,0,0,0,0,0,0,0,0,0,0,0,0,0,0,0,0,0,0
"5",0.00066347457665616,0.0085468606891115,0.0503171161567855,0.137389010173654,0.427430590221461,0.251020779346401,0.0765808493333103,0.0161151509707953,0.00615347837602649,0.0143339171046755,0.00836887651137236,0.00254322100101802,0.000481263792185638,5.24614998115689e-05,2.87515390870738e-06,7.4365888742719e-08,7.26939283897545e-10,0,0,0,0,0,0,0,0,0,0,0,0,0,0,0,0,0,0,0,0
"6",2.17296690742656e-05,0.000642399152937402,0.00854620644375599,0.0503171161567855,0.137389010173654,0.427430590221461,0.251020779346401,0.0765808493333103,0.0161151509707953,0.00615347837602649,0.0143339171046755,0.00836887651137236,0.00254322100101802,0.000481263792185638,5.24614998115689e-05,2.87515390870738e-06,7.4365888742719e-08,7.26939283897545e-10,0,0,0,0,0,0,0,0,0,0,0,0,0,0,0,0,0,0,0
"7",2.61698142203118e-07,2.14679709320625e-05,0.000642399152937402,0.00854620644375599,0.0503171161567855,0.137389010173654,0.427430590221461,0.251020779346401,0.0765808493333103,0.0161151509707953,0.00615347837602649,0.0143339171046755,0.00836887651137236,0.00254322100101802,0.000481263792185638,5.24614998115689e-05,2.87515390870738e-06,7.4365888742719e-08,7.26939283897545e-10,0,0,0,0,0,0,0,0,0,0,0,0,0,0,0,0,0,0
"8",0,2.61698142203118e-07,2.14679709320625e-05,0.000642399152937402,0.00854620644375599,0.0503171161567855,0.137389010173654,0.427430590221461,0.251020779346401,0.0765808493333103,0.0161151509707953,0.00615347837602649,0.0143339171046755,0.00836887651137236,0.00254322100101802,0.000481263792185638,5.24614998115689e-05,2.87515390870738e-06,7.4365888742719e-08,7.26939283897545e-10,0,0,0,0,0,0,0,0,0,0,0,0,0,0,0,0,0
"9",0,0,2.61698142203118e-07,2.14679709320625e-05,0.000642399152937402,0.00854620644375599,0.0503171161567855,0.137389010173654,0.427430590221461,0.251020779346401,0.0765808493333103,0.0161151509707953,0.00615347837602649,0.0143339171046755,0.00836887651137236,0.00254322100101802,0.000481263792185638,5.24614998115689e-05,2.87515390870738e-06,7.4365888742719e-08,7.26939283897545e-10,0,0,0,0,0,0,0,0,0,0,0,0,0,0,0,0
"10",0,0,0,2.61698142203118e-07,2.14679709320625e-05,0.000642399152937402,0.00854620644375599,0.0503171161567855,0.137389010173654,0.427430590221461,0.251020779346401,0.0765808493333103,0.0161151509707953,0.00615347837602649,0.0143339171046755,0.00836887651137236,0.00254322100101802,0.000481263792185638,5.24614998115689e-05,2.87515390870738e-06,7.4365888742719e-08,7.26939283897545e-10,0,0,0,0,0,0,0,0,0,0,0,0,0,0,0
"11",0,0,0,0,2.61698142203118e-07,2.14679709320625e-05,0.000642399152937402,0.00854620644375599,0.0503171161567855,0.137389010173654,0.427430590221461,0.251020779346401,0.0765808493333103,0.0161151509707953,0.00615347837602649,0.0143339171046755,0.00836887651137236,0.00254322100101802,0.000481263792185638,5.24614998115689e-05,2.87515390870738e-06,7.4365888742719e-08,7.26939283897545e-10,0,0,0,0,0,0,0,0,0,0,0,0,0,0
"12",0,0,0,0,0,2.61698142203118e-07,2.14679709320625e-05,0.000642399152937402,0.00854620644375599,0.0503171161567855,0.137389010173654,0.427430590221461,0.251020779346401,0.0765808493333103,0.0161151509707953,0.00615347837602649,0.0143339171046755,0.00836887651137236,0.00254322100101802,0.000481263792185638,5.24614998115689e-05,2.87515390870738e-06,7.4365888742719e-08,7.26939283897545e-10,0,0,0,0,0,0,0,0,0,0,0,0,0
"13",0,0,0,0,0,0,2.61698142203118e-07,2.14679709320625e-05,0.000642399152937402,0.00854620644375599,0.0503171161567855,0.137389010173654,0.427430590221461,0.251020779346401,0.0765808493333103,0.0161151509707953,0.00615347837602649,0.0143339171046755,0.00836887651137236,0.00254322100101802,0.000481263792185638,5.24614998115689e-05,2.87515390870738e-06,7.4365888742719e-08,7.26939283897545e-10,0,0,0,0,0,0,0,0,0,0,0,0
"14",0,0,0,0,0,0,0,2.61698142203118e-07,2.14679709320625e-05,0.000642399152937402,0.00854620644375599,0.0503171161567855,0.137389010173654,0.427430590221461,0.251020779346401,0.0765808493333103,0.0161151509707953,0.00615347837602649,0.0143339171046755,0.00836887651137236,0.00254322100101802,0.000481263792185638,5.24614998115689e-05,2.87515390870738e-06,7.4365888742719e-08,7.26939283897545e-10,0,0,0,0,0,0,0,0,0,0,0
"15",0,0,0,0,0,0,0,0,2.61698142203118e-07,2.14679709320625e-05,0.000642399152937402,0.00854620644375599,0.0503171161567855,0.137389010173654,0.427430590221461,0.251020779346401,0.0765808493333103,0.0161151509707953,0.00615347837602649,0.0143339171046755,0.00836887651137236,0.00254322100101802,0.000481263792185638,5.24614998115689e-05,2.87515390870738e-06,7.4365888742719e-08,7.26939283897545e-10,0,0,0,0,0,0,0,0,0,0
"16",0,0,0,0,0,0,0,0,0,2.61698142203118e-07,2.14679709320625e-05,0.000642399152937402,0.00854620644375599,0.0503171161567855,0.137389010173654,0.427430590221461,0.251020779346401,0.0765808493333103,0.0161151509707953,0.00615347837602649,0.0143339171046755,0.00836887651137236,0.00254322100101802,0.000481263792185638,5.24614998115689e-05,2.87515390870738e-06,7.4365888742719e-08,7.26939283897545e-10,0,0,0,0,0,0,0,0,0
"17",0,0,0,0,0,0,0,0,0,0,2.61698142203118e-07,2.14679709320625e-05,0.000642399152937402,0.00854620644375599,0.0503171161567855,0.137389010173654,0.427430590221461,0.251020779346401,0.0765808493333103,0.0161151509707953,0.00615347837602649,0.0143339171046755,0.00836887651137236,0.00254322100101802,0.000481263792185638,5.24614998115689e-05,2.87515390870738e-06,7.4365888742719e-08,7.26939283897545e-10,0,0,0,0,0,0,0,0
"18",0,0,0,0,0,0,0,0,0,0,0,2.61698142203118e-07,2.14679709320625e-05,0.000642399152937402,0.00854620644375599,0.0503171161567855,0.137389010173654,0.427430590221461,0.251020779346401,0.0765808493333103,0.0161151509707953,0.00615347837602649,0.0143339171046755,0.00836887651137236,0.00254322100101802,0.000481263792185638,5.24614998115689e-05,2.87515390870738e-06,7.4365888742719e-08,7.26939283897545e-10,0,0,0,0,0,0,0
"19",0,0,0,0,0,0,0,0,0,0,0,0,2.61698142203118e-07,2.14679709320625e-05,0.000642399152937402,0.00854620644375599,0.0503171161567855,0.137389010173654,0.427430590221461,0.251020779346401,0.0765808493333103,0.0161151509707953,0.00615347837602649,0.0143339171046755,0.00836887651137236,0.00254322100101802,0.000481263792185638,5.24614998115689e-05,2.87515390870738e-06,7.4365888742719e-08,7.26939283897545e-10,0,0,0,0,0,0
"20",0,0,0,0,0,0,0,0,0,0,0,0,0,2.61698142203118e-07,2.14679709320625e-05,0.000642399152937402,0.00854620644375599,0.0503171161567855,0.137389010173654,0.427430590221461,0.251020779346401,0.0765808493333103,0.0161151509707953,0.00615347837602649,0.0143339171046755,0.00836887651137236,0.00254322100101802,0.000481263792185638,5.24614998115689e-05,2.87515390870738e-06,7.4365888742719e-08,7.26939283897545e-10,0,0,0,0,0
"21",0,0,0,0,0,0,0,0,0,0,0,0,0,0,2.61698142203118e-07,2.14679709320625e-05,0.000642399152937402,0.00854620644375599,0.0503171161567855,0.137389010173654,0.427430590221461,0.251020779346401,0.0765808493333103,0.0161151509707953,0.00615347837602649,0.0143339171046755,0.00836887651137236,0.00254322100101802,0.000481263792185638,5.24614998115689e-05,2.87515390870738e-06,7.4365888742719e-08,7.26939283897545e-10,0,0,0,0
"22",0,0,0,0,0,0,0,0,0,0,0,0,0,0,0,2.61698142203118e-07,2.14679709320625e-05,0.000642399152937402,0.00854620644375599,0.0503171161567855,0.137389010173654,0.427430590221461,0.251020779346401,0.0765808493333103,0.0161151509707953,0.00615347837602649,0.0143339171046755,0.00836887651137236,0.00254322100101802,0.000481263792185638,5.24614998115689e-05,2.87515390870738e-06,7.4365888742719e-08,7.26939283897545e-10,0,0,0
"23",0,0,0,0,0,0,0,0,0,0,0,0,0,0,0,0,2.61698142203118e-07,2.14679709320625e-05,0.000642399152937402,0.00854620644375599,0.0503171161567855,0.137389010173654,0.427430590221461,0.251020779346401,0.0765808493333103,0.0161151509707953,0.00615347837602649,0.0143339171046755,0.00836887651137236,0.00254322100101802,0.000481263792185638,5.24614998115689e-05,2.87515390870738e-06,7.4365888742719e-08,7.26939283897545e-10,0,0
"24",0,0,0,0,0,0,0,0,0,0,0,0,0,0,0,0,0,2.61698142203118e-07,2.14679709320625e-05,0.000642399152937402,0.00854620644375599,0.0503171161567855,0.137389010173654,0.427430590221461,0.251020779346401,0.0765808493333103,0.0161151509707953,0.00615347837602649,0.0143339171046755,0.00836887651137236,0.00254322100101802,0.000481263792185638,5.24614998115689e-05,2.87515390870738e-06,7.4365888742719e-08,7.26939283897545e-10,0
"25",0,0,0,0,0,0,0,0,0,0,0,0,0,0,0,0,0,0,2.61698142203118e-07,2.14679709320625e-05,0.000642399152937402,0.00854620644375599,0.0503171161567855,0.137389010173654,0.427430590221461,0.251020779346401,0.0765808493333103,0.0161151509707953,0.00615347837602649,0.0143339171046755,0.00836887651137236,0.00254322100101802,0.000481263792185638,5.24614998115689e-05,2.87515390870738e-06,7.4365888742719e-08,7.26939283897545e-10
"26",0,0,0,0,0,0,0,0,0,0,0,0,0,0,0,0,0,0,0,2.61698142203118e-07,2.14679709320625e-05,0.000642399152937402,0.00854620644375599,0.0503171161567855,0.137389010173654,0.427430590221461,0.251020779346401,0.0765808493333103,0.0161151509707953,0.00615347837602649,0.0143339171046755,0.00836887651137236,0.00254322100101802,0.000481263792185638,5.24614998115689e-05,2.87515390870738e-06,7.50928280266165e-08
"27",0,0,0,0,0,0,0,0,0,0,0,0,0,0,0,0,0,0,0,0,2.61698142203118e-07,2.14679709320625e-05,0.000642399152937402,0.00854620644375599,0.0503171161567855,0.137389010173654,0.427430590221461,0.251020779346401,0.0765808493333103,0.0161151509707953,0.00615347837602649,0.0143339171046755,0.00836887651137236,0.00254322100101802,0.000481263792185638,5.24617905872824e-05,2.94995596102044e-06
"28",0,0,0,0,0,0,0,0,0,0,0,0,0,0,0,0,0,0,0,0,0,2.61698142203118e-07,2.14679709320625e-05,0.000642399152937402,0.00854620644375599,0.0503171161567855,0.137389010173654,0.427430590221461,0.251020779346401,0.0765808493333103,0.0161151509707953,0.00615347837602649,0.0143339171046755,0.00836887651137236,0.00254322100101802,0.000481292433593424,5.53831051405173e-05
"29",0,0,0,0,0,0,0,0,0,0,0,0,0,0,0,0,0,0,0,0,0,0,2.61698142203118e-07,2.14679709320625e-05,0.000642399152937402,0.00854620644375599,0.0503171161567855,0.137389010173654,0.427430590221461,0.251020779346401,0.0765808493333103,0.0161151509707953,0.00615347837602649,0.0143339176862269,0.00836888348998949,0.00254426437697219,0.00053562460261121
"30",0,0,0,0,0,0,0,0,0,0,0,0,0,0,0,0,0,0,0,0,0,0,0,2.61698142203118e-07,2.14679709320625e-05,0.000642399152937402,0.00854620644375599,0.0503171161567855,0.137389010173654,0.427430590221461,0.251020779346401,0.0765808493333103,0.0161151511161832,0.00615353507729063,0.0143345789828935,0.00838613041527567,0.00306192391097866
"31",0,0,0,0,0,0,0,0,0,0,0,0,0,0,0,0,0,0,0,0,0,0,0,0,2.61698142203118e-07,2.14679709320625e-05,0.000642399152937402,0.00854620644375599,0.0503171161567855,0.137389010173654,0.427430590221461,0.251020779637176,0.0765808731769188,0.0161172512437744,0.00617604867768866,0.0144714310459076,0.0112865644008668
"32",0,0,0,0,0,0,0,0,0,0,0,0,0,0,0,0,0,0,0,0,0,0,0,0,0,2.61698142203118e-07,2.1468261707776e-05,0.000642422996545914,0.00854691942580564,0.0503265881756546,0.137444602346533,0.427581400027583,0.251491235332436,0.0768710402969093,0.0164515194075663,0.00674576905892037,0.0238767729721966
"33",0,0,0,0,0,0,0,0,0,0,0,0,0,0,0,0,0,0,0,0,0,0,0,0,0,0,2.70421413609889e-07,2.21835699631312e-05,0.000663812458035315,0.00883107999188119,0.0519943533620116,0.141968634832062,0.441677537109844,0.259366011576013,0.0788391749780246,0.0149200654413961,0.00171687625935604
"34",0,0,0,0,0,0,0,0,0,0,0,0,0,0,0,0,0,0,0,0,0,0,0,0,0,0,0,2.70421413609889e-07,2.21835699631312e-05,0.000663812458035315,0.00883107999188119,0.0519943533620116,0.141968634832062,0.441677555137938,0.259366227913144,0.0788715196326041,0.0166043626809475
"35",0,0,0,0,0,0,0,0,0,0,0,0,0,0,0,0,0,0,0,0,0,0,0,0,0,0,0,0,2.70421413609889e-07,2.21835699631312e-05,0.000663812458035315,0.00883107999188119,0.0519943578690352,0.141970392571251,0.441698055334601,0.259900882597015,0.0949189651868045
"36",0,0,0,0,0,0,0,0,0,0,0,0,0,0,0,0,0,0,0,0,0,0,0,0,0,0,0,0,0,2.70421413609889e-07,2.21835699631312e-05,0.000663821472082436,0.00883181914374506,0.0520594618243618,0.142668314183589,0.445940469288037,0.349813660096808
"37",0,0,0,0,0,0,0,0,0,0,0,0,0,0,0,0,0,0,0,0,0,0,0,0,0,0,0,0,0,0,2.79435460730219e-07,2.31931432406082e-05,0.000703897925579421,0.00998925885018387,0.0620679949608007,0.165240946195017,0.761974429489719
