"","X0","X1","X2","X3","X4","X5","X6","X7","X8","X9","X10","X11","X12","X13","X14","X15","X16","X17","X18","X19","X20","X21","X22","X23","X24","X25","X26","X27","X28","X29","X30","X31","X32","X33","X34","X35","X36"
"1",0.181493817582517,0.176908888336856,0.177507089497607,0.152772743700142,0.115974451165766,0.0795359120476379,0.050415918144435,0.0300469751467174,0.0170115669457137,0.00920106907731786,0.00476638361595864,0.00236550746379402,0.0011233664137061,0.000509665892527682,0.000220528623190483,9.08085798389557e-05,3.54887638738804e-05,1.31196604650861e-05,4.57101980275552e-06,1.49517586061692e-06,4.57408988485316e-07,1.30388845999216e-07,3.45084986451137e-08,8.44868099735756e-09,1.90639148785374e-09,3.94894938746284e-10,7.47693929407485e-11,1.28775006427188e-11,2.00616674804125e-12,2.80825304230671e-13,3.50365986204376e-14,3.85702858030479e-15,3.69900811474743e-16,3.03986173194891e-17,2.09469552950104e-18,1.17564957518771e-19,5.33908161245393e-21
"2",0.127863975710691,0.139231161001505,0.161223123376232,0.159376047321717,0.135942874164883,0.102428755322822,0.0701024483881645,0.0446161054463827,0.0268264631646787,0.0153732396310666,0.008431247897691,0.00443118949134706,0.00223008164635933,0.00107260478383158,0.000492024552533286,0.000214849646674029,8.91176591237763e-05,3.50239790179705e-05,1.30020059249685e-05,4.54367089606625e-06,1.48935702694739e-06,4.56279960910639e-07,1.30189899365481e-07,3.44768155342172e-08,8.44414759009091e-09,1.90581293878831e-09,3.94829707549444e-10,7.47629772027198e-11,1.28769597619472e-11,2.00612863425329e-12,2.80823143526355e-13,3.50365058364715e-14,3.85702584685739e-15,3.69900765445303e-16,3.03986170874594e-17,2.09474407697349e-18,1.2285544364726e-19
"3",0.0746948274318511,0.0929132659763413,0.128386261416694,0.152126972021408,0.152260552142176,0.130696758828713,0.0989880135749623,0.0680894261438746,0.0435462414371976,0.0263035470134409,0.0151365670808681,0.00833195960604017,0.00439260979609,0.00221622565501447,0.0010680140529668,0.000490623800139373,0.000214456739718028,8.90165714156412e-05,3.50001923546911e-05,1.29969063059558e-05,4.54267941910588e-06,1.48918320334144e-06,4.56252665813132e-07,1.30186090813601e-07,3.44763477966913e-08,8.44409759490483e-09,1.9058083476164e-09,3.9482935040935e-10,7.47629539634592e-11,1.28769585043661e-11,2.00612857789182e-12,2.80823141519419e-13,3.50365057875826e-14,3.85702584636908e-15,3.69900768767905e-16,3.0400056642443e-17,2.21615655995572e-18
"4",0.0386149231094521,0.0539946156620367,0.0873195887799405,0.124225861860551,0.149075013978522,0.150082684350282,0.129305056338505,0.098193956973003,0.067678696082168,0.0433513497347259,0.0262180686945285,0.0151019196844885,0.00831901380038527,0.00438817199185833,0.00221483618822454,0.00106761797431317,0.000490521219722895,0.000214432630427769,8.90114328294375e-05,3.49992001968983e-05,1.29967330654569e-05,4.54265215283829e-06,1.48917935659424e-06,4.56252183476964e-07,1.30186037762033e-07,3.44763427749188e-08,8.44409719698783e-09,1.90580832232226e-09,3.94829349199355e-10,7.47629539236739e-11,1.28769585035673e-11,2.00612857788211e-12,2.80823141521026e-13,3.50365057985554e-14,3.85702598610791e-15,3.69933037083485e-16,3.25837923703061e-17
"5",0.0176858162080988,0.0277750736627731,0.0513649682067472,0.0857026907038716,0.123191946129138,0.148382460391574,0.149656830890363,0.129069541768652,0.098075311573283,0.0676237215553766,0.0433277605098664,0.0262087130470411,0.0150985058673847,0.00831787579252751,0.00438782783427216,0.00221474230516625,0.0010675949798763,0.000490516182110224,0.000214431646282275,8.90112619233223e-05,3.49991738907731e-05,1.29967294871551e-05,4.54265172392069e-06,1.48917931137976e-06,4.56252179297075e-07,1.30186037425152e-07,3.44763427516232e-08,8.4440971956699e-09,1.90580832226686e-09,3.94829349197857e-10,7.4762953923654e-11,1.28769585035722e-11,2.00612857800586e-12,2.80823142262832e-13,3.50365099206608e-14,3.85760352617356e-15,4.01934296674576e-16
"6",0.00730538678709346,0.0128388455082005,0.0267117218604177,0.0507904399258915,0.0853680029661279,0.122974828165905,0.148250581034749,0.14958444669262,0.129033281998663,0.0980585875800283,0.0676165714389253,0.043324934035386,0.026207685504438,0.0150981651157955,0.00831777357464311,0.0043878002975724,0.00221473568624475,0.00106759356897018,0.000490515917043665,0.000214431602728078,8.90112557233439e-05,3.49991731359029e-05,1.29967294099302e-05,4.54265171743466e-06,1.48917931094597e-06,4.5625217927462e-07,1.30186037424222e-07,3.44763427515872e-08,8.44409719566864e-09,1.90580832226683e-09,3.94829349197863e-10,7.47629539239096e-11,1.28769585088104e-11,2.00612860771541e-12,2.80823235820798e-13,3.50450709187997e-14,4.25084805808121e-15
"7",0.00272638021042645,0.00535562621097126,0.0124439387198685,0.0265305935249,0.0507021108352661,0.0853156876701571,0.122944558080383,0.148234581836062,0.149576658135332,0.12902976499189,0.0980571064864626,0.0676159923244558,0.0433247252922418,0.0262076167839265,0.0150981446389826,0.00831776809431653,0.00438779898904848,0.00221473540932442,0.00106759351737833,0.000490515908654494,0.000214431601550651,8.90112555829265e-05,3.49991731220028e-05,1.29967294088275e-05,4.54265171736865e-06,1.4891793109433e-06,4.56252179274562e-07,1.30186037424221e-07,3.44763427515872e-08,8.44409719566864e-09,1.90580832226708e-09,3.94829349206626e-10,7.4762954073972e-11,1.28769593101264e-11,2.00613034144784e-12,2.80931046196994e-13,3.91854144750921e-14
"8",0.000920164701973459,0.00202505080334922,0.00522451826849623,0.0123934939303359,0.02651166480761,0.0506927325262961,0.085310823880116,0.12294222156501,0.14823353218024,0.149576213365088,0.129029586246257,0.0980570388901794,0.0676159685540199,0.0433247176183982,0.026207614534455,0.0150981440453427,0.00831776795425854,0.00438779895970258,0.00221473540390132,0.00106759351650219,0.000490515908532171,0.00021443160153613,8.9011255581496e-05,3.49991731218901e-05,1.29967294088208e-05,4.54265171736839e-06,1.4891793109433e-06,4.56252179274562e-07,1.30186037424221e-07,3.44763427515873e-08,8.44409719567614e-09,1.90580832248095e-09,3.94829352339494e-10,7.47629698206475e-11,1.2876986351323e-11,2.00730560251004e-12,3.18895057390955e-13
"9",0.000281368908348161,0.000696121029967314,0.00198663228075356,0.00521178709798259,0.0123898435077347,0.0265102218664085,0.0506920833398177,0.0853105543499043,0.122942117252846,0.148233493776378,0.149576199627586,0.129029581481932,0.0980570373147103,0.0676159680677178,0.0433247174807382,0.0262076144991573,0.0150981440372132,0.00831776795258878,0.00438779895939885,0.00221473540385283,0.00106759351649548,0.000490515908531378,0.000214431601536052,8.90112555814899e-05,3.49991731218897e-05,1.29967294088208e-05,4.54265171736839e-06,1.4891793109433e-06,4.56252179274562e-07,1.30186037424224e-07,3.44763427517465e-08,8.44409719957536e-09,1.90580837266896e-09,3.94829590674133e-10,7.47633288019193e-11,1.28882336402579e-11,2.31430180572551e-12
"10",7.78751579688666e-05,0.000217489244426269,0.000686044601245559,0.00198369112631086,0.00521113343391257,0.0123896423853462,0.0265101415702459,0.0506920541385218,0.0853105447664525,0.122942114368533,0.148233492945465,0.149576199391085,0.129029581414944,0.0980570372962163,0.0676159680628907,0.0433247174795762,0.0262076144989033,0.0150981440371633,0.00831776795258001,0.00438779895939749,0.00221473540385264,0.00106759351649546,0.000490515908531376,0.000214431601536052,8.90112555814899e-05,3.49991731218897e-05,1.29967294088208e-05,4.54265171736839e-06,1.4891793109433e-06,4.56252179274615e-07,1.30186037426771e-07,3.44763428072189e-08,8.44409784155154e-09,1.90581126886223e-09,3.94833668181739e-10,7.48588114048357e-11,1.50993790935802e-11
"11",1.9412517053165e-05,6.16097745140162e-05,0.000215107326062261,0.000685423241898754,0.00198358354119369,0.0052111097129837,0.0123896338052449,0.0265101387195845,0.0506920532993318,0.0853105445503484,0.122942114318478,0.148233492934643,0.149576199388796,0.129029581414456,0.0980570372961122,0.0676159680628692,0.0433247174795721,0.0262076144989026,0.0150981440371632,0.00831776795257999,0.00438779895939749,0.00221473540385264,0.00106759351649546,0.000490515908531376,0.000214431601536052,8.90112555814899e-05,3.49991731218897e-05,1.29967294088208e-05,4.5426517173684e-06,1.48917931094405e-06,4.56252179306869e-07,1.3018603806541e-07,3.44763495720053e-08,8.44412699401329e-09,1.9058511437704e-09,3.95558335758697e-10,8.91570591179677e-11
"12",4.32109903108713e-06,1.57356073121563e-05,6.11048032636889e-05,0.000214987918247209,0.000685406677274753,0.00198358131021819,0.00521110899546031,0.0123896335859148,0.0265101386594318,0.0506920532851928,0.0853105445474755,0.122942114317967,0.148233492934561,0.149576199388784,0.129029581414454,0.0980570372961119,0.0676159680628692,0.0433247174795721,0.0262076144989026,0.0150981440371632,0.00831776795257999,0.00438779895939749,0.00221473540385264,0.00106759351649546,0.000490515908531376,0.000214431601536052,8.90112555814899e-05,3.49991731218897e-05,1.29967294088209e-05,4.54265171737697e-06,1.48917931127861e-06,4.56252185426811e-07,1.30186098214146e-07,3.44765983962133e-08,8.44446533745461e-09,1.91079743116462e-09,4.79115327942904e-10
"13",8.49769098595051e-07,3.58956861166276e-06,1.56406468960724e-05,6.10841919456558e-05,0.000214985479151839,0.000685406510927907,0.00198358126504475,0.00521110898313608,0.0123896335827539,0.0265101386587397,0.0506920532850641,0.0853105445474551,0.122942114317964,0.148233492934561,0.149576199388784,0.129029581414454,0.0980570372961119,0.0676159680628692,0.0433247174795721,0.0262076144989026,0.0150981440371632,0.00831776795257999,0.00438779895939749,0.00221473540385264,0.00106759351649546,0.000490515908531376,0.000214431601536052,8.90112555814899e-05,3.49991731218905e-05,1.29967294089022e-05,4.54265172029345e-06,1.48917936115744e-06,4.56252645101879e-07,1.30187931428808e-07,3.44791102314833e-08,8.47497310456098e-09,2.35454738959805e-09
"14",1.4587594527245e-07,7.22984418814216e-07,3.57395848936293e-06,1.56375168324224e-05,6.10838537692725e-05,0.000214985469038861,0.000685406508769711,0.00198358126455654,0.00521110898302053,0.0123896335827303,0.0265101386587356,0.0506920532850635,0.085310544547455,0.122942114317964,0.148233492934561,0.149576199388784,0.129029581414454,0.0980570372961119,0.0676159680628692,0.0433247174795721,0.0262076144989026,0.0150981440371632,0.00831776795257999,0.00438779895939749,0.00221473540385264,0.00106759351649546,0.000490515908531376,0.000214431601536052,8.90112555814971e-05,3.49991731225432e-05,1.2996729430693e-05,4.54265207190098e-06,1.48918242483396e-06,4.56264467580618e-07,1.3020438215593e-07,3.46498302249382e-08,1.06270895600808e-08
"15",2.1556876152344e-08,1.26972201335462e-07,7.20781245771428e-07,3.57355124774694e-06,1.56374747319324e-05,6.10838532509487e-05,0.000214985468956784,0.000685406508756461,0.00198358126455375,0.00521110898302,0.0123896335827302,0.0265101386587356,0.0506920532850635,0.085310544547455,0.122942114317964,0.148233492934561,0.149576199388784,0.129029581414454,0.0980570372961119,0.0676159680628692,0.0433247174795721,0.0262076144989026,0.0150981440371632,0.00831776795257999,0.00438779895939749,0.00221473540385264,0.00106759351649546,0.000490515908531376,0.000214431601536107,8.90112555860176e-05,3.49991732642502e-05,1.29967316032713e-05,4.54267009041031e-06,1.48924992449165e-06,4.56360259441005e-07,1.31074325921149e-07,4.42233471311771e-08
"16",2.698502115327e-09,1.91685413466497e-08,1.2671063307111e-07,7.20737143432887e-07,3.57354677651272e-06,1.56374747094407e-05,6.10838532482576e-05,0.000214985468956543,0.00068540650875642,0.00198358126455375,0.00521110898302,0.0123896335827302,0.0265101386587356,0.0506920532850635,0.085310544547455,0.122942114317964,0.148233492934561,0.149576199388784,0.129029581414454,0.0980570372961119,0.0676159680628692,0.0433247174795721,0.0262076144989026,0.0150981440371632,0.00831776795257999,0.00438779895939749,0.00221473540385264,0.00106759351649546,0.000490515908531756,0.000214431601563636,8.90112563988795e-05,3.49991851647425e-05,1.29968260534093e-05,4.54301456094265e-06,1.48974953828964e-06,4.60411263270965e-07,1.70295393489657e-07
"17",2.81255737591964e-10,2.44707632721632e-09,1.91429659773847e-08,1.26706767986341e-07,7.20736754811995e-07,3.57354677572075e-06,1.56374747093615e-05,6.10838532482546e-05,0.000214985468956543,0.00068540650875642,0.00198358126455375,0.00521110898302,0.0123896335827302,0.0265101386587356,0.0506920532850635,0.085310544547455,0.122942114317964,0.148233492934561,0.149576199388784,0.129029581414454,0.0980570372961119,0.0676159680628692,0.0433247174795721,0.0262076144989026,0.0150981440371632,0.00831776795257999,0.00438779895939749,0.00221473540385268,0.00106759351649802,0.000490515908682874,0.000214431605731971,8.9011314779943e-05,3.49996303397022e-05,1.2998410686943e-05,4.54536532543181e-06,1.5070494378544e-06,6.08963481097076e-07
"18",2.39896780375315e-11,2.59577105862349e-10,2.44505904215926e-09,1.91426989917706e-08,1.267067412337e-07,7.20736754790971e-07,3.57354677571881e-06,1.56374747093615e-05,6.10838532482546e-05,0.000214985468956543,0.00068540650875642,0.00198358126455375,0.00521110898302,0.0123896335827302,0.0265101386587356,0.0506920532850635,0.085310544547455,0.122942114317964,0.148233492934561,0.149576199388784,0.129029581414454,0.0980570372961119,0.0676159680628692,0.0433247174795721,0.0262076144989026,0.0150981440371632,0.00831776795258002,0.00438779895939804,0.00221473540387103,0.00106759351727216,0.000490515928085674,0.00021443186483286,8.90132170456911e-05,3.50062525027491e-05,1.30084598949149e-05,4.61336746268579e-06,2.02915784817836e-06
"19",1.64626012648399e-12,2.24847335750167e-11,2.59451368120694e-10,2.44504488165538e-09,1.91426975747712e-08,1.26706741233315e-07,7.20736754790937e-07,3.57354677571881e-06,1.56374747093615e-05,6.10838532482546e-05,0.000214985468956543,0.00068540650875642,0.00198358126455375,0.00521110898302,0.0123896335827302,0.0265101386587356,0.0506920532850635,0.085310544547455,0.122942114317964,0.148233492934561,0.149576199388784,0.129029581414454,0.0980570372961119,0.0676159680628692,0.0433247174795721,0.0262076144989026,0.0150981440371634,0.00831776795258609,0.00438779895953276,0.00221473540769794,0.00106759360066905,0.000490516979176556,0.000214439292700766,8.90385431869921e-05,3.50455633003959e-05,1.32554290313195e-05,6.32235291188042e-06
"20",8.92931722121283e-14,1.56363819008029e-12,2.24786780884481e-11,2.59450808362053e-10,2.44504482566941e-09,1.91426975747669e-08,1.26706741233315e-07,7.20736754790937e-07,3.57354677571881e-06,1.56374747093615e-05,6.10838532482546e-05,0.000214985468956543,0.00068540650875642,0.00198358126455375,0.00521110898302,0.0123896335827302,0.0265101386587356,0.0506920532850635,0.085310544547455,0.122942114317964,0.148233492934561,0.149576199388784,0.129029581414454,0.0980570372961119,0.0676159680628692,0.0433247174795722,0.0262076144989047,0.0150981440372141,0.00831776795350656,0.00438779897801678,0.00221473574390167,0.00106759753757817,0.000490543686178092,0.000214528566411303,8.91802566586831e-05,3.58775149726621e-05,1.84838435170128e-05
"21",3.75041424428683e-15,8.57793349681139e-14,1.56341904648751e-12,2.24786622399616e-11,2.59450806777156e-10,2.44504482566939e-09,1.91426975747669e-08,1.26706741233315e-07,7.20736754790937e-07,3.57354677571881e-06,1.56374747093615e-05,6.10838532482546e-05,0.000214985468956543,0.00068540650875642,0.00198358126455375,0.00521110898302,0.0123896335827302,0.0265101386587356,0.0506920532850635,0.085310544547455,0.122942114317964,0.148233492934561,0.149576199388784,0.129029581414454,0.0980570372961119,0.0676159680628695,0.0433247174795864,0.0262076144992395,0.0150981440427215,0.00831776803942218,0.00438780026201095,0.0022147494819609,0.00106768660094968,0.000490835717287719,0.000215002557272271,9.17902450869404e-05,5.08811708935854e-05
"22",1.18781459169972e-16,3.63769640579421e-15,8.57736036851397e-14,1.56341874436232e-12,2.24786622097491e-11,2.59450806777156e-10,2.44504482566939e-09,1.91426975747669e-08,1.26706741233315e-07,7.20736754790937e-07,3.57354677571881e-06,1.56374747093615e-05,6.10838532482546e-05,0.000214985468956543,0.00068540650875642,0.00198358126455375,0.00521110898302,0.0123896335827302,0.0265101386587356,0.0506920532850635,0.085310544547455,0.122942114317964,0.148233492934561,0.149576199388784,0.129029581414454,0.0980570372961138,0.0676159680629464,0.0433247174813807,0.0262076145272599,0.015098144413806,0.00831777267711051,0.00438784517500502,0.002215026621695,0.00106857841895922,0.000492314952805268,0.000222659213857654,0.000132316614473504
"23",2.73038597311436e-18,1.1615670264017e-16,3.63759458198398e-15,8.57736002254733e-14,1.56341874401635e-12,2.24786622097491e-11,2.59450806777156e-10,2.44504482566939e-09,1.91426975747669e-08,1.26706741233315e-07,7.20736754790937e-07,3.57354677571881e-06,1.56374747093615e-05,6.10838532482546e-05,0.000214985468956543,0.00068540650875642,0.00198358126455375,0.00521110898302,0.0123896335827302,0.0265101386587356,0.0506920532850635,0.085310544547455,0.122942114317964,0.148233492934561,0.149576199388784,0.129029581414463,0.0980570372964572,0.0676159680708874,0.0433247176017209,0.0262076159687711,0.0150981600645675,0.00831791033634852,0.00438865304891511,0.00221758028505038,0.00107290183605368,0.000513403410433913,0.000326047536198739
"24",4.28411274111014e-20,2.68866041039787e-18,1.16155606790377e-16,3.63759456406134e-15,8.5773600223681e-14,1.56341874401635e-12,2.24786622097491e-11,2.59450806777156e-10,2.44504482566939e-09,1.91426975747669e-08,1.26706741233315e-07,7.20736754790937e-07,3.57354677571881e-06,1.56374747093615e-05,6.10838532482546e-05,0.000214985468956543,0.00068540650875642,0.00198358126455375,0.00521110898302,0.0123896335827302,0.0265101386587356,0.0506920532850635,0.085310544547455,0.122942114317964,0.148233492934561,0.14957619938882,0.129029581415788,0.0980570373262771,0.0676159685119017,0.0433247225656214,0.0262076647030312,0.0150985548778753,0.00832012153843317,0.0043955289429782,0.00222944126297246,0.00112764265257496,0.000763313072377176
"25",4.09293296354356e-22,4.24372109059705e-20,2.68865503360665e-18,1.16155606790377e-16,3.63759456406134e-15,8.5773600223681e-14,1.56341874401635e-12,2.24786622097491e-11,2.59450806777156e-10,2.44504482566939e-09,1.91426975747669e-08,1.26706741233315e-07,7.20736754790937e-07,3.57354677571881e-06,1.56374747093615e-05,6.10838532482546e-05,0.000214985468956543,0.00068540650875642,0.00198358126455375,0.00521110898302,0.0123896335827302,0.0265101386587356,0.0506920532850635,0.0853105445474552,0.12294211431797,0.148233492934737,0.149576199393717,0.129029581515456,0.0980570387370785,0.0676159836637607,0.043324861424995,0.026208721091336,0.0151042425646309,0.00833755521910989,0.00442609603144179,0.00236379750227427,0.00170169911466901
"26",1.79226374115175e-24,4.07501032613204e-22,4.24372109059705e-20,2.68865503360665e-18,1.16155606790377e-16,3.63759456406134e-15,8.5773600223681e-14,1.56341874401635e-12,2.24786622097491e-11,2.59450806777156e-10,2.44504482566939e-09,1.91426975747669e-08,1.26706741233315e-07,7.20736754790937e-07,3.57354677571881e-06,1.56374747093615e-05,6.10838532482546e-05,0.000214985468956543,0.00068540650875642,0.00198358126455375,0.00521110898302,0.0123896335827302,0.0265101386587357,0.050692053285066,0.0853105445475132,0.12294211431908,0.14823349295495,0.149576199719819,0.12902958566846,0.0980570807149768,0.0676163478252209,0.0433275037957419,0.0262225022677853,0.0151459516717193,0.00841169279795816,0.00473880427974634,0.0036201074956571
"27",0,1.79226374115175e-24,4.07501032613204e-22,4.24372109059705e-20,2.68865503360665e-18,1.16155606790377e-16,3.63759456406134e-15,8.5773600223681e-14,1.56341874401635e-12,2.24786622097491e-11,2.59450806777156e-10,2.44504482566939e-09,1.91426975747669e-08,1.26706741233315e-07,7.20736754790937e-07,3.57354677571881e-06,1.56374747093615e-05,6.10838532482546e-05,0.000214985468956543,0.00068540650875642,0.00198358126455375,0.00521110898302002,0.012389633582731,0.0265101386587564,0.0506920532854861,0.0853105445541585,0.122942114409226,0.1482334940603,0.149576211555829,0.129029694361902,0.0980579703157101,0.0676225562391441,0.043359051851727,0.0263168733033794,0.0153155373079388,0.00910335278041689,0.0073645273184546
"28",0,0,1.79226374115175e-24,4.07501032613204e-22,4.24372109059705e-20,2.68865503360665e-18,1.16155606790377e-16,3.63759456406134e-15,8.5773600223681e-14,1.56341874401635e-12,2.24786622097491e-11,2.59450806777156e-10,2.44504482566939e-09,1.91426975747669e-08,1.26706741233315e-07,7.20736754790937e-07,3.57354677571881e-06,1.56374747093615e-05,6.10838532482546e-05,0.000214985468956543,0.000685406508756433,0.00198358126455412,0.00521110898302837,0.0123896335828885,0.0265101386612543,0.0506920533184814,0.0853105449239861,0.122942118067929,0.148233526625955,0.149576476496339,0.129031726484338,0.0980716956308409,0.0676908968028264,0.0435612997069748,0.0266831621854192,0.0167722508152091,0.0143582302827093
"29",0,0,0,1.79226374115175e-24,4.07501032613204e-22,4.24372109059705e-20,2.68865503360665e-18,1.16155606790377e-16,3.63759456406134e-15,8.5773600223681e-14,1.56341874401635e-12,2.24786622097491e-11,2.59450806777156e-10,2.44504482566939e-09,1.91426975747669e-08,1.26706741233315e-07,7.20736754790937e-07,3.57354677571881e-06,1.56374747093617e-05,6.10838532482621e-05,0.000214985468956786,0.000685406508762107,0.00198358126465371,0.00521110898440157,0.0123896335986083,0.0265101388180276,0.0506920547235624,0.0853105564563556,0.122942205794777,0.148234160912336,0.149580988738372,0.129060946548029,0.0982136650775216,0.0681062329011967,0.0443189082858254,0.0296172453338184,0.0268470163952428
"30",0,0,0,0,1.79226374115175e-24,4.07501032613204e-22,4.24372109059705e-20,2.68865503360665e-18,1.16155606790377e-16,3.63759456406134e-15,8.5773600223681e-14,1.56341874401635e-12,2.24786622097491e-11,2.59450806777156e-10,2.44504482566939e-09,1.9142697574767e-08,1.2670674123332e-07,7.20736754791143e-07,3.57354677572548e-06,1.56374747095361e-05,6.10838532520792e-05,0.000214985469025523,0.000685406509753759,0.00198358127599658,0.0052111090888497,0.012389634405835,0.0265101443911358,0.0506920913149057,0.0853107929649835,0.122943733313799,0.148244148285794,0.149641902174485,0.129346527968406,0.0990380477784332,0.0696232086166896,0.0499860677668254,0.0480974544855252
"31",0,0,0,0,0,1.79226374115175e-24,4.07501032613204e-22,4.24372109059705e-20,2.68865503360665e-18,1.16155606790377e-16,3.63759456406134e-15,8.5773600223681e-14,1.56341874401636e-12,2.24786622097495e-11,2.59450806777212e-10,2.44504482567384e-09,1.91426975749978e-08,1.26706741241591e-07,7.20736755006254e-07,3.57354677998155e-06,1.56374747765468e-05,6.10838541231774e-05,0.000214985478555927,0.000685406597544076,0.00198358195344132,0.00521111350378387,0.0123896595584775,0.0265102776233127,0.0506927932510289,0.085314640222026,0.122965946079436,0.148368528635661,0.150197738871806,0.130924261297765,0.101961884432927,0.0801043509198978,0.0823936673838369
"32",0,0,0,0,0,0,1.79226374115175e-24,4.07503024017361e-22,4.24376636185155e-20,2.68870217097279e-18,1.16158592613613e-16,3.63772352631923e-15,8.57776376967346e-14,1.56351391344639e-12,2.24803961706512e-11,2.59475725354162e-10,2.44533227753046e-09,1.91454048320339e-08,1.26727923557919e-07,7.20876885991011e-07,3.57434364773386e-06,1.56414268263366e-05,6.11011705014882e-05,0.000215053334622758,0.000685646901911992,0.00198435647780712,0.00521339670132104,0.0123958558889653,0.0265259850256747,0.050731581531901,0.0854183649745023,0.123302523352254,0.149531182075376,0.153214298151967,0.136364161588642,0.120373038076598,0.133963369498326
"33",0,0,0,0,0,0,0,1.85200586585681e-24,4.21084400366977e-22,4.38517846028362e-20,2.7782768680602e-18,1.20027460350056e-16,3.75884771613499e-15,8.86327202171009e-14,1.61553270068851e-12,2.32279508574648e-11,2.68099163002151e-10,2.52654619456495e-09,1.97807845396655e-08,1.30930245433447e-07,7.44760539421849e-07,3.69265607644802e-06,1.6158639907698e-05,6.31193272348878e-05,0.00022214736490285,0.000708229595141961,0.00204958890349116,0.00538438280189325,0.0128014487386195,0.0273936499960982,0.0524103155729009,0.0884152055429281,0.128443531715332,0.157632164831567,0.163779398507292,0.164144383831759,0.196531683683705
"34",0,0,0,0,0,0,0,0,1.85200586585681e-24,4.21084400366977e-22,4.38517846028362e-20,2.7782768680602e-18,1.20027460350056e-16,3.75884771613499e-15,8.86327202172244e-14,1.61553270070793e-12,2.322795085905e-11,2.68099163102594e-10,2.52654620002687e-09,1.9780784775225e-08,1.30930252955981e-07,7.44760715324792e-07,3.69265916347541e-06,1.61586824668595e-05,6.31198140047574e-05,0.000222152192029145,0.000708271926710711,0.00204991884382715,0.00538669594342854,0.0128166014134416,0.0274905151756688,0.052977992409059,0.0909645149288595,0.135621079198307,0.171170332318056,0.210574845409158,0.289933210794486
"35",0,0,0,0,0,0,0,0,0,1.85200586585681e-24,4.21084400366977e-22,4.38517846028362e-20,2.7782768680602e-18,1.20027460380923e-16,3.758847732659e-15,8.86327223942444e-14,1.61553284747423e-12,2.32279572557859e-11,2.68099369789335e-10,2.5265516084074e-09,1.97809031034691e-08,1.30932383713421e-07,7.44791450798038e-07,3.69301059534207e-06,1.61619149203012e-05,6.31446763305584e-05,0.000222320463458752,0.000709314979687846,0.00205596420065611,0.00542046972608887,0.0130063323125273,0.0285044132811125,0.0572715277285719,0.102741367661123,0.158093664563595,0.24438667953621,0.387504047620799
"36",0,0,0,0,0,0,0,0,0,0,1.85200586585681e-24,4.21084400366977e-22,4.3851846336365e-20,2.7782909021491e-18,1.20029216139073e-16,3.75898586262734e-15,8.86398790438649e-14,1.61578926088299e-12,2.32346257034386e-11,2.68231307935636e-10,2.52862892339136e-09,1.98079057510094e-08,1.31227753547902e-07,7.47510589159287e-07,3.71395754907587e-06,1.62977550102509e-05,6.39060069606773e-05,0.000226156723277198,0.000727366044036914,0.00213856374716944,0.0058055391848917,0.0147780655401648,0.0353248399597105,0.0752518694653654,0.137239525082116,0.2616365819364,0.466786673229297
"37",0,0,0,0,0,0,0,0,0,0,0,1.91373939471871e-24,4.36970495127438e-22,4.57053595292182e-20,2.91188299312091e-18,1.26732498627434e-16,4.00611260909581e-15,9.55122038506935e-14,1.7623326756237e-12,2.56670016834958e-11,3.002126870499e-10,2.86884738967781e-09,2.28047700886388e-08,1.53540150964767e-07,8.89888898441487e-07,4.50011313214573e-06,2.01028475684474e-05,8.0379460219213e-05,0.000291455112302755,0.00097119453920443,0.00303352900308385,0.00907331149270496,0.0254812451725428,0.0615115597885564,0.124217927413225,0.267385416826886,0.507928308800166
