"","X0","X1","X2","X3","X4","X5","X6","X7","X8","X9","X10","X11","X12","X13","X14","X15","X16","X17","X18","X19","X20","X21","X22","X23","X24","X25","X26","X27","X28","X29","X30","X31","X32","X33","X34","X35","X36"
"1",0.206308736971678,0.178420384619568,0.148783522754988,0.1321861206564,0.104883434926909,0.0787426289572793,0.0559689808316853,0.037565223875882,0.023988824072851,0.0146188769388384,0.0085346517246572,0.0047869637071928,0.00258509112487376,0.00134614737978237,0.000676588878933938,0.000328392215772885,0.000153944664058611,6.96938888676943e-05,3.04618082091261e-05,1.28488027177215e-05,5.22746410502705e-06,2.05016479738999e-06,7.74610720770191e-07,2.81764506541004e-07,9.86034151711108e-08,3.31724381640834e-08,1.07200817192244e-08,3.32493868353708e-09,9.88854365589783e-10,2.81712003044333e-10,7.67928004793374e-11,2.00053336565501e-11,4.97385077995854e-12,1.17844679147959e-12,2.65721736193774e-13,5.75894475712271e-14,1.339826051131e-14
"2",0.16800508682409,0.153096559301935,0.138520249979147,0.131995989464262,0.113301660555337,0.0914656264097493,0.0693699772204534,0.0494377381420788,0.0333570625115473,0.021405470903186,0.0131256986248125,0.00771873855805152,0.00436488307936705,0.00237799225036841,0.00124957732981099,0.000633725561799839,0.000310258432144483,0.00014662478741499,6.6872468924697e-05,2.94228210656135e-05,1.24831548358804e-05,5.10447450284466e-06,2.01062959741268e-06,7.62468817024404e-07,2.78203480160288e-07,9.76067052826496e-08,3.29064223686e-08,1.06524501765196e-08,3.30857927288289e-09,9.85094718174205e-10,2.80892446028617e-10,7.66236563588386e-11,1.99723526680044e-11,4.96779856417859e-12,1.17791929027821e-12,2.69448300780415e-13,6.65317024654299e-14
"3",0.121932116872283,0.119799114016858,0.120926409488433,0.126562463351562,0.120141116267996,0.10618794047882,0.08717165729026,0.0666398408734462,0.047820353137964,0.0324171475532253,0.020885857511101,0.0128516290495468,0.00758120554287296,0.00429923937093471,0.00234817164033275,0.00123667414895412,0.000628403543259264,0.000308164613350946,0.000145838663399499,6.65907246777403e-05,2.93264231971891e-05,1.2451671541545e-05,5.09466238361843e-06,2.00771282159611e-06,7.6164238724343e-07,2.77980486953103e-07,9.75494663843274e-08,3.28924637695979e-08,1.06492210946588e-08,3.30787193197518e-09,9.84948299505577e-10,2.80863873770986e-10,7.66184180687454e-11,1.99715113821522e-11,4.9703650306582e-12,1.19780524239342e-12,3.13291921206649e-13
"4",0.0810380768894379,0.0865388868020805,0.0978243092302769,0.1131418285406,0.119383872612326,0.116274278598541,0.104081473259228,0.0859205812305228,0.0659485847857657,0.0474350110985124,0.0322113733132199,0.0207801170834679,0.0127997615063116,0.00755697175082318,0.00428846182413812,0.00234360955757932,0.00123483552037387,0.000627697774769358,0.000307906522051926,0.000145748742069152,6.65608788550283e-05,2.93169889793451e-05,1.24488328509223e-05,5.09384987443333e-06,2.007491783668e-06,7.61585293624784e-07,2.77966501718819e-07,9.75462220973297e-08,3.28917521150303e-08,1.06490737354202e-08,3.30784318437738e-09,9.84943033411092e-10,2.80862999213122e-10,7.66186315393613e-11,1.99848404695169e-11,5.06623271179331e-12,1.40147385601639e-12
"5",0.0496562047125467,0.0578010476425738,0.0728728385735866,0.0930449014343376,0.109063893068318,0.117422339866286,0.115336177576568,0.10357981059241,0.085675357886758,0.0658216306834222,0.0473712224378343,0.0321798316384315,0.020765070797506,0.0127928769395677,0.00755396301505768,0.00428720845437,0.00234311222931725,0.00123464761172679,0.000627630180088567,0.000307883378758211,0.000145741203396699,6.65585440826311e-05,2.93163020630117e-05,1.24486410700732e-05,5.09379913078682e-06,2.00747907896154e-06,7.61582289048728e-07,2.77965831887727e-07,9.75460816412908e-08,3.28917244826674e-08,1.06490686582985e-08,3.30784236344987e-09,9.84943122859711e-10,2.80864998706496e-10,7.66808656942069e-11,2.04211962912968e-11,5.96679725242185e-12
"6",0.0283726532788029,0.0359141457891841,0.0500242177364149,0.0700843393302441,0.0908092601191223,0.108062791747027,0.116984737462445,0.115121801463831,0.103487037562173,0.085630807804876,0.0658007003122265,0.0473612362098654,0.0321751704022448,0.0207629613417627,0.0127919607300035,0.00755358291077619,0.00428705814369386,0.00234305562539236,0.0012346273222243,0.000627623260762631,0.000307881135088556,0.000145740512197347,6.65583419941514e-05,2.93162460606643e-05,1.24486263838702e-05,5.09379549302646e-06,2.00747822973622e-06,7.61582102681946e-07,2.7796579355441e-07,9.75460742895414e-08,3.28917232419571e-08,1.06490687996976e-08,3.30784381000721e-09,9.84953863843388e-10,2.81140323110086e-10,7.85625999750699e-11,2.42182531771488e-11
"7",0.0152068101469547,0.0208540042115985,0.0317815884572436,0.0484787937658776,0.0689160487680915,0.090313132001141,0.107862291133589,0.116895554260539,0.115089191500968,0.10347333821814,0.0856252703752701,0.0657982992870544,0.0473601876798112,0.0321747127828695,0.0207627667142726,0.0127918810582464,0.00755355170795938,0.00428704648436282,0.00234305147333788,0.0012346259142141,0.00062762280647223,0.000307880995767714,0.000145740471633803,6.65583307979094e-05,2.93162431359107e-05,1.24486256622248e-05,5.09379532523446e-06,2.00747819307268e-06,7.61582095194211e-07,2.77965792224154e-07,9.75460745360449e-08,3.28917254415654e-08,1.0649077630293e-08,3.30789802846663e-09,9.8611229781097e-10,2.88845775903978e-10,9.38510356947216e-11
"8",0.00768170998293509,0.0113659344893585,0.0187915952250684,0.0309721426342405,0.0478980526451686,0.0686764322107173,0.090220973100461,0.107824126717201,0.116883616678459,0.115084912962901,0.103471997267333,0.0856248028470264,0.0657981317790978,0.0473601228996611,0.0321746871340208,0.0207627566636754,0.0127918772394772,0.00755355031487288,0.00428704599796213,0.00234305131110168,0.00123462586259999,0.000627622790833245,0.000307880991261815,0.000145740470401466,6.65583304786044e-05,2.93162430577028e-05,1.24486256441682e-05,5.0937953213431e-06,2.0074781924178e-06,7.6158209571913e-07,2.77965795239376e-07,9.75460874837486e-08,3.28917744306616e-08,1.06493375369975e-08,3.31254328131796e-09,1.01613293079195e-09,3.47705171966122e-10
"9",0.00367015033803259,0.00583517064130726,0.0103936397651133,0.0183917984755385,0.0306985528202336,0.0477861062919321,0.0686343508561428,0.0902041006505294,0.107819256012248,0.116882017856176,0.1150845043874,0.103471885793003,0.0856247748312455,0.0657981237582037,0.047360120324584,0.0321746862432253,0.020762756351089,0.0127918771324447,0.00755355027941462,0.00428704598664657,0.00234305130763371,0.00123462586158186,0.000627622790547627,0.00030788099118545,0.000145740470382061,6.65583304739424e-05,2.93162430566967e-05,1.24486256441724e-05,5.09379532225047e-06,2.00747819650038e-06,7.61582112963848e-07,2.77965864991562e-07,9.7546340607281e-08,3.28929592625663e-08,1.06671230938493e-08,3.42402213832987e-09,1.23304338422208e-09
"10",0.00166205629388259,0.00282929404872058,0.00540005659757659,0.0102076304820659,0.0182702463244209,0.0306486909388292,0.0477676427314196,0.068627040699441,0.0902020601561191,0.107818605186834,0.11688186574512,0.115084467629489,0.103471878822081,0.08562477346417,0.0657981234657829,0.0473601202482982,0.0321746862203575,0.020762756344223,0.0127918771304205,0.00755355027883333,0.00428704598648462,0.00234305130759003,0.00123462586157048,0.000627622790544775,0.00030788099118478,0.000145740470381993,6.65583304743045e-05,2.93162430582279e-05,1.24486256500661e-05,5.09379534554203e-06,2.00747828835069e-06,7.61582464710818e-07,2.77967088578105e-07,9.75514809285104e-08,3.29580894351635e-08,1.10623129070782e-08,4.18990679844205e-09
"11",0.000714264851501074,0.00129811751837276,0.00264403893169788,0.00531857771383623,0.0101568559607842,0.0182492423604524,0.0306410488223426,0.0477646328460548,0.0686262154366039,0.0902017990501384,0.107818546293979,0.116881852092824,0.115084465363279,0.103471878472792,0.0856247734159724,0.0657981234579047,0.0473601202463716,0.0321746862198667,0.0207627563440984,0.0127918771303896,0.00755355027882593,0.00428704598648291,0.00234305130758966,0.00123462586157042,0.000627622790544877,0.000307880991185363,0.000145740470384495,6.65583304837089e-05,2.93162430922988e-05,1.24486257751318e-05,5.09379580680048e-06,2.00747995635159e-06,7.61588018899956e-07,2.77988326597721e-07,9.77799480469396e-08,3.42973924118204e-08,1.36553563673142e-08
"12",0.000291442874391238,0.000564334429353976,0.00122303138681676,0.00261042948678507,0.00529866797887018,0.0101485164099058,0.0182462810845657,0.0306398847677892,0.0477643180464802,0.0686261160010055,0.0902017769832134,0.107818541247891,0.116881851302656,0.115084465254389,0.10347187846173,0.0856247734150152,0.065798123457724,0.0473601202463337,0.0321746862198584,0.0207627563440965,0.0127918771303892,0.00755355027882585,0.00428704598648292,0.0023430513075898,0.00123462586157117,0.000627622790548422,0.000307880991199972,0.000145740470437777,6.65583306678388e-05,2.93162437259931e-05,1.24486279651806e-05,5.09380327265252e-06,2.00750371538832e-06,7.61671648143195e-07,2.78757103952386e-07,1.02124738233925e-07,4.27212468665251e-08
"13",0.000112914473177099,0.000232645220969058,0.000535371733977873,0.00120996593943267,0.0026031066367684,0.00529555087323862,0.0101474459612775,0.0182458603160235,0.0306397725948735,0.0477642825976137,0.0686261082032309,0.0902017752077935,0.107818540977453,0.116881851267131,0.115084465251314,0.103471878461592,0.0856247734149961,0.065798123457721,0.0473601202463332,0.0321746862198583,0.0207627563440965,0.0127918771303892,0.00755355027882602,0.00428704598648383,0.00234305130759424,0.00123462586159107,0.000627622790627614,0.000307880991480502,0.000145740471368701,6.65583336974559e-05,2.93162535737473e-05,1.24486596038342e-05,5.09389936282316e-06,2.00781784149927e-06,7.64156297911848e-07,2.92264675429933e-07,1.28397715445028e-07
"14",4.15254053452691e-05,9.09793314168742e-05,0.000222022804597476,0.000530580101029262,0.00120744056607268,0.00260201002181654,0.00529519061452365,0.0101473041575598,0.0182458231628402,0.0306397608394917,0.0477642800270482,0.0686261076187168,0.0902017751201037,0.107818540966192,0.116881851266232,0.115084465251292,0.10347187846159,0.0856247734149958,0.065798123457721,0.0473601202463332,0.0321746862198583,0.0207627563440967,0.0127918771303903,0.00755355027883124,0.00428704598650806,0.00234305130769807,0.00123462586199036,0.000627622792002609,0.000307880995884942,0.000145740485028225,6.65583756650192e-05,2.9316380810005e-05,1.24490280834489e-05,5.09502595191332e-06,2.01553960304765e-06,8.04442480521572e-07,3.70970201365553e-07
"15",1.44872228582879e-05,3.37500070194036e-05,8.72798193067809e-05,0.000220363349483389,0.000529763697014268,0.00120707731917962,0.00260189730668286,0.00529514612830753,0.0101472927594079,0.0182458195508385,0.0306397600534635,0.0477642798483632,0.068626107592163,0.0902017751167348,0.107818540965935,0.116881851266228,0.115084465251292,0.10347187846159,0.0856247734149958,0.065798123457721,0.0473601202463334,0.0321746862198595,0.0207627563441026,0.0127918771304178,0.00755355027895361,0.00428704598701136,0.00234305130957163,0.00123462586827114,0.000627622811506124,0.000307881053920041,0.000145740654527511,6.65588619514163e-05,2.93177237020212e-05,1.2452889510421e-05,5.11812524557556e-06,2.13091474750592e-06,1.03099178571332e-06
"16",4.79053412194158e-06,1.18722092592936e-05,3.25285390173895e-05,8.67367204536273e-05,0.000220115990776267,0.000529650343766349,0.00120704458389317,0.00260188433318477,0.00529514290085641,0.0101472917347909,0.0182458193288971,0.0306397600030052,0.0477642798409118,0.0686261075912241,0.0902017751166652,0.107818540965934,0.116881851266228,0.115084465251292,0.10347187846159,0.085624773414996,0.0657981234577221,0.0473601202463393,0.0321746862198886,0.0207627563442359,0.0127918771309884,0.00755355028121845,0.00428704599519478,0.00234305133632676,0.0012346259491091,0.000627623043677877,0.000307881702352651,0.000145742422016994,6.65635210571372e-05,2.93303827382591e-05,1.25194623161194e-05,5.43567509046796e-06,2.75769886516688e-06
"17",1.49972639049566e-06,3.95747976618339e-06,1.1490636502651e-05,3.23605169474398e-05,8.66664920146967e-05,0.000220082645553839,0.000529641532726054,0.00120704107140529,0.00260188349325683,0.00529514263363659,0.0101472916772005,0.0182458193158013,0.0306397600010799,0.0477642798406702,0.0686261075912065,0.0902017751166651,0.107818540965934,0.116881851266228,0.115084465251292,0.103471878461591,0.0856247734150011,0.0657981234577497,0.0473601202464723,0.0321746862204807,0.0207627563466935,0.0127918771404498,0.00755355031450307,0.00428704610155368,0.00234305165002084,0.00123462682317447,0.000627625391659999,0.000307887812395811,0.000145757827511684,6.66032387756768e-05,2.95153639050011e-05,1.33600532459283e-05,7.10288053978546e-06
"18",4.43865547533375e-07,1.24881151435256e-06,3.8449578419617e-06,1.14415037089395e-05,3.23418330616982e-05,8.66572380451477e-05,0.000220080450500861,0.000529640650633,0.00120704087149811,0.0026018834294941,0.0052951426199772,0.0101472916740939,0.0182458193153462,0.0306397600010229,0.0477642798406661,0.0686261075912064,0.0902017751166651,0.107818540965934,0.116881851266229,0.115084465251295,0.103471878461613,0.0856247734151184,0.0657981234583052,0.0473601202488921,0.0321746862302731,0.0207627563834219,0.0127918772666388,0.00755355070948178,0.00428704724200659,0.00234305474636245,0.00123463486622731,0.000627645476322859,0.000307936388946638,0.000145877133302957,6.70990671466265e-05,3.16569121128316e-05,1.76247395469899e-05
"19",1.23983177890139e-07,3.725496039329e-07,1.21757042490948e-06,3.83138819495019e-06,1.14368440807578e-05,3.23394084742639e-05,8.66567321108779e-05,0.000220080244995656,0.000529640607360561,0.00120704085765203,0.00260188342655031,0.00529514261930766,0.0101472916739961,0.018245819315334,0.030639760001022,0.0477642798406661,0.0686261075912065,0.0902017751166654,0.107818540965937,0.116881851266244,0.115084465251384,0.103471878462071,0.0856247734172559,0.0657981234674463,0.0473601202850998,0.032174686363059,0.0207627568301949,0.0127918786392772,0.00755355459900255,0.00428705756883095,0.00234308080833227,0.00123469763469333,0.000627791593383568,0.0003082795679422,0.000147159672140807,7.23533027770232e-05,4.21505341071344e-05
"20",3.26194284679105e-08,1.04894276716816e-07,3.64407370364231e-07,1.21403662831703e-06,3.83029806427792e-06,1.14362441457681e-05,3.23393004541543e-05,8.66566876134407e-05,0.000220080236527033,0.000529640604639866,0.0012070408570792,0.00260188342642004,0.00529514261928869,0.0101472916739937,0.0182458193153338,0.030639760001022,0.0477642798406662,0.0686261075912075,0.0902017751166735,0.107818540965992,0.116881851266567,0.115084465253042,0.103471878469702,0.0856247734493539,0.0657981235922131,0.0473601207336869,0.0321746878443776,0.0207627613051614,0.0127918911083316,0.00755358706721555,0.00428713749539344,0.00234326733035297,0.00123511703116646,0.000628737008139076,0.000311481668425118,0.000159581065920764,9.71975741287909e-05
"21",8.06440188199934e-09,2.78175032122069e-08,1.02909132415851e-07,3.63542080989455e-07,1.21379719916321e-06,3.83015797278683e-06,1.14362227093343e-05,3.23392914647943e-05,8.66566861242998e-05,0.000220080236046104,0.000529640604539892,0.00120704085705647,0.00260188342641674,0.00529514261928828,0.0101472916739937,0.0182458193153339,0.0306397600010224,0.0477642798406699,0.0686261075912367,0.0902017751168668,0.107818540967101,0.116881851272176,0.115084465278491,0.103471878575092,0.0856247738519959,0.065798125014048,0.0473601253491599,0.0321747015725535,0.0207627989779982,0.0127919875304028,0.00755381933828909,0.00428766482808137,0.00234441652372862,0.00123761194022742,0.000636454216405126,0.000339790484614439,0.000216194508576934
"22",1.86832513728997e-09,6.93163340190667e-09,2.73665263517002e-08,1.02710736594132e-07,3.63492704059618e-07,1.21376640166848e-06,3.83015399652448e-06,1.14362210054847e-05,3.23392912310274e-05,8.66566860482766e-05,0.000220080236030565,0.000529640604536361,0.00120704085705596,0.00260188342641668,0.00529514261928829,0.0101472916739938,0.0182458193153353,0.0306397600010355,0.0477642798407682,0.0686261075918725,0.0902017751204493,0.107818540984935,0.116881851351902,0.115084465603642,0.103471879797261,0.0856247780962471,0.0657981385741196,0.0473601651023103,0.0321748091391007,0.0207630700570474,0.0127926281659449,0.00755523910963425,0.0042906729010309,0.00235072557444547,0.00125556551924031,0.000698675996719311,0.000463994251030611
"23",4.04311666573365e-10,1.618358862107e-09,6.83659805265185e-09,2.73241577370665e-08,1.02701186090431e-07,3.63486358017102e-07,1.21376570752189e-06,3.83015369171468e-06,1.14362209729413e-05,3.23392912203445e-05,8.66566860461417e-05,0.00022008023603008,0.000529640604536291,0.00120704085705596,0.00260188342641673,0.00529514261928882,0.0101472916739989,0.0182458193153783,0.0306397600013477,0.0477642798427384,0.0686261076027621,0.0902017751737989,0.107818541219992,0.116881852296667,0.115084469101253,0.10347189175733,0.0856248157497951,0.0657982474857545,0.0473604560002439,0.0321755320115612,0.0207647496248303,0.0127962721025208,0.00756276613365614,0.0043059676442498,0.00239104372423413,0.00138750487977977,0.000961090426171316
"24",8.14224423476707e-11,3.52866976862435e-10,1.59987378767859e-09,6.82822270812122e-09,2.7322430459557e-08,1.0269996805934e-07,3.63486243302759e-07,1.2137656558533e-06,3.83015368772423e-06,1.14362209716146e-05,3.23392912200873e-05,8.66566860460834e-05,0.000220080236030073,0.000529640604536303,0.00120704085705612,0.00260188342641845,0.00529514261930492,0.0101472916741298,0.0182458193163042,0.0306397600070663,0.0477642798737986,0.0686261077527134,0.0902017758257289,0.107818543805879,0.116881861740068,0.115084500948217,0.103471990696501,0.0856250984441801,0.0657989936774061,0.0473622869699361,0.0321797225416125,0.020773672687852,0.0128142891263796,0.00759832894005842,0.00439336478922544,0.00266101371497572,0.00192153123601412
"25",1.51948155967174e-11,7.15840701735317e-11,3.49566362092022e-10,1.59835154642629e-09,6.82793211136331e-09,2.7322214347939e-08,1.02699950080777e-07,3.63486235009242e-07,1.21376565542522e-06,3.83015368757937e-06,1.14362209715876e-05,3.23392912200814e-05,8.66566860460856e-05,0.000220080236030115,0.000529640604536799,0.00120704085706126,0.00260188342646503,0.0052951426196736,0.0101472916766807,0.0182458193317781,0.0306397600898934,0.0477642802687551,0.0686261094505595,0.0902017824852342,0.107818567845006,0.116881941851454,0.115084746976431,0.103472686135325,0.0856269150261495,0.0658034017223151,0.0473722433372587,0.0322005797509631,0.0208149436958298,0.0128936284055274,0.00778118452091988,0.00492646122756573,0.00370788996997865
"26",2.61526053588203e-12,1.34542724566156e-11,7.10462419511858e-11,3.49313752478478e-10,1.59830638682043e-09,6.82789696107349e-09,2.73222116875563e-08,1.02699948828324e-07,3.63486234969322e-07,1.21376565541138e-06,3.83015368757698e-06,1.14362209715878e-05,3.23392912200916e-05,8.66566860462156e-05,0.00022008023603157,0.000529640604551206,0.00120704085718718,0.00260188342743472,0.00529514262624249,0.0101472917158827,0.0182458195389151,0.0306397610670443,0.0477642844289366,0.0686261256140862,0.0902018402627765,0.107818758461466,0.116882521500509,0.115086370255239,0.103476887943675,0.0856370124222418,0.0658259483915032,0.0474188110600063,0.0322910954916036,0.0209848411656836,0.0132628300456634,0.00879692703621798,0.0069031073584955
"27",4.12991382726121e-13,2.3319137619143e-12,1.33748021563878e-11,7.10082397396061e-11,3.4930732447106e-10,1.59830119111064e-09,6.82789659324493e-09,2.73222115116135e-08,1.02699948825107e-07,3.63486234968182e-07,1.21376565541141e-06,3.83015368757995e-06,1.14362209716251e-05,3.23392912205109e-05,8.66566860504862e-05,0.000220080236070957,0.000529640604878315,0.00120704085961591,0.00260188344346635,0.00529514272014757,0.0101472922052364,0.0182458218224818,0.0306397706998073,0.0477643215323385,0.0686262570986443,0.0902022702615069,0.107820054891297,0.116886122720094,0.115095618093631,0.10349892412854,0.0856857291760718,0.0659253367756218,0.047608982218411,0.0326404278760147,0.0217040173580278,0.0151293966036444,0.0123898901858411
"28",5.9498805828892e-14,3.70805203053337e-13,2.32133840840079e-12,1.33696568892998e-11,7.10074094412173e-11,3.49306632608734e-10,1.59830114426214e-09,6.82789657057145e-09,2.73222115113956e-08,1.02699948825104e-07,3.6348623496924e-07,1.21376565542415e-06,3.83015368771765e-06,1.14362209729893e-05,3.23392912329912e-05,8.66566861560963e-05,0.000220080236893068,0.000529640610706519,0.00120704089687329,0.00260188365692908,0.00529514381535021,0.0101472972575081,0.0182458429390655,0.0306398513782339,0.0477646052273238,0.068627177822157,0.0902050257902731,0.107827655895863,0.116905508902014,0.115141477546007,0.103599441664633,0.0858886250790491,0.0663082359586736,0.0482988404757832,0.0339914105723857,0.0250092676215855,0.0214099681639607
"29",7.77215048310732e-15,5.37936370923398e-14,3.69547219666901e-13,2.32071612419746e-12,1.33695605126e-11,7.1007327179074e-11,3.49306627195419e-10,1.59830114162293e-09,6.82789657060139e-09,2.73222115119185e-08,1.02699948830906e-07,3.63486235027383e-07,1.21376565596165e-06,3.83015369235158e-06,1.14362210105698e-05,3.23392915207289e-05,8.6656688227036e-05,0.00022008025074595,0.000529640695676495,0.00120704136982714,0.00260188603450495,0.00529515462118977,0.010147341901893,0.0182460118494613,0.0306404400832973,0.0477664999420418,0.0686328040079953,0.0902204329059062,0.107866677563677,0.116997147407851,0.115340658732017,0.103997411681567,0.0866297999383378,0.0676188335713078,0.0507452493421008,0.0396207250796522,0.0355401845298155
"30",9.14400784699852e-16,7.07657032484032e-15,5.36609556356117e-14,3.69480520591258e-13,2.32070617305653e-12,1.33695518587967e-11,7.10073266219755e-11,3.49306626951111e-10,1.59830114198675e-09,6.8278965744558e-09,2.73222115483066e-08,1.02699949142023e-07,3.6348623747557e-07,1.21376567399299e-06,3.83015381862731e-06,1.14362218605211e-05,3.23392970248094e-05,8.66567221802529e-05,0.000220080447072052,0.000529641743642024,0.00120704648390088,0.00260190878130258,0.00529524706396031,0.010147686973649,0.0182472004661408,0.0306442250246594,0.0477776308484919,0.0686630202858191,0.0902963358350065,0.108043451698853,0.117377857785778,0.116093182315451,0.105379699465802,0.0890268781406064,0.0718839407601174,0.0599392342593402,0.0564897530888198
"31",9.61914456247637e-17,8.38567796500099e-16,7.06427249160271e-15,5.36546732559772e-14,3.69479616412749e-13,2.32070537743004e-12,1.33695518356707e-11,7.1007326919248e-11,3.49306630274499e-10,1.59830117265429e-09,6.82789682938141e-09,2.73222134720881e-08,1.0269996245428e-07,3.63486323031866e-07,1.21376619260024e-06,3.83015683097755e-06,1.14362388194294e-05,3.23393896824335e-05,8.66572086849305e-05,0.000220082863768125,0.000529652940610219,0.00120709445875928,0.00260209843224945,0.00529593996865526,0.0101500322180341,0.0182545580848491,0.0306655871699599,0.0478349795226029,0.0688056343494244,0.0906252323718508,0.10874446848495,0.118747431278334,0.118572314968608,0.109591660780725,0.096167573290596,0.0862301647218745,0.0856195149628084
"32",8.97702441106793e-18,8.88730075303942e-17,8.37674230923142e-16,7.06468466661843e-15,5.36624210515582e-14,3.69538930241549e-13,2.3211141884305e-12,1.33721195006323e-11,7.1022121781781e-11,3.49385245773247e-10,1.59868826460124e-09,6.8296707482459e-09,2.73298096997305e-08,1.0273046837084e-07,3.6360160699085e-07,1.21417756538139e-06,3.8315482262092e-06,1.14407210970605e-05,3.23532285056083e-05,8.66984786543879e-05,0.00022020276132779,0.000529994874458229,0.00120805643258597,0.00260477089552814,0.00530324575044543,0.0101695283136404,0.0183047753102755,0.0307890757338383,0.0481227607196852,0.0694374480082248,0.0919209777130568,0.11119714776175,0.123059671135249,0.125675622315111,0.12099586057549,0.117359164260666,0.122965656757844
"33",7.61138265627946e-19,8.63305877314465e-18,9.17546962643794e-17,8.65457320899255e-16,7.29920908132718e-15,5.54430601732903e-14,3.81795250185045e-13,2.39805916838451e-12,1.38151748527742e-11,7.3373996683696e-11,3.60948366097396e-10,1.65156550887314e-09,7.0554173225786e-09,2.82325314552036e-08,1.06121191253913e-07,3.75593335729284e-07,1.25419150451082e-06,3.9577420470403e-06,1.18174339615944e-05,3.34190554861255e-05,8.95596955168026e-05,0.000227497786657029,0.000547675583992347,0.00124882666796689,0.00269429234598059,0.00549055498484147,0.0105430873112316,0.0190147598682987,0.0320748650627271,0.0503408951885373,0.073074570028427,0.0975561595707099,0.119487175596354,0.134762435045178,0.142011839922685,0.148131954193739,0.162652883619136
"34",5.43985703410868e-20,7.13788756992473e-19,8.62885481774772e-18,9.17524281725823e-17,8.6545704584982e-16,7.29920914824568e-15,5.54430662794924e-14,3.81795347299692e-13,2.39806050677747e-12,1.38151911468804e-11,7.33741743640824e-11,3.60950120709956e-10,1.65158134603616e-09,7.05554912319208e-09,2.82335511972582e-08,1.06128569639432e-07,3.75643301096494e-07,1.25450652124703e-06,3.9595747184636e-06,1.18271881179986e-05,3.34663034756402e-05,8.97678300646767e-05,0.000228334221507833,0.000550757612810107,0.00125928413124695,0.00272702896865557,0.00558508554095897,0.0107949536898166,0.0196353283562781,0.0334896448427233,0.0533107531007235,0.0787596814271931,0.107551327890183,0.135703511429118,0.159078079028746,0.181049599619125,0.210135835574481
"35",3.34991063637403e-21,5.14000012539629e-20,7.13580805218421e-19,8.62875066215733e-18,9.17526483320014e-17,8.6546134378778e-16,7.29927760034518e-15,5.54440075271622e-14,3.81806633080038e-13,2.39817963600252e-12,1.38163105784189e-11,7.33836507296054e-11,3.61023275931234e-10,1.6521027030301e-09,7.05902059847346e-09,2.82553714533299e-08,1.06258817363879e-07,3.76381096663937e-07,1.25844475398903e-06,3.97918809186674e-06,1.19175383973947e-05,3.38494391326649e-05,9.12625870501957e-05,0.000233710657564812,0.000568627350382958,0.00131421031033142,0.00288305140554473,0.00599466519009586,0.0117902332126659,0.0218737158404027,0.038122623290868,0.0620475143976416,0.0938362780206377,0.131347835836437,0.169459532789615,0.207897107618676,0.252488106824236
"36",1.75602348060785e-22,3.18933240607601e-21,5.14041506933111e-20,7.13832285676174e-19,8.63316621668221e-18,9.18185717871588e-17,8.66324322846384e-16,7.30926803973505e-15,5.55469270410673e-14,3.82755154728127e-13,2.40604271220136e-12,1.38753048256853e-11,7.37871342598666e-11,3.63560097072342e-10,1.66690659650542e-09,7.14003720259734e-09,2.86751781373823e-08,1.08331759038124e-07,3.86146139847528e-07,1.30214626348833e-06,4.16369198376069e-06,1.26475622146267e-05,3.65453768398931e-05,0.000100539901398202,0.000263439222364716,0.000657228468294359,0.00155934812679902,0.00351206886232539,0.00749228366670485,0.0150944243851143,0.0285859829900148,0.0505462253805971,0.0830221636361111,0.12594000494974,0.174472055454914,0.225807232069906,0.282891811694319
"37",8.26750337560325e-24,1.81688081540491e-22,3.46909832873796e-21,5.63750713694489e-20,7.89318272126086e-19,9.6255737233732e-18,1.03239565017573e-16,9.82524960395773e-16,8.36366482585664e-15,6.4145496049561e-14,4.46205367517226e-13,2.83234997256239e-12,1.64986674911468e-11,8.86598364424864e-11,4.41715654727784e-10,2.05004839056512e-09,8.90389591438909e-09,3.63482155773063e-08,1.40023014399746e-07,5.10712343814659e-07,1.76796631223087e-06,5.81738742970119e-06,1.82057638488669e-05,5.41892594615586e-05,0.000153313191617305,0.000411749582553639,0.00104757278028792,0.00251899385299033,0.00571244893016225,0.0121836093306677,0.0243257739714126,0.0451613582785645,0.0776244996644131,0.122798901492973,0.176278379339077,0.234106296751426,0.297596423869058
