"","X0","X1","X2","X3","X4","X5","X6","X7","X8","X9","X10","X11","X12","X13","X14","X15","X16","X17","X18","X19","X20","X21","X22","X23","X24","X25","X26","X27"
"1",0.152027181245846,0.211298547151713,0.230371316278009,0.185418128114565,0.119345380295477,0.0623509435010081,0.0266301331107271,0.00928244415342171,0.00259623617413517,0.000572735398258644,9.49833407126218e-05,1.11861417006155e-05,7.64158575233106e-07,2.09358513762495e-08,0,0,0,0,0,0,0,0,0,0,0,0,0,0
"2",0.0501804304437281,0.13641679194853,0.207436704867337,0.220487431505718,0.176604395503793,0.112982384633752,0.0588732418820805,0.0251507375749549,0.0087709048516189,0.00245496824173802,0.000541083089352171,8.96642677264278e-05,1.05246006281407e-05,7.1698210680931e-07,1.96069367727623e-08,0,0,0,0,0,0,0,0,0,0,0,0,0
"3",0.00812635724089892,0.0447003860527184,0.135647411854542,0.20655626305249,0.219997812296512,0.17630303214627,0.112842304435575,0.0588248882549284,0.0251373080812261,0.00876794422398495,0.00245438265212914,0.000540995891434365,8.96534227908135e-05,1.05238272434124e-05,7.16960321324007e-07,1.96069367727623e-08,0,0,0,0,0,0,0,0,0,0,0,0
"4",0.00070590637504505,0.00752849296988398,0.0446541759221585,0.135608967093349,0.206543604478704,0.219990826043272,0.176300205842492,0.112841545112469,0.0588247472208403,0.0251372938310981,0.00876794274983378,0.00245438265212914,0.000540995891434365,8.96534227908135e-05,1.05238272434124e-05,7.16960321324007e-07,1.96069367727623e-08,0,0,0,0,0,0,0,0,0,0,0
"5",3.28063936288107e-05,0.000675349139125022,0.00752729156981075,0.0446533502699662,0.135608841667653,0.206543538878977,0.21999080135124,0.176300200191579,0.112841544375394,0.0588247472208403,0.0251372938310981,0.00876794274983378,0.00245438265212914,0.000540995891434365,8.96534227908135e-05,1.05238272434124e-05,7.16960321324007e-07,1.96069367727623e-08,0,0,0,0,0,0,0,0,0,0
"6",7.64352072703263e-07,3.20607141376217e-05,0.000675337468761576,0.00752728456759268,0.0446533502699662,0.135608841667653,0.206543538878977,0.21999080135124,0.176300200191579,0.112841544375394,0.0588247472208403,0.0251372938310981,0.00876794274983378,0.00245438265212914,0.000540995891434365,8.96534227908135e-05,1.05238272434124e-05,7.16960321324007e-07,1.96069367727623e-08,0,0,0,0,0,0,0,0,0
"7",7.00221806782814e-09,7.57349854635434e-07,3.20607141376217e-05,0.000675337468761576,0.00752728456759268,0.0446533502699662,0.135608841667653,0.206543538878977,0.21999080135124,0.176300200191579,0.112841544375394,0.0588247472208403,0.0251372938310981,0.00876794274983378,0.00245438265212914,0.000540995891434365,8.96534227908135e-05,1.05238272434124e-05,7.16960321324007e-07,1.96069367727623e-08,0,0,0,0,0,0,0,0
"8",0,7.00221806782814e-09,7.57349854635434e-07,3.20607141376217e-05,0.000675337468761576,0.00752728456759268,0.0446533502699662,0.135608841667653,0.206543538878977,0.21999080135124,0.176300200191579,0.112841544375394,0.0588247472208403,0.0251372938310981,0.00876794274983378,0.00245438265212914,0.000540995891434365,8.96534227908135e-05,1.05238272434124e-05,7.16960321324007e-07,1.96069367727623e-08,0,0,0,0,0,0,0
"9",0,0,7.00221806782814e-09,7.57349854635434e-07,3.20607141376217e-05,0.000675337468761576,0.00752728456759268,0.0446533502699662,0.135608841667653,0.206543538878977,0.21999080135124,0.176300200191579,0.112841544375394,0.0588247472208403,0.0251372938310981,0.00876794274983378,0.00245438265212914,0.000540995891434365,8.96534227908135e-05,1.05238272434124e-05,7.16960321324007e-07,1.96069367727623e-08,0,0,0,0,0,0
"10",0,0,0,7.00221806782814e-09,7.57349854635434e-07,3.20607141376217e-05,0.000675337468761576,0.00752728456759268,0.0446533502699662,0.135608841667653,0.206543538878977,0.21999080135124,0.176300200191579,0.112841544375394,0.0588247472208403,0.0251372938310981,0.00876794274983378,0.00245438265212914,0.000540995891434365,8.96534227908135e-05,1.05238272434124e-05,7.16960321324007e-07,1.96069367727623e-08,0,0,0,0,0
"11",0,0,0,0,7.00221806782814e-09,7.57349854635434e-07,3.20607141376217e-05,0.000675337468761576,0.00752728456759268,0.0446533502699662,0.135608841667653,0.206543538878977,0.21999080135124,0.176300200191579,0.112841544375394,0.0588247472208403,0.0251372938310981,0.00876794274983378,0.00245438265212914,0.000540995891434365,8.96534227908135e-05,1.05238272434124e-05,7.16960321324007e-07,1.96069367727623e-08,0,0,0,0
"12",0,0,0,0,0,7.00221806782814e-09,7.57349854635434e-07,3.20607141376217e-05,0.000675337468761576,0.00752728456759268,0.0446533502699662,0.135608841667653,0.206543538878977,0.21999080135124,0.176300200191579,0.112841544375394,0.0588247472208403,0.0251372938310981,0.00876794274983378,0.00245438265212914,0.000540995891434365,8.96534227908135e-05,1.05238272434124e-05,7.16960321324007e-07,1.96069367727623e-08,0,0,0
"13",0,0,0,0,0,0,7.00221806782814e-09,7.57349854635434e-07,3.20607141376217e-05,0.000675337468761576,0.00752728456759268,0.0446533502699662,0.135608841667653,0.206543538878977,0.21999080135124,0.176300200191579,0.112841544375394,0.0588247472208403,0.0251372938310981,0.00876794274983378,0.00245438265212914,0.000540995891434365,8.96534227908135e-05,1.05238272434124e-05,7.16960321324007e-07,1.96069367727623e-08,0,0
"14",0,0,0,0,0,0,0,7.00221806782814e-09,7.57349854635434e-07,3.20607141376217e-05,0.000675337468761576,0.00752728456759268,0.0446533502699662,0.135608841667653,0.206543538878977,0.21999080135124,0.176300200191579,0.112841544375394,0.0588247472208403,0.0251372938310981,0.00876794274983378,0.00245438265212914,0.000540995891434365,8.96534227908135e-05,1.05238272434124e-05,7.16960321324007e-07,1.96069367727623e-08,0
"15",0,0,0,0,0,0,0,0,7.00221806782814e-09,7.57349854635434e-07,3.20607141376217e-05,0.000675337468761576,0.00752728456759268,0.0446533502699662,0.135608841667653,0.206543538878977,0.21999080135124,0.176300200191579,0.112841544375394,0.0588247472208403,0.0251372938310981,0.00876794274983378,0.00245438265212914,0.000540995891434365,8.96534227908135e-05,1.05238272434124e-05,7.16960321324007e-07,1.96069367727623e-08
"16",0,0,0,0,0,0,0,0,0,7.00221806782814e-09,7.57349854635434e-07,3.20607141376217e-05,0.000675337468761576,0.00752728456759268,0.0446533502699662,0.135608841667653,0.206543538878977,0.21999080135124,0.176300200191579,0.112841544375394,0.0588247472208403,0.0251372938310981,0.00876794274983378,0.00245438265212914,0.000540995891434365,8.96534227908135e-05,1.05238272434124e-05,7.36567258096769e-07
"17",0,0,0,0,0,0,0,0,0,0,7.00221806782814e-09,7.57349854635434e-07,3.20607141376217e-05,0.000675337468761576,0.00752728456759268,0.0446533502699662,0.135608841667653,0.206543538878977,0.21999080135124,0.176300200191579,0.112841544375394,0.0588247472208403,0.0251372938310981,0.00876794274983378,0.00245438265212914,0.000540995891434365,8.96534227908135e-05,1.12603945015092e-05
"18",0,0,0,0,0,0,0,0,0,0,0,7.00221806782814e-09,7.57349854635434e-07,3.20607141376217e-05,0.000675337468761576,0.00752728456759268,0.0446533502699662,0.135608841667653,0.206543538878977,0.21999080135124,0.176300200191579,0.112841544375394,0.0588247472208403,0.0251372938310981,0.00876794274983378,0.00245438265212914,0.000541015498371138,0.00010089421035555
"19",0,0,0,0,0,0,0,0,0,0,0,0,7.00221806782814e-09,7.57349854635434e-07,3.20607141376217e-05,0.000675337468761576,0.00752728456759268,0.0446533502699662,0.135608841667653,0.206543538878977,0.21999080135124,0.176300200191579,0.112841544375394,0.0588247472208403,0.0251372938310981,0.00876794274983378,0.0024550669342225,0.000641225426633318
"20",0,0,0,0,0,0,0,0,0,0,0,0,0,7.00221806782814e-09,7.57349854635434e-07,3.20607141376217e-05,0.000675337468761576,0.00752728456759268,0.0446533502699662,0.135608841667653,0.206543538878977,0.21999080135124,0.176300200191579,0.112841544375394,0.0588247472208403,0.0251373134380349,0.00877735878514953,0.0030868567186033
"21",0,0,0,0,0,0,0,0,0,0,0,0,0,0,7.00221806782814e-09,7.57349854635434e-07,3.20607141376217e-05,0.000675337468761576,0.00752728456759268,0.0446533502699662,0.135608841667653,0.206543538878977,0.21999080135124,0.176300200191579,0.112841544375394,0.0588253530751866,0.0252122723331339,0.0117886507543075
"22",0,0,0,0,0,0,0,0,0,0,0,0,0,0,0,7.00221806782814e-09,7.57349854635434e-07,3.20607141376217e-05,0.000675337468761576,0.00752728456759268,0.0446533502699662,0.135608841667653,0.206543538878977,0.21999080135124,0.176300200191579,0.112848259228387,0.0592520664378602,0.0365674948717748
"23",0,0,0,0,0,0,0,0,0,0,0,0,0,0,0,0,7.00221806782814e-09,7.57349854635434e-07,3.20607141376217e-05,0.000675337468761576,0.00752728456759268,0.0446533502699662,0.135608841667653,0.206543538878977,0.21999080135124,0.176339716738133,0.11464811075693,0.0939801932345367
"24",0,0,0,0,0,0,0,0,0,0,0,0,0,0,0,0,0,7.00221806782814e-09,7.57349854635434e-07,3.20607141376217e-05,0.000675337468761576,0.00752728456759268,0.0446533502699662,0.135608841667653,0.206543538878977,0.220164321443627,0.18233239066294,0.202462109974273
"25",0,0,0,0,0,0,0,0,0,0,0,0,0,0,0,0,0,0,7.00221806782814e-09,7.57349854635434e-07,3.20607141376217e-05,0.000675337468761576,0.00752728456759268,0.0446533502699662,0.135608934800603,0.207090811678568,0.236029282677904,0.368382173470395
"26",0,0,0,0,0,0,0,0,0,0,0,0,0,0,0,0,0,0,0,7.00221806782814e-09,7.57349854635434e-07,3.20607141376217e-05,0.000675337468761576,0.00752728456759268,0.0446558555463123,0.136994992033997,0.241595584251038,0.568518121066089
"27",0,0,0,0,0,0,0,0,0,0,0,0,0,0,0,0,0,0,0,0,7.00221806782814e-09,7.57349854635434e-07,3.20607141376217e-05,0.000675384035236411,0.00754918148020671,0.0476804577840461,0.199830873336691,0.74423127829761
"28",0,0,0,0,0,0,0,0,0,0,0,0,0,0,0,0,0,0,0,0,0,7.00221806782814e-09,7.57349854635434e-07,3.32202193610209e-05,0.000775916424082491,0.0131436729844017,0.142657537031697,0.843388888988385
