"","X0","X1","X2","X3","X4","X5","X6","X7","X8","X9","X10","X11","X12","X13","X14","X15","X16","X17","X18","X19","X20","X21","X22","X23","X24"
"1",0.967741935483871,0,0.032258064516129,0,0,0,0,0,0,0,0,0,0,0,0,0,0,0,0,0,0,0,0,0,0
"2",0,0.967741935483871,0,0.032258064516129,0,0,0,0,0,0,0,0,0,0,0,0,0,0,0,0,0,0,0,0,0
"3",0.0312174817898023,0,0.937565036420396,0,0.0312174817898023,0,0,0,0,0,0,0,0,0,0,0,0,0,0,0,0,0,0,0,0
"4",0,0.0312174817898023,0,0.937565036420396,0,0.0312174817898023,0,0,0,0,0,0,0,0,0,0,0,0,0,0,0,0,0,0,0
"5",0,0,0.0312174817898023,0,0.937565036420396,0,0.0312174817898023,0,0,0,0,0,0,0,0,0,0,0,0,0,0,0,0,0,0
"6",0,0,0,0.0312174817898023,0,0.937565036420396,0,0.0312174817898023,0,0,0,0,0,0,0,0,0,0,0,0,0,0,0,0,0
"7",0,0,0,0,0.0312174817898023,0,0.937565036420396,0,0.0312174817898023,0,0,0,0,0,0,0,0,0,0,0,0,0,0,0,0
"8",0,0,0,0,0,0.0312174817898023,0,0.937565036420396,0,0.0312174817898023,0,0,0,0,0,0,0,0,0,0,0,0,0,0,0
"9",0,0,0,0,0,0,0.0312174817898023,0,0.937565036420396,0,0.0312174817898023,0,0,0,0,0,0,0,0,0,0,0,0,0,0
"10",0,0,0,0,0,0,0,0.0312174817898023,0,0.937565036420396,0,0.0312174817898023,0,0,0,0,0,0,0,0,0,0,0,0,0
"11",0,0,0,0,0,0,0,0,0.0312174817898023,0,0.937565036420396,0,0.0312174817898023,0,0,0,0,0,0,0,0,0,0,0,0
"12",0,0,0,0,0,0,0,0,0,0.0312174817898023,0,0.937565036420396,0,0.0312174817898023,0,0,0,0,0,0,0,0,0,0,0
"13",0,0,0,0,0,0,0,0,0,0,0.0312174817898023,0,0.937565036420396,0,0.0312174817898023,0,0,0,0,0,0,0,0,0,0
"14",0,0,0,0,0,0,0,0,0,0,0,0.0312174817898023,0,0.937565036420396,0,0.0312174817898023,0,0,0,0,0,0,0,0,0
"15",0,0,0,0,0,0,0,0,0,0,0,0,0.0312174817898023,0,0.937565036420396,0,0.0312174817898023,0,0,0,0,0,0,0,0
"16",0,0,0,0,0,0,0,0,0,0,0,0,0,0.0312174817898023,0,0.937565036420396,0,0.0312174817898023,0,0,0,0,0,0,0
"17",0,0,0,0,0,0,0,0,0,0,0,0,0,0,0.0312174817898023,0,0.937565036420396,0,0.0312174817898023,0,0,0,0,0,0
"18",0,0,0,0,0,0,0,0,0,0,0,0,0,0,0,0.0312174817898023,0,0.937565036420396,0,0.0312174817898023,0,0,0,0,0
"19",0,0,0,0,0,0,0,0,0,0,0,0,0,0,0,0,0.0312174817898023,0,0.937565036420396,0,0.0312174817898023,0,0,0,0
"20",0,0,0,0,0,0,0,0,0,0,0,0,0,0,0,0,0,0.0312174817898023,0,0.937565036420396,0,0.0312174817898023,0,0,0
"21",0,0,0,0,0,0,0,0,0,0,0,0,0,0,0,0,0,0,0.0312174817898023,0,0.937565036420396,0,0.0312174817898023,0,0
"22",0,0,0,0,0,0,0,0,0,0,0,0,0,0,0,0,0,0,0,0.0312174817898023,0,0.937565036420396,0,0.0312174817898023,0
"23",0,0,0,0,0,0,0,0,0,0,0,0,0,0,0,0,0,0,0,0,0.0312174817898023,0,0.937565036420396,0,0.0312174817898023
"24",0,0,0,0,0,0,0,0,0,0,0,0,0,0,0,0,0,0,0,0,0,0.0312174817898023,0,0.968782518210198,0
"25",0,0,0,0,0,0,0,0,0,0,0,0,0,0,0,0,0,0,0,0,0,0,0.0312174817898023,0,0.968782518210198
