"","X0","X1","X2","X3","X4","X5","X6","X7","X8","X9","X10","X11","X12","X13","X14","X15","X16","X17","X18","X19","X20","X21","X22","X23","X24","X25","X26","X27","X28","X29","X30","X31","X32","X33","X34","X35","X36"
"1",0.14385113116758,0.16627740136207,0.157669385458903,0.131333128934094,0.101076496282416,0.0747575653684697,0.0547435701418061,0.040600974324567,0.0308278417748881,0.0238839315792645,0.0186698943082568,0.0145600496613091,0.0112417637871117,0.00855678201849115,0.00640729459537616,0.00471506729826424,0.00340829019515642,0.00241944281949246,0.00168645596245034,0.00115424560883785,0.000775688953683787,0.000511868800605023,0.000331692489569503,0.000211080787525928,0.000131926479456533,8.09882631615142e-05,4.88379266010435e-05,2.89318653299687e-05,1.68391255371671e-05,9.63003385953785e-06,5.41185656004072e-06,2.98901748736768e-06,1.62281392488028e-06,8.66946299591658e-07,4.59055704381321e-07,2.56233202825781e-07,1.96702685603706e-07
"2",0.141362030992782,0.163529196780801,0.155330046838286,0.129781107478915,0.100377157800598,0.0747819480774755,0.0552906296841169,0.0414717706718255,0.031861046566276,0.0249637456623096,0.0197192449819684,0.015530485035482,0.0121053597624264,0.00930061628178917,0.00702948836532712,0.00522159313338552,0.00381023645621007,0.00273070312641186,0.00192188565399571,0.00132830588578189,0.000901554132266476,0.000600933641490969,0.000393394443052648,0.000252946345321475,0.000159757850199869,9.91213161352779e-05,6.04201511489194e-05,3.61864638011337e-05,2.1296125207818e-05,1.23165039408186e-05,7.00089034455993e-06,3.91159540603159e-06,2.14876570676342e-06,1.16174614539764e-06,6.22934313101996e-07,3.52839453955392e-07,2.7501990047489e-07
"3",0.136037003524872,0.157641072269312,0.150299720236001,0.126415561239185,0.0988199298764365,0.0747653050281842,0.0563941633282105,0.0432784664185621,0.0340316403590761,0.0272532023396294,0.021962541391638,0.0176217025470775,0.0139811747378422,0.0109292260124363,0.00840275854807718,0.00634867341988349,0.00471197279387204,0.00343479512452217,0.00245891294018082,0.00172871032105709,0.00119356749498838,0.000809351250064411,0.000539037711465358,0.000352634526833262,0.000226615058159108,0.000143069690930741,8.87440852205701e-05,5.40882527103151e-05,3.23950133783205e-05,1.90680950844299e-05,1.10315822922629e-05,6.27375502424045e-06,3.50818650534349e-06,1.93106123690873e-06,1.05492207221893e-06,6.10494391763237e-07,4.86363586075616e-07
"4",0.1285221351077,0.149309794644684,0.143137065763332,0.121553577123335,0.0964700051471255,0.0745694882822688,0.0577829941543768,0.0456847695690032,0.0369914929242285,0.0304279821726614,0.0251195872470081,0.0206064569640477,0.0166957861370175,0.0133187218960065,0.0104454795511834,0.00804839159045416,0.00609071091543266,0.00452629937562636,0.00330302597929587,0.00236686460126988,0.00166548480106645,0.0011508956424483,0.000781065563123909,0.00052062819113266,0.000340872255261359,0.000219238284886941,0.000138528833668733,8.60007727031345e-05,5.24618668770351e-05,3.14490986136108e-05,1.85287358078285e-05,1.07304553249416e-05,6.10997808133635e-06,3.42489495033753e-06,1.90648940034618e-06,1.12732774539397e-06,9.1766285007052e-07
"5",0.119541566847305,0.139317445533224,0.134471354924482,0.115555440208807,0.093405828342309,0.0740436919586569,0.0591542035871508,0.0483108159661369,0.0403435029029543,0.034114549576762,0.0288645775532274,0.0242181527050379,0.0200442300133407,0.0163220434797855,0.0130609505963793,0.0102649452315093,0.00792165854478018,0.00600219348333574,0.00446505116198356,0.00326115763139329,0.00233864215179,0.0016467500104582,0.00113865971517988,0.000773208561668492,0.000515670516821867,0.000337799660367194,0.000217368730731266,0.000137412713442736,8.53476738008198e-05,5.20880511790753e-05,3.12406513366296e-05,1.84163690475466e-05,1.06736577710168e-05,6.09018789196581e-06,3.45297663146949e-06,2.08518363168948e-06,1.73293968946976e-06
"6",0.1096319847661,0.128242251151844,0.12476450212425,0.108679255932518,0.0896713305715239,0.0730565571174331,0.0602590694532721,0.0508477974037978,0.0437652136282689,0.0380095271911561,0.0329335370408007,0.0282427051097681,0.0238653875873574,0.0198287215535147,0.0161833897736483,0.0129691786573355,0.0102034519470989,0.00788034436764433,0.00597452674823126,0.00444665620505114,0.00324904882242442,0.00233076720131403,0.00164169851303993,0.00113546798432139,0.000771224649185596,0.000514459063393145,0.000337074306749524,0.000216944211206819,0.000137171279435333,8.52159151641243e-05,5.2020974711595e-05,3.12109888807738e-05,1.84094100853724e-05,1.06906825251192e-05,6.17292876705678e-06,3.80640716977475e-06,3.22833101152055e-06
"7",0.0992057808836049,0.116529789297377,0.114374744664659,0.101127983452771,0.0853040743423387,0.0715073234218778,0.0609006108307328,0.053045339833591,0.0469889277069984,0.041854853632339,0.0370964106425502,0.0324892111943792,0.0280127145634676,0.0237369578451269,0.0197524122871152,0.0161362101981619,0.0129393589583798,0.0101844002066525,0.00786812685239018,0.00596670063997442,0.00444166709627315,0.00324589318557707,0.00232879233237476,0.00164047912492288,0.00113472777959216,0.000770785333873511,0.000514206657034432,0.000336936716779572,0.000216876424407743,0.000137145679466932,8.52156240338711e-05,5.20353770594089e-05,3.12363592575508e-05,1.84621564562929e-05,1.08569614104677e-05,6.83624709225425e-06,5.91548989954126e-06
"8",0.0886007619733314,0.104548632260074,0.103605663966211,0.0930847180395541,0.0803554568222067,0.0693330445587242,0.0609310121943928,0.0547021198258986,0.0497877532336579,0.0454207518934601,0.0411379605176941,0.0367695688256747,0.0323333327906946,0.0279329517700761,0.0236933429039261,0.0197274059886142,0.0161214467197431,0.0129304916305369,0.0101790224858861,0.00786485074081768,0.00596470450214706,0.00444045609426245,0.00324516582485829,0.00232836361475425,0.00164023520527014,0.00113459862463197,0.000770727878304583,0.000514194306571367,0.000336953009425002,0.000216911307810798,0.000137192606404598,8.52694079487014e-05,5.2097435372643e-05,3.1342028217744e-05,1.87729337750943e-05,1.20713962069357e-05,1.06546828643606e-05
"9",0.0781019890643934,0.0926146700958058,0.0927274570579658,0.0847279982620652,0.0748998756837926,0.0665129736233234,0.0602529075320952,0.0556653315988059,0.051973886322076,0.0485028923924916,0.044853567067032,0.0408926420683101,0.0366604545565081,0.0322817397942219,0.0279068844077969,0.0236794760503685,0.0197197789970768,0.0161171660765282,0.0129280601135133,0.0101776329950288,0.00786405727986456,0.00596425677173497,0.00444021219983598,0.00324504483711098,0.00232831926670225,0.00164024097315126,0.0011346389752432,0.000770793075207767,0.000514277775707266,0.000337050281355498,0.00021701835028888,0.000137304176521885,8.53902468337432e-05,5.22933650475344e-05,3.19061438826089e-05,2.09529172687905e-05,1.88596050427617e-05
"10",0.0679500388270259,0.0809998835803941,0.0819838382745604,0.076235891832737,0.069036532697194,0.0630694029840764,0.05882058198111,0.0558330632038603,0.0534022628594776,0.0509267928338989,0.0480534752928553,0.0446673787028478,0.0408145788745225,0.0366260268138523,0.0322655497333878,0.0278988474268341,0.0236753413838432,0.0197176089925878,0.0161160179707914,0.0129274557204528,0.0101773243276917,0.00786391455655205,0.00596421211338475,0.00444023047837026,0.00324510826793875,0.00232841893649379,0.00164037178400776,0.00113479659097107,0.000770972950040017,0.00051447556285565,0.000337260215758594,0.000217231086262354,0.000137527710087919,8.5742433519303e-05,5.32952031692093e-05,3.57457000606847e-05,3.28020965261488e-05
"11",0.058342543285627,0.0699332267536975,0.0715912480554645,0.0677834612808871,0.0628860745483114,0.0590649356152343,0.0566392729016077,0.0551564953855392,0.0539757638622074,0.0525554094796069,0.0505716348584007,0.0479115404932951,0.0446108253914816,0.0407911428377237,0.0366157062985705,0.0322607425222422,0.0278965239113313,0.0236742014703374,0.0197170563291831,0.0161157673201202,0.0129273685032072,0.0101773338586548,0.00786399005228851,0.00596434073752326,0.0044404080786673,0.00324533407915412,0.00232869186806391,0.00164068785844854,0.0011351488373883,0.000771353129077156,0.000514871885492618,0.000337653823893776,0.000217633715552375,0.000138145707431863,8.74846742369371e-05,5.99297453738815e-05,5.60508446760657e-05
"12",0.0494329225099168,0.0595980633953724,0.0617343780615853,0.0595365522967029,0.0565836865944036,0.0545964647426825,0.0537616402741773,0.0536400140743964,0.0536493830114291,0.0532969832938906,0.0522761950155642,0.0504634115034315,0.0478703050752582,0.0445946834266019,0.0407844640759736,0.0366127834232056,0.0322594199073345,0.0278959306847022,0.0236739621057967,0.0197170030277465,0.0161158258979981,0.0129275089453853,0.0101775473001387,0.00786427744901903,0.00596470683117139,0.00444085725601621,0.003245866426064,0.00232929994821374,0.00164135723566256,0.00113586163961499,0.000772084459190893,0.000515583918651051,0.000338362155888025,0.000218692611455514,0.000141111500326203,9.87286123052706e-05,9.40813127269452e-05
"13",0.0413293442989873,0.0501296541045357,0.0525612735969585,0.0516444583626835,0.0502702595256342,0.0497864780980987,0.0502810383415722,0.0513379762311894,0.0524313686114204,0.0531106582009256,0.0530789580464501,0.0521938703311716,0.0504332624708453,0.0478591142896622,0.0445903329820491,0.0407826885320682,0.0366120535403484,0.0322591561621047,0.027895901525272,0.0236740750152433,0.0197172259728148,0.0161161546706561,0.0129279520552317,0.010178118164637,0.00786498955124204,0.0059655691372277,0.00444186851617615,0.00324701008255324,0.00233054536259359,0.00164266631858918,0.00113718322240002,0.000773344596728898,0.000516800588401218,0.000340131998260029,0.000223631326160974,0.000159794777601348,0.000155091391505378
"14",0.0340956307308708,0.0416147553276442,0.0441800953412105,0.0442333240548951,0.0440831090553155,0.0447726581351489,0.0463219448115552,0.0483478030075973,0.0503803304749919,0.0520082622233987,0.0529417516993491,0.0530165914492953,0.0521718221997273,0.0504254846541446,0.0478562896098028,0.0445892907449135,0.0407823500880337,0.0366120401655439,0.0322593343608764,0.0278962322962649,0.0236745599724534,0.019717885368503,0.016117016521104,0.0129290454357762,0.0101794677510522,0.00786660883927145,0.00596745100777862,0.00444397661165201,0.00324928110177164,0.00233290101479407,0.00164500484162598,0.00113936399266031,0.000775382782470424,0.000519681927697224,0.000348170620956261,0.000254057379982528,0.000251044399871078
"15",0.027754544497782,0.0340939632008483,0.0366584019750416,0.0374013600536754,0.03814744945102,0.0396969573385019,0.0420285145532987,0.0447999652087422,0.047598329986713,0.0500516586902347,0.0518785525051148,0.0528947672057822,0.0530005027097989,0.0521664327738676,0.0504236951912293,0.0478557605924111,0.0445892713103916,0.0407826052468118,0.036612510150756,0.0322600264984725,0.0278971838178903,0.0236758221542618,0.0197195138332255,0.0161190632578391,0.0129315505663041,0.0101824480971281,0.00787004178392487,0.00597125986198658,0.00444803476267755,0.00325343322935435,0.0023369510572986,0.00164869257022258,0.0011426892713598,0.000779943219843586,0.000532458968956647,0.00039671147702203,0.000398932930210889
"16",0.0222931409819548,0.0275665784009824,0.0300250294730456,0.0312163581060646,0.032569510407136,0.0346953203954253,0.0375525187193127,0.0408459842582597,0.0442207213441672,0.0473459133982792,0.0499530009193523,0.0518434072956457,0.0528830940757514,0.0529968256131435,0.0521653983259146,0.0504235979615625,0.0478560951397136,0.044589914868635,0.0407835647847203,0.036613845064886,0.0322618221040809,0.027899537758857,0.0236788327028938,0.0197232676025702,0.016123621039062,0.0129369274487594,0.0101885860477091,0.00787678531010649,0.00597836355980679,0.00445520050573205,0.00326029452462306,0.00234303912562222,0.00165396644719006,0.00114968902350051,0.000799752119224299,0.000608286641899959,0.000622208504409835
"17",0.0176695269575791,0.0219973403111595,0.0242741877642178,0.02571556826626,0.027431848174279,0.0298890336635533,0.0330419383265352,0.0366458079653824,0.0404039677457082,0.0440291488151344,0.0472716570884787,0.0499269548996361,0.051835045973194,0.0528807070667528,0.0529964292622517,0.0521657782736198,0.0504244446010963,0.0478573884244409,0.0445917382895726,0.0407860498819545,0.0366171506415755,0.0322661189362218,0.0279049907459311,0.023685579736039,0.0197313944821674,0.0161331271720608,0.0129476801790761,0.0102002812981227,0.00788896149185266,0.00599046597232473,0.00446656375332726,0.00327009638969518,0.00235115079955854,0.00166434987678467,0.00117960189659851,0.000915675349913041,0.00095224952794425
"18",0.0138202692835708,0.0173242202966369,0.0193711574991688,0.0209076903489723,0.022791058010788,0.0253783701643248,0.0286312767329959,0.0323558902906172,0.0363128400272738,0.040260353220239,0.043973911102204,0.0472526091242264,0.0499211423145236,0.0518337333563085,0.0528809874156085,0.0529974823389044,0.0521674701428471,0.0504268706989593,0.0478607380551014,0.0445962537012381,0.040792006350148,0.0366248343820734,0.0322757968994397,0.0279168734464816,0.0236997772749024,0.0197478585653362,0.0161515769125158,0.0129675404606294,0.0102207086083719,0.00790895402367089,0.00600884951140253,0.00448193412942195,0.00328215695804569,0.00236596479788478,0.00170826900436923,0.00135293048082199,0.00142964406997557
"19",0.0106677493959768,0.0134664762772524,0.0152588844156014,0.0167765242479463,0.0186777834868339,0.0212388362902924,0.0244343188456125,0.0281190741200977,0.0321083496320828,0.0362065711409019,0.0402198338113171,0.0439602853683164,0.0472488688040764,0.0499208869691537,0.0518349137422339,0.05288312289042,0.0530006247140005,0.0521718693851613,0.0504328767668956,0.0478687679462648,0.0446067665142093,0.0408054668764158,0.0366416607878957,0.0322962960786519,0.0279411656471284,0.0237277005328056,0.0197788514130918,0.0161845852605597,0.0130010655492824,0.0102529926549802,0.00793798213925659,0.0060322871431035,0.00449918982446513,0.00330233612502547,0.0024285189597922,0.00196156412955919,0.00210495211333884
"20",0.00812689788162865,0.0103322897158053,0.0118647953476808,0.013285716024892,0.0150986742648495,0.0175199800595081,0.0205396763434227,0.0240570211041803,0.0279375244812008,0.0320308351677683,0.0361774031563809,0.0402105086353225,0.0439584138236126,0.0472498836900107,0.0499234471050765,0.0518388668592854,0.0528887519992643,0.0530084076375958,0.0521824067100927,0.0504468596451131,0.0478869397270556,0.0446298602900847,0.0408341157111603,0.0366762877858773,0.032336988627477,0.0279875221504569,0.023778650382657,0.0198325199047779,0.0162383818249069,0.0130519920898743,0.0102976865837258,0.00797266590678976,0.0060558859689343,0.0045251246602231,0.00338850506050597,0.00279001169672126,0.00303850197608091
"21",0.00611092093106859,0.00782548251239781,0.00910726354726877,0.0103840194812049,0.0120397890184473,0.0142464397640306,0.017009087872485,0.020265530502808,0.023925773927732,0.0278819512122036,0.0320104709013316,0.0361716802458076,0.0402106033603703,0.0439612187824001,0.0472546847859077,0.0499304582139257,0.0518486927675907,0.0529022182146773,0.0530265037137979,0.0522062453072032,0.0504776118011202,0.0479257280232101,0.0446776079987611,0.0408913647017908,0.0367429945906875,0.0324122856284375,0.0280694498866694,0.0238639706396284,0.0199168755405697,0.016316800513955,0.0131190160377669,0.0103473694212845,0.00800318850179399,0.00608666917394645,0.00463944540980121,0.00389188894629222,0.00429869812162617
"22",0.00453581162552444,0.00585100569746203,0.00690129880662607,0.00801054879072706,0.00947087818377176,0.0114207248588306,0.0138781431400969,0.0168127089345724,0.0201721823087309,0.0238868844758557,0.0278685848290274,0.0320080865861913,0.0361742143098328,0.0402161568050398,0.0439696968066927,0.0472667649205933,0.0499472172466488,0.0518714866934258,0.0529326288238536,0.0530662749334712,0.052257171959824,0.0505413602829395,0.0480035890645985,0.0447702032572304,0.0409983256243422,0.03686260142783,0.0325410828722495,0.0282020021667511,0.0239931462523144,0.0200346548236259,0.0164145691815775,0.0131876731044526,0.010384017550493,0.00803542603900946,0.00623186650234668,0.00532269554127677,0.00595831557216392
"23",0.00332359908996778,0.00431907441593873,0.0051632002922243,0.00609960325755015,0.00735000125210419,0.00902713522691814,0.0111588996048981,0.0137396464830092,0.0167476876125335,0.020146085039589,0.0238794151170646,0.0278697668672392,0.0320140364059939,0.0361841103412255,0.0402305985538926,0.0439899984375727,0.0472947041098708,0.0499849463382017,0.0519214666731814,0.0529975215686459,0.0531487545837533,0.0523596313097905,0.0506655162027887,0.048150022963846,0.0449378704108663,0.0411840266807452,0.0370604505378387,0.0327422121701556,0.0283950524834404,0.0241655394306998,0.0201731728557421,0.0165056779014737,0.0132270105145331,0.0104101104554273,0.00821033504511008,0.00713473956565999,0.00808838020050742
"24",0.00240441305331018,0.00314797477187926,0.00381406316473485,0.00458477534663936,0.00562801427915077,0.00703623022934787,0.00884376712587736,0.0110630506946328,0.0136957932728508,0.0167317072012323,0.0201441230857851,0.0238849876576565,0.0278807975574627,0.0320307738055786,0.0362080203763676,0.0402639003570301,0.044035500402662,0.0473557258097464,0.0500652171837127,0.0520249416117378,0.0531280692275524,0.0533096893893513,0.0525531008286443,0.050891801955744,0.0484068135877022,0.0452195136823826,0.0414808246269408,0.0373583395631357,0.0330235893928039,0.0286407369052641,0.0243558202962012,0.0202885089816732,0.0165398560310311,0.0132328794888236,0.0106068458735706,0.00937030167537754,0.0107495315064064
"25",0.00171752485795834,0.00226567771429319,0.00278215756352863,0.00340218531546296,0.00425257998952027,0.00540933328669656,0.00691003827368087,0.00877919500404717,0.0110352554709443,0.0136883658256974,0.0167356224112468,0.0201556568793864,0.0239036920438419,0.0279081149150194,0.0320693231192815,0.0362613113513541,0.0403362257237485,0.0441318433909141,0.0474815902585694,0.050226318832634,0.0522267075035118,0.0533749128495705,0.053604085767217,0.0528945536576769,0.0512758007066441,0.0488238123756715,0.0456540419666431,0.0419112051535345,0.0377580395986935,0.0333641769803634,0.0288936592648111,0.0244937069764445,0.020303003980886,0.0165022118700465,0.0134333733648862,0.0120534351679159,0.0139812605876578
"26",0.00121157008302643,0.00161046166906386,0.00200429176088235,0.00249280291617929,0.00317148111274964,0.0041026742687264,0.00532451697054072,0.00686854026527894,0.00876409183283492,0.0110358645163012,0.0136993678331395,0.01675561607693,0.0201858282312003,0.0239469409564823,0.0279686319098279,0.0321524313473255,0.0363733841029176,0.0404845458212443,0.0443243168999246,0.047726245626734,0.0505305279095256,0.0525960945671557,0.0538119978061806,0.0541068035721367,0.0534548062521442,0.0518781158778419,0.0494442862824337,0.0462602089285929,0.0424641801073703,0.0382168698221189,0.0336887017040349,0.0290467220049017,0.0244647553239621,0.0201864674405194,0.0166744916351999,0.0151812819756691,0.0177900845889027
"27",0.000844168988819984,0.00113077352800839,0.00142632851971608,0.00180390820964533,0.00233513791742935,0.00307090464632294,0.00404781779252349,0.00530046402409534,0.00686425856803724,0.00877323135851534,0.0110560939918002,0.0137314293262448,0.0168025115178854,0.0202523250998316,0.0240393636317348,0.0280947892045715,0.0323215241299669,0.0365957708297178,0.0407712735288561,0.0446863367626736,0.0481732386983596,0.0510693108849534,0.0532286868139511,0.0545335630767396,0.0549037062455039,0.0543029222587479,0.0527416669847342,0.0502760451039615,0.0470047890577428,0.0430642833367882,0.0386176735253637,0.0338413629775125,0.0289388592996723,0.0242193783014431,0.020281349940477,0.0187162941762108,0.0221384577414419
"28",0.000581147553207108,0.000784554948140572,0.00100304831884843,0.00128980531766942,0.00169833021402628,0.00226984778416108,0.00303804548324816,0.00403765357006066,0.00530641858559859,0.00688339715402433,0.00880582485333855,0.0111050706356105,0.0138019526399773,0.0169017708779453,0.0203894844890979,0.024225535421831,0.0283428891589896,0.0326458821202067,0.0370113917027348,0.0412926521582019,0.0453257440856401,0.0489384611520513,0.0519609775142427,0.0542374957590541,0.0556377618717507,0.0560670604771532,0.0554735615824475,0.053852892342288,0.0512512180254738,0.0477660667704355,0.0435390675253556,0.038743852937287,0.0336057138891386,0.0284988495160571,0.0241685520093384,0.0225811628361918,0.0269368587191761
"29",0.000395533012640363,0.000538237232819363,0.000697551862519853,0.000911936133773812,0.00122119626778753,0.00165845482082868,0.00225369759530481,0.00303985947694196,0.00405434650319778,0.00533792809610082,0.00693247529131011,0.00887781252248861,0.0112077796777494,0.0139456745996992,0.0170993376592814,0.0206562478488475,0.0245791164575367,0.0288025567304171,0.0332314350423418,0.03774143261209,0.0421821661136664,0.0463829900050187,0.050161386258364,0.0533335966943389,0.0557267406054241,0.0571911611473872,0.0576117904106866,0.0569182114751825,0.0550944904413512,0.0521871138513073,0.048303035246388,0.0436007707377045,0.03831800162535,0.0328903114619344,0.028215481326262,0.0266583799032399,0.032041763252717
"30",0.000266461711048625,0.00036557266679494,0.000480375335576539,0.000638550544641259,0.000869625981929805,0.00120001872142138,0.00165574901857597,0.00226684617998569,0.0030686637598761,0.00410135654054277,0.00540845493911858,0.00703463577896644,0.00902265555165983,0.0114094646542457,0.0142216043036489,0.0174700987962431,0.0211451913163576,0.0252114109135194,0.0296035662553916,0.0342242941196772,0.0389437363221741,0.0436018267251315,0.0480135731170396,0.0519775337490773,0.0552872296621761,0.0577445654765314,0.0591741930891071,0.0594385137783647,0.0584543371854266,0.0562086648061606,0.0527632848202355,0.0482506007105532,0.0429110254267426,0.0372353508372218,0.0322731804798546,0.0307959838570826,0.037261802867899
"31",0.000178099454705964,0.000246429921082052,0.000328461793805035,0.000444080313458931,0.000615184385567397,0.000862750479199543,0.00120896276954258,0.00168049305353706,0.00230973641611915,0.00313479962557915,0.00419881488416084,0.00554856833062305,0.00723232082741185,0.00929672318821756,0.0117827872118961,0.014720967513574,0.0181255404894402,0.0219886278394899,0.0262743759836757,0.0309139250732774,0.0358018674675667,0.040794949764367,0.0457138304335397,0.0503486403130946,0.0544686559751797,0.057835625234169,0.060220010421901,0.0614200643381934,0.0612848796532848,0.0597381234760198,0.0567898355321469,0.0525380703803071,0.047217330494119,0.0413656160467131,0.0361771594376515,0.0348202664633236,0.0423734250140597
"32",0.000118639890822576,0.000165641818377431,0.00022409759342392,0.000308342339204157,0.000434699854472986,0.000619845558451171,0.000882525984724785,0.00124608674018407,0.0017396862641357,0.00239869641801564,0.00326462684587732,0.00438449706529237,0.00580947897956758,0.00759262876618523,0.00978555576922979,0.0124339411869932,0.015571931092403,0.0192155906691118,0.0233558023190772,0.0279511790254392,0.0329217333873095,0.0381442375193553,0.0434504328919138,0.0486293357989313,0.053434519186728,0.0575964414213622,0.0608395402920652,0.0629043814456374,0.0635762802398894,0.0627165127116358,0.0602813435632985,0.056329972858285,0.051084447884375,0.0451210709262705,0.0397654793487355,0.0385550237451893,0.0471457525980293
"33",7.94215571223916e-05,0.000111965218714068,0.000153897409137537,0.000215681721411894,0.000309653575406573,0.000449196530242375,0.00065017323509932,0.000932953743491897,0.00132362777254673,0.00185471543206432,0.00256556603259042,0.00350233407142607,0.00471732513148068,0.0062674754697183,0.0082117272062643,0.0106070942998453,0.0135032989884941,0.0169360085243814,0.0209189103557765,0.0254350960450301,0.0304284732460853,0.035796241987226,0.0413838525962965,0.0469841079187683,0.052341808690968,0.0571645397792188,0.0611398152164765,0.0639593307946151,0.0653521249567736,0.0651223399168797,0.0631749354332105,0.0595298187101084,0.0543927946509386,0.0483695739574571,0.0428991577515074,0.0418442601572788,0.0513707019159472
"34",5.41812993153893e-05,7.71842531250221e-05,0.000107890729886996,0.000154135618486565,0.000225482243555618,0.000332893002255431,0.000489959978777117,0.000714604819593064,0.00103029309059993,0.00146696399277554,0.00206177671467769,0.00285954700322888,0.00391265327156702,0.00528014235163513,0.00702573656839732,0.00921444725192608,0.0119075558815184,0.0151558555706142,0.0189912536191415,0.0234170926766419,0.0283978541449616,0.0338493216603928,0.0396307983410896,0.0455413630473714,0.0513219953534383,0.0566646360686616,0.0612288797187469,0.0646675187251811,0.066663158178433,0.0669713241216297,0.0654518892558178,0.0620887363088587,0.0570705116961895,0.0510242205831028,0.0454811570689973,0.0445741716068604,0.0548928141825488
"35",3.84469604386428e-05,5.53690099302534e-05,7.87407445635833e-05,0.000114675846973843,0.000170884524040192,0.00025663419081708,0.000383844716652188,0.000568577027213614,0.000832247719651618,0.00120270391237402,0.00171520905829457,0.00241320860238711,0.00334865097862942,0.00458157534734017,0.0061786282950461,0.00821015058655548,0.0107455060715576,0.0138464369940471,0.0175584310966636,0.0219003543470604,0.0268529465819076,0.0323472629100161,0.038254764874142,0.0443812776926232,0.0504669724007877,0.0561938179451584,0.0612016068567916,0.0651141948020485,0.0675785637969452,0.0683119822197819,0.0671379270968216,0.0640102678170777,0.0591020193277576,0.0530546571536385,0.0474697736511129,0.0466895316051701,0.0576321572379831
"36",2.91172536411998e-05,4.23657656368248e-05,6.12161749031373e-05,9.07175090262068e-05,0.000137413773945497,0.000209466680255659,0.000317664282599455,0.000476779757239134,0.000706784307068671,0.00103401127040065,0.0014922948569786,0.00212395261676417,0.00298038775460146,0.00412201336908383,0.00561713698469334,0.00753940471199962,0.00996341625093594,0.0129582179106978,0.0165785735587193,0.0208541858497253,0.0257774059058808,0.0312905028003165,0.0372742595607072,0.0435402634379956,0.0498292772339401,0.0558174099678665,0.0611314967043733,0.0653756551811475,0.0681719432612028,0.0692103192629794,0.0682877690529893,0.0653358050084507,0.0605150976089668,0.0544762165331384,0.048869778022553,0.0481859766747084,0.0595757031438676
"37",2.43637893805738e-05,3.57150534106033e-05,5.21966949231146e-05,7.82981069977216e-05,0.00011994264817438,0.000184688966670972,0.000282692827940819,0.000427997668009895,0.00063974552476374,0.000943387463317663,0.00137190411887148,0.00196690685366058,0.00277939721589461,0.00386988288279521,0.00530747629478206,0.00716755269621046,0.00952754466887223,0.0124605359589833,0.0160265039422473,0.0202613331599347,0.0251640993927039,0.0306836831416667,0.0367065092345589,0.0430478625325062,0.049449295549792,0.0555840054372261,0.0610717733139979,0.0655056338268583,0.0684933951859905,0.0697091850277641,0.0689344315217876,0.0660873178036406,0.0613208898367745,0.0552905107120068,0.0496747936768411,0.0490493116637854,0.0606992356062579
