"","X0","X1","X2","X3","X4","X5","X6","X7","X8","X9","X10","X11","X12","X13","X14","X15","X16","X17","X18","X19","X20","X21","X22","X23","X24","X25","X26","X27","X28","X29","X30","X31","X32","X33","X34","X35","X36"
"1",0.812781424756444,0.167842712494199,0.018220096113478,0.00111594204255305,3.90967572078497e-05,7.22474049697854e-07,5.3620687519163e-09,0,0,0,0,0,0,0,0,0,0,0,0,0,0,0,0,0,0,0,0,0,0,0,0,0,0,0,0,0,0
"2",0.480459989245579,0.385063555340014,0.117540895131629,0.0158178839172432,0.00107785177220879,3.90967572078497e-05,7.22474049697854e-07,5.3620687519163e-09,0,0,0,0,0,0,0,0,0,0,0,0,0,0,0,0,0,0,0,0,0,0,0,0,0,0,0,0,0
"3",0.165241143175611,0.324901920416218,0.375680863463228,0.117243838985493,0.0158145575939154,0.00107785177220879,3.90967572078497e-05,7.22474049697854e-07,5.3620687519163e-09,0,0,0,0,0,0,0,0,0,0,0,0,0,0,0,0,0,0,0,0,0,0,0,0,0,0,0,0
"4",0.0373788818406568,0.128830976580073,0.323952925188827,0.375661287596611,0.117243694834383,0.0158145575939154,0.00107785177220879,3.90967572078497e-05,7.22474049697854e-07,5.3620687519163e-09,0,0,0,0,0,0,0,0,0,0,0,0,0,0,0,0,0,0,0,0,0,0,0,0,0,0,0
"5",0.00613906045054911,0.0312956889691716,0.128775821906561,0.323952215346221,0.375661284533665,0.117243694834383,0.0158145575939154,0.00107785177220879,3.90967572078497e-05,7.22474049697854e-07,5.3620687519163e-09,0,0,0,0,0,0,0,0,0,0,0,0,0,0,0,0,0,0,0,0,0,0,0,0,0,0
"6",0.000660140057937171,0.00548077144117151,0.031293851307294,0.128775808545382,0.323952215320718,0.375661284533665,0.117243694834383,0.0158145575939154,0.00107785177220879,3.90967572078497e-05,7.22474049697854e-07,5.3620687519163e-09,0,0,0,0,0,0,0,0,0,0,0,0,0,0,0,0,0,0,0,0,0,0,0,0,0
"7",4.26831047199626e-05,0.000617489633995493,0.00548073886240643,0.0312938512052808,0.128775808545382,0.323952215320718,0.375661284533665,0.117243694834383,0.0158145575939154,0.00107785177220879,3.90967572078497e-05,7.22474049697854e-07,5.3620687519163e-09,0,0,0,0,0,0,0,0,0,0,0,0,0,0,0,0,0,0,0,0,0,0,0,0
"8",1.57453073331053e-06,4.11088120174488e-05,0.000617489395964696,0.00548073886240643,0.0312938512052808,0.128775808545382,0.323952215320718,0.375661284533665,0.117243694834383,0.0158145575939154,0.00107785177220879,3.90967572078497e-05,7.22474049697854e-07,5.3620687519163e-09,0,0,0,0,0,0,0,0,0,0,0,0,0,0,0,0,0,0,0,0,0,0,0
"9",3.04024835156215e-08,1.5441282497949e-06,4.11088120174488e-05,0.000617489395964696,0.00548073886240643,0.0312938512052808,0.128775808545382,0.323952215320718,0.375661284533665,0.117243694834383,0.0158145575939154,0.00107785177220879,3.90967572078497e-05,7.22474049697854e-07,5.3620687519163e-09,0,0,0,0,0,0,0,0,0,0,0,0,0,0,0,0,0,0,0,0,0,0
"10",2.38030796755697e-10,3.01644527188658e-08,1.5441282497949e-06,4.11088120174488e-05,0.000617489395964696,0.00548073886240643,0.0312938512052808,0.128775808545382,0.323952215320718,0.375661284533665,0.117243694834383,0.0158145575939154,0.00107785177220879,3.90967572078497e-05,7.22474049697854e-07,5.3620687519163e-09,0,0,0,0,0,0,0,0,0,0,0,0,0,0,0,0,0,0,0,0,0
"11",0,2.38030796755697e-10,3.01644527188658e-08,1.5441282497949e-06,4.11088120174488e-05,0.000617489395964696,0.00548073886240643,0.0312938512052808,0.128775808545382,0.323952215320718,0.375661284533665,0.117243694834383,0.0158145575939154,0.00107785177220879,3.90967572078497e-05,7.22474049697854e-07,5.3620687519163e-09,0,0,0,0,0,0,0,0,0,0,0,0,0,0,0,0,0,0,0,0
"12",0,0,2.38030796755697e-10,3.01644527188658e-08,1.5441282497949e-06,4.11088120174488e-05,0.000617489395964696,0.00548073886240643,0.0312938512052808,0.128775808545382,0.323952215320718,0.375661284533665,0.117243694834383,0.0158145575939154,0.00107785177220879,3.90967572078497e-05,7.22474049697854e-07,5.3620687519163e-09,0,0,0,0,0,0,0,0,0,0,0,0,0,0,0,0,0,0,0
"13",0,0,0,2.38030796755697e-10,3.01644527188658e-08,1.5441282497949e-06,4.11088120174488e-05,0.000617489395964696,0.00548073886240643,0.0312938512052808,0.128775808545382,0.323952215320718,0.375661284533665,0.117243694834383,0.0158145575939154,0.00107785177220879,3.90967572078497e-05,7.22474049697854e-07,5.3620687519163e-09,0,0,0,0,0,0,0,0,0,0,0,0,0,0,0,0,0,0
"14",0,0,0,0,2.38030796755697e-10,3.01644527188658e-08,1.5441282497949e-06,4.11088120174488e-05,0.000617489395964696,0.00548073886240643,0.0312938512052808,0.128775808545382,0.323952215320718,0.375661284533665,0.117243694834383,0.0158145575939154,0.00107785177220879,3.90967572078497e-05,7.22474049697854e-07,5.3620687519163e-09,0,0,0,0,0,0,0,0,0,0,0,0,0,0,0,0,0
"15",0,0,0,0,0,2.38030796755697e-10,3.01644527188658e-08,1.5441282497949e-06,4.11088120174488e-05,0.000617489395964696,0.00548073886240643,0.0312938512052808,0.128775808545382,0.323952215320718,0.375661284533665,0.117243694834383,0.0158145575939154,0.00107785177220879,3.90967572078497e-05,7.22474049697854e-07,5.3620687519163e-09,0,0,0,0,0,0,0,0,0,0,0,0,0,0,0,0
"16",0,0,0,0,0,0,2.38030796755697e-10,3.01644527188658e-08,1.5441282497949e-06,4.11088120174488e-05,0.000617489395964696,0.00548073886240643,0.0312938512052808,0.128775808545382,0.323952215320718,0.375661284533665,0.117243694834383,0.0158145575939154,0.00107785177220879,3.90967572078497e-05,7.22474049697854e-07,5.3620687519163e-09,0,0,0,0,0,0,0,0,0,0,0,0,0,0,0
"17",0,0,0,0,0,0,0,2.38030796755697e-10,3.01644527188658e-08,1.5441282497949e-06,4.11088120174488e-05,0.000617489395964696,0.00548073886240643,0.0312938512052808,0.128775808545382,0.323952215320718,0.375661284533665,0.117243694834383,0.0158145575939154,0.00107785177220879,3.90967572078497e-05,7.22474049697854e-07,5.3620687519163e-09,0,0,0,0,0,0,0,0,0,0,0,0,0,0
"18",0,0,0,0,0,0,0,0,2.38030796755697e-10,3.01644527188658e-08,1.5441282497949e-06,4.11088120174488e-05,0.000617489395964696,0.00548073886240643,0.0312938512052808,0.128775808545382,0.323952215320718,0.375661284533665,0.117243694834383,0.0158145575939154,0.00107785177220879,3.90967572078497e-05,7.22474049697854e-07,5.3620687519163e-09,0,0,0,0,0,0,0,0,0,0,0,0,0
"19",0,0,0,0,0,0,0,0,0,2.38030796755697e-10,3.01644527188658e-08,1.5441282497949e-06,4.11088120174488e-05,0.000617489395964696,0.00548073886240643,0.0312938512052808,0.128775808545382,0.323952215320718,0.375661284533665,0.117243694834383,0.0158145575939154,0.00107785177220879,3.90967572078497e-05,7.22474049697854e-07,5.3620687519163e-09,0,0,0,0,0,0,0,0,0,0,0,0
"20",0,0,0,0,0,0,0,0,0,0,2.38030796755697e-10,3.01644527188658e-08,1.5441282497949e-06,4.11088120174488e-05,0.000617489395964696,0.00548073886240643,0.0312938512052808,0.128775808545382,0.323952215320718,0.375661284533665,0.117243694834383,0.0158145575939154,0.00107785177220879,3.90967572078497e-05,7.22474049697854e-07,5.3620687519163e-09,0,0,0,0,0,0,0,0,0,0,0
"21",0,0,0,0,0,0,0,0,0,0,0,2.38030796755697e-10,3.01644527188658e-08,1.5441282497949e-06,4.11088120174488e-05,0.000617489395964696,0.00548073886240643,0.0312938512052808,0.128775808545382,0.323952215320718,0.375661284533665,0.117243694834383,0.0158145575939154,0.00107785177220879,3.90967572078497e-05,7.22474049697854e-07,5.3620687519163e-09,0,0,0,0,0,0,0,0,0,0
"22",0,0,0,0,0,0,0,0,0,0,0,0,2.38030796755697e-10,3.01644527188658e-08,1.5441282497949e-06,4.11088120174488e-05,0.000617489395964696,0.00548073886240643,0.0312938512052808,0.128775808545382,0.323952215320718,0.375661284533665,0.117243694834383,0.0158145575939154,0.00107785177220879,3.90967572078497e-05,7.22474049697854e-07,5.3620687519163e-09,0,0,0,0,0,0,0,0,0
"23",0,0,0,0,0,0,0,0,0,0,0,0,0,2.38030796755697e-10,3.01644527188658e-08,1.5441282497949e-06,4.11088120174488e-05,0.000617489395964696,0.00548073886240643,0.0312938512052808,0.128775808545382,0.323952215320718,0.375661284533665,0.117243694834383,0.0158145575939154,0.00107785177220879,3.90967572078497e-05,7.22474049697854e-07,5.3620687519163e-09,0,0,0,0,0,0,0,0
"24",0,0,0,0,0,0,0,0,0,0,0,0,0,0,2.38030796755697e-10,3.01644527188658e-08,1.5441282497949e-06,4.11088120174488e-05,0.000617489395964696,0.00548073886240643,0.0312938512052808,0.128775808545382,0.323952215320718,0.375661284533665,0.117243694834383,0.0158145575939154,0.00107785177220879,3.90967572078497e-05,7.22474049697854e-07,5.3620687519163e-09,0,0,0,0,0,0,0
"25",0,0,0,0,0,0,0,0,0,0,0,0,0,0,0,2.38030796755697e-10,3.01644527188658e-08,1.5441282497949e-06,4.11088120174488e-05,0.000617489395964696,0.00548073886240643,0.0312938512052808,0.128775808545382,0.323952215320718,0.375661284533665,0.117243694834383,0.0158145575939154,0.00107785177220879,3.90967572078497e-05,7.22474049697854e-07,5.3620687519163e-09,0,0,0,0,0,0
"26",0,0,0,0,0,0,0,0,0,0,0,0,0,0,0,0,2.38030796755697e-10,3.01644527188658e-08,1.5441282497949e-06,4.11088120174488e-05,0.000617489395964696,0.00548073886240643,0.0312938512052808,0.128775808545382,0.323952215320718,0.375661284533665,0.117243694834383,0.0158145575939154,0.00107785177220879,3.90967572078497e-05,7.22474049697854e-07,5.3620687519163e-09,0,0,0,0,0
"27",0,0,0,0,0,0,0,0,0,0,0,0,0,0,0,0,0,2.38030796755697e-10,3.01644527188658e-08,1.5441282497949e-06,4.11088120174488e-05,0.000617489395964696,0.00548073886240643,0.0312938512052808,0.128775808545382,0.323952215320718,0.375661284533665,0.117243694834383,0.0158145575939154,0.00107785177220879,3.90967572078497e-05,7.22474049697854e-07,5.3620687519163e-09,0,0,0,0
"28",0,0,0,0,0,0,0,0,0,0,0,0,0,0,0,0,0,0,2.38030796755697e-10,3.01644527188658e-08,1.5441282497949e-06,4.11088120174488e-05,0.000617489395964696,0.00548073886240643,0.0312938512052808,0.128775808545382,0.323952215320718,0.375661284533665,0.117243694834383,0.0158145575939154,0.00107785177220879,3.90967572078497e-05,7.22474049697854e-07,5.3620687519163e-09,0,0,0
"29",0,0,0,0,0,0,0,0,0,0,0,0,0,0,0,0,0,0,0,2.38030796755697e-10,3.01644527188658e-08,1.5441282497949e-06,4.11088120174488e-05,0.000617489395964696,0.00548073886240643,0.0312938512052808,0.128775808545382,0.323952215320718,0.375661284533665,0.117243694834383,0.0158145575939154,0.00107785177220879,3.90967572078497e-05,7.22474049697854e-07,5.3620687519163e-09,0,0
"30",0,0,0,0,0,0,0,0,0,0,0,0,0,0,0,0,0,0,0,0,2.38030796755697e-10,3.01644527188658e-08,1.5441282497949e-06,4.11088120174488e-05,0.000617489395964696,0.00548073886240643,0.0312938512052808,0.128775808545382,0.323952215320718,0.375661284533665,0.117243694834383,0.0158145575939154,0.00107785177220879,3.90967572078497e-05,7.22474049697854e-07,5.3620687519163e-09,0
"31",0,0,0,0,0,0,0,0,0,0,0,0,0,0,0,0,0,0,0,0,0,2.38030796755697e-10,3.01644527188658e-08,1.5441282497949e-06,4.11088120174488e-05,0.000617489395964696,0.00548073886240643,0.0312938512052808,0.128775808545382,0.323952215320718,0.375661284533665,0.117243694834383,0.0158145575939154,0.00107785177220879,3.90967572078497e-05,7.22474049697854e-07,5.3620687519163e-09
"32",0,0,0,0,0,0,0,0,0,0,0,0,0,0,0,0,0,0,0,0,0,0,2.38030796755697e-10,3.01644527188658e-08,1.5441282497949e-06,4.11088120174488e-05,0.000617489395964696,0.00548073886240643,0.0312938512052808,0.128775808545382,0.323952215320718,0.375661284533665,0.117243694834383,0.0158145575939154,0.00107785177220879,3.90967572078497e-05,7.2783611844977e-07
"33",0,0,0,0,0,0,0,0,0,0,0,0,0,0,0,0,0,0,0,0,0,0,0,2.38030796755697e-10,3.01644527188658e-08,1.5441282497949e-06,4.11088120174488e-05,0.000617489395964696,0.00548073886240643,0.0312938512052808,0.128775808545382,0.323952215320718,0.375661284533665,0.117243694834383,0.0158145629559842,0.00107785713427754,3.98138691887956e-05
"34",0,0,0,0,0,0,0,0,0,0,0,0,0,0,0,0,0,0,0,0,0,0,0,0,2.38030796755697e-10,3.01644527188658e-08,1.5441282497949e-06,4.11088120174488e-05,0.000617489395964696,0.00548073886240643,0.0312938512052808,0.128775808545382,0.323952215320718,0.375661297045158,0.117244290406139,0.0158154588035902,0.00111616707261067
"35",0,0,0,0,0,0,0,0,0,0,0,0,0,0,0,0,0,0,0,0,0,0,0,0,0,2.38030796755697e-10,3.01644527188658e-08,1.54412825861086e-06,4.11088131249532e-05,0.00061748945192665,0.0054807403221652,0.0312938724065474,0.128775986540738,0.323954292037587,0.375689559837671,0.117303141176149,0.016842234883349
"36",0,0,0,0,0,0,0,0,0,0,0,0,0,0,0,0,0,0,0,0,0,0,0,0,0,0,2.38030796755697e-10,3.01652549708104e-08,1.5442290415114e-06,4.11139056627124e-05,0.000617622289974785,0.00548266963742372,0.0313100699839449,0.128896279675104,0.324733230950641,0.377603490285888,0.131313948639034
"37",0,0,0,0,0,0,0,0,0,0,0,0,0,0,0,0,0,0,0,0,0,0,0,0,0,0,0,2.62636128375888e-10,3.32562997555968e-08,1.70041885344623e-06,4.5188092391774e-05,0.000676795024991606,0.00597945467606438,0.0343012349804693,0.142040557543531,0.355929711178375,0.461025324566388
