"","X0","X1","X2","X3","X4","X5","X6","X7","X8","X9","X10","X11","X12","X13","X14","X15","X16","X17","X18","X19","X20","X21","X22","X23","X24","X25","X26","X27","X28","X29","X30","X31","X32","X33","X34","X35","X36"
"1",0.200842983802818,0.11500987270381,0.106993656343446,0.0937838189018821,0.0870254234071516,0.0761710380217864,0.0662873176430678,0.0566430803647985,0.0472917165314325,0.0384843009780133,0.0304919939668445,0.0235095178399268,0.0176350111147233,0.0128707041551388,0.00914101743258375,0.00631901613172041,0.00425283064975286,0.00278739145147609,0.00177962339890357,0.00110709625568422,0.000671246355369304,0.000396755955724776,0.000228669306763929,0.000128535930411695,7.04779932796245e-05,3.77020585664951e-05,1.96797270451168e-05,1.0024546115236e-05,4.98356376909022e-06,2.41808581566061e-06,1.14518747356205e-06,5.29375473522006e-07,2.38981410810332e-07,1.05154229071848e-07,4.5327430205349e-08,1.97300240139777e-08,1.16261367206311e-08
"2",0.192351380213,0.110868932985583,0.103926253082671,0.0919647519443452,0.0861898383839148,0.076380098657058,0.0673056846640032,0.0582450517743533,0.0492536068151229,0.0406004060953316,0.0325896988784805,0.0254595281219507,0.0193539440340854,0.0143174969320967,0.0103091393943312,0.00722669827726677,0.00493329660692578,0.00328048058483617,0.00212551549818106,0.0013422648798731,0.000826369916423207,0.000496113754165507,0.000290508381824461,0.00016595795790439,9.25085018423011e-05,5.03247773500385e-05,2.67215259696634e-05,1.38507117638415e-05,7.00900097985091e-06,3.46293769922378e-06,1.67055433491229e-06,7.86903035316244e-07,3.62156188226742e-07,1.62503880730365e-07,7.14995271776725e-08,3.18402725026562e-08,1.92534276976401e-08
"3",0.174857619257542,0.102245483303644,0.0974319305392404,0.0879825903096737,0.0841965404138498,0.0765364012267567,0.0691651583327065,0.0613727606532595,0.053206133570551,0.044957364291636,0.0369865624493142,0.0296124155040148,0.0230694585807162,0.017489482877516,0.0129057115203077,0.00927182137678376,0.00648709144916613,0.00442144429713005,0.00293652379704982,0.00190098973078355,0.00119982568075207,0.000738509903058227,0.000443397879080586,0.000259729098441039,0.000148463230946027,8.28249010798463e-05,4.51034475739274e-05,2.39783303023156e-05,1.24460782089128e-05,6.30790690592921e-06,3.12180263648338e-06,1.50875456894495e-06,7.12600367228112e-07,3.28142509112381e-07,1.4829198066569e-07,6.80011349980779e-08,4.24688117171542e-08
"4",0.151772736561845,0.0906469535020082,0.0884456667665873,0.0821653806162203,0.0809074889409978,0.0760683836740157,0.0710208228694019,0.065052598274278,0.0581712258583987,0.0506664480561751,0.0429421008761542,0.0354011453285876,0.0283856623025378,0.0221407250586415,0.0168035692085956,0.0124123524926732,0.00892655691429549,0.00625211730759609,0.00426595835231497,0.00283648193178675,0.00183839068040479,0.00116172266845093,0.000715942352440419,0.000430387877654618,0.000252426605894221,0.000144471212049971,8.06989238269097e-05,4.40002026654297e-05,2.34203570946658e-05,1.21710317458333e-05,6.17582299502955e-06,3.06009191810748e-06,1.48192995043626e-06,6.99587452886589e-07,3.24356074250958e-07,1.52953825774382e-07,9.8452443417018e-08
"5",0.12668838773038,0.0777043673961493,0.0780298458372068,0.0749534611624914,0.0762716400821818,0.0744480802233254,0.072019809784312,0.0682518577161431,0.0630698062875915,0.0567115843122729,0.0495801701328786,0.0421313212205323,0.0347999757959521,0.0279461008936653,0.0218252780792611,0.0165820754620119,0.012260511100788,0.00882507488622351,0.00618605243043198,0.00422408665048161,0.00281065060408622,0.00182287975164064,0.0011526562833215,0.000710782864321459,0.000427528695664308,0.000250883373080079,0.00014365976149157,8.02832090455226e-05,4.37927028518233e-05,2.33195288203596e-05,1.21235418320017e-05,6.15438500162592e-06,3.05374749496369e-06,1.47682025937602e-06,7.01998503738194e-07,3.40169163827124e-07,2.25379139923323e-07
"6",0.102136462012015,0.0646148906285193,0.0670164714298762,0.0667556051265279,0.0703449037553232,0.0713650155968086,0.0715732899160809,0.0701984907089397,0.0670463593520117,0.0622468059536814,0.0561398953979278,0.0491779943441536,0.0418474734679906,0.0346007244432981,0.0278078331451323,0.0217308490222208,0.0165188250791104,0.012219065411609,0.00879855535322351,0.00616950238118299,0.0042140206560216,0.00280468632111849,0.00181943766488885,0.00115072151595068,0.000709723615302776,0.000426963807429367,0.000250589926610238,0.0001435113197335,8.0210200503478e-05,4.37580434288233e-05,2.33042008128687e-05,1.211791423293e-05,6.15970630737201e-06,3.05109815611655e-06,1.48677164314315e-06,7.402258320531e-07,5.0448639474713e-07
"7",0.0797313329304573,0.0522100207114021,0.0560599172168851,0.0579879506859031,0.0633241387076726,0.0667553572819538,0.0693819107896333,0.0704001418193404,0.069477064150721,0.0665893355815916,0.0619517037378778,0.0559456428884177,0.0490486136994154,0.0417610369665393,0.0345431802431603,0.0277698589148992,0.0217061221375536,0.0165029985057117,0.0122091376296749,0.00879246522549062,0.00616585430657679,0.00421188887212148,0.00280347179869307,0.00181876329308545,0.00115035665362451,0.000709531319717979,0.000426865175330111,0.000250540874126308,0.000143487993397496,8.02002738585132e-05,4.37557707502032e-05,2.33066434004395e-05,1.21369979695038e-05,6.15763333297877e-06,3.07621024486179e-06,1.57367725454464e-06,1.10268221439172e-06
"8",0.0603655259242229,0.0410301229897326,0.045672459506517,0.0490771545651782,0.055535049971122,0.060783304269371,0.0654222780388282,0.0686401786851348,0.0699736433648391,0.0692255094508542,0.0664384994365236,0.0618592873621292,0.0558880431404334,0.0490123685680994,0.0417381402187914,0.0345287299076309,0.0277607932813582,0.0217004955942422,0.016499558364965,0.0122070725418169,0.00879125117017725,0.00616515655044652,0.00421149730971817,0.00280325744209038,0.00181864893331664,0.00115029733692561,0.000709501661150009,0.000426851372829362,0.000250535798344922,0.000143488573629384,8.0206306012734e-05,4.3766991651964e-05,2.33520198906287e-05,1.21357741248367e-05,6.2165427129567e-06,3.26789847591428e-06,2.35313671173493e-06
"9",0.0443746270106909,0.0313749958467084,0.0362306527200878,0.040431086897088,0.0473851567439941,0.0537898914999624,0.0599085584155945,0.0649615432443291,0.0683907048018572,0.069835814162288,0.0691484876601663,0.0663945783556022,0.0618337739285915,0.0558730394344833,0.0490034706116783,0.041732833803469,0.0345255598815393,0.0277589053773643,0.0216993804088899,0.0164989079949007,0.0122066994862618,0.00879104132218646,0.0061650410672445,0.00421143530182119,0.00280322515068041,0.00181863296549429,0.00115029051004739,0.000709500555097273,0.000426854837264766,0.000250544750938018,0.000143506546510291,8.02346583572111e-05,4.38681822323624e-05,2.33552015604357e-05,1.2269517138963e-05,6.62850232380865e-06,4.9026455548232e-06
"10",0.0316953879318214,0.0233507171073156,0.027976275096653,0.0324000971236772,0.0393009549651329,0.046220009651183,0.0532291796391042,0.0596275552924216,0.0648173463364671,0.0683155793642055,0.0697964364255989,0.0691274873395245,0.0663831836318991,0.0618275220784832,0.055869579972913,0.0490015401092273,0.0417317484757597,0.0345249470263455,0.0277585594189508,0.0216991862078303,0.0164988001486841,0.0122066405275195,0.00879100978956817,0.00616502481273161,0.00421142766911603,0.00280322280467106,0.00181863472912525,0.00115029687952252,0.000709513342875396,0.000426878401671458,0.000250588042627929,0.000143573072562145,8.04541165644563e-05,4.38871475519048e-05,2.3650585465755e-05,1.31325838013955e-05,9.97215142697219e-06
"11",0.0220101263254742,0.0169166854251672,0.0210229599938316,0.025245021704054,0.0316675209597024,0.0385439792358552,0.0458688133607252,0.0530610785364521,0.0595454009413838,0.0647767596021703,0.0682954956463491,0.0697863521450121,0.0691223440588881,0.0663805395586995,0.061826156530878,0.0558688702299754,0.0490011679743859,0.041731551552788,0.0345248421048767,0.0277585033990794,0.0216991564436811,0.016498784606467,0.0122066328347578,0.00879100673725294,0.00616502513227746,0.00421143153343333,0.00280323181438058,0.00181865233290102,0.00115032844245058,0.000709569187671231,0.000426978197616062,0.000250739368175819,0.000144038051967954,8.05191013322785e-05,4.45221891076879e-05,2.54131348942689e-05,1.98016058839158e-05
"12",0.0148670475590575,0.0119312487299734,0.0153720411455683,0.0191206238987296,0.0247834745194613,0.0311886389250149,0.0383290093902091,0.0457702611347363,0.0530150393402417,0.0595237483411026,0.0647665930511023,0.0682906598585241,0.0697840164166191,0.0691212101172417,0.0663799896368094,0.0618258897620294,0.0558687402080297,0.0490011040488653,0.0417315198182852,0.0345248262736133,0.0277584956212968,0.0216991529927863,0.016498783916244,0.0122066347052011,0.00879101218637155,0.00616503670516622,0.00421145405083465,0.00280327368614589,0.00181872591565787,0.0011504563530027,0.00070979296519002,0.000427313415538104,0.000251702244422034,0.00014422226162903,8.18480906668429e-05,4.80303049679162e-05,3.83824096641244e-05
"13",0.00977227849737438,0.00819368797568278,0.0109369141864231,0.0140767701852262,0.018837706819016,0.0244883462189224,0.0310600295540548,0.038272416058596,0.0457449201751685,0.053003664879881,0.0595186634761491,0.0647642917536115,0.0682896004289971,0.0697835265584983,0.069120984962034,0.0663798868891915,0.0618258430299861,0.0558687189257506,0.0490010943577666,0.0417315155416431,0.0345248247914762,0.0277584960992984,0.0216991557757096,0.0164987905892894,0.0122066486699447,0.00879103979228588,0.00616508908443272,0.00421154995184523,0.00280344021336103,0.00181901102045346,0.00115094523962488,0.00071051641425968,0.000429261983161256,0.000252171357317404,0.000146929332539325,8.86518279733399e-05,7.26173830536296e-05
"14",0.00625347043571238,0.00547997471142182,0.00757215357104646,0.0100744043662302,0.013907920047117,0.0186604654035811,0.0244131354701882,0.0310282073376392,0.0382587278807912,0.0457390474321609,0.0530011602262027,0.0595175823194796,0.0647638153305457,0.0682893891392568,0.0697834336478077,0.0691209446591996,0.0663798696394021,0.0618258357792871,0.0558687160841389,0.0490010937195024,0.041731516577142,0.0345248281278362,0.0277585037205215,0.021699171852461,0.0164988230480769,0.0122067117592522,0.00879115797770424,0.0061653027698624,0.00421191680854564,0.00280405905558537,0.0018200517231703,0.00115246624113712,0.000714369230062214,0.000430370588542388,0.000257537543223596,0.000159783568673839,0.00013408220749149
"15",0.00389745732445858,0.00357010709492707,0.00510243413769726,0.007010349211491,0.00997623170782032,0.0138041674160415,0.0186174681280954,0.0243956174267261,0.0310209546136545,0.0382557508537764,0.0457378348319648,0.0530006606231051,0.0595173711712328,0.0647637251050228,0.0682893509142637,0.0697834177610575,0.0691209382634509,0.0663798673230038,0.0618258354760217,0.0558687173887956,0.0490010974169468,0.0417315249452293,0.0345248459911612,0.0277585404960301,0.0216992449866366,0.0164989634000721,0.0122069715063155,0.00879162175095587,0.00616608979218395,0.00421322501117486,0.00280621749945355,0.00182316657206032,0.00115990747603289,0.00071683961285209,0.000440720214665389,0.000281187571561761,0.000241578984060116
"16",0.00236675741995768,0.00226619973737648,0.00334710235699933,0.00474446360608706,0.00695471660895004,0.00991702047265485,0.0137801352783224,0.0186080278752728,0.0243918486835819,0.0310194736952348,0.038255174390258,0.045737608229442,0.0530005687749038,0.0595173332885876,0.0647637096052049,0.0682893447816307,0.0697834156192209,0.0691209380930047,0.0663798687769565,0.0618258394420098,0.0558687263727292,0.0490011167863454,0.041731565408807,0.0345249279760836,0.0277587012639276,0.0216995495080458,0.0164995198673427,0.0122079522750535,0.0087932662450364,0.00616878319732161,0.00421758620047997,0.00281242990759042,0.00183720055397384,0.00116514518775413,0.000736255439318487,0.000483078692099356,0.000424648382434011
"17",0.00140091271627988,0.00140200487206011,0.00213803568040366,0.00312398617339021,0.0047137245284174,0.00692176608243847,0.00990388743129595,0.0137751557742745,0.0186061075176202,0.0243911259375106,0.0310192046743333,0.0382550736018458,0.0457375691166682,0.053000553235288,0.0595173272211114,0.0647637075212233,0.0682893446735058,0.0697834171771232,0.0691209422850547,0.0663798782977861,0.0618258601132984,0.0558687699907517,0.0490012063393242,0.0417317440103512,0.0345252730937439,0.0277593459815477,0.0217007119716467,0.016501541272747,0.0122112994946871,0.00879866705673525,0.00617736667467576,0.00422965085614635,0.0028382662033317,0.00184782422753812,0.00120056217577784,0.000810076647988224,0.000728109372076902
"18",0.000808576215074546,0.000845593201752279,0.00133030122547882,0.00200201975254583,0.00310741983915691,0.00469584113416392,0.00691474853505715,0.00990131672103604,0.0137741963409171,0.0186057615096672,0.0243910026911612,0.0310191607291144,0.0382550573450814,0.0457375629890539,0.0530005511663416,0.0595173271467711,0.064763709155914,0.0682893490549362,0.0697834271645182,0.0691209640902708,0.0663799246394645,0.0618259561379938,0.0558689637948446,0.0490015866148684,0.0417324676073681,0.0345266052595518,0.0277617143564301,0.0217047728742922,0.0165081782378087,0.0122218465103637,0.0088151201294921,0.00620017553995698,0.00427606140849377,0.00285895162558715,0.00191061781495599,0.00132568361489692,0.00121748782561789
"19",0.000455244530240817,0.000497351292186857,0.000806523853371574,0.00124921233210454,0.0019933086935305,0.00309795226807409,0.00469217444427643,0.0069134497392963,0.00990084678303579,0.0137740338782707,0.0186057060829812,0.0243909839327316,0.0310191542174461,0.0382550552354514,0.0457375629205326,0.0530005528378981,0.0595173316486828,0.0647637194861408,0.0682893717586499,0.0697834757464186,0.0691210655237988,0.0663801312074164,0.0618263660089916,0.0558697548363268,0.0490030681193215,0.0417351539337335,0.0345313113060143,0.0277696663867691,0.0217175926194154,0.0165282355335618,0.0122525558958589,0.00885708756529289,0.00628148554094464,0.0043148123867259,0.00296710995085579,0.00211674465866262,0.00198484684498847
"20",0.000250113148180866,0.000285354181796159,0.000476610429677862,0.000759254721141035,0.00124474194380954,0.00198841883844775,0.00309607878111694,0.00469153234460537,0.00691322411460132,0.00990077199543767,0.0137740094340911,0.0186056983149128,0.0243909816148397,0.0310191541042801,0.0382550568791148,0.0457375674203954,0.0530005632803299,0.0595173548264703,0.0647637695271154,0.0682894771316792,0.0697836922065647,0.0691214991084035,0.0663809773302098,0.0618279723221867,0.0558727152243803,0.049008352862038,0.0417442720906175,0.0345464872849864,0.0277937853135878,0.0217547303432732,0.0165840349945027,0.0123276853845444,0.00899595365367194,0.00635143062191774,0.00449569931908248,0.00329694176429322,0.00315403714369551
"21",0.000134135093600648,0.000159754013889543,0.000274622456713629,0.000449672110959969,0.000757015187640016,0.00124227768742995,0.00198748271852189,0.00309576819047486,0.00469142618885262,0.00691319039552628,0.00990076148786523,0.0137740064832159,0.0186056980486396,0.0243909831408331,0.0310191584293201,0.0382550670843081,0.0457375903919971,0.0530006135024796,0.059517461790236,0.0647639915973179,0.0682899265646539,0.0697845785873313,0.0691232015175583,0.0663841576900931,0.0618337406532434,0.0558828515222075,0.0490255719595867,0.0417724895080965,0.0345906740994769,0.0278607194612541,0.0218534022066172,0.0167148473370775,0.0125587533637356,0.00911770669738899,0.00664498369404366,0.00500792849577562,0.00488379064203687
"22",7.02424759515781e-05,8.72949596342576e-05,0.000154340208271268,0.000259616060040682,0.000448576631117385,0.000755803286281961,0.00124182025179461,0.00198733574564483,0.00309571927242916,0.00469141135629357,0.00691318613395363,0.00990076084682808,0.0137740077753929,0.0186057020021487,0.0243909926838251,0.0310191803040607,0.0382551157041441,0.0457376955198196,0.0530008348106539,0.0595179155068913,0.0647648975256635,0.0682916878589123,0.0697879111369165,0.0691293320669303,0.0663951047238805,0.0618526785241565,0.0559145230767914,0.0490766617850115,0.0418512861167274,0.0347080597493443,0.0280304666205475,0.0220748439182528,0.0170892381239934,0.012763244907961,0.00957965801354976,0.00741634714740315,0.00736650716878001
"23",3.59283147178356e-05,4.6570845790979e-05,8.46314914313105e-05,0.000146169890352121,0.000259092736128784,0.000447994939166307,0.000755584686181809,0.00124175223375236,0.0019873137100902,0.00309571301792681,0.00469141002655859,0.00691318704241326,0.00990076424318719,0.0137740162410341,0.0186057218360206,0.0243910376583298,0.0310192793886259,0.038255327970393,0.04573813785275,0.0530017316243145,0.0595196846134759,0.0647682924876601,0.0682980231520223,0.0697993976657346,0.0691495382922408,0.0664295308306451,0.0619093670063767,0.0560045356105945,0.049213359948721,0.0420515100996085,0.0349920274769002,0.0283947639194536,0.0226651672361948,0.0174207100527233,0.0134676185750252,0.0107048606383128,0.0108202466451443
"24",1.79544440620316e-05,2.42626095559899e-05,4.52926147647121e-05,8.02842903122659e-05,0.000145925700058282,0.000258820211134062,0.000447892783327621,0.000755553930330595,0.00124174261026191,0.00198731140413886,0.00309571338494195,0.00469141271954964,0.00691319411686149,0.00990078124763172,0.0137740556892269,0.0186058106533292,0.0243912319064813,0.0310196921940481,0.0382561805941008,0.0457398496423036,0.0530050722129516,0.0595260204884326,0.0647799670872526,0.0683189070397371,0.0698356190228746,0.0692103507088783,0.0665281645640468,0.06206355451134,0.0562350827181297,0.0495453348134993,0.0425132256163703,0.0355741765710919,0.0293000015300606,0.0231837371112986,0.0184604995780377,0.015055694517153,0.0154716291624235
"25",8.76826259032062e-06,1.23470248992101e-05,2.36640905287109e-05,4.30324063281414e-05,8.0172980642326e-05,0.000145801068753842,0.000258773544517963,0.000447879249625643,0.000755550007332266,0.00124174232574017,0.00198731331440648,0.00309571891561318,0.00469142643421823,0.00691322674077345,0.00990085648154112,0.0137742240885169,0.0186061766183998,0.0243920041975044,0.0310212749459925,0.0382593309159903,0.0457459390978833,0.0530165009622682,0.0595468392317187,0.0648167500669374,0.0683818675405141,0.0699398627399265,0.0693769794993203,0.0667846987612316,0.062441257027153,0.0567697652625544,0.0502745794818832,0.0434164078156921,0.0369233494806896,0.0300828997313003,0.0246684259781596,0.0206262216654562,0.0215283720433956
"26",4.18561863888799e-06,6.13879224546293e-06,1.20735434095434e-05,2.25158783970308e-05,4.29828381870483e-05,8.01173517804951e-05,0.000145780263091344,0.000258767847907816,0.000447878045989371,0.000755551140280695,0.00124174633790823,0.00198732368034833,0.00309574425569208,0.00469148638558572,0.00691336432642182,0.00990116286693569,0.0137748861999698,0.0186075652482164,0.0243948306418944,0.0310268580055183,0.0382700317675755,0.0457658351100969,0.0530523713510018,0.0596095046639547,0.0649227129080694,0.0685550350700058,0.0702128473706123,0.0697911060635638,0.0673852509341304,0.0632771907887892,0.0578879109309256,0.05163430247233,0.0453695410004442,0.0380637132552982,0.0321315283371738,0.0275179119793372,0.0291422467282719
"27",1.9534297141124e-06,2.98252770597577e-06,6.01683212556026e-06,1.15036380292311e-05,2.24943187515654e-05,4.29586231187474e-05,8.0108358507748e-05,0.000145778147273682,0.000258768170373846,0.000447880715461138,0.000755558461814767,0.00124176478272036,0.00198736850316803,0.00309584984941318,0.00469172766874027,0.00691389914357486,0.00990231281745411,0.0137772846712032,0.0186124174336218,0.02440435040452,0.0310449671726797,0.0383034210051977,0.0458254756250354,0.0531555014108517,0.0597819492026696,0.0652011266753434,0.0689882251198401,0.0708608174607072,0.0707170163704147,0.0686529072479666,0.0649404939540791,0.0598732146199026,0.0543789803346863,0.0469716512157401,0.0407926878749381,0.0357423545930976,0.0383662316195573
"28",8.91465914554611e-07,1.41625838423317e-06,2.92944106724991e-06,5.74047952081398e-06,1.14944900474275e-05,2.24840735905254e-05,4.29549566594381e-05,8.01079932750294e-05,0.000145779685823847,0.000258772992039634,0.000447893288961082,0.000755589875703426,0.00124184080013991,0.00198754687870096,0.00309625577400407,0.0046926235301806,0.00691581646459963,0.00990629167351184,0.0137852896233077,0.018628027130144,0.024433843679752,0.0310989377326385,0.0383990193531348,0.0459892539461147,0.0534265641830886,0.0602146957651232,0.0658662449952959,0.069969912435998,0.0722438001562779,0.072580183412083,0.071051804439455,0.0677502975466853,0.0636151823831549,0.0565492119634866,0.0504775733607536,0.0451906100560691,0.0491131177153124
"29",3.97874931455849e-07,6.57389459904011e-07,1.39370428681499e-06,2.79853255158431e-06,5.73671222678512e-06,1.14903352418506e-05,2.24828381266956e-05,4.29556542544229e-05,8.01109216561706e-05,0.000145787721189045,0.000258793649502742,0.00044794464349353,0.00075571364601951,0.00124213007324448,0.00198820249723854,0.00309769660294564,0.00469569349720523,0.00692215709307133,0.0099189827700119,0.0138098985714391,0.018674236617562,0.0245178253310428,0.0312465645995772,0.038649797632297,0.0464004265671262,0.0540762195311657,0.0612018495110798,0.0673050064312266,0.0719694514791673,0.0748959782241514,0.0759325247500832,0.0749046550224589,0.0726972866914649,0.0664487797150951,0.0608885920347254,0.0556140249835608,0.061125756150118
"30",1.73691675722435e-07,2.98319662109676e-07,6.48039597153306e-07,1.33313750573683e-06,2.79705866623972e-06,5.73519293698117e-06,1.14903085288125e-05,2.24844648288355e-05,4.29604715964931e-05,8.01237077188776e-05,0.000145820361151804,0.000258874409710325,0.000448138435141453,0.000756164638090348,0.00124314786781997,0.0019904296220066,0.00310242085139284,0.00470540549164805,0.00694150021235717,0.00995629122675241,0.0138795496043169,0.0188000178490373,0.0247373789457007,0.0316166271297089,0.0392513150729013,0.0473417432555628,0.0554913971808085,0.0632401698651034,0.0701013799905182,0.075623471230741,0.0794326648608855,0.0810488471295382,0.0812439311295917,0.076262252945231,0.0716181860546367,0.0666247610760508,0.0739700691708782
"31",7.41735977912507e-08,1.32364211821825e-07,2.9454294502538e-07,6.20685716777597e-07,1.33264143335101e-06,2.7967183480344e-06,5.73592681583655e-06,1.14930240895266e-05,2.24919392147993e-05,4.29800592227989e-05,8.01734091993182e-05,0.000145942697461397,0.000259166533632089,0.000448815076002888,0.000757684681042967,0.00124645890321399,0.00199742096065888,0.00311672610652655,0.00473375783706065,0.00699590324532673,0.010057294423966,0.0140608552021086,0.0191144122911922,0.025263461651353,0.0324648976821989,0.0405669794898388,0.0493001594567654,0.0582809954716295,0.0670205861781593,0.0749711502285706,0.0815660641259037,0.0860101076126026,0.0889209058030893,0.08556493874184,0.0821842104531376,0.0777225056250086,0.0870604740369142
"32",3.09887684242085e-08,5.74308446844387e-08,1.30886116887757e-07,2.82506038013265e-07,6.20629093585229e-07,1.33290563306469e-06,2.79812132029891e-06,5.74005689101509e-06,1.15041350657087e-05,2.25208215432588e-05,4.30529009646864e-05,8.03517103433136e-05,0.000146366242373116,0.000260142718700513,0.000450997540802337,0.00076241638330477,0.00125640355810655,0.00201767363426418,0.00315667282303134,0.00481002417453859,0.00713674687430467,0.0103086795418077,0.01449408610088,0.0198344561250152,0.0264158475139634,0.0342375129621884,0.0431813487610614,0.0529857311517451,0.0632183763062908,0.0732952381608482,0.0825028646337639,0.0897507223959881,0.0954832547052311,0.0939678207462044,0.0920860100004574,0.0883496350202364,0.0997225488322691
"33",1.26683289223606e-08,2.43730263069754e-08,5.68828718635601e-08,1.25757568822205e-07,2.82684042966909e-07,6.21305065907126e-07,1.33505139105944e-06,2.80408880946812e-06,5.75593246190976e-06,1.15451112836605e-05,2.26235252032334e-05,4.33028536448332e-05,8.09422524680317e-05,0.000147720340455207,0.000263155181888235,0.000457497492430462,0.000776013093683894,0.00128396372373251,0.00207177509703922,0.00325945781504357,0.00499887048022182,0.00747198465277085,0.010883061647986,0.0154427012691802,0.0213421533919019,0.0287172825118721,0.0376029301701947,0.0478803182910745,0.059213351050634,0.071032920404244,0.082530284303845,0.0923617784199084,0.100802189752062,0.101167732476033,0.100871684989285,0.0979669010886956,0.111284839869651
"34",5.06998649107228e-09,1.01241882596692e-08,2.41991063488189e-08,5.48131670146298e-08,1.26106139341808e-07,2.83742325827917e-07,6.24345726044874e-07,1.34333626040223e-06,2.82594365587938e-06,5.81194703946266e-06,1.1684605653678e-05,2.29609776612145e-05,4.40956157852374e-05,8.27502860038567e-05,0.000151722037374928,0.00027174680274226,0.000475382625381159,0.000812092372483243,0.00135444913299012,0.0022050354527246,0.0035030682586401,0.00542905705556549,0.0082049494516507,0.012086352564535,0.017342766872725,0.024221877828961,0.0328951044350221,0.0433845771650271,0.0554667568471151,0.0686213698858463,0.0819904954176756,0.0940315870104495,0.104871013255124,0.106985130657827,0.108203591565149,0.106135804698193,0.121183467494097
"35",1.98995754449906e-09,4.12597289266066e-09,1.01066191173036e-08,2.34754279728284e-08,5.53316551358974e-08,1.27597387587423e-07,2.87891029185712e-07,6.35506893992621e-07,1.37251644659958e-06,2.90013431159642e-06,5.99533936180554e-06,1.21252009344717e-05,2.39893938023469e-05,4.64269182721446e-05,8.78805825201374e-05,0.000162676540083608,0.000294430594670814,0.000520907330968933,0.000900580857076261,0.00152090169898713,0.00250776928620098,0.00403485593708624,0.00633018345019148,0.00967577120767656,0.0143945247797112,0.0208176068431352,0.0292260431126492,0.0397636633677475,0.0523147562094007,0.0664218242315151,0.081211271586281,0.0949974005569477,0.107789620668148,0.111381283839045,0.1139073134215,0.112588985158496,0.12905579321189
"36",7.73574014124393e-10,1.66900775802964e-09,4.19841171077826e-09,1.00259580857113e-08,2.42756342313314e-08,5.75475201663263e-08,1.33579859209015e-07,3.03626933026494e-07,6.7585599264113e-07,1.4733395801551e-06,3.14550912874435e-06,6.57663962466745e-06,1.3464964962906e-05,2.69917707212798e-05,5.29650510492004e-05,0.000101707391498472,0.000191054284928196,0.000350911736557753,0.000629837518619238,0.0011039667616604,0.00188816568068788,0.00314841192079783,0.00511293597324681,0.00807759011860834,0.0123984955568,0.0184631820507108,0.0266312028815399,0.0371385024945266,0.0499567737877304,0.064687358782463,0.0804594730170735,0.0954940361552884,0.109718132508581,0.114424236406367,0.11795297861607,0.117224174139724,0.134741043388562
"37",3.31594213693451e-10,7.47120168507941e-10,1.93592533785552e-09,4.76925108897931e-09,1.19023308057179e-08,2.91037212422766e-08,6.97347129739034e-08,1.63740054710722e-07,3.76768152703651e-07,8.49552583556596e-07,1.87696632973257e-06,4.06249811468352e-06,8.61163252296351e-06,1.78723561033155e-05,3.62988461138183e-05,7.21092887564712e-05,0.000140027019808415,0.000265614820610749,0.000491783185071382,0.00088797578480361,0.00156215418546955,0.0026748244219531,0.00445278377708603,0.00719793304722111,0.0112836269359063,0.0171286111708131,0.0251378196147655,0.0356024279578952,0.0485488075552295,0.0636180555233586,0.0799468710995776,0.0957059230760756,0.110775421322348,0.116151989384028,0.120290746899178,0.119926372745244,0.138067890300168
