"","X0","X1","X2","X3","X4","X5","X6","X7","X8","X9","X10","X11","X12","X13","X14","X15","X16","X17","X18","X19","X20","X21","X22","X23","X24","X25","X26","X27","X28","X29","X30","X31","X32","X33","X34","X35","X36"
"1",0.0817549196425961,0.0930324580239431,0.111960758043589,0.12181580205115,0.122052524064234,0.112992633170778,0.0975948511538571,0.0791994833168246,0.0605499121987795,0.0437016638172683,0.0298372709681715,0.0192890698998214,0.011813981127592,0.0068605622147346,0.00377947851996593,0.00197547890038144,0.000979799442646246,0.000461152265604496,0.000205892816446849,8.71387113665343e-05,3.49218888389842e-05,1.32317101584727e-05,4.72874126018612e-06,1.5888240076993e-06,4.99784024998205e-07,1.46405181191726e-07,3.9669116825737e-08,9.85800478842569e-09,2.22408973732332e-09,4.50266513760136e-10,8.07424556353805e-11,1.2642729593745e-11,1.7014184990939e-12,1.93321093466772e-13,1.81696362474548e-14,1.37950341230979e-15,8.60752430984124e-17
"2",0.0731889334019343,0.0846971541429845,0.104263895129759,0.116286571669955,0.11946485607525,0.1134609790495,0.100543976172781,0.0836981991284056,0.0656668275308428,0.0486780154806102,0.0341693238279991,0.0227415099857872,0.0143632937820797,0.00861595000619699,0.00491149900553625,0.0026613410667694,0.0013709826267994,0.000671460687217574,0.000312578719760154,0.000138235204089038,5.80299358849684e-05,2.30969025965469e-05,8.70157520794279e-06,3.09593701165171e-06,1.03713900835485e-06,3.2588241768568e-07,9.55695798665161e-08,2.59959012547708e-08,6.50862669452786e-09,1.48632440541243e-09,3.0633502908625e-10,5.63023765694243e-11,9.1032894792442e-12,1.27481690555564e-12,1.51827744464281e-13,1.50448676711432e-14,1.28588430317438e-15
"3",0.0572357310739964,0.0686418355864941,0.088636865300353,0.104169595939067,0.112772651747532,0.112846514400031,0.105242351156717,0.0920586718798327,0.075829250563865,0.0590056899890779,0.0434854852306709,0.0304037219879719,0.0201908908490464,0.0127469266596895,0.00765425188368756,0.0043728446282662,0.00237705065833838,0.00122942551206048,0.000604857293898403,0.000282950781135212,0.000125778634314363,5.30832983019327e-05,2.1244034800476e-05,8.04876821040749e-06,2.88054911516569e-06,9.70958401637183e-07,3.07069339023736e-07,9.06631477358857e-08,2.48347669704139e-08,6.26270220680505e-09,1.44048274138557e-09,2.98959807645932e-10,5.530189696364e-11,8.99213464326674e-12,1.26508037723713e-12,1.51207800143433e-13,1.62821150936157e-14
"4",0.0396627162308892,0.0499469730538715,0.0688229316046757,0.0868917921652801,0.101063620663666,0.10845270697244,0.10811055326537,0.100708255143827,0.088065616250139,0.0725768578740981,0.0565505508444625,0.0417556340461149,0.0292635895225344,0.0194877360052943,0.0123399463235646,0.00743261027988859,0.00425917729967559,0.00232208730524426,0.0012043173263804,0.000594010752854879,0.00027852082410025,0.000124069200913928,5.24609746453193e-05,2.10309970063886e-05,7.98056506240029e-06,2.86026674442156e-06,9.65395778305141e-07,3.05673969779281e-07,9.03464000243263e-08,2.47706061504268e-08,6.25131118148545e-09,1.43874877400306e-09,2.98739647095206e-10,5.52794121533566e-11,8.99039646290105e-12,1.26535855344956e-12,1.67094374064073e-13
"5",0.0248441718091209,0.0330708689809078,0.0490127207254872,0.0671147929416485,0.0847713288214005,0.0985671239890779,0.105956632350057,0.105870664038912,0.098828982161762,0.0865903386245644,0.0714970248542046,0.0558107219460569,0.0412807586178195,0.0289783249800537,0.0193270631128363,0.0122548925688544,0.00739026238743188,0.00423932436802103,0.00231330439812578,0.00120064462068653,0.000592559076315003,0.000277978935125886,0.00012387849727523,5.23979529408905e-05,2.1011576562927e-05,7.97503395191948e-06,2.85882289661321e-06,9.65052820253166e-07,3.05600419600232e-07,9.03323129355072e-08,2.47682361034934e-08,6.25096900264569e-09,1.43870770435056e-09,2.98735732285032e-10,5.52794702737842e-11,8.99619931414017e-12,1.42629337399292e-12
"6",0.0142379149053064,0.0201005368957019,0.0321198053433902,0.0478301460611415,0.0658818563160014,0.0834713564227676,0.0973580548238674,0.104931312612069,0.10504859910722,0.0982059785860528,0.0861475467420512,0.0712016261209522,0.0556257613159415,0.04117231683672,0.0289187641112593,0.0192963565971897,0.0122400219706932,0.00738349236978881,0.0042364201747444,0.00231212765091127,0.00120019409452791,0.000592396319484051,0.000277923593985583,0.000123860878746568,5.23927511796508e-05,2.10101705529904e-05,7.97469022254385e-06,2.85874748058621e-06,9.65038021422567e-07,3.05597828472324e-07,9.03319112900577e-08,2.47681820479944e-08,6.2509629145204e-09,1.43870730412567e-09,2.98740637445898e-10,5.53491641440225e-11,1.03476942901628e-11
"7",0.00751798857874705,0.0112806369556149,0.0194348257369057,0.031434337414018,0.0471957826652951,0.0652674181772549,0.0829344254673634,0.0969261468070545,0.104600209578536,0.104806489677873,0.0980389786579106,0.0860390855353674,0.0711353591961911,0.0555878104468849,0.041151965132052,0.0289085296818805,0.0192915268295678,0.0122378818162731,0.00738259961550996,0.00423606837279458,0.00231199653582731,0.00120014795984873,0.000592381050191997,0.000277918873958961,0.000123859533412885,5.23924040739578e-05,2.10100910479713e-05,7.9746742837649e-06,2.8587446992129e-06,9.65037596797686e-07,3.05597771135176e-07,9.03319044340088e-08,2.4768181604571e-08,6.25096546211735e-09,1.43876383986233e-09,2.99408150514322e-10,6.49699277668695e-11
"8",0.00367605738550291,0.00587193245878637,0.01089476088538,0.0190850493705007,0.0311398730216685,0.046930093428726,0.0650481193847169,0.0827669765685675,0.0968036849279335,0.104514116335708,0.10474906407423,0.0980027869154715,0.0860175688252853,0.0711233512849601,0.0555815367281749,0.0411488943767732,0.0289071208006386,0.0192909205628747,0.0122376363464035,0.00738250560705839,0.00423603421417402,0.00231198477593876,0.00120014414228292,0.000592379892388188,0.000277918551144925,0.000123859452602112,5.2392386399915e-05,2.10100877531823e-05,7.97467376977269e-06,2.85874463249378e-06,9.65037589477199e-07,3.05597770531567e-07,9.033190797252e-08,2.47682151593815e-08,6.25148721539968e-09,1.44402413454967e-09,3.58558751552057e-10
"9",0.00167121514253032,0.00284543244349008,0.00567651442700154,0.0107344439057233,0.0189606173550001,0.0310342270785458,0.0468473277395958,0.064988062328015,0.0827251650463026,0.096775541596034,0.104496048562811,0.104738065929759,0.0979964528893246,0.0860141391641052,0.0711216133880313,0.0555807130953253,0.0411485293384431,0.0289069694406204,0.0192908616037167,0.0122376145925614,0.00738249795054885,0.00423603164139785,0.00231198395504984,0.00120014389651589,0.000592379824685906,0.000277918534456317,0.000123859449040496,5.23923857632729e-05,2.10100876609393e-05,7.97467375926799e-06,2.85874463170949e-06,9.65037591006361e-07,3.05597807926593e-07,9.03322370894416e-08,2.47721974389581e-08,6.28644691865489e-09,1.76327265502457e-09
"10",0.000708567294331812,0.00128733967383667,0.00275671480816269,0.00560974978717207,0.010686360157554,0.0189219129828454,0.0310052979644829,0.0468273219087051,0.0649748035975981,0.0827166409303639,0.0967702922551958,0.104492973751357,0.104736356818463,0.0979955581614919,0.0860137010943464,0.0711214133487247,0.055580628062755,0.0411484957201855,0.0289069570228073,0.0192908572655751,0.0122376131381843,0.00738249747927342,0.00423603149442633,0.00231198391161014,0.00120014388464321,0.00059237982178072,0.000277918533843036,0.000123859448932976,5.23923857482534e-05,2.10100876593498e-05,7.97467376060016e-06,2.8587446484285e-06,9.65037898801033e-07,3.05600369791449e-07,9.03579200795161e-08,2.49723558209206e-08,7.82099036533398e-09
"11",0.000280754266797292,0.000544921739620914,0.00125066646733489,0.00273123549462755,0.00559270601540098,0.0106732980065819,0.0189125617393062,0.030999116577183,0.0468234178851131,0.0649724089826291,0.0827152294325902,0.0967694986249639,0.10449254894926,0.104736142124648,0.0979954566830842,0.0860136565054364,0.071121395234828,0.0555806212903777,0.0411484933851933,0.0289069562693965,0.0192908570321616,0.0122376130672047,0.0073824974580099,0.00423603148826686,0.00231198390994118,0.0012001438842366,0.000592379821695273,0.00027791853382817,0.00012385944893093,5.23923857480512e-05,2.10100876708991e-05,7.9746738935977e-06,2.85874672001214e-06,9.65054312243017e-07,3.05743139819653e-07,9.13637611710086e-08,3.16261054711976e-08
"12",0.000104087651550487,0.000216117968556772,0.000530997382056976,0.00124170656182634,0.00272568351955585,0.00558864894711166,0.0106705097293406,0.0189107963302705,0.0309980530209376,0.0468227961325039,0.0649720589324582,0.0827150409631145,0.0967694016574781,0.10449250163685,0.104736120483321,0.0979954474944929,0.0860136529221806,0.0711213939655247,0.0555806208841857,0.0411484932665893,0.0289069562367364,0.0192908570232771,0.012237613064744,0.00738249745732497,0.00423603148808405,0.00231198390989685,0.00120014388422731,0.00059237982169366,0.000277918533827955,0.000123859448931048,5.23923858223879e-05,2.10100885215414e-05,7.97468565361875e-06,2.85883604525314e-06,9.65751214760344e-07,3.10252591730152e-07,1.17681501826696e-07
"13",3.61267948935482e-05,8.03737705972365e-05,0.000211239407705003,0.000528084687429084,0.00124004338045594,0.00272452556177047,0.00558788432100638,0.0106700455978004,0.0189105295766785,0.0309979046685015,0.0468227166463373,0.064972018147758,0.0827150208877698,0.0967693922229092,0.104492497453101,0.104736118756317,0.0979954468416993,0.0860136527004621,0.0711213938989609,0.0555806208665993,0.0411484932624066,0.0289069562357851,0.0192908570230525,0.012237613064687,0.0073824974573103,0.00423603148808052,0.00231198390989611,0.00120014388422718,0.000592379821693751,0.000277918533829919,0.000123859449337007,5.23923904116313e-05,2.1010146424491e-05,7.97510967421935e-06,2.8618736745072e-06,9.8404278755872e-07,4.06117970671916e-07
"14",1.17373153939852e-05,2.80350597345543e-05,7.87929648616656e-05,0.00021036296425641,0.000527627136409733,0.00123974075945995,0.00272433364143796,0.00558777262578613,0.0106699843520013,0.0189104972270479,0.030997888244775,0.0468227086735396,0.064972014427578,0.0827150192167758,0.096769391506494,0.104492497164564,0.104736118649568,0.0979954468063734,0.0860136526902793,0.0711213938964563,0.0555806208660754,0.0411484932623104,0.0289069562357679,0.019290857023049,0.0122376130646862,0.00738249745731011,0.00423603148808048,0.00231198390989617,0.00120014388422864,0.000592379821714915,0.000277918535794757,0.000123859471015014,5.23926436729307e-05,2.10119408181904e-05,7.98710611612521e-06,2.92979465161221e-06,1.30817201868452e-06
"15",3.56701204671484e-06,9.16863057430554e-06,2.75610333376347e-05,7.8548841007299e-05,0.000210247704355523,0.000527555122468372,0.00123969697522141,0.0027243092281358,0.00558775984866248,0.0106699779417891,0.0189104941512862,0.0309978868427219,0.0468227080614523,0.0649720141687525,0.0827150191106588,0.0967693914649316,0.104492497149448,0.104736118644637,0.0979954468049791,0.0860136526899482,0.0711213938963918,0.0555806208660652,0.0411484932623091,0.0289069562357678,0.019290857023049,0.0122376130646862,0.0073824974573101,0.00423603148808114,0.00231198390990958,0.00120014388440161,0.000592379830396545,0.000277918627971297,0.000123860474318501,5.23995318811165e-05,2.10553869930207e-05,8.22017900793501e-06,3.9534550467873e-06
"16",1.01266344159718e-06,2.80889236321544e-06,9.03717986577895e-06,2.74981338712734e-05,7.8522353682894e-05,0.000210232210291393,0.000527546126554234,0.00123969218172446,0.0027243068336252,0.00558775870538419,0.0106699774227669,0.0189104939300301,0.030997886753569,0.0468227080267484,0.0649720141554499,0.082715019105663,0.0967693914631523,0.104492497148873,0.104736118644475,0.0979954468049413,0.086013652689941,0.0711213938963907,0.0555806208660651,0.0411484932623091,0.0289069562357678,0.019290857023049,0.0122376130646862,0.00738249745731453,0.0042360314881719,0.00231198391100705,0.00120014391985506,0.000592380189157758,0.000277922278187739,0.000123884770993902,5.25451843904124e-05,2.18000124024734e-05,1.12550138368005e-05
"17",2.68053626643074e-07,8.04939476543365e-07,2.77524475386834e-06,9.02220735556876e-06,2.74926021632549e-05,7.85193628638085e-05,0.00021023056275285,0.000527545292083464,0.00123969178468721,0.00272430665274122,0.00558775862726287,0.0106699773915163,0.0189104939184842,0.0309978867495285,0.0468227080253507,0.0649720141549616,0.0827150191054953,0.096769391463099,0.104492497148858,0.104736118644472,0.0979954468049406,0.0860136526899409,0.0711213938963907,0.0555806208660651,0.0411484932623091,0.0289069562357678,0.019290857023049,0.01223761306471,0.00738249745780136,0.00423603149383342,0.0023119840451766,0.00120014520972019,0.000592392500036205,0.000278001758046873,0.000124340033054115,5.47727843266677e-05,3.02789432983311e-05
"18",6.59915164970683e-08,2.15331254105952e-07,7.97010928644648e-07,2.77195691533404e-06,9.0211606152728e-06,2.74920878550304e-05,7.85190964558759e-05,0.000210230435658033,0.000527545234864088,0.00123969175981517,0.00272430664245071,0.00558775862335965,0.0106699773901862,0.0189104939180715,0.0309978867494053,0.0468227080253129,0.0649720141549495,0.0827150191054916,0.0967693914630979,0.104492497148858,0.104736118644472,0.0979954468049406,0.0860136526899409,0.0711213938963907,0.0555806208660651,0.0411484932623091,0.028906956235768,0.019290857023158,0.0122376130669097,0.00738249748268884,0.00423603196551769,0.00231198835690225,0.00120018396210614,0.000592635278031691,0.000279335751775287,0.000130607720450618,7.71637055124123e-05
"19",1.5062792881217e-08,5.3631197537295e-08,2.13616966949266e-07,7.96346036437861e-07,2.7717778939983e-06,9.02108239305439e-06,2.74920501760814e-05,7.85190797510933e-05,0.000210230428638754,0.000527545231972518,0.0012396917586638,0.00272430664203063,0.00558775862322492,0.0106699773901486,0.018910493918062,0.0309978867494029,0.0468227080253122,0.0649720141549493,0.0827150191054915,0.0967693914630979,0.104492497148858,0.104736118644472,0.0979954468049406,0.0860136526899409,0.0711213938963907,0.0555806208660651,0.0411484932623106,0.0289069562362095,0.0192908570318925,0.012237613163506,0.00738249902951456,0.00423604544074872,0.00231210281470532,0.00120088004897961,0.000596314946937559,0.000295977818308648,0.000186624018016539
"20",3.17558403728307e-09,1.23954236225888e-08,5.32923260063025e-08,2.1349337595523e-07,7.96318397830462e-07,2.77176743883205e-06,9.02107776407403e-06,2.74920482996008e-05,7.85190790316663e-05,0.000210230428363156,0.00052754523186729,0.00123969175862644,0.00272430664201906,0.0055877586232219,0.010669977390148,0.0189104939180619,0.0309978867494029,0.0468227080253122,0.0649720141549493,0.0827150191054915,0.0967693914630979,0.104492497148858,0.104736118644472,0.0979954468049406,0.0860136526899409,0.0711213938963907,0.0555806208660748,0.0411484932639374,0.028906956267555,0.0192908573713543,0.0122376179203347,0.00738253860738966,0.0042363640267751,0.00231398376329685,0.00121046541104358,0.000638120406016492,0.000428966773416853
"21",6.15555937657671e-10,2.6479094077066e-09,1.23344340333719e-08,5.32712614128611e-08,2.13489527067118e-07,7.96317180055939e-07,2.771766948989e-06,9.0210775854975e-06,2.749204823917e-05,7.85190790110172e-05,0.000210230428355767,0.000527545231864737,0.00123969175862566,0.00272430664201887,0.00558775862322186,0.0106699773901479,0.0189104939180619,0.0309978867494029,0.0468227080253122,0.0649720141549493,0.0827150191054915,0.0967693914630979,0.104492497148858,0.104736118644472,0.0979954468049406,0.0860136526899409,0.0711213938964377,0.0555806208715915,0.0411484933672127,0.0289069573641951,0.019290871146726,0.0122377276025041,0.00738337707565415,0.00424116869236325,0.00233762040739745,0.00131000789703385,0.000938140252469755
"22",1.0911736625007e-10,5.20333583787557e-10,2.63796546502544e-09,1.23311535877393e-08,5.32707777885928e-08,2.13489404655524e-07,7.9631713577095e-07,2.77176693458414e-06,9.02107758132684e-06,2.74920482379861e-05,7.85190790106444e-05,0.000210230428355645,0.0005275452318647,0.00123969175862565,0.00272430664201886,0.00558775862322186,0.0106699773901479,0.0189104939180619,0.0309978867494029,0.0468227080253122,0.0649720141549493,0.0827150191054915,0.0967693914630979,0.104492497148858,0.104736118644472,0.0979954468049409,0.0860136526901331,0.0711213939137393,0.0555806211861368,0.0411484966467408,0.0289069949901179,0.0192911585256864,0.0122398184399573,0.00739500324616406,0.00429644148513299,0.00256261481469928,0.00195383532501814
"23",1.75761516316814e-11,9.3535008136613e-11,5.18874162977764e-10,2.6375011098907e-09,1.2331098713516e-08,5.327076731155e-08,2.13489401290182e-07,7.96317134786845e-07,2.77176693433947e-06,9.02107758127301e-06,2.7492048237973e-05,7.85190790106405e-05,0.000210230428355643,0.000527545231864699,0.00123969175862565,0.00272430664201886,0.00558775862322186,0.0106699773901479,0.0189104939180619,0.0309978867494029,0.0468227080253122,0.0649720141549493,0.0827150191054915,0.0967693914630979,0.104492497148858,0.104736118644477,0.09799544680565,0.0860136527406711,0.0711213948048895,0.0555806303171977,0.041148593723347,0.0289077080235371,0.0192961065819704,0.0122665132740144,0.00751774754151508,0.00477975237532313,0.00387793188034647
"24",2.55294731974045e-12,1.52803473533923e-11,9.33437908418907e-11,5.1881488379018e-10,2.63749548938017e-09,1.23310979639435e-08,5.32707671045978e-08,2.13489401235485e-07,7.96317134774583e-07,2.77176693433734e-06,9.02107758127266e-06,2.74920482379729e-05,7.85190790106405e-05,0.000210230428355643,0.000527545231864699,0.00123969175862565,0.00272430664201886,0.00558775862322186,0.0106699773901479,0.0189104939180619,0.0309978867494029,0.0468227080253122,0.0649720141549495,0.0827150191054925,0.0967693914631063,0.10449249714893,0.104736118647125,0.0979954469455452,0.0860136551117131,0.0711214186442479,0.0555808675163945,0.0411502724071967,0.0289188386046014,0.0193543517169946,0.0125256635544299,0.00850531982742173,0.00733964373718766
"25",3.31319432059142e-13,2.25107886689214e-12,1.5258221339125e-11,9.33370411283899e-11,5.18814365706041e-10,2.63749544490243e-09,1.23310979540903e-08,5.32707671023277e-08,2.13489401235002e-07,7.9631713477451e-07,2.77176693433733e-06,9.02107758127266e-06,2.74920482379729e-05,7.85190790106405e-05,0.000210230428355643,0.000527545231864699,0.00123969175862565,0.00272430664201886,0.00558775862322186,0.010669977390148,0.018910493918062,0.0309978867494036,0.046822708025317,0.0649720141549776,0.0827150191056551,0.0967693914640768,0.104492497160774,0.104736119026315,0.0979954529366205,0.0860137138190122,0.0711219685023085,0.0555846216233572,0.0411740937336807,0.0290397171446176,0.019874989365211,0.0144466634379249,0.013254257110799
"26",3.79866126627713e-14,2.96282660805025e-13,2.24884936006543e-12,1.52575460977712e-11,9.33369986939709e-11,5.18814363486183e-10,2.63749544454204e-09,1.23310979540269e-08,5.32707671023146e-08,2.13489401235e-07,7.96317134774509e-07,2.77176693433733e-06,9.02107758127266e-06,2.74920482379729e-05,7.85190790106405e-05,0.000210230428355643,0.000527545231864699,0.00123969175862565,0.00272430664201887,0.00558775862322197,0.0106699773901494,0.0189104939180749,0.0309978867494927,0.0468227080258244,0.0649720141575485,0.0827150191179535,0.0967693915376136,0.104492498250537,0.104736133716625,0.0979955903919275,0.0860149256869905,0.0711299505078715,0.055633157104107,0.0414128879303857,0.0300357550831064,0.0234345634370703,0.0228486316629832
"27",3.79359126279931e-15,3.44464143170767e-14,2.9609056910307e-13,2.24879116854082e-12,1.52575430938515e-11,9.33369986003014e-11,5.18814363475371e-10,2.637495444541e-09,1.23310979540267e-08,5.32707671023146e-08,2.13489401235e-07,7.96317134774509e-07,2.77176693433733e-06,9.02107758127266e-06,2.74920482379729e-05,7.85190790106405e-05,0.000210230428355643,0.000527545231864699,0.0012396917586257,0.00272430664202011,0.00558775862323835,0.0106699773902963,0.0189104939190897,0.030997886755215,0.0468227080536564,0.0649720142794338,0.0827150196554089,0.0967693953400122,0.104492535165346,0.104736445997099,0.0979981475583055,0.0860311103011479,0.0712242359818813,0.0560826601172068,0.0432288365759993,0.036322693515825,0.0376174240623198
"28",3.24083700352129e-16,3.48771523082491e-15,3.4432598947731e-14,2.96086356917019e-13,2.24879099188846e-12,1.52575430906897e-11,9.33369986000124e-11,5.18814363475363e-10,2.63749544454099e-09,1.23310979540267e-08,5.32707671023146e-08,2.13489401235e-07,7.96317134774509e-07,2.77176693433733e-06,9.02107758127266e-06,2.74920482379729e-05,7.85190790106405e-05,0.000210230428355643,0.000527545231865032,0.00123969175863475,0.00272430664213924,0.00558775862430677,0.0106699773976779,0.0189104939605867,0.0309978869543134,0.0468227088979264,0.0649720176283177,0.0827150353318065,0.0967694963399592,0.104493245127908,0.104741672018184,0.0980295841240383,0.086206054109781,0.0720312694444286,0.059239790955285,0.0538181822866311,0.059174170090202
"29",2.31314883288915e-17,3.02011482056411e-16,3.48691200655619e-15,3.44323512000059e-14,2.96086348701249e-13,2.24879099181259e-12,1.52575430906833e-11,9.33369986000124e-11,5.18814363475363e-10,2.63749544454099e-09,1.23310979540267e-08,5.32707671023146e-08,2.13489401235e-07,7.96317134774509e-07,2.77176693433733e-06,9.02107758127266e-06,2.74920482379729e-05,7.85190790106405e-05,0.0002102304283573,0.000527545231910095,0.00123969175922811,0.00272430664746156,0.00558775866108351,0.0106699776042161,0.0189104949465537,0.0309978910832726,0.0468227246542094,0.0649720795439112,0.0827153287077152,0.0967711371126919,0.104503697463651,0.104800419507854,0.0983401131295114,0.0875890658535925,0.0772681171554853,0.0762571939667066,0.0889733438949356
"30",1.33678182791051e-18,2.18424944020485e-17,3.01975308203109e-16,3.48690067743787e-15,3.44323509162656e-14,2.96086348700151e-13,2.2487909918125e-12,1.52575430906833e-11,9.33369986000124e-11,5.18814363475363e-10,2.63749544454099e-09,1.23310979540267e-08,5.32707671023146e-08,2.13489401235e-07,7.96317134774509e-07,2.77176693433733e-06,9.02107758127267e-06,2.7492048237973e-05,7.85190790167642e-05,0.000210230428523871,0.00052754523410391,0.00123969177891359,0.00272430678354769,0.00558775942537724,0.0106699812470717,0.0189105101303553,0.0309979481522788,0.0468229332232375,0.0649729083685693,0.0827191242278632,0.096791691681074,0.104609777290426,0.105328900605567,0.100604977404917,0.0958822524873058,0.103371484751116,0.127909094132094
"31",5.99784034058207e-20,1.2783827921095e-18,2.18413016656729e-17,3.01974928259269e-16,3.48690067075809e-15,3.44323509162586e-14,2.96086348700151e-13,2.2487909918125e-12,1.52575430906833e-11,9.33369986000124e-11,5.18814363475363e-10,2.63749544454099e-09,1.23310979540267e-08,5.32707671023146e-08,2.13489401235e-07,7.96317134774516e-07,2.77176693433754e-06,9.02107758127585e-06,2.74920482555075e-05,7.8519079493261e-05,0.000210230434802558,0.000527545290499295,0.00123969216925031,0.00272430897855265,0.00558776989676569,0.0106700248896227,0.0189106734881936,0.0309985280704951,0.0468250421959465,0.0649813287209488,0.0827584892006328,0.0969767573780914,0.105473149815408,0.108876384903274,0.11314987907744,0.134112625428866,0.175858687413057
"32",1.97522675443955e-21,5.80385276625858e-20,1.27835616158454e-18,2.18412930389999e-17,3.01974928165456e-16,3.48690067075809e-15,3.44323509162586e-14,2.96086348700151e-13,2.2487909918125e-12,1.52575430906833e-11,9.33369986000124e-11,5.18814363475363e-10,2.637495444541e-09,1.23310979540268e-08,5.32707671023173e-08,2.13489401235242e-07,7.96317134781255e-07,2.77176693443901e-06,9.02107762141553e-06,2.74920493285434e-05,7.85190936087763e-05,0.000210230561766824,0.00052754617147481,0.00123969713956588,0.00272433278391694,0.00558786956214964,0.0106703994127248,0.0189119943293922,0.0310031535273398,0.0468421313727032,0.0650529906249758,0.0830677911649537,0.0983275603601415,0.110784865256324,0.127003501005952,0.166624189368087,0.23130286469515
"33",4.41423162844211e-23,1.93155638309246e-21,5.80381729727565e-20,1.27835604491433e-18,2.1841293038415e-17,3.01974928165456e-16,3.48690067075809e-15,3.44323509162586e-14,2.96086348700151e-13,2.24879099181257e-12,1.52575430906866e-11,9.33369986000917e-11,5.18814363476773e-10,2.63749544456332e-09,1.23310979543424e-08,5.32707671095992e-08,2.13489401382522e-07,7.96317136798777e-07,2.77176702586172e-06,9.02107972507009e-06,2.7492076167347e-05,7.8519333288331e-05,0.000210232225646307,0.000527555600881768,0.00123974262747685,0.00272452500756722,0.00558859966576272,0.0106729898042965,0.0189209569658921,0.0310349125238992,0.046965432691259,0.0655470973696468,0.0850915421225939,0.105933322381275,0.135814796852372,0.198459656095546,0.291149755133787
"34",5.89317025592277e-25,4.35558067837386e-23,1.93155427744878e-21,5.80381722708753e-20,1.27835604491433e-18,2.1841293038415e-17,3.01974928165456e-16,3.48690067075809e-15,3.4432350916443e-14,2.96086348716347e-13,2.24879099233182e-12,1.52575431012377e-11,9.33369987600637e-11,5.18814365492901e-10,2.6374954667557e-09,1.2331098204963e-08,5.3270770055825e-08,2.13489432408842e-07,7.96317516568706e-07,2.77177195798432e-06,9.02113145569256e-06,2.74925040718575e-05,7.85222116661583e-05,0.000210248379330058,0.000527633675765622,0.00124007548994325,0.00272580593924084,0.00559319550923802,0.0106888789399623,0.0189759424660699,0.0312364648249939,0.0477218135672162,0.0684557964832741,0.0955179454961612,0.138977107322266,0.227056439482544,0.350953766128538
"35",3.50940613721767e-27,5.8580761945506e-25,4.35558069137166e-23,1.93155429900238e-21,5.8038173860201e-20,1.27835611468119e-18,2.18412951094559e-17,3.01974973155078e-16,3.48690144462862e-15,3.44323622555613e-14,2.96086495005369e-13,2.24879267282461e-12,1.52575603459711e-11,9.33371580245702e-11,5.18815701735546e-10,2.63750590948089e-09,1.23311763957388e-08,5.3271329827304e-08,2.13493300622013e-07,7.96343830883788e-07,2.77194516229692e-06,9.0222022891211e-06,2.74985597335557e-05,7.85530195061697e-05,0.000210389527299899,0.000528219510465367,0.00124230458994159,0.00273374768276219,0.00562031182566047,0.0107801574534713,0.0192926759327214,0.0323509285438074,0.0517394321266923,0.082148396126125,0.137235462194814,0.250335956885226,0.405663093167186
"36",0,3.50940613721767e-27,5.85819447453522e-25,4.35577682915616e-23,1.93169892763717e-21,5.80445226449039e-20,1.27854457940342e-18,2.18453891650161e-17,3.02044382671321e-16,3.48786615901527e-15,3.44437208791013e-14,2.96202364227412e-13,2.24983345015508e-12,1.52658984716322e-11,9.33973845571501e-11,5.19211994619332e-10,2.63990673787062e-09,1.23446785796344e-08,5.33422831950325e-08,2.1384391960322e-07,7.97981725676557e-07,2.77921185263481e-06,9.05287462751074e-06,2.76215105848045e-05,7.90200156104741e-05,0.00021206534156232,0.000533902169442045,0.00126063167811351,0.00279062550054005,0.00579345111157822,0.0113152910519402,0.0209761789989513,0.0378470477880932,0.0691759752811723,0.132688311983631,0.26711573959371,0.450171225105617
"37",0,0,3.87217474940191e-27,6.45975552568974e-25,4.79935762002479e-23,2.12641824748385e-21,6.38247978068743e-20,1.40411061312327e-18,2.39639070417714e-17,3.31060203094455e-16,3.82092244319346e-15,3.77235165376756e-14,3.2440590314548e-13,2.4645598387892e-12,1.67295053351107e-11,1.02411726248254e-10,5.69777950359394e-10,2.899996510985e-09,1.35784009406905e-08,5.8766051106516e-08,2.3603886979718e-07,8.82859895836092e-07,3.08360784551487e-06,1.00795668961985e-05,3.08864602459351e-05,8.88266838821694e-05,0.000239939274127969,0.000609124964840757,0.00145457973482656,0.00327436733743225,0.00699204232241326,0.014340077327566,0.029075795124817,0.0601603401989199,0.128409808965268,0.276762471977073,0.478547381618881
