"","X0","X1","X2","X3","X4","X5","X6","X7","X8","X9","X10","X11","X12","X13","X14","X15","X16","X17","X18","X19","X20","X21","X22","X23","X24","X25","X26","X27","X28","X29","X30","X31","X32","X33","X34","X35","X36"
"1",0.920131169610617,0.0772741914462422,0.002566179270176,2.8459672964589e-05,0,0,0,0,0,0,0,0,0,0,0,0,0,0,0,0,0,0,0,0,0,0,0,0,0,0,0,0,0,0,0,0,0
"2",0.138710290363655,0.781420879246962,0.0772741914462422,0.002566179270176,2.8459672964589e-05,0,0,0,0,0,0,0,0,0,0,0,0,0,0,0,0,0,0,0,0,0,0,0,0,0,0,0,0,0,0,0,0
"3",0.00808854000939976,0.130621750354255,0.781420879246962,0.0772741914462422,0.002566179270176,2.8459672964589e-05,0,0,0,0,0,0,0,0,0,0,0,0,0,0,0,0,0,0,0,0,0,0,0,0,0,0,0,0,0,0,0
"4",0.000207264928624869,0.00788127508077489,0.130621750354255,0.781420879246962,0.0772741914462422,0.002566179270176,2.8459672964589e-05,0,0,0,0,0,0,0,0,0,0,0,0,0,0,0,0,0,0,0,0,0,0,0,0,0,0,0,0,0,0
"5",1.96273606652338e-06,0.000205302192558346,0.00788127508077489,0.130621750354255,0.781420879246962,0.0772741914462422,0.002566179270176,2.8459672964589e-05,0,0,0,0,0,0,0,0,0,0,0,0,0,0,0,0,0,0,0,0,0,0,0,0,0,0,0,0,0
"6",0,1.96273606652338e-06,0.000205302192558346,0.00788127508077489,0.130621750354255,0.781420879246962,0.0772741914462422,0.002566179270176,2.8459672964589e-05,0,0,0,0,0,0,0,0,0,0,0,0,0,0,0,0,0,0,0,0,0,0,0,0,0,0,0,0
"7",0,0,1.96273606652338e-06,0.000205302192558346,0.00788127508077489,0.130621750354255,0.781420879246962,0.0772741914462422,0.002566179270176,2.8459672964589e-05,0,0,0,0,0,0,0,0,0,0,0,0,0,0,0,0,0,0,0,0,0,0,0,0,0,0,0
"8",0,0,0,1.96273606652338e-06,0.000205302192558346,0.00788127508077489,0.130621750354255,0.781420879246962,0.0772741914462422,0.002566179270176,2.8459672964589e-05,0,0,0,0,0,0,0,0,0,0,0,0,0,0,0,0,0,0,0,0,0,0,0,0,0,0
"9",0,0,0,0,1.96273606652338e-06,0.000205302192558346,0.00788127508077489,0.130621750354255,0.781420879246962,0.0772741914462422,0.002566179270176,2.8459672964589e-05,0,0,0,0,0,0,0,0,0,0,0,0,0,0,0,0,0,0,0,0,0,0,0,0,0
"10",0,0,0,0,0,1.96273606652338e-06,0.000205302192558346,0.00788127508077489,0.130621750354255,0.781420879246962,0.0772741914462422,0.002566179270176,2.8459672964589e-05,0,0,0,0,0,0,0,0,0,0,0,0,0,0,0,0,0,0,0,0,0,0,0,0
"11",0,0,0,0,0,0,1.96273606652338e-06,0.000205302192558346,0.00788127508077489,0.130621750354255,0.781420879246962,0.0772741914462422,0.002566179270176,2.8459672964589e-05,0,0,0,0,0,0,0,0,0,0,0,0,0,0,0,0,0,0,0,0,0,0,0
"12",0,0,0,0,0,0,0,1.96273606652338e-06,0.000205302192558346,0.00788127508077489,0.130621750354255,0.781420879246962,0.0772741914462422,0.002566179270176,2.8459672964589e-05,0,0,0,0,0,0,0,0,0,0,0,0,0,0,0,0,0,0,0,0,0,0
"13",0,0,0,0,0,0,0,0,1.96273606652338e-06,0.000205302192558346,0.00788127508077489,0.130621750354255,0.781420879246962,0.0772741914462422,0.002566179270176,2.8459672964589e-05,0,0,0,0,0,0,0,0,0,0,0,0,0,0,0,0,0,0,0,0,0
"14",0,0,0,0,0,0,0,0,0,1.96273606652338e-06,0.000205302192558346,0.00788127508077489,0.130621750354255,0.781420879246962,0.0772741914462422,0.002566179270176,2.8459672964589e-05,0,0,0,0,0,0,0,0,0,0,0,0,0,0,0,0,0,0,0,0
"15",0,0,0,0,0,0,0,0,0,0,1.96273606652338e-06,0.000205302192558346,0.00788127508077489,0.130621750354255,0.781420879246962,0.0772741914462422,0.002566179270176,2.8459672964589e-05,0,0,0,0,0,0,0,0,0,0,0,0,0,0,0,0,0,0,0
"16",0,0,0,0,0,0,0,0,0,0,0,1.96273606652338e-06,0.000205302192558346,0.00788127508077489,0.130621750354255,0.781420879246962,0.0772741914462422,0.002566179270176,2.8459672964589e-05,0,0,0,0,0,0,0,0,0,0,0,0,0,0,0,0,0,0
"17",0,0,0,0,0,0,0,0,0,0,0,0,1.96273606652338e-06,0.000205302192558346,0.00788127508077489,0.130621750354255,0.781420879246962,0.0772741914462422,0.002566179270176,2.8459672964589e-05,0,0,0,0,0,0,0,0,0,0,0,0,0,0,0,0,0
"18",0,0,0,0,0,0,0,0,0,0,0,0,0,1.96273606652338e-06,0.000205302192558346,0.00788127508077489,0.130621750354255,0.781420879246962,0.0772741914462422,0.002566179270176,2.8459672964589e-05,0,0,0,0,0,0,0,0,0,0,0,0,0,0,0,0
"19",0,0,0,0,0,0,0,0,0,0,0,0,0,0,1.96273606652338e-06,0.000205302192558346,0.00788127508077489,0.130621750354255,0.781420879246962,0.0772741914462422,0.002566179270176,2.8459672964589e-05,0,0,0,0,0,0,0,0,0,0,0,0,0,0,0
"20",0,0,0,0,0,0,0,0,0,0,0,0,0,0,0,1.96273606652338e-06,0.000205302192558346,0.00788127508077489,0.130621750354255,0.781420879246962,0.0772741914462422,0.002566179270176,2.8459672964589e-05,0,0,0,0,0,0,0,0,0,0,0,0,0,0
"21",0,0,0,0,0,0,0,0,0,0,0,0,0,0,0,0,1.96273606652338e-06,0.000205302192558346,0.00788127508077489,0.130621750354255,0.781420879246962,0.0772741914462422,0.002566179270176,2.8459672964589e-05,0,0,0,0,0,0,0,0,0,0,0,0,0
"22",0,0,0,0,0,0,0,0,0,0,0,0,0,0,0,0,0,1.96273606652338e-06,0.000205302192558346,0.00788127508077489,0.130621750354255,0.781420879246962,0.0772741914462422,0.002566179270176,2.8459672964589e-05,0,0,0,0,0,0,0,0,0,0,0,0
"23",0,0,0,0,0,0,0,0,0,0,0,0,0,0,0,0,0,0,1.96273606652338e-06,0.000205302192558346,0.00788127508077489,0.130621750354255,0.781420879246962,0.0772741914462422,0.002566179270176,2.8459672964589e-05,0,0,0,0,0,0,0,0,0,0,0
"24",0,0,0,0,0,0,0,0,0,0,0,0,0,0,0,0,0,0,0,1.96273606652338e-06,0.000205302192558346,0.00788127508077489,0.130621750354255,0.781420879246962,0.0772741914462422,0.002566179270176,2.8459672964589e-05,0,0,0,0,0,0,0,0,0,0
"25",0,0,0,0,0,0,0,0,0,0,0,0,0,0,0,0,0,0,0,0,1.96273606652338e-06,0.000205302192558346,0.00788127508077489,0.130621750354255,0.781420879246962,0.0772741914462422,0.002566179270176,2.8459672964589e-05,0,0,0,0,0,0,0,0,0
"26",0,0,0,0,0,0,0,0,0,0,0,0,0,0,0,0,0,0,0,0,0,1.96273606652338e-06,0.000205302192558346,0.00788127508077489,0.130621750354255,0.781420879246962,0.0772741914462422,0.002566179270176,2.8459672964589e-05,0,0,0,0,0,0,0,0
"27",0,0,0,0,0,0,0,0,0,0,0,0,0,0,0,0,0,0,0,0,0,0,1.96273606652338e-06,0.000205302192558346,0.00788127508077489,0.130621750354255,0.781420879246962,0.0772741914462422,0.002566179270176,2.8459672964589e-05,0,0,0,0,0,0,0
"28",0,0,0,0,0,0,0,0,0,0,0,0,0,0,0,0,0,0,0,0,0,0,0,1.96273606652338e-06,0.000205302192558346,0.00788127508077489,0.130621750354255,0.781420879246962,0.0772741914462422,0.002566179270176,2.8459672964589e-05,0,0,0,0,0,0
"29",0,0,0,0,0,0,0,0,0,0,0,0,0,0,0,0,0,0,0,0,0,0,0,0,1.96273606652338e-06,0.000205302192558346,0.00788127508077489,0.130621750354255,0.781420879246962,0.0772741914462422,0.002566179270176,2.8459672964589e-05,0,0,0,0,0
"30",0,0,0,0,0,0,0,0,0,0,0,0,0,0,0,0,0,0,0,0,0,0,0,0,0,1.96273606652338e-06,0.000205302192558346,0.00788127508077489,0.130621750354255,0.781420879246962,0.0772741914462422,0.002566179270176,2.8459672964589e-05,0,0,0,0
"31",0,0,0,0,0,0,0,0,0,0,0,0,0,0,0,0,0,0,0,0,0,0,0,0,0,0,1.96273606652338e-06,0.000205302192558346,0.00788127508077489,0.130621750354255,0.781420879246962,0.0772741914462422,0.002566179270176,2.8459672964589e-05,0,0,0
"32",0,0,0,0,0,0,0,0,0,0,0,0,0,0,0,0,0,0,0,0,0,0,0,0,0,0,0,1.96273606652338e-06,0.000205302192558346,0.00788127508077489,0.130621750354255,0.781420879246962,0.0772741914462422,0.002566179270176,2.8459672964589e-05,0,0
"33",0,0,0,0,0,0,0,0,0,0,0,0,0,0,0,0,0,0,0,0,0,0,0,0,0,0,0,0,1.96273606652338e-06,0.000205302192558346,0.00788127508077489,0.130621750354255,0.781420879246962,0.0772741914462422,0.002566179270176,2.8459672964589e-05,0
"34",0,0,0,0,0,0,0,0,0,0,0,0,0,0,0,0,0,0,0,0,0,0,0,0,0,0,0,0,0,1.96273606652338e-06,0.000205302192558346,0.00788127508077489,0.130621750354255,0.781420879246962,0.0772741914462422,0.002566179270176,2.8459672964589e-05
"35",0,0,0,0,0,0,0,0,0,0,0,0,0,0,0,0,0,0,0,0,0,0,0,0,0,0,0,0,0,0,1.96273606652338e-06,0.000205302192558346,0.00788127515346882,0.130621757878077,0.78142116278963,0.077278709010422,0.00258983023977761
"36",0,0,0,0,0,0,0,0,0,0,0,0,0,0,0,0,0,0,0,0,0,0,0,0,0,0,0,0,0,0,0,1.96273606652338e-06,0.000205308807705829,0.00788195982123335,0.130647560260836,0.78183226112999,0.0794309472441682
"37",0,0,0,0,0,0,0,0,0,0,0,0,0,0,0,0,0,0,0,0,0,0,0,0,0,0,0,0,0,0,0,0,2.16562482065919e-06,0.000226307793758885,0.00867332740674007,0.143256081886606,0.847842117288075
