"","X0","X1","X2","X3","X4","X5","X6","X7","X8","X9","X10","X11","X12","X13","X14","X15","X16","X17","X18","X19","X20","X21"
"1",0.585125979533679,0.324576599904566,0.0814610542565084,0.0084150547934439,0.00041167306846732,9.55347994252839e-06,8.49633926819695e-08,0,0,0,0,0,0,0,0,0,0,0,0,0,0,0
"2",0.213363307226847,0.372372497057807,0.323966775153591,0.0814610542565084,0.0084150547934439,0.00041167306846732,9.55347994252839e-06,8.49633926819695e-08,0,0,0,0,0,0,0,0,0,0,0,0,0,0
"3",0.0389371307104515,0.174426176516395,0.372372497057807,0.323966775153591,0.0814610542565084,0.0084150547934439,0.00041167306846732,9.55347994252839e-06,8.49633926819695e-08,0,0,0,0,0,0,0,0,0,0,0,0,0
"4",0.00333834059025599,0.0355987901201955,0.174426176516395,0.372372497057807,0.323966775153591,0.0814610542565084,0.0084150547934439,0.00041167306846732,9.55347994252839e-06,8.49633926819695e-08,0,0,0,0,0,0,0,0,0,0,0,0
"5",0.000124094038865672,0.00321424655139032,0.0355987901201955,0.174426176516395,0.372372497057807,0.323966775153591,0.0814610542565084,0.0084150547934439,0.00041167306846732,9.55347994252839e-06,8.49633926819695e-08,0,0,0,0,0,0,0,0,0,0,0
"6",1.62880542461227e-06,0.00012246523344106,0.00321424655139032,0.0355987901201955,0.174426176516395,0.372372497057807,0.323966775153591,0.0814610542565084,0.0084150547934439,0.00041167306846732,9.55347994252839e-06,8.49633926819695e-08,0,0,0,0,0,0,0,0,0,0
"7",0,1.62880542461227e-06,0.00012246523344106,0.00321424655139032,0.0355987901201955,0.174426176516395,0.372372497057807,0.323966775153591,0.0814610542565084,0.0084150547934439,0.00041167306846732,9.55347994252839e-06,8.49633926819695e-08,0,0,0,0,0,0,0,0,0
"8",0,0,1.62880542461227e-06,0.00012246523344106,0.00321424655139032,0.0355987901201955,0.174426176516395,0.372372497057807,0.323966775153591,0.0814610542565084,0.0084150547934439,0.00041167306846732,9.55347994252839e-06,8.49633926819695e-08,0,0,0,0,0,0,0,0
"9",0,0,0,1.62880542461227e-06,0.00012246523344106,0.00321424655139032,0.0355987901201955,0.174426176516395,0.372372497057807,0.323966775153591,0.0814610542565084,0.0084150547934439,0.00041167306846732,9.55347994252839e-06,8.49633926819695e-08,0,0,0,0,0,0,0
"10",0,0,0,0,1.62880542461227e-06,0.00012246523344106,0.00321424655139032,0.0355987901201955,0.174426176516395,0.372372497057807,0.323966775153591,0.0814610542565084,0.0084150547934439,0.00041167306846732,9.55347994252839e-06,8.49633926819695e-08,0,0,0,0,0,0
"11",0,0,0,0,0,1.62880542461227e-06,0.00012246523344106,0.00321424655139032,0.0355987901201955,0.174426176516395,0.372372497057807,0.323966775153591,0.0814610542565084,0.0084150547934439,0.00041167306846732,9.55347994252839e-06,8.49633926819695e-08,0,0,0,0,0
"12",0,0,0,0,0,0,1.62880542461227e-06,0.00012246523344106,0.00321424655139032,0.0355987901201955,0.174426176516395,0.372372497057807,0.323966775153591,0.0814610542565084,0.0084150547934439,0.00041167306846732,9.55347994252839e-06,8.49633926819695e-08,0,0,0,0
"13",0,0,0,0,0,0,0,1.62880542461227e-06,0.00012246523344106,0.00321424655139032,0.0355987901201955,0.174426176516395,0.372372497057807,0.323966775153591,0.0814610542565084,0.0084150547934439,0.00041167306846732,9.55347994252839e-06,8.49633926819695e-08,0,0,0
"14",0,0,0,0,0,0,0,0,1.62880542461227e-06,0.00012246523344106,0.00321424655139032,0.0355987901201955,0.174426176516395,0.372372497057807,0.323966775153591,0.0814610542565084,0.0084150547934439,0.00041167306846732,9.55347994252839e-06,8.49633926819695e-08,0,0
"15",0,0,0,0,0,0,0,0,0,1.62880542461227e-06,0.00012246523344106,0.00321424655139032,0.0355987901201955,0.174426176516395,0.372372497057807,0.323966775153591,0.0814610542565084,0.0084150547934439,0.00041167306846732,9.55347994252839e-06,8.49633926819695e-08,0
"16",0,0,0,0,0,0,0,0,0,0,1.62880542461227e-06,0.00012246523344106,0.00321424655139032,0.0355987901201955,0.174426176516395,0.372372497057807,0.323966775153591,0.0814610542565084,0.0084150547934439,0.00041167306846732,9.55347994252839e-06,8.49633926819695e-08
"17",0,0,0,0,0,0,0,0,0,0,0,1.62880542461227e-06,0.00012246523344106,0.00321424655139032,0.0355987901201955,0.174426176516395,0.372372497057807,0.323966775153591,0.0814610551642369,0.00841506949864648,0.000411730436911952,9.56546195944508e-06
"18",0,0,0,0,0,0,0,0,0,0,0,0,1.62880542461227e-06,0.00012246523344106,0.00321424655139032,0.0355987901201955,0.17442617652396,0.372372497603957,0.323966884689196,0.0814627375967517,0.00842153311295085,0.000413039762733237
"19",0,0,0,0,0,0,0,0,0,0,0,0,0,1.62880542461227e-06,0.00012246523344106,0.00321424655139032,0.0355987909224006,0.174426234443169,0.372377688881774,0.32404122209387,0.0817421455965751,0.00847557747195556
"20",0,0,0,0,0,0,0,0,0,0,0,0,0,0,1.62880542461227e-06,0.00012246523344106,0.00321427808380008,0.0356010675623857,0.174547384534971,0.373956631484369,0.329784405232012,0.0827721390635963
"21",0,0,0,0,0,0,0,0,0,0,0,0,0,0,0,1.62880542461227e-06,0.000123013813708654,0.00325388557912041,0.0370177275790979,0.190822108223197,0.430199675127556,0.338581960871896
"22",0,0,0,0,0,0,0,0,0,0,0,0,0,0,0,0,5.41406205164796e-06,0.000396309342180631,0.0105444272517896,0.109065197218038,0.421881040062976,0.458107612062964
