"","X0","X1","X2","X3","X4","X5","X6","X7","X8","X9","X10","X11","X12","X13","X14","X15","X16","X17","X18","X19","X20","X21","X22","X23","X24","X25","X26","X27"
"1",0.879027114705567,0.115092131093933,0.00575081671126048,0.000128854676829222,1.08281241032959e-06,0,0,0,0,0,0,0,0,0,0,0,0,0,0,0,0,0,0,0,0,0,0,0
"2",0.0292359350788991,0.850765710795965,0.114117599924636,0.00575081671126048,0.000128854676829222,1.08281241032959e-06,0,0,0,0,0,0,0,0,0,0,0,0,0,0,0,0,0,0,0,0,0,0
"3",0,0.0292359350788991,0.850765710795965,0.114117599924636,0.00575081671126048,0.000128854676829222,1.08281241032959e-06,0,0,0,0,0,0,0,0,0,0,0,0,0,0,0,0,0,0,0,0,0
"4",0,0,0.0292359350788991,0.850765710795965,0.114117599924636,0.00575081671126048,0.000128854676829222,1.08281241032959e-06,0,0,0,0,0,0,0,0,0,0,0,0,0,0,0,0,0,0,0,0
"5",0,0,0,0.0292359350788991,0.850765710795965,0.114117599924636,0.00575081671126048,0.000128854676829222,1.08281241032959e-06,0,0,0,0,0,0,0,0,0,0,0,0,0,0,0,0,0,0,0
"6",0,0,0,0,0.0292359350788991,0.850765710795965,0.114117599924636,0.00575081671126048,0.000128854676829222,1.08281241032959e-06,0,0,0,0,0,0,0,0,0,0,0,0,0,0,0,0,0,0
"7",0,0,0,0,0,0.0292359350788991,0.850765710795965,0.114117599924636,0.00575081671126048,0.000128854676829222,1.08281241032959e-06,0,0,0,0,0,0,0,0,0,0,0,0,0,0,0,0,0
"8",0,0,0,0,0,0,0.0292359350788991,0.850765710795965,0.114117599924636,0.00575081671126048,0.000128854676829222,1.08281241032959e-06,0,0,0,0,0,0,0,0,0,0,0,0,0,0,0,0
"9",0,0,0,0,0,0,0,0.0292359350788991,0.850765710795965,0.114117599924636,0.00575081671126048,0.000128854676829222,1.08281241032959e-06,0,0,0,0,0,0,0,0,0,0,0,0,0,0,0
"10",0,0,0,0,0,0,0,0,0.0292359350788991,0.850765710795965,0.114117599924636,0.00575081671126048,0.000128854676829222,1.08281241032959e-06,0,0,0,0,0,0,0,0,0,0,0,0,0,0
"11",0,0,0,0,0,0,0,0,0,0.0292359350788991,0.850765710795965,0.114117599924636,0.00575081671126048,0.000128854676829222,1.08281241032959e-06,0,0,0,0,0,0,0,0,0,0,0,0,0
"12",0,0,0,0,0,0,0,0,0,0,0.0292359350788991,0.850765710795965,0.114117599924636,0.00575081671126048,0.000128854676829222,1.08281241032959e-06,0,0,0,0,0,0,0,0,0,0,0,0
"13",0,0,0,0,0,0,0,0,0,0,0,0.0292359350788991,0.850765710795965,0.114117599924636,0.00575081671126048,0.000128854676829222,1.08281241032959e-06,0,0,0,0,0,0,0,0,0,0,0
"14",0,0,0,0,0,0,0,0,0,0,0,0,0.0292359350788991,0.850765710795965,0.114117599924636,0.00575081671126048,0.000128854676829222,1.08281241032959e-06,0,0,0,0,0,0,0,0,0,0
"15",0,0,0,0,0,0,0,0,0,0,0,0,0,0.0292359350788991,0.850765710795965,0.114117599924636,0.00575081671126048,0.000128854676829222,1.08281241032959e-06,0,0,0,0,0,0,0,0,0
"16",0,0,0,0,0,0,0,0,0,0,0,0,0,0,0.0292359350788991,0.850765710795965,0.114117599924636,0.00575081671126048,0.000128854676829222,1.08281241032959e-06,0,0,0,0,0,0,0,0
"17",0,0,0,0,0,0,0,0,0,0,0,0,0,0,0,0.0292359350788991,0.850765710795965,0.114117599924636,0.00575081671126048,0.000128854676829222,1.08281241032959e-06,0,0,0,0,0,0,0
"18",0,0,0,0,0,0,0,0,0,0,0,0,0,0,0,0,0.0292359350788991,0.850765710795965,0.114117599924636,0.00575081671126048,0.000128854676829222,1.08281241032959e-06,0,0,0,0,0,0
"19",0,0,0,0,0,0,0,0,0,0,0,0,0,0,0,0,0,0.0292359350788991,0.850765710795965,0.114117599924636,0.00575081671126048,0.000128854676829222,1.08281241032959e-06,0,0,0,0,0
"20",0,0,0,0,0,0,0,0,0,0,0,0,0,0,0,0,0,0,0.0292359350788991,0.850765710795965,0.114117599924636,0.00575081671126048,0.000128854676829222,1.08281241032959e-06,0,0,0,0
"21",0,0,0,0,0,0,0,0,0,0,0,0,0,0,0,0,0,0,0,0.0292359350788991,0.850765710795965,0.114117599924636,0.00575081671126048,0.000128854676829222,1.08281241032959e-06,0,0,0
"22",0,0,0,0,0,0,0,0,0,0,0,0,0,0,0,0,0,0,0,0,0.0292359350788991,0.850765710795965,0.114117599924636,0.00575081671126048,0.000128854676829222,1.08281241032959e-06,0,0
"23",0,0,0,0,0,0,0,0,0,0,0,0,0,0,0,0,0,0,0,0,0,0.0292359350788991,0.850765710795965,0.114117599924636,0.00575081671126048,0.000128854676829222,1.08281241032959e-06,0
"24",0,0,0,0,0,0,0,0,0,0,0,0,0,0,0,0,0,0,0,0,0,0,0.0292359350788991,0.850765710795965,0.114117599924636,0.00575081671126048,0.000128854676829222,1.08281241032959e-06
"25",0,0,0,0,0,0,0,0,0,0,0,0,0,0,0,0,0,0,0,0,0,0,0,0.0292359350788991,0.850765710795965,0.114117599924636,0.00575081671126048,0.000129937489239551
"26",0,0,0,0,0,0,0,0,0,0,0,0,0,0,0,0,0,0,0,0,0,0,0,0,0.0292359350788991,0.850765710795965,0.114117599924636,0.00588075420050003
"27",0,0,0,0,0,0,0,0,0,0,0,0,0,0,0,0,0,0,0,0,0,0,0,0,0,0.0292359350788991,0.850798195168275,0.119965869752826
"28",0,0,0,0,0,0,0,0,0,0,0,0,0,0,0,0,0,0,0,0,0,0,0,0,0,0,0.0312174817898023,0.968782518210198
