"","X0","X1","X2","X3","X4","X5","X6","X7","X8","X9","X10","X11","X12","X13","X14","X15","X16","X17","X18","X19","X20","X21","X22","X23","X24","X25","X26","X27"
"1",0.9269229460854,0.0576217229973582,0.0137996459348321,0.00155850416139056,9.39121954508663e-05,3.21208701409991e-06,5.61436918795332e-08,3.94861921118126e-10,0,0,0,0,0,0,0,0,0,0,0,0,0,0,0,0,0,0,0,0
"2",0.665505021041021,0.268786266983841,0.0527052928944591,0.0114618771571851,0.00144471647820365,9.355681972186e-05,3.21208701409991e-06,5.61436918795332e-08,3.94861921118126e-10,0,0,0,0,0,0,0,0,0,0,0,0,0,0,0,0,0,0,0
"3",0.307447597421404,0.35922035464462,0.267991139320055,0.0523535258630136,0.0114458408274137,0.00144471647820365,9.355681972186e-05,3.21208701409991e-06,5.61436918795332e-08,3.94861921118126e-10,0,0,0,0,0,0,0,0,0,0,0,0,0,0,0,0,0,0
"4",0.0882946715219153,0.219212244031588,0.35917122497128,0.267981395080957,0.0523530816433524,0.0114458408274137,0.00144471647820365,9.355681972186e-05,3.21208701409991e-06,5.61436918795332e-08,3.94861921118126e-10,0,0,0,0,0,0,0,0,0,0,0,0,0,0,0,0,0
"5",0.0157298154002608,0.0725657751968157,0.219211324956427,0.35917122497128,0.267981395080957,0.0523530816433524,0.0114458408274137,0.00144471647820365,9.355681972186e-05,3.21208701409991e-06,5.61436918795332e-08,3.94861921118126e-10,0,0,0,0,0,0,0,0,0,0,0,0,0,0,0,0
"6",0.00167278296683789,0.0140570324334229,0.0725657751968157,0.219211324956427,0.35917122497128,0.267981395080957,0.0523530816433524,0.0114458408274137,0.00144471647820365,9.355681972186e-05,3.21208701409991e-06,5.61436918795332e-08,3.94861921118126e-10,0,0,0,0,0,0,0,0,0,0,0,0,0,0,0
"7",8.48245102131625e-05,0.00158795845662472,0.0140570324334229,0.0725657751968157,0.219211324956427,0.35917122497128,0.267981395080957,0.0523530816433524,0.0114458408274137,0.00144471647820365,9.355681972186e-05,3.21208701409991e-06,5.61436918795332e-08,3.94861921118126e-10,0,0,0,0,0,0,0,0,0,0,0,0,0,0
"8",1.47052025795717e-06,8.33539899552053e-05,0.00158795845662472,0.0140570324334229,0.0725657751968157,0.219211324956427,0.35917122497128,0.267981395080957,0.0523530816433524,0.0114458408274137,0.00144471647820365,9.355681972186e-05,3.21208701409991e-06,5.61436918795332e-08,3.94861921118126e-10,0,0,0,0,0,0,0,0,0,0,0,0,0
"9",0,1.47052025795717e-06,8.33539899552053e-05,0.00158795845662472,0.0140570324334229,0.0725657751968157,0.219211324956427,0.35917122497128,0.267981395080957,0.0523530816433524,0.0114458408274137,0.00144471647820365,9.355681972186e-05,3.21208701409991e-06,5.61436918795332e-08,3.94861921118126e-10,0,0,0,0,0,0,0,0,0,0,0,0
"10",0,0,1.47052025795717e-06,8.33539899552053e-05,0.00158795845662472,0.0140570324334229,0.0725657751968157,0.219211324956427,0.35917122497128,0.267981395080957,0.0523530816433524,0.0114458408274137,0.00144471647820365,9.355681972186e-05,3.21208701409991e-06,5.61436918795332e-08,3.94861921118126e-10,0,0,0,0,0,0,0,0,0,0,0
"11",0,0,0,1.47052025795717e-06,8.33539899552053e-05,0.00158795845662472,0.0140570324334229,0.0725657751968157,0.219211324956427,0.35917122497128,0.267981395080957,0.0523530816433524,0.0114458408274137,0.00144471647820365,9.355681972186e-05,3.21208701409991e-06,5.61436918795332e-08,3.94861921118126e-10,0,0,0,0,0,0,0,0,0,0
"12",0,0,0,0,1.47052025795717e-06,8.33539899552053e-05,0.00158795845662472,0.0140570324334229,0.0725657751968157,0.219211324956427,0.35917122497128,0.267981395080957,0.0523530816433524,0.0114458408274137,0.00144471647820365,9.355681972186e-05,3.21208701409991e-06,5.61436918795332e-08,3.94861921118126e-10,0,0,0,0,0,0,0,0,0
"13",0,0,0,0,0,1.47052025795717e-06,8.33539899552053e-05,0.00158795845662472,0.0140570324334229,0.0725657751968157,0.219211324956427,0.35917122497128,0.267981395080957,0.0523530816433524,0.0114458408274137,0.00144471647820365,9.355681972186e-05,3.21208701409991e-06,5.61436918795332e-08,3.94861921118126e-10,0,0,0,0,0,0,0,0
"14",0,0,0,0,0,0,1.47052025795717e-06,8.33539899552053e-05,0.00158795845662472,0.0140570324334229,0.0725657751968157,0.219211324956427,0.35917122497128,0.267981395080957,0.0523530816433524,0.0114458408274137,0.00144471647820365,9.355681972186e-05,3.21208701409991e-06,5.61436918795332e-08,3.94861921118126e-10,0,0,0,0,0,0,0
"15",0,0,0,0,0,0,0,1.47052025795717e-06,8.33539899552053e-05,0.00158795845662472,0.0140570324334229,0.0725657751968157,0.219211324956427,0.35917122497128,0.267981395080957,0.0523530816433524,0.0114458408274137,0.00144471647820365,9.355681972186e-05,3.21208701409991e-06,5.61436918795332e-08,3.94861921118126e-10,0,0,0,0,0,0
"16",0,0,0,0,0,0,0,0,1.47052025795717e-06,8.33539899552053e-05,0.00158795845662472,0.0140570324334229,0.0725657751968157,0.219211324956427,0.35917122497128,0.267981395080957,0.0523530816433524,0.0114458408274137,0.00144471647820365,9.355681972186e-05,3.21208701409991e-06,5.61436918795332e-08,3.94861921118126e-10,0,0,0,0,0
"17",0,0,0,0,0,0,0,0,0,1.47052025795717e-06,8.33539899552053e-05,0.00158795845662472,0.0140570324334229,0.0725657751968157,0.219211324956427,0.35917122497128,0.267981395080957,0.0523530816433524,0.0114458408274137,0.00144471647820365,9.355681972186e-05,3.21208701409991e-06,5.61436918795332e-08,3.94861921118126e-10,0,0,0,0
"18",0,0,0,0,0,0,0,0,0,0,1.47052025795717e-06,8.33539899552053e-05,0.00158795845662472,0.0140570324334229,0.0725657751968157,0.219211324956427,0.35917122497128,0.267981395080957,0.0523530816433524,0.0114458408274137,0.00144471647820365,9.355681972186e-05,3.21208701409991e-06,5.61436918795332e-08,3.94861921118126e-10,0,0,0
"19",0,0,0,0,0,0,0,0,0,0,0,1.47052025795717e-06,8.33539899552053e-05,0.00158795845662472,0.0140570324334229,0.0725657751968157,0.219211324956427,0.35917122497128,0.267981395080957,0.0523530816433524,0.0114458408274137,0.00144471647820365,9.355681972186e-05,3.21208701409991e-06,5.61436918795332e-08,3.94861921118126e-10,0,0
"20",0,0,0,0,0,0,0,0,0,0,0,0,1.47052025795717e-06,8.33539899552053e-05,0.00158795845662472,0.0140570324334229,0.0725657751968157,0.219211324956427,0.35917122497128,0.267981395080957,0.0523530816433524,0.0114458408274137,0.00144471647820365,9.355681972186e-05,3.21208701409991e-06,5.61436918795332e-08,3.94861921118126e-10,0
"21",0,0,0,0,0,0,0,0,0,0,0,0,0,1.47052025795717e-06,8.33539899552053e-05,0.00158795845662472,0.0140570324334229,0.0725657751968157,0.219211324956427,0.35917122497128,0.267981395080957,0.0523530816433524,0.0114458408274137,0.00144471647820365,9.355681972186e-05,3.21208701409991e-06,5.61436918795332e-08,3.94861921118126e-10
"22",0,0,0,0,0,0,0,0,0,0,0,0,0,0,1.47052025795717e-06,8.33539899552053e-05,0.00158795845662472,0.0140570324334229,0.0725657751968157,0.219211324956427,0.35917122497128,0.267981395080957,0.0523530816433524,0.0114458408274137,0.00144471647820365,9.35568986942442e-05,3.21235025538066e-06,5.61963401356823e-08
"23",0,0,0,0,0,0,0,0,0,0,0,0,0,0,0,1.47052025795717e-06,8.33539899552053e-05,0.00158795845662472,0.0140570324334229,0.0725657751968157,0.219211324956427,0.35917122497128,0.267981395124528,0.0523530825837592,0.0114458460014664,0.00144473634452386,9.3592050028645e-05,3.20737091039607e-06
"24",0,0,0,0,0,0,0,0,0,0,0,0,0,0,0,0,1.47052025795717e-06,8.33539899552053e-05,0.00158795845662472,0.0140570324334229,0.0725657751968157,0.219211324956427,0.359171230167118,0.267981507268037,0.0523536995895507,0.011447516251621,0.00144659877938396,9.25323907857956e-05
"25",0,0,0,0,0,0,0,0,0,0,0,0,0,0,0,0,0,1.47052025795717e-06,8.33539899552053e-05,0.00158795845662472,0.0140570324334229,0.0725657752512794,0.219211559116808,0.359176266294154,0.268009209292579,0.0524184039701052,0.011496829776908,0.00139214089790403
"26",0,0,0,0,0,0,0,0,0,0,0,0,0,0,0,0,0,0,1.47052025795717e-06,8.33539899552053e-05,0.00158795845662472,0.0140570389690685,0.0725706000936022,0.219313555154407,0.359736673835153,0.269223053885969,0.0530970125876175,0.0103292825073438
"27",0,0,0,0,0,0,0,0,0,0,0,0,0,0,0,0,0,0,0,1.47052025795717e-06,8.33556238666031e-05,0.00158829768386275,0.0141007454063609,0.0734104078447518,0.223893505995842,0.369480753796032,0.274106376068313,0.0433350870607116
"28",0,0,0,0,0,0,0,0,0,0,0,0,0,0,0,0,0,0,0,0,1.57018885321871e-06,9.20392366128365e-05,0.00178419425365959,0.0159464642011094,0.0824984375836723,0.248403923357743,0.395133349129973,0.256140022048376
