"","X0","X1","X2","X3","X4","X5","X6","X7","X8","X9","X10","X11","X12","X13","X14","X15","X16","X17","X18","X19","X20","X21","X22","X23","X24","X25","X26","X27"
"1",0.913946499164278,0.0757314114804823,0.00903481453707087,0.00117978902180264,0.000101713809638626,5.57175685017619e-06,1.9591176029986e-07,4.2657828591495e-09,5.20612531886738e-11,2.73119630295512e-13,0,0,0,0,0,0,0,0,0,0,0,0,0,0,0,0,0,0
"2",0.790540435080749,0.165486467126386,0.0356119227276032,0.00720845303708481,0.00105090282081233,9.61380763616696e-05,5.48114693333443e-06,1.95665952632594e-07,4.2657828591495e-09,5.20612531886738e-11,2.73119630295512e-13,0,0,0,0,0,0,0,0,0,0,0,0,0,0,0,0,0
"3",0.547048680204459,0.266477520006053,0.143057890954084,0.0350744898431469,0.00718948857225968,0.00105012230470319,9.61269842906842e-05,5.48114693333443e-06,1.95665952632594e-07,4.2657828591495e-09,5.20612531886738e-11,2.73119630295512e-13,0,0,0,0,0,0,0,0,0,0,0,0,0,0,0,0
"4",0.295653571238801,0.260691645798636,0.25732126534563,0.142918174788553,0.0350739457643275,0.00718946695131482,0.00105012199744361,9.61269842906842e-05,5.48114693333443e-06,1.95665952632594e-07,4.2657828591495e-09,5.20612531886738e-11,2.73119630295512e-13,0,0,0,0,0,0,0,0,0,0,0,0,0,0,0
"5",0.127660480456995,0.170734653325516,0.257984242893528,0.257287106342738,0.142918174152843,0.0350739457643275,0.00718946695131482,0.00105012199744361,9.61269842906842e-05,5.48114693333443e-06,1.95665952632594e-07,4.2657828591495e-09,5.20612531886738e-11,2.73119630295512e-13,0,0,0,0,0,0,0,0,0,0,0,0,0,0
"6",0.045348517674032,0.0828998064766963,0.170152820491261,0.25797823203405,0.257287106342738,0.142918174152843,0.0350739457643275,0.00718946695131482,0.00105012199744361,9.61269842906842e-05,5.48114693333443e-06,1.95665952632594e-07,4.2657828591495e-09,5.20612531886738e-11,2.73119630295512e-13,0,0,0,0,0,0,0,0,0,0,0,0,0
"7",0.0133704064661639,0.0320700436584367,0.0828085944687119,0.170152100048676,0.25797823203405,0.257287106342738,0.142918174152843,0.0350739457643275,0.00718946695131482,0.00105012199744361,9.61269842906842e-05,5.48114693333443e-06,1.95665952632594e-07,4.2657828591495e-09,5.20612531886738e-11,2.73119630295512e-13,0,0,0,0,0,0,0,0,0,0,0,0
"8",0.00322514390194698,0.0101557038361706,0.032059659017545,0.0828085378376499,0.170152100048676,0.25797823203405,0.257287106342738,0.142918174152843,0.0350739457643275,0.00718946695131482,0.00105012199744361,9.61269842906842e-05,5.48114693333443e-06,1.95665952632594e-07,4.2657828591495e-09,5.20612531886738e-11,2.73119630295512e-13,0,0,0,0,0,0,0,0,0,0,0
"9",0.000620592919950971,0.00260539974952328,0.0101548578133676,0.0320596562728208,0.0828085378376499,0.170152100048676,0.25797823203405,0.257287106342738,0.142918174152843,0.0350739457643275,0.00718946695131482,0.00105012199744361,9.61269842906842e-05,5.48114693333443e-06,1.95665952632594e-07,4.2657828591495e-09,5.20612531886738e-11,2.73119630295512e-13,0,0,0,0,0,0,0,0,0,0
"10",9.26267013235379e-05,0.000528014123482033,0.00260535191782672,0.0101548577402096,0.0320596562728208,0.0828085378376499,0.170152100048676,0.25797823203405,0.257287106342738,0.142918174152843,0.0350739457643275,0.00718946695131482,0.00105012199744361,9.61269842906842e-05,5.48114693333443e-06,1.95665952632594e-07,4.2657828591495e-09,5.20612531886738e-11,2.73119630295512e-13,0,0,0,0,0,0,0,0,0
"11",1.04073819864721e-05,8.2221090092637e-05,0.000528012353531724,0.00260535191702146,0.0101548577402096,0.0320596562728208,0.0828085378376499,0.170152100048676,0.25797823203405,0.257287106342738,0.142918174152843,0.0350739457643275,0.00718946695131482,0.00105012199744361,9.61269842906842e-05,5.48114693333443e-06,1.95665952632594e-07,4.2657828591495e-09,5.20612531886738e-11,2.73119630295512e-13,0,0,0,0,0,0,0,0
"12",8.50648914731128e-07,9.55677122325739e-06,8.22210519411205e-05,0.000528012353531724,0.00260535191702146,0.0101548577402096,0.0320596562728208,0.0828085378376499,0.170152100048676,0.25797823203405,0.257287106342738,0.142918174152843,0.0350739457643275,0.00718946695131482,0.00105012199744361,9.61269842906842e-05,5.48114693333443e-06,1.95665952632594e-07,4.2657828591495e-09,5.20612531886738e-11,2.73119630295512e-13,0,0,0,0,0,0,0
"13",4.83977625292799e-08,8.02251510095998e-07,9.55677086536324e-06,8.22210519411205e-05,0.000528012353531724,0.00260535191702146,0.0101548577402096,0.0320596562728208,0.0828085378376499,0.170152100048676,0.25797823203405,0.257287106342738,0.142918174152843,0.0350739457643275,0.00718946695131482,0.00105012199744361,9.61269842906842e-05,5.48114693333443e-06,1.95665952632594e-07,4.2657828591495e-09,5.20612531886738e-11,2.73119630295512e-13,0,0,0,0,0,0
"14",1.79450184806096e-09,4.66032606812189e-08,8.02251510095998e-07,9.55677086536324e-06,8.22210519411205e-05,0.000528012353531724,0.00260535191702146,0.0101548577402096,0.0320596562728208,0.0828085378376499,0.170152100048676,0.25797823203405,0.257287106342738,0.142918174152843,0.0350739457643275,0.00718946695131482,0.00105012199744361,9.61269842906842e-05,5.48114693333443e-06,1.95665952632594e-07,4.2657828591495e-09,5.20612531886738e-11,2.73119630295512e-13,0,0,0,0,0
"15",3.85094105624754e-11,1.75599243749848e-09,4.66032606812189e-08,8.02251510095998e-07,9.55677086536324e-06,8.22210519411205e-05,0.000528012353531724,0.00260535191702146,0.0101548577402096,0.0320596562728208,0.0828085378376499,0.170152100048676,0.25797823203405,0.257287106342738,0.142918174152843,0.0350739457643275,0.00718946695131482,0.00105012199744361,9.61269842906842e-05,5.48114693333443e-06,1.95665952632594e-07,4.2657828591495e-09,5.20612531886738e-11,2.73119630295512e-13,0,0,0,0
"16",3.57894150208879e-13,3.81515164122665e-11,1.75599243749848e-09,4.66032606812189e-08,8.02251510095998e-07,9.55677086536324e-06,8.22210519411205e-05,0.000528012353531724,0.00260535191702146,0.0101548577402096,0.0320596562728208,0.0828085378376499,0.170152100048676,0.25797823203405,0.257287106342738,0.142918174152843,0.0350739457643275,0.00718946695131482,0.00105012199744361,9.61269842906842e-05,5.48114693333443e-06,1.95665952632594e-07,4.2657828591495e-09,5.20612531886738e-11,2.73119630295512e-13,0,0,0
"17",0,3.57894150208879e-13,3.81515164122665e-11,1.75599243749848e-09,4.66032606812189e-08,8.02251510095998e-07,9.55677086536324e-06,8.22210519411205e-05,0.000528012353531724,0.00260535191702146,0.0101548577402096,0.0320596562728208,0.0828085378376499,0.170152100048676,0.25797823203405,0.257287106342738,0.142918174152843,0.0350739457643275,0.00718946695131482,0.00105012199744361,9.61269842906842e-05,5.48114693333443e-06,1.95665952632594e-07,4.2657828591495e-09,5.20612531886738e-11,2.73119630295512e-13,0,0
"18",0,0,3.57894150208879e-13,3.81515164122665e-11,1.75599243749848e-09,4.66032606812189e-08,8.02251510095998e-07,9.55677086536324e-06,8.22210519411205e-05,0.000528012353531724,0.00260535191702146,0.0101548577402096,0.0320596562728208,0.0828085378376499,0.170152100048676,0.25797823203405,0.257287106342738,0.142918174152843,0.0350739457643275,0.00718946695131482,0.00105012199744361,9.61269842906842e-05,5.48114693333443e-06,1.95665952632594e-07,4.2657828591495e-09,5.20612531886738e-11,2.73119630295512e-13,0
"19",0,0,0,3.57894150208879e-13,3.81515164122665e-11,1.75599243749848e-09,4.66032606812189e-08,8.02251510095998e-07,9.55677086536324e-06,8.22210519411205e-05,0.000528012353531724,0.00260535191702146,0.0101548577402096,0.0320596562728208,0.0828085378376499,0.170152100048676,0.25797823203405,0.257287106342738,0.142918174152843,0.0350739457643275,0.00718946695131482,0.00105012199744361,9.61269842906842e-05,5.48114693333443e-06,1.95665952632594e-07,4.2657828591495e-09,5.20612531886738e-11,2.73119630295512e-13
"20",0,0,0,0,3.57894150208879e-13,3.81515164122665e-11,1.75599243749848e-09,4.66032606812189e-08,8.02251510095998e-07,9.55677086536324e-06,8.22210519411205e-05,0.000528012353531724,0.00260535191702146,0.0101548577402096,0.0320596562728208,0.0828085378376499,0.170152100048676,0.25797823203405,0.257287106342738,0.142918174152843,0.0350739457643275,0.00718946695131482,0.00105012199744361,9.61269842906842e-05,5.48114693333443e-06,1.95665952632594e-07,4.2657828591495e-09,5.23343728189693e-11
"21",0,0,0,0,0,3.57894150208879e-13,3.81515164122665e-11,1.75599243749848e-09,4.66032606812189e-08,8.02251510095998e-07,9.55677086536324e-06,8.22210519411205e-05,0.000528012353531724,0.00260535191702146,0.0101548577402096,0.0320596562728208,0.0828085378376499,0.170152100048676,0.25797823203405,0.257287106342738,0.142918174152843,0.0350739457643275,0.00718946695131482,0.00105012199748407,9.61269845638038e-05,5.48114717610743e-06,1.9566815782072e-07,4.31535568903993e-09
"22",0,0,0,0,0,0,3.57894150208879e-13,3.81515164122665e-11,1.75599243749848e-09,4.66032606812189e-08,8.02251510095998e-07,9.55677086536324e-06,8.22210519411205e-05,0.000528012353531724,0.00260535191702146,0.0101548577402096,0.0320596562728208,0.0828085378376499,0.170152100048677,0.257978232034072,0.257287106342999,0.142918174154629,0.0350739457719862,0.00718946698058582,0.00105012209689294,9.6127131261129e-05,5.4815366543455e-06,1.99308929638435e-07
"23",0,0,0,0,0,0,0,3.57894150208879e-13,3.81515164122665e-11,1.75599243749848e-09,4.66032606812189e-08,8.02251510095998e-07,9.55677086536324e-06,8.22210519411205e-05,0.000528012353531735,0.00260535191702222,0.0101548577402328,0.0320596562732252,0.082808537842116,0.170152100082309,0.257978232217705,0.257287107109154,0.14291817665927,0.0350739525341989,0.00718948207060597,0.00105014125640997,9.61507862555681e-05,5.61268588432427e-06
"24",0,0,0,0,0,0,0,0,3.57894150208879e-13,3.81515164122665e-11,1.75599243749848e-09,4.66032606812189e-08,8.02251510095998e-07,9.55677086536324e-06,8.22210519423851e-05,0.000528012353622151,0.00260535191979574,0.0101548577882885,0.0320596567967533,0.082808541654729,0.170152119670318,0.2579783077843,0.257287338017628,0.142918745285436,0.0350750157740638,0.00719059621977753,0.00105067354313787,9.81547200691383e-05
"25",0,0,0,0,0,0,0,0,0,3.57894150208879e-13,3.81515164122665e-11,1.75599243749848e-09,4.66032606812189e-08,8.02251510109253e-07,9.55677092301469e-06,8.22210560260316e-05,0.00052801247850969,0.00260535407811862,0.0101548811781698,0.0320598251262033,0.0828093872963173,0.170155280337556,0.257987677943054,0.257309521799242,0.142956683383877,0.0351087254565836,0.00718920540685124,0.00104281703929551
"26",0,0,0,0,0,0,0,0,0,0,3.57894150208879e-13,3.81515164122665e-11,1.75599243749848e-09,4.66032622718596e-08,8.02252763775346e-07,9.55685594832296e-06,8.22236187320094e-05,0.000528056441886007,0.00260582782202395,0.010158266191462,0.0320766369994489,0.0828712203155509,0.170335657236638,0.25840623697158,0.257991431767056,0.143491783322722,0.0348888070418582,0.00655344476456494
"27",0,0,0,0,0,0,0,0,0,0,0,3.57894150208879e-13,3.81519140724334e-11,1.7560948482468e-09,4.66184172045431e-08,8.03074525431175e-07,9.57964801067702e-06,8.2599168591225e-05,0.000532016382222341,0.00263377971125577,0.0102960523282423,0.0325802430912872,0.0843309473611553,0.173697667443432,0.263802971371073,0.262057105076062,0.141252256974685,0.0287239299564349
"28",0,0,0,0,0,0,0,0,0,0,0,0,3.82151420389703e-13,4.14761674929625e-11,1.93345466710305e-09,5.18030808166974e-08,8.98288827174048e-07,1.07599875279807e-05,9.29280037911313e-05,0.000597976958827218,0.00295054883110609,0.0114746687775455,0.0360640767201005,0.0925533945609252,0.188264088941962,0.278745954030459,0.262689947210836,0.126554703909698
