"","X0","X1","X2","X3","X4","X5","X6","X7","X8","X9","X10","X11","X12","X13","X14","X15","X16","X17","X18","X19","X20","X21","X22","X23","X24","X25","X26","X27"
"1",0.914071184749394,0.0766991824110497,0.00811088600636211,0.00101275614814172,9.91007365293596e-05,6.58595897057919e-06,2.95004651879919e-07,8.81512253771796e-09,1.67931926854157e-10,1.83798085593526e-12,8.81031065469391e-15,0,0,0,0,0,0,0,0,0,0,0,0,0,0,0,0,0
"2",0.830247180021507,0.134459240206336,0.0286079020145803,0.00571032730646539,0.000877022703181238,9.16734347594093e-05,6.35339717495184e-06,2.91939024304031e-07,8.80719325812873e-09,1.67931926854157e-10,1.83798085593526e-12,8.81031065469391e-15,0,0,0,0,0,0,0,0,0,0,0,0,0,0,0,0
"3",0.637169307650338,0.224269526795209,0.104339626904079,0.0275655872493641,0.00568170182193054,0.000875953807453161,9.16418162630587e-05,6.35303936621037e-06,2.91939024304031e-07,8.80719325812873e-09,1.67931926854157e-10,1.83798085593526e-12,8.81031065469391e-15,0,0,0,0,0,0,0,0,0,0,0,0,0,0,0
"4",0.395329940390106,0.256824364167895,0.209666073885755,0.103962944577371,0.0275607566776888,0.00568167160787628,0.000875952931594537,9.16418063514592e-05,6.35303936621037e-06,2.91939024304031e-07,8.80719325812873e-09,1.67931926854157e-10,1.83798085593526e-12,8.81031065469391e-15,0,0,0,0,0,0,0,0,0,0,0,0,0,0
"5",0.197955306339018,0.203096710273801,0.251210560301032,0.209558903822852,0.10396184230493,0.0275607566571821,0.00568167160787628,0.000875952931594537,9.16418063514592e-05,6.35303936621037e-06,2.91939024304031e-07,8.80719325812873e-09,1.67931926854157e-10,1.83798085593526e-12,8.81031065469391e-15,0,0,0,0,0,0,0,0,0,0,0,0,0
"6",0.0814647105945992,0.118296912635241,0.201312846259248,0.251188301323455,0.209558709924159,0.10396184230493,0.0275607566571821,0.00568167160787628,0.000875952931594537,9.16418063514592e-05,6.35303936621037e-06,2.91939024304031e-07,8.80719325812873e-09,1.67931926854157e-10,1.83798085593526e-12,8.81031065469391e-15,0,0,0,0,0,0,0,0,0,0,0,0
"7",0.0280245584630603,0.0539250913394365,0.117815357311766,0.201309485614909,0.251188278083372,0.209558709924159,0.10396184230493,0.0275607566571821,0.00568167160787628,0.000875952931594537,9.16418063514592e-05,6.35303936621037e-06,2.91939024304031e-07,8.80719325812873e-09,1.67931926854157e-10,1.83798085593526e-12,8.81031065469391e-15,0,0,0,0,0,0,0,0,0,0,0
"8",0.00808652974548394,0.0200481483865698,0.0538153413682195,0.117814989440798,0.2013094837881,0.251188278083372,0.209558709924159,0.10396184230493,0.0275607566571821,0.00568167160787628,0.000875952931594537,9.16418063514592e-05,6.35303936621037e-06,2.91939024304031e-07,8.80719325812873e-09,1.67931926854157e-10,1.83798085593526e-12,8.81031065469391e-15,0,0,0,0,0,0,0,0,0,0
"9",0.00193669169052181,0.00617035098810434,0.0200276644267361,0.0538153124834505,0.117814989352258,0.2013094837881,0.251188278083372,0.209558709924159,0.10396184230493,0.0275607566571821,0.00568167160787628,0.000875952931594537,9.16418063514592e-05,6.35303936621037e-06,2.91939024304031e-07,8.80719325812873e-09,1.67931926854157e-10,1.83798085593526e-12,8.81031065469391e-15,0,0,0,0,0,0,0,0,0
"10",0.000378074917397331,0.00156163257291302,0.00616733677611255,0.0200276628412993,0.0538153124810906,0.117814989352258,0.2013094837881,0.251188278083372,0.209558709924159,0.10396184230493,0.0275607566571821,0.00568167160787628,0.000875952931594537,9.16418063514592e-05,6.35303936621037e-06,2.91939024304031e-07,8.80719325812873e-09,1.67931926854157e-10,1.83798085593526e-12,8.81031065469391e-15,0,0,0,0,0,0,0,0
"11",5.89318352979848e-05,0.000319479832565302,0.00156129588003578,0.0061673367185498,0.0200276628412733,0.0538153124810906,0.117814989352258,0.2013094837881,0.251188278083372,0.209558709924159,0.10396184230493,0.0275607566571821,0.00568167160787628,0.000875952931594537,9.16418063514592e-05,6.35303936621037e-06,2.91939024304031e-07,8.80719325812873e-09,1.67931926854157e-10,1.83798085593526e-12,8.81031065469391e-15,0,0,0,0,0,0,0
"12",7.17489593748848e-06,5.17844018005617e-05,0.00031945237135593,0.00156129587880509,0.0061673367185498,0.0200276628412733,0.0538153124810906,0.117814989352258,0.2013094837881,0.251188278083372,0.209558709924159,0.10396184230493,0.0275607566571821,0.00568167160787628,0.000875952931594537,9.16418063514592e-05,6.35303936621037e-06,2.91939024304031e-07,8.80719325812873e-09,1.67931926854157e-10,1.83798085593526e-12,8.81031065469391e-15,0,0,0,0,0,0
"13",6.65668447173987e-07,6.5107889162701e-06,5.17828403861511e-05,0.000319452371344385,0.00156129587880509,0.0061673367185498,0.0200276628412733,0.0538153124810906,0.117814989352258,0.2013094837881,0.251188278083372,0.209558709924159,0.10396184230493,0.0275607566571821,0.00568167160787628,0.000875952931594537,9.16418063514592e-05,6.35303936621037e-06,2.91939024304031e-07,8.80719325812873e-09,1.67931926854157e-10,1.83798085593526e-12,8.81031065469391e-15,0,0,0,0,0
"14",4.56556675391114e-08,6.20070666791265e-07,6.51073102911372e-06,5.17828403861511e-05,0.000319452371344385,0.00156129587880509,0.0061673367185498,0.0200276628412733,0.0538153124810906,0.117814989352258,0.2013094837881,0.251188278083372,0.209558709924159,0.10396184230493,0.0275607566571821,0.00568167160787628,0.000875952931594537,9.16418063514592e-05,6.35303936621037e-06,2.91939024304031e-07,8.80719325812873e-09,1.67931926854157e-10,1.83798085593526e-12,8.81031065469391e-15,0,0,0,0
"15",2.22033716929274e-09,4.3436572608869e-08,6.20069424552214e-07,6.51073102911372e-06,5.17828403861511e-05,0.000319452371344385,0.00156129587880509,0.0061673367185498,0.0200276628412733,0.0538153124810906,0.117814989352258,0.2013094837881,0.251188278083372,0.209558709924159,0.10396184230493,0.0275607566571821,0.00568167160787628,0.000875952931594537,9.16418063514592e-05,6.35303936621037e-06,2.91939024304031e-07,8.80719325812873e-09,1.67931926854157e-10,1.83798085593526e-12,8.81031065469391e-15,0,0,0
"16",7.17595954500627e-11,2.14858911881526e-09,4.34365610638964e-08,6.20069424552214e-07,6.51073102911372e-06,5.17828403861511e-05,0.000319452371344385,0.00156129587880509,0.0061673367185498,0.0200276628412733,0.0538153124810906,0.117814989352258,0.2013094837881,0.251188278083372,0.209558709924159,0.10396184230493,0.0275607566571821,0.00568167160787628,0.000875952931594537,9.16418063514592e-05,6.35303936621037e-06,2.91939024304031e-07,8.80719325812873e-09,1.67931926854157e-10,1.83798085593526e-12,8.81031065469391e-15,0,0
"17",1.36923374886365e-12,7.03903617011991e-11,2.14858911881526e-09,4.34365610638964e-08,6.20069424552214e-07,6.51073102911372e-06,5.17828403861511e-05,0.000319452371344385,0.00156129587880509,0.0061673367185498,0.0200276628412733,0.0538153124810906,0.117814989352258,0.2013094837881,0.251188278083372,0.209558709924159,0.10396184230493,0.0275607566571821,0.00568167160787628,0.000875952931594537,9.16418063514592e-05,6.35303936621037e-06,2.91939024304031e-07,8.80719325812873e-09,1.67931926854157e-10,1.83798085593526e-12,8.81031065469391e-15,0
"18",1.15449725873832e-14,1.35768877627626e-12,7.03903617011991e-11,2.14858911881526e-09,4.34365610638964e-08,6.20069424552214e-07,6.51073102911372e-06,5.17828403861511e-05,0.000319452371344385,0.00156129587880509,0.0061673367185498,0.0200276628412733,0.0538153124810906,0.117814989352258,0.2013094837881,0.251188278083372,0.209558709924159,0.10396184230493,0.0275607566571821,0.00568167160787628,0.000875952931594537,9.16418063514592e-05,6.35303936621037e-06,2.91939024304031e-07,8.80719325812873e-09,1.67931926854157e-10,1.83798085593526e-12,8.81031065469391e-15
"19",0,1.15449725873832e-14,1.35768877627626e-12,7.03903617011991e-11,2.14858911881526e-09,4.34365610638964e-08,6.20069424552214e-07,6.51073102911372e-06,5.17828403861511e-05,0.000319452371344385,0.00156129587880509,0.0061673367185498,0.0200276628412733,0.0538153124810906,0.117814989352258,0.2013094837881,0.251188278083372,0.209558709924159,0.10396184230493,0.0275607566571821,0.00568167160787628,0.000875952931594537,9.16418063514592e-05,6.35303936621037e-06,2.91939024304031e-07,8.80719325812873e-09,1.67931926854157e-10,1.84679116658995e-12
"20",0,0,1.15449725873832e-14,1.35768877627626e-12,7.03903617011991e-11,2.14858911881526e-09,4.34365610638964e-08,6.20069424552214e-07,6.51073102911372e-06,5.17828403861511e-05,0.000319452371344385,0.00156129587880509,0.0061673367185498,0.0200276628412733,0.0538153124810906,0.117814989352258,0.2013094837881,0.251188278083372,0.209558709924159,0.10396184230493,0.0275607566571821,0.00568167160787628,0.000875952931594537,9.16418063514592e-05,6.35303936621037e-06,2.91939033114341e-07,8.80728136123528e-09,1.69681804603546e-10
"21",0,0,0,1.15449725873832e-14,1.35768877627626e-12,7.03903617011991e-11,2.14858911881526e-09,4.34365610638964e-08,6.20069424552214e-07,6.51073102911372e-06,5.17828403861511e-05,0.000319452371344385,0.00156129587880509,0.0061673367185498,0.0200276628412733,0.0538153124810906,0.117814989352258,0.2013094837881,0.251188278083372,0.209558709924159,0.10396184230493,0.0275607566571834,0.00568167160789945,0.000875952931722776,9.16418066686304e-05,6.35304189759531e-06,2.91956223530962e-07,8.9567714810477e-09
"22",0,0,0,0,1.15449725873832e-14,1.35768877627626e-12,7.03903617011991e-11,2.14858911881526e-09,4.34365610638964e-08,6.20069424552214e-07,6.51073102911372e-06,5.17828403861511e-05,0.000319452371344385,0.00156129587880509,0.0061673367185498,0.0200276628412733,0.0538153124810906,0.117814989352259,0.201309483788117,0.251188278083535,0.209558709925192,0.103961842309637,0.0275607566752812,0.00568167166514885,0.000875953055005983,9.16421507006677e-05,6.35442546017325e-06,2.98980848950831e-07
"23",0,0,0,0,0,1.15449725873832e-14,1.35768877627626e-12,7.03903617011991e-11,2.14858911881526e-09,4.34365610638964e-08,6.20069424552214e-07,6.51073102911372e-06,5.17828403861514e-05,0.000319452371344414,0.00156129587880611,0.00616733671857154,0.0200276628415744,0.0538153124839958,0.117814989372723,0.201309483897664,0.251188278543902,0.209558711482859,0.103961846674929,0.0275607666550944,0.00568168820683457,0.000875977290989709,9.16966114108955e-05,6.54167155024933e-06
"24",0,0,0,0,0,0,1.15449725873832e-14,1.35768877627626e-12,7.03903617011991e-11,2.14858911881526e-09,4.34365610638964e-08,6.20069424552214e-07,6.51073102915451e-06,5.17828403895168e-05,0.000319452371466699,0.00156129588139299,0.0061673367541249,0.0200276631783227,0.053815314774264,0.117815000991602,0.201309529656948,0.251188423331196,0.209559084065015,0.103962597512579,0.0275618148767508,0.0056826229491821,0.000876852319903861,9.40520394984354e-05
"25",0,0,0,0,0,0,0,1.15449725873832e-14,1.35768877627626e-12,7.03903617011991e-11,2.14858911881526e-09,4.3436561064324e-08,6.20069426416642e-07,6.5107311813497e-06,5.17828459006584e-05,0.000319452487777961,0.00156129747440887,0.00616735174099085,0.0200277638377332,0.0538158152918347,0.117816921229551,0.201315432662747,0.251203061499615,0.209586816548665,0.103997258327042,0.0275818651005497,0.00567694871652118,0.000871055779144063
"26",0,0,0,0,0,0,0,0,1.15449725873832e-14,1.35768877627626e-12,7.03903617011991e-11,2.14858917012625e-09,4.34366020695866e-08,6.20072614941378e-07,6.51084474754161e-06,5.17852228313451e-05,0.000319484860512726,0.0015616003808518,0.00616937168851124,0.0200377047283171,0.0538534455770723,0.117930873201741,0.201592680291273,0.251711143725336,0.210179046205497,0.104231414638744,0.0272122000802059,0.00514207282479329
"27",0,0,0,0,0,0,0,0,0,1.15449725873832e-14,1.35770160402358e-12,7.03938063789459e-11,2.14911460911974e-09,4.34685475439891e-08,6.21108238546773e-07,6.5315244059238e-06,5.20594830788204e-05,0.000322010470914653,0.00157827494195642,0.00625086677054124,0.0203443981608042,0.0547767263350823,0.120161761575513,0.205638024241961,0.256323598868842,0.211720310303812,0.100663256778748,0.0221615137466757
"28",0,0,0,0,0,0,0,0,0,0,1.23274651738614e-14,1.47354300378223e-12,7.73087495191176e-11,2.38122694584273e-09,4.84827863333247e-08,6.95985597943962e-07,7.33899576028606e-06,5.85407440277576e-05,0.000361669659160446,0.00176732965104495,0.0069675254578012,0.0225404137196437,0.0602251444790804,0.130699229393832,0.219683949582649,0.265220496281262,0.206427959575232,0.0860396555321
