"","X0","X1","X2","X3","X4","X5","X6","X7","X8","X9","X10","X11","X12","X13","X14","X15","X16","X17","X18","X19","X20","X21","X22","X23","X24","X25","X26","X27"
"1",0.924384645322931,0.0644287486834068,0.0098504677393184,0.00124244077537818,8.96732698701654e-05,3.92074258621056e-06,1.02021944313804e-07,1.43609796952651e-09,8.46670853916087e-12,0,0,0,0,0,0,0,0,0,0,0,0,0,0,0,0,0,0,0
"2",0.755605912112424,0.194364949265037,0.0404787560982522,0.00833406854868957,0.00112527300330112,8.70243832394609e-05,3.91312254852532e-06,1.02021944313804e-07,1.43609796952651e-09,8.46670853916087e-12,0,0,0,0,0,0,0,0,0,0,0,0,0,0,0,0,0,0
"3",0.459273128892562,0.308311049359572,0.182633017186269,0.0402497409526818,0.00831709348751791,0.00112492914910057,8.70243832394609e-05,3.91312254852532e-06,1.02021944313804e-07,1.43609796952651e-09,8.46670853916087e-12,0,0,0,0,0,0,0,0,0,0,0,0,0,0,0,0,0
"4",0.200152876208185,0.263310130901094,0.30412857596995,0.182626092107521,0.0402492707293807,0.0083170839624708,0.00112492914910057,8.70243832394609e-05,3.91312254852532e-06,1.02021944313804e-07,1.43609796952651e-09,8.46670853916087e-12,0,0,0,0,0,0,0,0,0,0,0,0,0,0,0,0
"5",0.062759066960259,0.138452344197726,0.262251615658288,0.304128556262956,0.182626092107521,0.0402492707293807,0.0083170839624708,0.00112492914910057,8.70243832394609e-05,3.91312254852532e-06,1.02021944313804e-07,1.43609796952651e-09,8.46670853916087e-12,0,0,0,0,0,0,0,0,0,0,0,0,0,0,0
"6",0.0143100849853391,0.0486353186187488,0.138266007553897,0.262251615658288,0.304128556262956,0.182626092107521,0.0402492707293807,0.0083170839624708,0.00112492914910057,8.70243832394609e-05,3.91312254852532e-06,1.02021944313804e-07,1.43609796952651e-09,8.46670853916087e-12,0,0,0,0,0,0,0,0,0,0,0,0,0,0
"7",0.00238089784527869,0.0119515208601722,0.0486129848986369,0.138266007553897,0.262251615658288,0.304128556262956,0.182626092107521,0.0402492707293807,0.0083170839624708,0.00112492914910057,8.70243832394609e-05,3.91312254852532e-06,1.02021944313804e-07,1.43609796952651e-09,8.46670853916087e-12,0,0,0,0,0,0,0,0,0,0,0,0,0
"8",0.00028681260921025,0.00209584079899012,0.0119497652972506,0.0486129848986369,0.138266007553897,0.262251615658288,0.304128556262956,0.182626092107521,0.0402492707293807,0.0083170839624708,0.00112492914910057,8.70243832394609e-05,3.91312254852532e-06,1.02021944313804e-07,1.43609796952651e-09,8.46670853916087e-12,0,0,0,0,0,0,0,0,0,0,0,0
"9",2.45249778665457e-05,0.000262372717795079,0.00209575571253874,0.0119497652972506,0.0486129848986369,0.138266007553897,0.262251615658288,0.304128556262956,0.182626092107521,0.0402492707293807,0.0083170839624708,0.00112492914910057,8.70243832394609e-05,3.91312254852532e-06,1.02021944313804e-07,1.43609796952651e-09,8.46670853916087e-12,0,0,0,0,0,0,0,0,0,0,0
"10",1.43742460988694e-06,2.30898211558361e-05,0.000262370449895901,0.00209575571253874,0.0119497652972506,0.0486129848986369,0.138266007553897,0.262251615658288,0.304128556262956,0.182626092107521,0.0402492707293807,0.0083170839624708,0.00112492914910057,8.70243832394609e-05,3.91312254852532e-06,1.02021944313804e-07,1.43609796952651e-09,8.46670853916087e-12,0,0,0,0,0,0,0,0,0,0
"11",5.43691972505142e-08,1.3830803757534e-06,2.30897961927192e-05,0.000262370449895901,0.00209575571253874,0.0119497652972506,0.0486129848986369,0.138266007553897,0.262251615658288,0.304128556262956,0.182626092107521,0.0402492707293807,0.0083170839624708,0.00112492914910057,8.70243832394609e-05,3.91312254852532e-06,1.02021944313804e-07,1.43609796952651e-09,8.46670853916087e-12,0,0,0,0,0,0,0,0,0
"12",1.18269700878026e-09,5.31865002417339e-08,1.3830803757534e-06,2.30897961927192e-05,0.000262370449895901,0.00209575571253874,0.0119497652972506,0.0486129848986369,0.138266007553897,0.262251615658288,0.304128556262956,0.182626092107521,0.0402492707293807,0.0083170839624708,0.00112492914910057,8.70243832394609e-05,3.91312254852532e-06,1.02021944313804e-07,1.43609796952651e-09,8.46670853916087e-12,0,0,0,0,0,0,0,0
"13",1.10947186564753e-11,1.17160229012379e-09,5.31865002417339e-08,1.3830803757534e-06,2.30897961927192e-05,0.000262370449895901,0.00209575571253874,0.0119497652972506,0.0486129848986369,0.138266007553897,0.262251615658288,0.304128556262956,0.182626092107521,0.0402492707293807,0.0083170839624708,0.00112492914910057,8.70243832394609e-05,3.91312254852532e-06,1.02021944313804e-07,1.43609796952651e-09,8.46670853916087e-12,0,0,0,0,0,0,0
"14",0,1.10947186564753e-11,1.17160229012379e-09,5.31865002417339e-08,1.3830803757534e-06,2.30897961927192e-05,0.000262370449895901,0.00209575571253874,0.0119497652972506,0.0486129848986369,0.138266007553897,0.262251615658288,0.304128556262956,0.182626092107521,0.0402492707293807,0.0083170839624708,0.00112492914910057,8.70243832394609e-05,3.91312254852532e-06,1.02021944313804e-07,1.43609796952651e-09,8.46670853916087e-12,0,0,0,0,0,0
"15",0,0,1.10947186564753e-11,1.17160229012379e-09,5.31865002417339e-08,1.3830803757534e-06,2.30897961927192e-05,0.000262370449895901,0.00209575571253874,0.0119497652972506,0.0486129848986369,0.138266007553897,0.262251615658288,0.304128556262956,0.182626092107521,0.0402492707293807,0.0083170839624708,0.00112492914910057,8.70243832394609e-05,3.91312254852532e-06,1.02021944313804e-07,1.43609796952651e-09,8.46670853916087e-12,0,0,0,0,0
"16",0,0,0,1.10947186564753e-11,1.17160229012379e-09,5.31865002417339e-08,1.3830803757534e-06,2.30897961927192e-05,0.000262370449895901,0.00209575571253874,0.0119497652972506,0.0486129848986369,0.138266007553897,0.262251615658288,0.304128556262956,0.182626092107521,0.0402492707293807,0.0083170839624708,0.00112492914910057,8.70243832394609e-05,3.91312254852532e-06,1.02021944313804e-07,1.43609796952651e-09,8.46670853916087e-12,0,0,0,0
"17",0,0,0,0,1.10947186564753e-11,1.17160229012379e-09,5.31865002417339e-08,1.3830803757534e-06,2.30897961927192e-05,0.000262370449895901,0.00209575571253874,0.0119497652972506,0.0486129848986369,0.138266007553897,0.262251615658288,0.304128556262956,0.182626092107521,0.0402492707293807,0.0083170839624708,0.00112492914910057,8.70243832394609e-05,3.91312254852532e-06,1.02021944313804e-07,1.43609796952651e-09,8.46670853916087e-12,0,0,0
"18",0,0,0,0,0,1.10947186564753e-11,1.17160229012379e-09,5.31865002417339e-08,1.3830803757534e-06,2.30897961927192e-05,0.000262370449895901,0.00209575571253874,0.0119497652972506,0.0486129848986369,0.138266007553897,0.262251615658288,0.304128556262956,0.182626092107521,0.0402492707293807,0.0083170839624708,0.00112492914910057,8.70243832394609e-05,3.91312254852532e-06,1.02021944313804e-07,1.43609796952651e-09,8.46670853916087e-12,0,0
"19",0,0,0,0,0,0,1.10947186564753e-11,1.17160229012379e-09,5.31865002417339e-08,1.3830803757534e-06,2.30897961927192e-05,0.000262370449895901,0.00209575571253874,0.0119497652972506,0.0486129848986369,0.138266007553897,0.262251615658288,0.304128556262956,0.182626092107521,0.0402492707293807,0.0083170839624708,0.00112492914910057,8.70243832394609e-05,3.91312254852532e-06,1.02021944313804e-07,1.43609796952651e-09,8.46670853916087e-12,0
"20",0,0,0,0,0,0,0,1.10947186564753e-11,1.17160229012379e-09,5.31865002417339e-08,1.3830803757534e-06,2.30897961927192e-05,0.000262370449895901,0.00209575571253874,0.0119497652972506,0.0486129848986369,0.138266007553897,0.262251615658288,0.304128556262956,0.182626092107521,0.0402492707293807,0.0083170839624708,0.00112492914910057,8.70243832394609e-05,3.91312254852532e-06,1.02021944313804e-07,1.43609796952651e-09,8.46670853916087e-12
"21",0,0,0,0,0,0,0,0,1.10947186564753e-11,1.17160229012379e-09,5.31865002417339e-08,1.3830803757534e-06,2.30897961927192e-05,0.000262370449895901,0.00209575571253874,0.0119497652972506,0.0486129848986369,0.138266007553897,0.262251615658288,0.304128556262956,0.182626092107521,0.0402492707293807,0.0083170839624708,0.00112492914910057,8.70243832394609e-05,3.91312254852532e-06,1.02023198640995e-07,1.44331035087469e-09
"22",0,0,0,0,0,0,0,0,0,1.10947186564753e-11,1.17160229012379e-09,5.31865002417339e-08,1.3830803757534e-06,2.30897961927192e-05,0.000262370449895901,0.00209575571253874,0.0119497652972506,0.0486129848986369,0.138266007553897,0.262251615658288,0.304128556262957,0.182626092107553,0.0402492707300391,0.00831708396967517,0.00112492919197637,8.70245134958881e-05,3.91344761235726e-06,1.02960418474283e-07
"23",0,0,0,0,0,0,0,0,0,0,1.10947186564753e-11,1.17160229012379e-09,5.31865002417339e-08,1.3830803757534e-06,2.30897961927192e-05,0.000262370449895901,0.00209575571253874,0.0119497652972509,0.0486129848986601,0.138266007554592,0.26225161566996,0.304128556384379,0.182626092932389,0.0402492745020427,0.00831709561307816,0.0011249513454424,8.70504478893763e-05,3.95194611475801e-06
"24",0,0,0,0,0,0,0,0,0,0,0,1.10947186564753e-11,1.17160229012379e-09,5.31865002417339e-08,1.3830803757534e-06,2.30897961927192e-05,0.000262370449895901,0.00209575571257794,0.0119497653000146,0.0486129849816011,0.138266008941207,0.262251629874055,0.304128648920456,0.182626478994075,0.0402502835796889,0.00831858480462887,0.00112582619002899,8.71350060051955e-05
"25",0,0,0,0,0,0,0,0,0,0,0,0,1.10947186564753e-11,1.17160229012379e-09,5.31865002417339e-08,1.3830803757534e-06,2.30897961931301e-05,0.000262370451682685,0.00209575583738132,0.0119497690342088,0.0486130472442697,0.138266643002843,0.262255699643805,0.304145044358257,0.18266619829538,0.0403001719087563,0.00832998463286326,0.00109078834478625
"26",0,0,0,0,0,0,0,0,0,0,0,0,0,1.10947186564753e-11,1.17160229012379e-09,5.31865002417339e-08,1.38308042506326e-06,2.30898350074691e-05,0.000262373048307734,0.00209583241190571,0.0119510363328245,0.0486258754171084,0.138348268490116,0.262578755171823,0.30489677508734,0.183517799336138,0.0402959940730586,0.00740276334674793
"27",0,0,0,0,0,0,0,0,0,0,0,0,0,0,1.10947186564753e-11,1.17161461758896e-09,5.31896626474665e-08,1.38354697927846e-06,2.31148206688677e-05,0.000263051284276957,0.00210661152114145,0.0120577425567869,0.0492959560536668,0.140975574996089,0.26862106324448,0.311536460294924,0.182960756768573,0.0321582305400413
"28",0,0,0,0,0,0,0,0,0,0,0,0,0,0,0,1.18466940320808e-11,1.27391449824976e-09,5.85802533237202e-08,1.53814906993148e-06,2.58719787480407e-05,0.000295689131895544,0.00237161542367136,0.0135509966739248,0.0550793653761102,0.155678776981331,0.289809498132922,0.3193766248142,0.163809963472111
