"","X0","X1","X2","X3","X4","X5","X6","X7","X8","X9","X10","X11","X12","X13","X14","X15","X16","X17","X18","X19","X20","X21","X22","X23","X24","X25","X26","X27"
"1",0.932499241859338,0.053380876830017,0.0126150193115958,0.0014167694550093,8.5134765602147e-05,2.90667314420762e-06,5.07486438190414e-08,3.56649477138952e-10,0,0,0,0,0,0,0,0,0,0,0,0,0,0,0,0,0,0,0,0
"2",0.691516595265264,0.247875204975191,0.0487139945973036,0.010492474510832,0.00131395909189896,8.48137810727219e-05,2.90667314420762e-06,5.07486438190414e-08,3.56649477138952e-10,0,0,0,0,0,0,0,0,0,0,0,0,0,0,0,0,0,0,0
"3",0.342210857548302,0.350391720903533,0.247122983179051,0.048394717633762,0.0104779900839417,0.00131395909189896,8.48137810727219e-05,2.90667314420762e-06,5.07486438190414e-08,3.56649477138952e-10,0,0,0,0,0,0,0,0,0,0,0,0,0,0,0,0,0,0
"4",0.109508759654004,0.232756661541881,0.350346402723829,0.247114138941834,0.0483943164031003,0.0104779900839417,0.00131395909189896,8.48137810727219e-05,2.90667314420762e-06,5.07486438190414e-08,3.56649477138952e-10,0,0,0,0,0,0,0,0,0,0,0,0,0,0,0,0,0
"5",0.0227523097741462,0.0867572800122619,0.232755831409477,0.350346402723829,0.247114138941834,0.0483943164031003,0.0104779900839417,0.00131395909189896,8.48137810727219e-05,2.90667314420762e-06,5.07486438190414e-08,3.56649477138952e-10,0,0,0,0,0,0,0,0,0,0,0,0,0,0,0,0
"6",0.00303314094426591,0.0197191688298803,0.0867572800122619,0.232755831409477,0.350346402723829,0.247114138941834,0.0483943164031003,0.0104779900839417,0.00131395909189896,8.48137810727219e-05,2.90667314420762e-06,5.07486438190414e-08,3.56649477138952e-10,0,0,0,0,0,0,0,0,0,0,0,0,0,0,0
"7",0.000238497909241361,0.00279464303502455,0.0197191688298803,0.0867572800122619,0.232755831409477,0.350346402723829,0.247114138941834,0.0483943164031003,0.0104779900839417,0.00131395909189896,8.48137810727219e-05,2.90667314420762e-06,5.07486438190414e-08,3.56649477138952e-10,0,0,0,0,0,0,0,0,0,0,0,0,0,0
"8",9.53703541491252e-06,0.000228960873826449,0.00279464303502455,0.0197191688298803,0.0867572800122619,0.232755831409477,0.350346402723829,0.247114138941834,0.0483943164031003,0.0104779900839417,0.00131395909189896,8.48137810727219e-05,2.90667314420762e-06,5.07486438190414e-08,3.56649477138952e-10,0,0,0,0,0,0,0,0,0,0,0,0,0
"9",1.42308412060371e-07,9.39472700285215e-06,0.000228960873826449,0.00279464303502455,0.0197191688298803,0.0867572800122619,0.232755831409477,0.350346402723829,0.247114138941834,0.0483943164031003,0.0104779900839417,0.00131395909189896,8.48137810727219e-05,2.90667314420762e-06,5.07486438190414e-08,3.56649477138952e-10,0,0,0,0,0,0,0,0,0,0,0,0
"10",0,1.42308412060371e-07,9.39472700285215e-06,0.000228960873826449,0.00279464303502455,0.0197191688298803,0.0867572800122619,0.232755831409477,0.350346402723829,0.247114138941834,0.0483943164031003,0.0104779900839417,0.00131395909189896,8.48137810727219e-05,2.90667314420762e-06,5.07486438190414e-08,3.56649477138952e-10,0,0,0,0,0,0,0,0,0,0,0
"11",0,0,1.42308412060371e-07,9.39472700285215e-06,0.000228960873826449,0.00279464303502455,0.0197191688298803,0.0867572800122619,0.232755831409477,0.350346402723829,0.247114138941834,0.0483943164031003,0.0104779900839417,0.00131395909189896,8.48137810727219e-05,2.90667314420762e-06,5.07486438190414e-08,3.56649477138952e-10,0,0,0,0,0,0,0,0,0,0
"12",0,0,0,1.42308412060371e-07,9.39472700285215e-06,0.000228960873826449,0.00279464303502455,0.0197191688298803,0.0867572800122619,0.232755831409477,0.350346402723829,0.247114138941834,0.0483943164031003,0.0104779900839417,0.00131395909189896,8.48137810727219e-05,2.90667314420762e-06,5.07486438190414e-08,3.56649477138952e-10,0,0,0,0,0,0,0,0,0
"13",0,0,0,0,1.42308412060371e-07,9.39472700285215e-06,0.000228960873826449,0.00279464303502455,0.0197191688298803,0.0867572800122619,0.232755831409477,0.350346402723829,0.247114138941834,0.0483943164031003,0.0104779900839417,0.00131395909189896,8.48137810727219e-05,2.90667314420762e-06,5.07486438190414e-08,3.56649477138952e-10,0,0,0,0,0,0,0,0
"14",0,0,0,0,0,1.42308412060371e-07,9.39472700285215e-06,0.000228960873826449,0.00279464303502455,0.0197191688298803,0.0867572800122619,0.232755831409477,0.350346402723829,0.247114138941834,0.0483943164031003,0.0104779900839417,0.00131395909189896,8.48137810727219e-05,2.90667314420762e-06,5.07486438190414e-08,3.56649477138952e-10,0,0,0,0,0,0,0
"15",0,0,0,0,0,0,1.42308412060371e-07,9.39472700285215e-06,0.000228960873826449,0.00279464303502455,0.0197191688298803,0.0867572800122619,0.232755831409477,0.350346402723829,0.247114138941834,0.0483943164031003,0.0104779900839417,0.00131395909189896,8.48137810727219e-05,2.90667314420762e-06,5.07486438190414e-08,3.56649477138952e-10,0,0,0,0,0,0
"16",0,0,0,0,0,0,0,1.42308412060371e-07,9.39472700285215e-06,0.000228960873826449,0.00279464303502455,0.0197191688298803,0.0867572800122619,0.232755831409477,0.350346402723829,0.247114138941834,0.0483943164031003,0.0104779900839417,0.00131395909189896,8.48137810727219e-05,2.90667314420762e-06,5.07486438190414e-08,3.56649477138952e-10,0,0,0,0,0
"17",0,0,0,0,0,0,0,0,1.42308412060371e-07,9.39472700285215e-06,0.000228960873826449,0.00279464303502455,0.0197191688298803,0.0867572800122619,0.232755831409477,0.350346402723829,0.247114138941834,0.0483943164031003,0.0104779900839417,0.00131395909189896,8.48137810727219e-05,2.90667314420762e-06,5.07486438190414e-08,3.56649477138952e-10,0,0,0,0
"18",0,0,0,0,0,0,0,0,0,1.42308412060371e-07,9.39472700285215e-06,0.000228960873826449,0.00279464303502455,0.0197191688298803,0.0867572800122619,0.232755831409477,0.350346402723829,0.247114138941834,0.0483943164031003,0.0104779900839417,0.00131395909189896,8.48137810727219e-05,2.90667314420762e-06,5.07486438190414e-08,3.56649477138952e-10,0,0,0
"19",0,0,0,0,0,0,0,0,0,0,1.42308412060371e-07,9.39472700285215e-06,0.000228960873826449,0.00279464303502455,0.0197191688298803,0.0867572800122619,0.232755831409477,0.350346402723829,0.247114138941834,0.0483943164031003,0.0104779900839417,0.00131395909189896,8.48137810727219e-05,2.90667314420762e-06,5.07486438190414e-08,3.56649477138952e-10,0,0
"20",0,0,0,0,0,0,0,0,0,0,0,1.42308412060371e-07,9.39472700285215e-06,0.000228960873826449,0.00279464303502455,0.0197191688298803,0.0867572800122619,0.232755831409477,0.350346402723829,0.247114138941834,0.0483943164031003,0.0104779900839417,0.00131395909189896,8.48137810727219e-05,2.90667314420762e-06,5.07486438190414e-08,3.56649477138952e-10,0
"21",0,0,0,0,0,0,0,0,0,0,0,0,1.42308412060371e-07,9.39472700285215e-06,0.000228960873826449,0.00279464303502455,0.0197191688298803,0.0867572800122619,0.232755831409477,0.350346402723829,0.247114138941834,0.0483943164031003,0.0104779900839417,0.00131395909189896,8.48137810727219e-05,2.90667314420762e-06,5.07486438190414e-08,3.56649477138952e-10
"22",0,0,0,0,0,0,0,0,0,0,0,0,0,1.42308412060371e-07,9.39472700285215e-06,0.000228960873826449,0.00279464303502455,0.0197191688298803,0.0867572800122619,0.232755831409477,0.350346402723829,0.247114138941834,0.0483943164031003,0.0104779900839417,0.00131395909954145,8.481387787758e-05,2.90691600551824e-06,5.07579846386808e-08
"23",0,0,0,0,0,0,0,0,0,0,0,0,0,0,1.42308412060371e-07,9.39472700285215e-06,0.000228960873826449,0.00279464303502455,0.0197191688298803,0.0867572800122619,0.232755831409477,0.350346402728046,0.247114139072195,0.0483943177532147,0.0104779966798268,0.00131398044505658,8.48451455978467e-05,2.89698017713194e-06
"24",0,0,0,0,0,0,0,0,0,0,0,0,0,0,0,1.42308412060371e-07,9.39472700285215e-06,0.000228960873826449,0.00279464303502455,0.0197191688298803,0.0867572800122619,0.2327558319123,0.350346418273658,0.247114300073344,0.0483950366858801,0.0104796855285013,0.0013155600966164,8.3577643290396e-05
"25",0,0,0,0,0,0,0,0,0,0,0,0,0,0,0,0,1.42308412060371e-07,9.39472700285215e-06,0.000228960873826449,0.00279464303502455,0.019719168835151,0.086757302722137,0.232756530779132,0.350353647874647,0.24714558297105,0.048458251628828,0.0105189566595851,0.00125741758520364
"26",0,0,0,0,0,0,0,0,0,0,0,0,0,0,0,0,0,1.42308412060371e-07,9.39472700285215e-06,0.000228960873826449,0.00279464366750638,0.0197196416585395,0.0867715312285188,0.232902889220285,0.350977291259426,0.248307630534516,0.0489581999992039,0.00932967452276218
"27",0,0,0,0,0,0,0,0,0,0,0,0,0,0,0,0,0,0,1.42308412060371e-07,9.39488512331e-06,0.000228995178059778,0.00279917972152386,0.0198403901584632,0.0879732883109864,0.237982594492635,0.360250975306253,0.251773670680481,0.0391413689580621
"28",0,0,0,0,0,0,0,0,0,0,0,0,0,0,0,0,0,0,0,1.51953759988907e-07,1.03252579912462e-05,0.000255796173746393,0.0031547365066386,0.0223869777542607,0.0985538071747114,0.262603545206668,0.381682381993044,0.231352277979178
