"","X0","X1","X2","X3","X4","X5","X6","X7","X8","X9","X10","X11","X12","X13","X14","X15","X16","X17","X18","X19","X20","X21","X22","X23","X24","X25","X26","X27"
"1",0.908263049784466,0.0887797895229236,0.00292467632030024,3.24843723098878e-05,0,0,0,0,0,0,0,0,0,0,0,0,0,0,0,0,0,0,0,0,0,0,0,0
"2",0.0292359350788991,0.880001645874864,0.087805258353627,0.00292467632030024,3.24843723098878e-05,0,0,0,0,0,0,0,0,0,0,0,0,0,0,0,0,0,0,0,0,0,0,0
"3",0,0.0292359350788991,0.880001645874864,0.087805258353627,0.00292467632030024,3.24843723098878e-05,0,0,0,0,0,0,0,0,0,0,0,0,0,0,0,0,0,0,0,0,0,0
"4",0,0,0.0292359350788991,0.880001645874864,0.087805258353627,0.00292467632030024,3.24843723098878e-05,0,0,0,0,0,0,0,0,0,0,0,0,0,0,0,0,0,0,0,0,0
"5",0,0,0,0.0292359350788991,0.880001645874864,0.087805258353627,0.00292467632030024,3.24843723098878e-05,0,0,0,0,0,0,0,0,0,0,0,0,0,0,0,0,0,0,0,0
"6",0,0,0,0,0.0292359350788991,0.880001645874864,0.087805258353627,0.00292467632030024,3.24843723098878e-05,0,0,0,0,0,0,0,0,0,0,0,0,0,0,0,0,0,0,0
"7",0,0,0,0,0,0.0292359350788991,0.880001645874864,0.087805258353627,0.00292467632030024,3.24843723098878e-05,0,0,0,0,0,0,0,0,0,0,0,0,0,0,0,0,0,0
"8",0,0,0,0,0,0,0.0292359350788991,0.880001645874864,0.087805258353627,0.00292467632030024,3.24843723098878e-05,0,0,0,0,0,0,0,0,0,0,0,0,0,0,0,0,0
"9",0,0,0,0,0,0,0,0.0292359350788991,0.880001645874864,0.087805258353627,0.00292467632030024,3.24843723098878e-05,0,0,0,0,0,0,0,0,0,0,0,0,0,0,0,0
"10",0,0,0,0,0,0,0,0,0.0292359350788991,0.880001645874864,0.087805258353627,0.00292467632030024,3.24843723098878e-05,0,0,0,0,0,0,0,0,0,0,0,0,0,0,0
"11",0,0,0,0,0,0,0,0,0,0.0292359350788991,0.880001645874864,0.087805258353627,0.00292467632030024,3.24843723098878e-05,0,0,0,0,0,0,0,0,0,0,0,0,0,0
"12",0,0,0,0,0,0,0,0,0,0,0.0292359350788991,0.880001645874864,0.087805258353627,0.00292467632030024,3.24843723098878e-05,0,0,0,0,0,0,0,0,0,0,0,0,0
"13",0,0,0,0,0,0,0,0,0,0,0,0.0292359350788991,0.880001645874864,0.087805258353627,0.00292467632030024,3.24843723098878e-05,0,0,0,0,0,0,0,0,0,0,0,0
"14",0,0,0,0,0,0,0,0,0,0,0,0,0.0292359350788991,0.880001645874864,0.087805258353627,0.00292467632030024,3.24843723098878e-05,0,0,0,0,0,0,0,0,0,0,0
"15",0,0,0,0,0,0,0,0,0,0,0,0,0,0.0292359350788991,0.880001645874864,0.087805258353627,0.00292467632030024,3.24843723098878e-05,0,0,0,0,0,0,0,0,0,0
"16",0,0,0,0,0,0,0,0,0,0,0,0,0,0,0.0292359350788991,0.880001645874864,0.087805258353627,0.00292467632030024,3.24843723098878e-05,0,0,0,0,0,0,0,0,0
"17",0,0,0,0,0,0,0,0,0,0,0,0,0,0,0,0.0292359350788991,0.880001645874864,0.087805258353627,0.00292467632030024,3.24843723098878e-05,0,0,0,0,0,0,0,0
"18",0,0,0,0,0,0,0,0,0,0,0,0,0,0,0,0,0.0292359350788991,0.880001645874864,0.087805258353627,0.00292467632030024,3.24843723098878e-05,0,0,0,0,0,0,0
"19",0,0,0,0,0,0,0,0,0,0,0,0,0,0,0,0,0,0.0292359350788991,0.880001645874864,0.087805258353627,0.00292467632030024,3.24843723098878e-05,0,0,0,0,0,0
"20",0,0,0,0,0,0,0,0,0,0,0,0,0,0,0,0,0,0,0.0292359350788991,0.880001645874864,0.087805258353627,0.00292467632030024,3.24843723098878e-05,0,0,0,0,0
"21",0,0,0,0,0,0,0,0,0,0,0,0,0,0,0,0,0,0,0,0.0292359350788991,0.880001645874864,0.087805258353627,0.00292467632030024,3.24843723098878e-05,0,0,0,0
"22",0,0,0,0,0,0,0,0,0,0,0,0,0,0,0,0,0,0,0,0,0.0292359350788991,0.880001645874864,0.087805258353627,0.00292467632030024,3.24843723098878e-05,0,0,0
"23",0,0,0,0,0,0,0,0,0,0,0,0,0,0,0,0,0,0,0,0,0,0.0292359350788991,0.880001645874864,0.087805258353627,0.00292467632030024,3.24843723098878e-05,0,0
"24",0,0,0,0,0,0,0,0,0,0,0,0,0,0,0,0,0,0,0,0,0,0,0.0292359350788991,0.880001645874864,0.087805258353627,0.00292467632030024,3.24843723098878e-05,0
"25",0,0,0,0,0,0,0,0,0,0,0,0,0,0,0,0,0,0,0,0,0,0,0,0.0292359350788991,0.880001645874864,0.087805258353627,0.00292467632030024,3.24843723098878e-05
"26",0,0,0,0,0,0,0,0,0,0,0,0,0,0,0,0,0,0,0,0,0,0,0,0,0.0292359350788991,0.880001645874864,0.087805258353627,0.00295716069261012
"27",0,0,0,0,0,0,0,0,0,0,0,0,0,0,0,0,0,0,0,0,0,0,0,0,0,0.0292359350788991,0.880034130247174,0.0907299346739272
"28",0,0,0,0,0,0,0,0,0,0,0,0,0,0,0,0,0,0,0,0,0,0,0,0,0,0,0.0312174817898023,0.968782518210198
