"","X0","X1","X2","X3","X4","X5","X6","X7","X8","X9","X10","X11","X12","X13","X14","X15","X16","X17","X18","X19","X20","X21","X22","X23","X24","X25","X26","X27"
"1",3.83079989724398e-05,5.24173410138246e-05,8.71293286109685e-05,0.000141288951914233,0.000221216276526634,0.000332240470274897,0.00048486736010709,0.0006902042288956,0.000961175722862009,0.00131204667392118,0.00175798037366214,0.00231447954058719,0.0029967440320761,0.00381900193376269,0.00479392883078287,0.00593239112850891,0.00724401775919878,0.00873978547700028,0.0104397411477093,0.0123961180081091,0.0147738217497908,0.0181387085240676,0.0243243988052607,0.0384850181667871,0.0709883930326811,0.135855421420842,0.227344895986442,0.405334259729607
"2",3.83071007862135e-05,5.24161160760699e-05,8.71273012574404e-05,0.00014128568139882,0.000221211187124549,0.000332232882335402,0.000484856379236445,0.000690188746312676,0.000961154391450335,0.00131201790016259,0.00175794232488577,0.0023144301704905,0.00299668112694235,0.00381892318148006,0.0047938319146726,0.0059322738485917,0.00724387818648869,0.00873962215497095,0.0104395533769953,0.0123959063105373,0.0147735888113656,0.0181384615820068,0.0243241559825559,0.038484823493113,0.0709883382887363,0.135855646246187,0.227345538446022,0.405335606867791
"3",3.8304896613737e-05,5.24131100075445e-05,8.7122325929469e-05,0.000141277655064062,0.000221198696671503,0.000332214259422801,0.000484829428253912,0.000690150745131988,0.000961102032506072,0.00131194727047844,0.00175784892366239,0.0023143089715213,0.00299652669182404,0.00381872982880893,0.00479359395018784,0.00593198586276658,0.0072435354333565,0.00873922104700897,0.010439092184761,0.0123953863032655,0.0147730165747914,0.018137854884577,0.0243235593404688,0.0384843450757494,0.0709882035862057,0.135856198325033,0.227347116523199,0.405338916072705
"4",3.83004787336934e-05,5.24070847506075e-05,8.71123533096487e-05,0.000141261566479563,0.000221173658995761,0.00033217692739649,0.000484775398959472,0.000690074559140647,0.000960997055339633,0.00131180565204728,0.00175766163292159,0.00231406592094055,0.00299621696368105,0.00381834201378465,0.00479311660831077,0.00593140811988011,0.00724284774095223,0.00873841617555318,0.0104381666288639,0.0123943425732882,0.0147718678534968,0.0181366368096717,0.0243223612607694,0.0384833841510254,0.07098793253473,0.135857305909663,0.227350283834087,0.4053455585332
"5",3.8292520243804e-05,5.23962304186768e-05,8.70943873343407e-05,0.000141232581288036,0.000221128549077757,0.000332109663347732,0.000484678044128683,0.00068993727086037,0.000960807870352345,0.00131155041220462,0.00175732404622543,0.00231362778429174,0.0029956585690874,0.00381764275707572,0.00479225581869962,0.00593036613444032,0.00724160727465625,0.00873696411397215,0.0104364965661621,0.0123924589531597,0.0147697943833927,0.0181344377439139,0.0243201978433138,0.0384816484025798,0.0709874417725971,0.135859303561657,0.22735599960705,0.40535754713844
"6",3.82791590106308e-05,5.23780069087266e-05,8.7064222794943e-05,0.00014118391340781,0.00022105280265156,0.000331996709381856,0.000484514547643363,0.000689706691253609,0.00096049009904708,0.00131112164539555,0.00175675688452158,0.00231289160366688,0.00299472019989402,0.00381646750344976,0.00479080884963811,0.00592861428764607,0.00723952135917756,0.00873452192659971,0.0104336871660016,0.0123892896397719,0.014766304875448,0.0181307360285621,0.0243165552158473,0.0384787246928354,0.0709866127759318,0.135862662279221,0.227365616210869,0.405377720703393
"7",3.82578814059909e-05,5.23489851654114e-05,8.70161822390671e-05,0.000141106399866612,0.000220932153239301,0.000331816781796718,0.000484254086672515,0.000689339326172456,0.000959983762628856,0.00131043836656307,0.00175585294171468,0.00231171810992472,0.00299322417862743,0.00381459350703579,0.00478850117157105,0.0059258198349738,0.00723619332409695,0.0087306246024981,0.0104292027801051,0.0123842295145196,0.014760732105761,0.018124822792314,0.0243107346474194,0.0384740507063426,0.0709852831017795,0.135868020202634,0.22738096905006,0.405409933502843
"8",3.82254303273554e-05,5.2304721494653e-05,8.69429074225553e-05,0.000140988163349093,0.000220748105155828,0.00033154228204945,0.000483856684321188,0.000688778749887571,0.00095921102767423,0.00130939545030414,0.00175447300817658,0.00230992639215921,0.00299093960960516,0.00381173117971387,0.00478497570712426,0.00592154976322431,0.00723110669124893,0.00872466633801059,0.0104223451620015,0.0123764892776565,0.0147522051999054,0.0181157721765344,0.0243018228388413,0.0384668905848645,0.0709832384339104,0.135876207876018,0.227404451783668,0.405459214455321
"9",3.81777058858089e-05,5.22396218029483e-05,8.6835133927581e-05,0.000140814247276868,0.000220477363200773,0.000331138442134194,0.000483271965678815,0.000687953839728885,0.000958073756310499,0.00130786030015248,0.00175244142839567,0.00230728807964772,0.00298757489105521,0.00380751461522544,0.00477978103423239,0.00591525633812351,0.00722360774909667,0.0087158798632122,0.0104122293534414,0.0123650678521976,0.0147396187975284,0.0181024081251118,0.0242886586941747,0.0384563075630478,0.0709802034267539,0.13588827603956,0.2274390997608,0.405531944012267
"10",3.81096922517739e-05,5.214684143489e-05,8.6681524535276e-05,0.000140566345354593,0.000220091408773798,0.000330562687232871,0.00048243822657294,0.000686777448877516,0.000956451655821113,0.0013056703200636,0.0017495427101282,0.00230352287492692,0.00298277193028275,0.00380149422005367,0.0047723621480046,0.00590626570366701,0.00721289170145732,0.00870331987851075,0.0103977642072432,0.0123487299087392,0.0147216077289086,0.0180832768809967,0.0242698055531807,0.0384411407919807,0.0709758333452668,0.135905517592069,0.227488657847606,0.405635998826027
"11",3.80154535496052e-05,5.20182791118931e-05,8.64686581973879e-05,0.000140222781845754,0.000219556465644626,0.000329764578388774,0.000481282340156802,0.000685146257991247,0.000954202048571389,0.00130263256576016,0.00174552100760192,0.002298297803945,0.00297610507792376,0.00379313522879102,0.00476205843270345,0.00589377516478542,0.00719799909601906,0.00868585845175269,0.0103776465765008,0.0123259986965582,0.0146965384158092,0.018056637080921,0.0242435405832005,0.0384199957364229,0.0709697091553537,0.135929472925799,0.227557601747724,0.40578079938894
"12",3.78882000222502e-05,5.18446666600182e-05,8.61811774486437e-05,0.000139758747255028,0.000218833862823633,0.000328686346600062,0.000479720518309993,0.000682941830368027,0.000951161297450326,0.00129852562511512,0.00174008254623209,0.00229123027421048,0.00296708490174504,0.00378182226094193,0.00474810904499029,0.00587685940696334,0.00717782284724501,0.00866219275951797,0.010350369629796,0.0122951647206442,0.0146625176144573,0.0180204681293524,0.0242078620284807,0.0383912487414417,0.070961336306602,0.135961918141088,0.227651111205499,0.405977257168708
"13",3.77204030526481e-05,5.16157253593694e-05,8.58020460624466e-05,0.000139146711813759,0.000217880674040347,0.000327263839163683,0.000477659669352878,0.00068003250741499,0.000947147388268689,0.00129310305786085,0.00173290010727437,0.00228189380268048,0.00295516535739434,0.00376686812350589,0.0047296635122443,0.00585448301269556,0.00715112273380879,0.00863086154911931,0.010314241159261,0.0122543056431467,0.0146174134587908,0.0179724915541721,0.0241605091595779,0.0383530616995756,0.0709501461973429,0.136004841192038,0.227775009157892,0.406237650557059
"14",3.75039709269052e-05,5.13204051693622e-05,8.53129439498707e-05,0.000138357060514272,0.000216650702249752,0.000325427980890252,0.000474999501591662,0.000676276356835569,0.000941963964212883,0.00128609879630316,0.00172362010879596,0.00226982711672669,0.00293975526239704,0.00374752800761812,0.00470579897712579,0.00582552103001808,0.00711654948902367,0.00859027283689557,0.0102674148179769,0.0122013207720083,0.0145588925634239,0.0179102093946809,0.0240989989771304,0.0383034101593485,0.0709355014451607,0.136060402585745,0.227935656679298,0.40657540809395
"15",3.72304975982583e-05,5.09472236027703e-05,8.46948271788449e-05,0.000137358994889633,0.000215095879910856,0.00032310685639569,0.000471635527599554,0.000671525393866858,0.000935406118865633,0.00127723492486652,0.00171187284180932,0.00225454736226043,0.00292023502111338,0.00372302028247464,0.00467554559136668,0.00578878944080266,0.00707268071995214,0.00853874550469685,0.0102079374027062,0.0121339837155391,0.0144844771992203,0.0178309639588538,0.0240206840253034,0.0382401284818631,0.070916706209853,0.136130877078028,0.22813979291502,0.40700477600433
"16",3.68915715652285e-05,5.04846867337547e-05,8.39286242542603e-05,0.000136121655233137,0.00021316801343581,0.00032022830752854,0.000467462817269179,0.000665630863449055,0.000927267658841709,0.00126623145362346,0.00169728535981294,0.00223556677810189,0.00289597779810467,0.00369255290094618,0.00463791887136651,0.00574308412518586,0.0070180670273321,0.00847456294294746,0.0101338101181441,0.0120500109532207,0.0143916201544807,0.0177320165172501,0.0239228290304028,0.0381609703500713,0.0708930213665911,0.136218579039727,0.228394326890235,0.407540384124112
"17",3.64791240853703e-05,4.9921764062263e-05,8.2996021987189e-05,0.000134615388218466,0.000210820755498757,0.000316722873343394,0.000462380251241479,0.000658449235286367,0.000917349359891527,0.0012528174485872,0.00167949618648308,0.00221241176331547,0.00286637378704725,0.00365535374324694,0.0045919569827973,0.00568722589746725,0.00695128548611487,0.00839603547383943,0.0100430601372727,0.0119471422512062,0.0142777928979654,0.0176106403932738,0.023802702017881,0.0380636812947711,0.0708636838903315,0.136325776125003,0.228706093606264,0.408196735843484
"18",3.59857995844405e-05,4.92483939168464e-05,8.18803024851064e-05,0.000132813098106819,0.000208011709459679,0.0003125269306706,0.00045629507062425,0.000649848626190178,0.000905467826296293,0.00123674299747353,0.00165817115954735,0.00218464346318898,0.00283085647601941,0.00361070354302231,0.00453676131350806,0.00562010966454124,0.00687099821454388,0.00830156895595464,0.00993381954425406,0.0118232297267664,0.0141405836307236,0.0174642249470876,0.0236576765909929,0.0379460807391624,0.07082793007064,0.136454594961856,0.22908158416959,0.408987642073759
"19",3.54053348164137e-05,4.84560011216148e-05,8.0567201150814e-05,0.000130691633223699,0.000204704591193634,0.000307585924756542,0.000449127564500349,0.000639715428562932,0.000891464652520252,0.00121779161039999,0.00163301988937964,0.00215187920906652,0.00278893007886874,0.00355797037964848,0.00447153911578467,0.00554075627400909,0.00677601438171371,0.00818973770994852,0.00980440960880183,0.0116763333554865,0.0139778029232621,0.0172903881506602,0.0234853432613896,0.0378061520650332,0.0707850225227817,0.136606921595202,0.229526656690146,0.409925612846537
"20",3.47329374828705e-05,4.75380143392297e-05,7.90457650371285e-05,0.000128233174742898,0.000200871397686902,0.000301857615657113,0.000440815789666751,0.000627960999410947,0.000875215691543901,0.00119579279938388,0.0016038125050009,0.00211381440385596,0.00274019763607467,0.00349664514780486,0.00439564753793633,0.00544836628899436,0.00666535482424036,0.00805936089568047,0.0096534295184243,0.0115048220895451,0.0137875962025711,0.0170870971766696,0.0232836294885139,0.0376421407079867,0.0707342815577212,0.136784298123341,0.230046230521283,0.411021211189368
"21",3.39656702404002e-05,4.64903913026919e-05,7.73092254262151e-05,0.000125426650691493,0.000196494619056499,0.000295315396835203,0.000431320407326115,0.000614528534243793,0.000856640608887706,0.00117063508977459,0.00157039703953576,0.00207024533514633,0.00268439043489497,0.003426378867595,0.00430864017563722,0.00534237714876974,0.00653832112811935,0.00790958466618895,0.00947985243411299,0.0113074840511516,0.0135685671742936,0.0168528016405827,0.0230509333319275,0.03745266464398,0.0706751229918909,0.136987812698085,0.230643953400981,0.412282346243287
"22",3.3102872800623e-05,4.53121967317112e-05,7.53559591930645e-05,0.000122269296274853,0.000191569683954543,0.000287951971901754,0.000420630055100738,0.000599400723134279,0.000835713556771368,0.00114228060670985,0.0015327189926122,0.00202109494844502,0.00262140139178231,0.0033470252180753,0.00421032040709058,0.00522252901019753,0.00639457565402247,0.0077399779054746,0.00928313812789694,0.0110836565823444,0.0133199244446242,0.0165865929500515,0.0227862844477051,0.0372368489067931,0.0706071069233826,0.137217972688596,0.231321808892646,0.413713435585651
"23",3.21467753136447e-05,4.40064423780265e-05,7.31908867306933e-05,0.000118768923762017,0.000186108518899829,0.000279784709586339,0.000408769176867077,0.000582610919081133,0.00081247876016297,0.00111078639685172,0.00149084996033213,0.00196645061771511,0.00255133404727166,0.00325870306609801,0.00410081994354261,0.00508896190911981,0.00623425988331851,0.00755067413830611,0.00906340035361649,0.0108334199886723,0.0130417005373612,0.0162884429890598,0.0224895859563135,0.0369945285480618,0.0705300129530265,0.13747451747246,0.232079531483738,0.415314154642317
"24",3.11041681083299e-05,4.25823715299261e-05,7.08292687801378e-05,0.000114950078280863,0.000180149184040154,0.000270870110721838,0.000395819126610687,0.000564273162583201,0.000787092299590695,0.00107636141328145,0.00144506390270715,0.00190666441321118,0.00247463215329531,0.00316196121157645,0.00398080495197792,0.00494246965050182,0.00605830232708113,0.00734273911065577,0.00882183842832752,0.0105580948715476,0.0127353115837258,0.0159598113540211,0.0221622268821407,0.0367267589981678,0.0704440224697366,0.137755929764777,0.232913103467192,0.417076233275793
"25",2.99928924562022e-05,4.10643329287661e-05,6.83114405734005e-05,0.000110877898661183,0.000173793172477824,0.000261359719306466,0.000381999580737064,0.000544697771189074,0.000759982605445747,0.00103958486372197,0.00139612859402951,0.00184273515972935,0.00239257191560544,0.00305840209922722,0.00385225365787086,0.00478545402694831,0.00586957120523261,0.0071195411824107,0.00856233936246445,0.0102620802680687,0.0124056167728406,0.0156058697477496,0.02180931481151,0.0364376633104269,0.0703503528752267,0.138057600527695,0.233809195160909,0.41897164504452
"26",2.88673501874749e-05,3.95266463618044e-05,6.57606803464513e-05,0.000106751788632047,0.000167351759373265,0.000251719358461695,0.000367987537211341,0.000524843886472939,0.000732478242769635,0.00100225944214828,0.0013464432690318,0.00177779798819961,0.0023091786542317,0.00295310700931211,0.00372147539661755,0.00462562366378015,0.00567733499413621,0.00689204484934206,0.00829765490488349,0.00995992684637844,0.0120688273686571,0.0152440270541169,0.0214482137645985,0.0361414728709385,0.0702536299102709,0.13836471796348,0.234723764678271,0.420907212121751
"27",2.7889044179492e-05,3.8190004936087e-05,6.3543192728847e-05,0.000103164339065947,0.000161750458606983,0.000243334885076929,0.00035579849294816,0.000507569192109961,0.000708540994202354,0.000969765950038293,0.00130317690405594,0.00172123162347817,0.00223650935229675,0.00286131682316034,0.00360742280659836,0.00448617192926478,0.00550952864754542,0.006693357996555,0.00806636506000071,0.00969574743771259,0.0117741948363483,0.0149272890279499,0.0211319195764631,0.0358817798153141,0.0701683282912059,0.138632702846087,0.235523324938305,0.422600085533728
"28",2.72636381668939e-05,3.73354834890807e-05,6.21254539937246e-05,0.000100870551536217,0.000158168716631278,0.000237972888974136,0.000348002485097034,0.000496518955702224,0.000693226568779361,0.000948974012830809,0.00127548657793623,0.00168502214349368,0.00218998193835184,0.00280253325910252,0.0035343636576104,0.00439681847419686,0.00540197580060337,0.00656597350411122,0.00791802959615661,0.00952626124937452,0.0115851053360028,0.0147239397738212,0.0209287757864512,0.0357148901255317,0.0701133178544169,0.138804423485202,0.236036262586076,0.423686380096323
