"","X0","X1","X2","X3","X4","X5","X6","X7","X8","X9","X10","X11","X12","X13","X14","X15","X16","X17","X18","X19","X20","X21","X22","X23","X24","X25","X26","X27"
"1",2.13184426668055e-05,3.85148254159895e-05,7.18239620846889e-05,0.000123240251985805,0.000198148103493361,0.000304012059358859,0.000450611304361702,0.000649853150568128,0.000915413862800153,0.00126239446982129,0.00170682299707035,0.00226509769795394,0.0029532618506864,0.00378622025513945,0.00477695447591831,0.00593591753929691,0.00727085647876356,0.00878751530469197,0.0104923951286826,0.012401298775725,0.0145620570450752,0.0171027038975044,0.0203094141267701,0.0251399294297744,0.036413102181891,0.0719001040584092,0.215269839953294,0.534891178370771
"2",2.13179405586001e-05,3.8513920673682e-05,7.18222808148121e-05,0.00012323738031834,0.000198143512731024,0.000304005064492392,0.00045060102018379,0.000649838456103849,0.000915393378744891,0.00126236654907508,0.00170678573217864,0.00226504894673993,0.00295319928385924,0.00378614142746804,0.00477685692271632,0.00593579889909513,0.0072707146438336,0.00878734860384279,0.0104922025561989,0.0124010803111237,0.0145618141764882,0.017102440551422,0.0203091382200709,0.0251396570133905,0.0364128769583038,0.0719000554511169,0.215270453871543,0.534893146926885
"3",2.13167083940133e-05,3.85117004288688e-05,7.1818154907497e-05,0.000123230332997537,0.000198132246348418,0.000303987897631433,0.000450575779870028,0.000649802390393038,0.000915343101198107,0.00126229801534001,0.00170669425803154,0.00226492927075245,0.00295304568399346,0.00378594789552522,0.00477661740095696,0.00593550758122528,0.00727036634450095,0.00878693920757407,0.0104917295799386,0.0124005436902513,0.0145612175516389,0.0171017935544188,0.0203084602896644,0.0251389875790521,0.0364123233960317,0.0718999357504151,0.215271961820862,0.53489798281763
"4",2.13142387997213e-05,3.85072503831944e-05,7.18098851645556e-05,0.000123216207356909,0.000198109663276139,0.000303953485881626,0.000450525182167345,0.000649730087866543,0.000915242301627623,0.00126216060565651,0.0017065108398348,0.00226468928521874,0.00295273764486862,0.00378555973814364,0.00477613695603906,0.0059349231779867,0.00726966755155535,0.00878611773378032,0.0104907804040303,0.0123994666401952,0.0145600198910107,0.0171004945769387,0.0203070989879484,0.0251376431010209,0.0364112113395654,0.0718996945965035,0.215274988316231,0.53490769031092
"5",2.13097901564817e-05,3.8499234062191e-05,7.17949876377283e-05,0.000123190759849436,0.00019806897786307,0.000303891486859323,0.00045043401574026,0.000649599805029677,0.000915060655770414,0.00126191296568867,0.00170618025266642,0.00226425669914543,0.00295218232765317,0.00378485990426579,0.00477527061911196,0.00593386923681698,0.0072684071255402,0.00878463578810674,0.0104890677895479,0.0123975229476563,0.0145578581269583,0.0170981494702557,0.0203046408530274,0.0251352147929703,0.0364092021316053,0.0718992572925685,0.215280449822022,0.534925212141396
"6",2.13023217912927e-05,3.84857759680487e-05,7.17699763178715e-05,0.000123148034485473,0.000198000665109558,0.000303787381038302,0.000450280922269145,0.000649381006296163,0.000914755569135279,0.00126149699496988,0.00170562488996808,0.0022635298965671,0.00295124919583973,0.00378368376243483,0.00477381442388877,0.00593209740474368,0.00726628777645192,0.00878214347846096,0.010486186947121,0.0123942526820657,0.0145542201139884,0.0170942019583745,0.0203005020368519,0.0251311250695327,0.0364058168534298,0.0718985172248529,0.215289638323637,0.53495469931438
"7",2.12904290824745e-05,3.8464344541496e-05,7.1730145385263e-05,0.000123079990334737,0.000197891864032728,0.000303621560568085,0.000450037053190547,0.000649032438833201,0.000914269484211574,0.00126083416271439,0.00170473982613716,0.00226237144825806,0.00294976164762965,0.00378180850281435,0.00477149221639203,0.00592927128863791,0.00726290664187674,0.00877816642819705,0.0104815887849911,0.0123890316084709,0.0145484103455119,0.0170878961471715,0.0202938886783027,0.0251245880445299,0.03640040320008,0.0718973276262929,0.215304307126896,0.535001788964886
"8",2.12722921787141e-05,3.84316596137781e-05,7.16693968686234e-05,0.000122976206364517,0.000197725904218437,0.000303368604970059,0.000449664999786988,0.000648500595687843,0.000913527725356489,0.00125982255108381,0.00170338884203791,0.00226060287168808,0.00294749023417711,0.00377894451505514,0.00476794488004495,0.00592495321348729,0.00725773927872037,0.00877208673672244,0.0104745576370089,0.0123810455857722,0.0145395210988161,0.0170782447896271,0.0202837631640834,0.0251145756878284,0.036392106842303,0.0718954938630884,0.215326742590487,0.535073838232893
"9",2.12456206608067e-05,3.83835925038756e-05,7.15800545279283e-05,0.000122823562506127,0.000197481793888112,0.00030299649730676,0.000449117634231717,0.000647718049192728,0.000912436158951499,0.0012583336407411,0.0017014000978242,0.00225799891701224,0.0029441452518579,0.00377472595311364,0.00476271852164482,0.00591858967335167,0.00725012203549866,0.00876312196492431,0.010464186619628,0.0123692621668627,0.0145264003416504,0.0170639938938997,0.0202688063973717,0.0250997798662336,0.0363798391699564,0.0718927644402242,0.215359843662109,0.535180184422296
"10",2.12076128685325e-05,3.83150924961039e-05,7.14527266490219e-05,0.00012260600401925,0.000197133840638358,0.000302466041598757,0.000448337244960927,0.000646602202375362,0.000910879432259953,0.00125620987912762,0.00169856284144987,0.0022542831950057,0.00293937103845129,0.00376870342148311,0.00475525524835677,0.00590949988781178,0.00723923807790492,0.00875030833867421,0.0104493577672263,0.0123524075046691,0.0145076254014968,0.0170435934244295,0.0202473862782208,0.0250785803308306,0.0363622497208233,0.071888822484257,0.215407186447639,0.535332358514244
"11",2.11549538650115e-05,3.822018289871e-05,7.12762980417818e-05,0.000122304526322977,0.000196651624191284,0.000301730815788733,0.000447255458040934,0.000645055161147257,0.000908720771050746,0.00125326436791751,0.00169462693740679,0.00224912748266544,0.00293274497238057,0.00376034256340184,0.00474489121684005,0.00589687315993554,0.00722411388093423,0.00873249618242939,0.0104287362060449,0.0123289590747537,0.0144814940878969,0.0170151867778434,0.0202175456880507,0.0250490317806916,0.0363377141575251,0.0718832800671516,0.215473044289027,0.535544157315725
"12",2.10838527085534e-05,3.80920279041841e-05,7.10380535433788e-05,0.000121897384297523,0.000196000327700982,0.000300737670489124,0.000445793960027519,0.000642964750135935,0.000905803368970037,0.0012492827162617,0.00168930528030054,0.00224215479438574,0.00292378129248577,0.0037490287053051,0.00473086215365889,0.00587977528857176,0.00720362650316705,0.00870835797033992,0.0104007788341307,0.0122971547680426,0.0144460339099172,0.0169766197594468,0.0201770107703899,0.0250088708189445,0.0363043385094321,0.0718756756269997,0.215562361820432,0.53583156908198
"13",2.09901070412724e-05,3.79230486666668e-05,7.07238929688991e-05,0.000121360457752842,0.0001951413186539,0.000299427607911302,0.000443865779561132,0.000640206326462398,0.000901952888562768,0.00124402640812767,0.00168227822740671,0.00223294509155289,0.00291193829949985,0.00373407575525529,0.00471231413053032,0.00585716135754174,0.00717651846539489,0.00867640528864944,0.0103637532608656,0.0122550135779121,0.0143990241275944,0.0169254634094114,0.0201232136458884,0.0249555370760687,0.0362599750242439,0.0718654736653668,0.215680696460083,0.536212595300994
"14",2.08692016128432e-05,3.7705100549132e-05,7.03186597878612e-05,0.000120667811264733,0.000194033040726932,0.000297737135014864,0.000441377266880105,0.000636645591828028,0.000896981355575347,0.00123723807110773,0.00167320057233164,0.00222104432090314,0.00289662983535155,0.00371474049818835,0.00468832102715561,0.00582789666824765,0.00714142237626731,0.00863501726629291,0.0103157700070778,0.01220037134264,0.0143380345507039,0.0168590549959623,0.0200533341654798,0.024886213132864,0.0362022535669972,0.0718520678246182,0.215834117656425,0.536706936958113
"15",2.07164475620347e-05,3.74297238661168e-05,6.98066065109978e-05,0.000119792487812547,0.000192632279994973,0.000295600188109357,0.000438230915309305,0.000632142610536506,0.000890692738761102,0.00122864904921973,0.00166171160319083,0.00220597750139412,0.00287724197637148,0.00369024348423872,0.00465791018471392,0.00579078767339874,0.0070968975640598,0.00858248317695001,0.0102548311477657,0.0121309352242774,0.0142604852602907,0.0167745617971638,0.0199643656467045,0.0247978882366706,0.0361286328328394,0.0718347885884953,0.216029053594226,0.537335511459534
"16",2.05271552185202e-05,3.70884551162446e-05,6.91719727066108e-05,0.00011870749528213,0.000190895740433391,0.000292950530498666,0.000434328881261257,0.000626556830458069,0.000882889935334631,0.00121798890296446,0.0016474477494346,0.00218726522085039,0.00285315413465335,0.00365979551422461,0.00462009504341391,0.00574462147857919,0.00704147704519273,0.00851705730633908,0.0101788932644667,0.0120443545876329,0.0141637247536633,0.0166690650726249,0.0198532019928827,0.0246874433757523,0.0360364695242569,0.071812915588602,0.216272091977663,0.53811982047046
"17",2.02968287755814e-05,3.66731777490835e-05,6.83996367931274e-05,0.000117386919666032,0.000188781823326743,0.000289724463307694,0.000429576968952792,0.000619752774899458,0.00087338270239169,0.00120499621489534,0.00163005699463627,0.00216444247641842,0.00282376321405641,0.00362262803708746,0.00457391270575517,0.00568821144443336,0.00697372192678914,0.00843702273281129,0.0100859409094128,0.0119383040611539,0.0140451219300503,0.016539659377723,0.0197167412509367,0.0245517529760266,0.0359231017577556,0.071785694128568,0.216569746791114,0.53908120577448
"18",2.00213732197005e-05,3.61764951768399e-05,6.74758095631808e-05,0.000115807110414771,0.000186252523759707,0.000285863717893675,0.000423888887557461,0.000611606132615227,0.000861996157176569,0.00118943019143345,0.00160921438263035,0.00213707898919778,0.00278850971941327,0.00357802609197501,0.00451846476119108,0.00562044690258818,0.00689228091667526,0.00834076134930145,0.00997406757335777,0.0118105754632888,0.0139021683444415,0.0163835634782395,0.0195520018333091,0.0243877996523989,0.0357859439467082,0.0717523557834768,0.21692820039482,0.540240022018142
"19",1.96973059670317e-05,3.55921124624143e-05,6.63887443142981e-05,0.000113947895223897,0.000183275376304756,0.000281318427150356,0.000417190631104689,0.000602010034214449,0.000848579554416389,0.00117108266844009,0.00158463810099086,0.00210480032945278,0.00274690498371961,0.00352536276573288,0.00445296013018813,0.00554034551762804,0.00679595324276577,0.00822682820410987,0.00984156202888673,0.0116591762944642,0.0137325883100826,0.0161982404008198,0.0193562489992807,0.0241927998344457,0.0356225915969452,0.0717121432834951,0.217353027448068,0.541614745779291
"20",1.93219679661042e-05,3.49152172894066e-05,6.51294462500383e-05,0.000111793794917187,0.00017982540354999,0.000276050106089831,0.000409424880546515,0.000590881374186338,0.000833015149156819,0.00114979026665671,0.00155610581385759,0.00206730943928524,0.00269855900608775,0.00346413455914459,0.00437675922165211,0.00544710749709076,0.0066837541082623,0.00809402923844073,0.00968699911708834,0.0114824339022176,0.0135344560560731,0.0159815259896436,0.0191271311945364,0.0239643401535808,0.0354309362705489,0.0716643405309207,0.217848903199486,0.543221027095439
"21",1.88937375101281e-05,3.41428661324535e-05,6.36923923346683e-05,0.000109335257940378,0.000175887099497294,0.000270034692056198,0.000400555504724362,0.000578167292652236,0.000815227311282212,0.00112544693451652,0.00152347157762739,0.00202440901337442,0.00264320952653383,0.00339399849993415,0.00428942050883097,0.00534017308563814,0.00655498452199157,0.00794150474168548,0.00950933786128565,0.0112791088420862,0.0133063241586595,0.0157317708953419,0.0188628318040194,0.0237005305083464,0.0352092961413422,0.0716083101315361,0.218419286292221,0.545070648800864
"22",1.84122649337124e-05,3.3274408489866e-05,6.20763229499286e-05,0.000106570019879197,0.000171456617615128,0.00026326590561852,0.000390572548124689,0.000563852377824788,0.000795192684452449,0.00109801797538287,0.00148668482850762,0.00197602672208829,0.00258075493638645,0.00331481435005485,0.0041907537674961,0.00521928864116183,0.0064093120184182,0.00776882641606229,0.00930803632248343,0.0110485284840782,0.0130473759744466,0.0154480103132014,0.0185622518949546,0.0234001898195591,0.0349565761584514,0.0715435432395063,0.219066045112136,0.5471702898757
"23",1.7878813538397e-05,3.2312103267428e-05,6.02853924602856e-05,0.000103505080091357,0.000166544953635617,0.000255760142302651,0.000379499495572652,0.000547969164944379,0.000772955008384567,0.00106756053528626,0.00144581814780993,0.00192225214359636,0.00251130253708523,0.00322670659812435,0.00408089841119359,0.00508460405292109,0.00624688992430061,0.00757614113163357,0.00908322213586347,0.0107907859290621,0.0127576532352279,0.0151302181680558,0.0182252847137543,0.023063125956589,0.0346725104825449,0.0714697372901121,0.219788901350232,0.549519677102374
"24",1.72971889156224e-05,3.12627976301692e-05,5.83322997156972e-05,0.000100162072511497,0.000161186579204468,0.000247569715449755,0.000367412894106545,0.000530626421096182,0.000748664938467929,0.00103427847417986,0.0014011413795061,0.00186343500495898,0.00243529643155274,0.00313022809907196,0.00396052941502888,0.00493692772349539,0.0060686681283409,0.00736454377554912,0.00883613273423168,0.0105072510367583,0.0124386379488732,0.0147799539048141,0.0178535108638988,0.0226908412061204,0.0343582693221133,0.0713869813273183,0.220583998998197,0.552106859318856
"25",1.66773551944347e-05,3.01444559621809e-05,5.62504527186768e-05,9.6598114357294e-05,0.00015547291369648,0.000238834118911949,0.000354518173889975,0.000512118221353325,0.00072273326163776,0.000998732979166171,0.00135340535625871,0.00180056016431414,0.00235400415377938,0.00302698063539693,0.0038316354238335,0.00477868636596328,0.00587755813809685,0.00713746908666762,0.00857075137140351,0.0102024608213271,0.0120953947840104,0.0144027323446067,0.0174527330775823,0.0222890914251672,0.0340186444988087,0.0712963885593051,0.221438607334243,0.554890816412311
"26",1.60496530745649e-05,2.90118238603086e-05,5.41417705917813e-05,9.29876997682349e-05,0.000149683735526717,0.000229981164576634,0.000341446935071207,0.000493351285097523,0.000696430626750313,0.000962666150359134,0.00130495018349457,0.00173671062156877,0.00227141282869026,0.00292202956420237,0.00370054185606461,0.00461764795457672,0.00568294436363218,0.00690607109811739,0.00830011800107132,0.00989139662343966,0.0117448007621231,0.0140171073221715,0.0170426702872775,0.0218776501585127,0.0336703602067082,0.0712024396752102,0.222310725134907,0.557734672513517
"27",1.55041217485671e-05,2.8027399648048e-05,5.23088613454218e-05,8.98491129402808e-05,0.000144650433960855,0.000222282855959923,0.000330078341130117,0.000477025358684087,0.000673543588152651,0.0009312743819941,0.00126276330347271,0.00168110266140405,0.00219945656803543,0.00283055724436243,0.003586236353969,0.00447716846859023,0.00551309273649412,0.00670400966567954,0.00806366356713832,0.0096194573896905,0.0114381150074203,0.0136795630393553,0.0166834994352372,0.0215170183131785,0.0333647781336941,0.0711193206866764,0.223073097202193,0.560222555767807
"28",1.51554003061523e-05,2.73980995440011e-05,5.11371016545246e-05,8.78425150075274e-05,0.000141432220139974,0.000217360190540729,0.000322807879405725,0.000466583199866674,0.000658902740996252,0.000911189765593502,0.00123576704624331,0.00164551093594283,0.00215339120607309,0.0027719842156797,0.00351302375618876,0.00438716667367164,0.00540424069038287,0.00657447441872731,0.00791202894646594,0.00944500488691826,0.0112412990817164,0.0134628604351901,0.0164528213526174,0.0212853037730218,0.0331683153449886,0.071065616372864,0.223562148654769,0.561819233095447
