"","X0","X1","X2","X3","X4","X5","X6","X7","X8","X9","X10","X11","X12","X13","X14","X15","X16","X17","X18","X19","X20","X21","X22","X23","X24","X25","X26","X27"
"1",0.85007773074686,0.125566131603971,0.0183953183170201,0.00481424577188567,0.000967727333118388,0.000156959953673643,1.99103742708385e-05,1.84966547459369e-06,1.20666618920711e-07,5.40221760911285e-09,1.61764076420378e-10,3.09096752894585e-12,3.40635637598161e-14,1.64794239303354e-16,0,0,0,0,0,0,0,0,0,0,0,0,0,0
"2",0.794247259603523,0.143926302398003,0.0409045727449826,0.0155116883921097,0.00431815430766529,0.000917526745391323,0.000153003568818077,1.95467863063874e-05,1.82071967768931e-06,1.19211005829791e-07,5.35835226234802e-09,1.61043907759748e-10,3.08602370176675e-12,3.40635637598161e-14,1.64794239303354e-16,0,0,0,0,0,0,0,0,0,0,0,0,0
"3",0.699543727564026,0.162639286964015,0.0768364565895946,0.0401671026692045,0.0154088083819079,0.00431274411145135,0.000917377911474096,0.000153003568818077,1.95467863063874e-05,1.82071967768931e-06,1.19211005829791e-07,5.35835226234802e-09,1.61043907759748e-10,3.08602370176675e-12,3.40635637598161e-14,1.64794239303354e-16,0,0,0,0,0,0,0,0,0,0,0,0
"4",0.585078633225801,0.167513807401991,0.110544045960667,0.0759981921114043,0.0400521126051001,0.015408594868285,0.00431274010695133,0.000917377911474096,0.000153003568818077,1.95467863063874e-05,1.82071967768931e-06,1.19211005829791e-07,5.35835226234802e-09,1.61043907759748e-10,3.08602370176675e-12,3.40635637598161e-14,1.64794239303354e-16,0,0,0,0,0,0,0,0,0,0,0
"5",0.469688368088941,0.15713818372168,0.127820637838167,0.108746804370262,0.0757406869055349,0.0400521103803778,0.015408594868285,0.00431274010695133,0.000917377911474096,0.000153003568818077,1.95467863063874e-05,1.82071967768931e-06,1.19211005829791e-07,5.35835226234802e-09,1.61043907759748e-10,3.08602370176675e-12,3.40635637598161e-14,1.64794239303354e-16,0,0,0,0,0,0,0,0,0,0
"6",0.362783627406048,0.139535236325549,0.127717106956941,0.124970297580677,0.108387725749835,0.0757406869055349,0.0400521103803778,0.015408594868285,0.00431274010695133,0.000917377911474096,0.000153003568818077,1.95467863063874e-05,1.82071967768931e-06,1.19211005829791e-07,5.35835226234802e-09,1.61043907759748e-10,3.08602370176675e-12,3.40635637598161e-14,1.64794239303354e-16,0,0,0,0,0,0,0,0,0
"7",0.267818669376571,0.120132159291054,0.118497183069185,0.123902307177814,0.124655949354592,0.108387725749835,0.0757406869055349,0.0400521103803778,0.015408594868285,0.00431274010695133,0.000917377911474096,0.000153003568818077,1.95467863063874e-05,1.82071967768931e-06,1.19211005829791e-07,5.35835226234802e-09,1.61043907759748e-10,3.08602370176675e-12,3.40635637598161e-14,1.64794239303354e-16,0,0,0,0,0,0,0,0
"8",0.188160371083804,0.0993437866643115,0.105524718408581,0.113609395460821,0.123712047297105,0.124655949354592,0.108387725749835,0.0757406869055349,0.0400521103803778,0.015408594868285,0.00431274010695133,0.000917377911474096,0.000153003568818077,1.95467863063874e-05,1.82071967768931e-06,1.19211005829791e-07,5.35835226234802e-09,1.61043907759748e-10,3.08602370176675e-12,3.40635637598161e-14,1.64794239303354e-16,0,0,0,0,0,0,0
"9",0.126091051513356,0.0776577722139265,0.0894995599233654,0.0998679235876937,0.113521964379177,0.123712047297105,0.124655949354592,0.108387725749835,0.0757406869055349,0.0400521103803778,0.015408594868285,0.00431274010695133,0.000917377911474096,0.000153003568818077,1.95467863063874e-05,1.82071967768931e-06,1.19211005829791e-07,5.35835226234802e-09,1.61043907759748e-10,3.08602370176675e-12,3.40635637598161e-14,1.64794239303354e-16,0,0,0,0,0,0
"10",0.080697749492142,0.0571974780985636,0.0714356880186403,0.0839528371110798,0.0998325545179154,0.113521964379177,0.123712047297105,0.124655949354592,0.108387725749835,0.0757406869055349,0.0400521103803778,0.015408594868285,0.00431274010695133,0.000917377911474096,0.000153003568818077,1.95467863063874e-05,1.82071967768931e-06,1.19211005829791e-07,5.35835226234802e-09,1.61043907759748e-10,3.08602370176675e-12,3.40635637598161e-14,1.64794239303354e-16,0,0,0,0,0
"11",0.0490704548782001,0.0398451625512444,0.053694585731217,0.0667334904118556,0.0839400591479088,0.0998325545179154,0.113521964379177,0.123712047297105,0.124655949354592,0.108387725749835,0.0757406869055349,0.0400521103803778,0.015408594868285,0.00431274010695133,0.000917377911474096,0.000153003568818077,1.95467863063874e-05,1.82071967768931e-06,1.19211005829791e-07,5.35835226234802e-09,1.61043907759748e-10,3.08602370176675e-12,3.40635637598161e-14,1.64794239303354e-16,0,0,0,0
"12",0.0283698118093981,0.02624514703307,0.0380956406594118,0.0499033411865422,0.0667297528840949,0.0839400591479088,0.0998325545179154,0.113521964379177,0.123712047297105,0.124655949354592,0.108387725749835,0.0757406869055349,0.0400521103803778,0.015408594868285,0.00431274010695133,0.000917377911474096,0.000153003568818077,1.95467863063874e-05,1.82071967768931e-06,1.19211005829791e-07,5.35835226234802e-09,1.61043907759748e-10,3.08602370176675e-12,3.40635637598161e-14,1.64794239303354e-16,0,0,0
"13",0.0158238681023607,0.0164545514708377,0.0254284106239082,0.0350045704297953,0.0499025400615202,0.0667297528840949,0.0839400591479088,0.0998325545179154,0.113521964379177,0.123712047297105,0.124655949354592,0.108387725749835,0.0757406869055349,0.0400521103803778,0.015408594868285,0.00431274010695133,0.000917377911474096,0.000153003568818077,1.95467863063874e-05,1.82071967768931e-06,1.19211005829791e-07,5.35835226234802e-09,1.61043907759748e-10,3.08602370176675e-12,3.40635637598161e-14,1.64794239303354e-16,0,0
"14",0.00863500920995297,0.0100044517704641,0.0160862620917854,0.022981218491353,0.0350044590633465,0.0499025400615202,0.0667297528840949,0.0839400591479088,0.0998325545179154,0.113521964379177,0.123712047297105,0.124655949354592,0.108387725749835,0.0757406869055349,0.0400521103803778,0.015408594868285,0.00431274010695133,0.000917377911474096,0.000153003568818077,1.95467863063874e-05,1.82071967768931e-06,1.19211005829791e-07,5.35835226234802e-09,1.61043907759748e-10,3.08602370176675e-12,3.40635637598161e-14,1.64794239303354e-16,0
"15",0.00458993443496989,0.00596360806424643,0.00985189335856208,0.0143202962279198,0.0229812094778572,0.0350044590633465,0.0499025400615202,0.0667297528840949,0.0839400591479088,0.0998325545179154,0.113521964379177,0.123712047297105,0.124655949354592,0.108387725749835,0.0757406869055349,0.0400521103803778,0.015408594868285,0.00431274010695133,0.000917377911474096,0.000153003568818077,1.95467863063874e-05,1.82071967768931e-06,1.19211005829791e-07,5.35835226234802e-09,1.61043907759748e-10,3.08602370176675e-12,3.40635637598161e-14,1.64794239303354e-16
"16",0.00234275496926612,0.00343914569353475,0.0059087418167745,0.0087147935804505,0.0143202960256723,0.0229812094778572,0.0350044590633465,0.0499025400615202,0.0667297528840949,0.0839400591479088,0.0998325545179154,0.113521964379177,0.123712047297105,0.124655949354592,0.108387725749835,0.0757406869055349,0.0400521103803778,0.015408594868285,0.00431274010695133,0.000917377911474096,0.000153003568818077,1.95467863063874e-05,1.82071967768931e-06,1.19211005829791e-07,5.35835226234802e-09,1.61043907759748e-10,3.08602370176675e-12,3.42283579991194e-14
"17",0.00114472297557488,0.00187960836259665,0.00342114153305497,0.00524516960834885,0.0087147935804505,0.0143202960256723,0.0229812094778572,0.0350044590633465,0.0499025400615202,0.0667297528840949,0.0839400591479088,0.0998325545179154,0.113521964379177,0.123712047297105,0.124655949354592,0.108387725749835,0.0757406869055349,0.0400521103803779,0.0154085948682851,0.00431274010695148,0.000917377911474296,0.000153003568818275,1.9546786306665e-05,1.82071967768682e-06,1.19211006009567e-07,5.35835267897068e-09,1.61043959480884e-10,3.11851208942102e-12
"18",0.000534142395649589,0.000971058234068813,0.00187405262135191,0.0030662196201562,0.00524516960834885,0.0087147935804505,0.0143202960256723,0.0229812094778572,0.0350044590633466,0.0499025400615201,0.0667297528840953,0.0839400591479093,0.0998325545179161,0.113521964379179,0.123712047297109,0.124655949354598,0.108387725749838,0.0757406869055514,0.0400521103804072,0.0154085948683166,0.00431274010699475,0.000917377911516977,0.000153003568874782,1.95467863088253e-05,1.82071971681146e-06,1.19211087529266e-07,5.3583536580062e-09,1.63802155886e-10
"19",0.000235744182575471,0.000473959488351037,0.000969565028478665,0.00169998455166513,0.00306621962015627,0.00524516960834879,0.00871479358045103,0.0143202960256731,0.0229812094778644,0.0350044590633464,0.0499025400615533,0.0667297528841501,0.0839400591479843,0.0998325545181676,0.113521964379513,0.123712047297675,0.124655949355036,0.108387725751469,0.075740686908344,0.0400521103834094,0.0154085948723969,0.00431274011100656,0.000917377916526269,0.000153003569323225,1.95467900197308e-05,1.82072662462668e-06,1.19210254693382e-07,5.48963380249407e-09
"20",9.80134664928248e-05,0.000216745773378419,0.000473650438310454,0.000890859021223478,0.00169998455167034,0.00306621962015108,0.00524516960839046,0.00871479358050837,0.0143202960260576,0.022981209478027,0.0350044590652335,0.0499025400647876,0.0667297528887906,0.0839400591621789,0.0998325545370202,0.113521964410549,0.123712047326942,0.124655949446882,0.108387725903235,0.0757406870717178,0.0400521106030203,0.0154085950876905,0.00431274036429317,0.000917377953227908,0.000153003770168084,1.95471218434417e-05,1.82063431281722e-06,1.23023896199232e-07
"21",3.86663707501378e-05,9.25669757861965e-05,0.000216703275833416,0.000440473055812265,0.000890859021451884,0.00169998455144537,0.00306621962198218,0.00524516961091516,0.00871479359346205,0.0143202960371842,0.0229812095451404,0.0350044591836359,0.0499025402411162,0.0667297533897281,0.083940059828276,0.0998325556041164,0.113521965582265,0.123712050562709,0.124655954625615,0.108387731485585,0.075740694497828,0.0400521178625343,0.0154086031343898,0.00431274200541922,0.000917384777913666,0.000153013715104069,1.95424892814557e-05,1.88935471657387e-06
"22",1.4353580620556e-05,3.72704718213588e-05,9.25635420783345e-05,0.00020374902787375,0.000440473061899383,0.000890859015625976,0.00169998460042802,0.00306621968986034,0.00524516989691236,0.00871479395390433,0.0143202975885787,0.0229812123462452,0.0350044634790148,0.0499025517330601,0.0667297686904272,0.0839400837839917,0.099832585201745,0.11352203970963,0.123712165902796,0.124656079131348,0.108387895485684,0.0757408543683789,0.0400522851258613,0.0154086475109308,0.00431289325507259,0.000917578286031915,0.000152880734078271,2.0280826099571e-05
"23",4.81375397556654e-06,1.40491638482673e-05,3.7270394979348e-05,8.80542827446777e-05,0.000203749129738748,0.00044047297104966,0.000890859842032226,0.00169998575889259,0.00306622390914969,0.00524517667048498,0.00871481763078466,0.0143203410866695,0.0229812806400015,0.0350046373102174,0.049902783601107,0.0667301254173308,0.0839405657729104,0.0998337052686975,0.113523740659263,0.1237140051584,0.124658478698236,0.108390227669307,0.0757431698265919,0.0400530396607017,0.0154108620111679,0.00431537950562856,0.000915237040075793,0.000156947166011065
"24",1.47083643100625e-06,4.7615585480114e-06,1.40491694444823e-05,3.58517763430541e-05,8.80553788571483e-05,0.000203748327408271,0.000440482004515635,0.00089087284691946,0.0017000284749453,0.00306630340850775,0.00524541977349104,0.00871526903462854,0.014321064063711,0.0229830409777541,0.0350069935350278,0.0499063734265918,0.0667352895733213,0.0839518964726817,0.0998505614930541,0.11354201147296,0.123737598740744,0.12468132584171,0.108411986932963,0.0757514486166734,0.040074678844573,0.0154322819940789,0.00428913477682512,0.00091800064728853
"25",4.14051814389885e-07,1.4646169640128e-06,4.76167257195854e-06,1.36417830434375e-05,3.58600629648923e-05,8.80526804600066e-05,0.000203817913542934,0.000440588448836839,0.000891195926520112,0.00170067722338424,0.00306810601919492,0.00524877654623249,0.00872074446678024,0.0143337488744291,0.0230001626682962,0.0350330902427725,0.0499454193994187,0.0668166491126264,0.0840705459702453,0.0999796095059931,0.11370631346073,0.123895807830925,0.124827859065353,0.108474535711413,0.0758983543009715,0.0402018937716806,0.0152301944692258,0.00416771420360707
"26",1.0210815444006e-07,4.13935038177027e-07,1.46633803437368e-06,4.66622897684299e-06,1.36958335120311e-05,3.58834947734998e-05,8.85023995675736e-05,0.000204579453143372,0.000442699754505981,0.000895615085279954,0.00171176051168213,0.00308867689988756,0.00528287027752218,0.00879441355064299,0.0144350404284253,0.0231558091770359,0.0352727453410596,0.0504117320955082,0.067478376449627,0.0847926549886402,0.100877308431383,0.114562628213253,0.124669114162068,0.125196438566632,0.109221629760484,0.0764128000410466,0.0389673136437455,0.0139810628303674
"27",2.0572954031859e-08,1.05169743846708e-07,4.27856700903849e-07,1.49496426199224e-06,4.95009653007227e-06,1.40133797239657e-05,3.81826622415675e-05,9.27512822838904e-05,0.00021549571237182,0.000466135365166283,0.000949313942436464,0.00181094637806278,0.00325490976251695,0.00561758150092649,0.0092649184847252,0.0151646890990623,0.0243047351208,0.0373515114879795,0.053271226678109,0.0706061670532058,0.0885684624538301,0.104437522212835,0.117687114877543,0.126334841883368,0.128005940686534,0.110437839635556,0.0705756531954502,0.0315230484850772
"28",3.15255071473148e-09,2.36944820996012e-08,1.28034433243036e-07,5.12264657069688e-07,2.07051875551201e-06,5.52731647700106e-06,1.92576036500335e-05,4.7631330125429e-05,0.000117630684770203,0.000271540990198362,0.000594497097000696,0.00118843965956159,0.00222129624703422,0.00407698379087434,0.00676002772438634,0.0110335442040185,0.0180448447623301,0.0295342593092945,0.0445221713386102,0.0611841556684088,0.0801629815094721,0.0975602769598014,0.112155228804362,0.122254168247025,0.133960082955211,0.131001167195341,0.0950981984473039,0.0481833504898621
