"","V1","V2","V3","V4","V5","V6","V7","V8","V9","V10","V11","V12","V13","V14","V15","V16","V17","V18","V19","V20","V21","V22","V23","V24","V25","V26","V27","V28","V29","V30","V31"
"00:00-00:15",0,0,0,0,0,0,0,0,0,0,0,0,0,0,0,0,0,0,0,0,0,0,0,0,0,0,0,0,0,0,0
"00:15-00:30",0,0,0,0,0,0,0,0,0,0,0,0,0,0,0,0,0,0,0,0,0,0,0,0,0,0,0,0,0,0,0
"00:30-00:45",0,0,0,0,0,0,0,0,0,0,0,0,0,0,0,0,0,0,0,0,0,0,0,0,0,0,0,0,0,0,0
"00:45-01:00",0,0,0,0,0,0,0,0,0,0,0,1,0,0,0,0,0,0,0,0,0,0,0,0,0,0,0,0,0,0,0
"01:00-01:15",0,0,0,0,0,0,0,0,0,0,0,0,0,0,0,0,0,0,0,0,0,0,0,0,0,0,0,0,0,0,0
"01:15-01:30",0,0,0,0,0,0,0,0,0,0,0,0,0,0,0,0,0,0,0,0,0,0,0,0,0,0,0,0,0,0,0
"01:30-01:45",0,0,0,0,0,0,0,0,0,0,0,0,0,0,0,0,0,0,0,0,0,0,0,0,0,0,0,0,0,0,0
"01:45-02:00",0,0,0,0,0,0,0,0,0,0,0,0,0,0,0,0,0,0,0,0,0,0,0,0,0,0,0,0,0,0,0
"02:00-02:15",0,0,0,0,0,0,0,0,0,0,0,0,0,0,0,0,0,0,0,0,0,0,0,0,0,0,0,0,0,0,0
"02:15-02:30",0,0,0,0,0,0,0,0,0,0,0,0,0,0,0,0,0,0,0,0,0,0,0,0,0,0,0,0,0,0,0
"02:30-02:45",0,0,0,0,0,0,0,0,0,0,0,0,0,0,0,0,0,0,0,0,0,0,0,0,0,0,0,0,0,0,0
"02:45-03:00",0,0,0,0,0,0,0,0,0,0,0,0,0,0,0,0,0,0,0,0,0,0,0,0,0,0,0,0,0,0,0
"03:00-03:15",0,0,0,0,0,0,0,0,0,0,0,0,0,0,0,0,0,0,0,0,0,0,0,0,0,0,0,0,0,0,0
"03:15-03:30",0,0,0,0,0,0,0,0,0,0,0,0,0,0,0,0,0,0,0,0,0,0,0,0,0,0,0,0,0,0,0
"03:30-03:45",0,0,0,0,0,0,0,0,0,0,0,0,0,0,0,0,0,0,0,0,0,0,0,0,0,0,0,0,0,0,0
"03:45-04:00",0,0,0,0,0,0,0,0,0,0,0,0,0,0,0,0,0,0,0,0,0,0,0,0,0,0,0,0,0,0,0
"04:00-04:15",0,0,0,0,0,0,0,0,0,0,0,0,0,0,0,0,0,0,0,0,0,0,0,0,0,0,0,0,0,0,0
"04:15-04:30",0,0,0,0,0,0,0,0,0,0,0,0,0,0,0,0,0,0,0,0,0,0,0,0,0,0,0,0,0,0,0
"04:30-04:45",0,0,0,0,0,0,0,0,0,0,0,0,0,0,0,0,0,0,0,0,0,0,0,0,0,0,0,0,0,0,0
"04:45-05:00",0,0,0,0,0,0,0,0,0,0,0,0,0,0,0,0,0,0,0,0,0,0,0,0,0,0,0,0,0,0,0
"05:00-05:15",0,0,0,0,0,0,0,0,0,0,0,0,0,0,0,0,0,0,0,0,0,0,0,0,0,0,0,0,0,0,0
"05:15-05:30",0,0,0,0,0,0,0,0,0,0,0,0,0,0,0,0,0,0,0,0,0,0,0,0,0,0,0,0,0,0,0
"05:30-05:45",0,0,0,0,0,0,0,0,0,0,0,0,0,0,0,0,0,0,0,0,0,0,0,0,0,0,0,0,0,0,0
"05:45-06:00",0,0,0,0,0,0,0,0,0,0,0,0,0,0,0,0,0,1,0,0,0,0,0,0,0,0,0,0,0,0,0
"06:00-06:15",0,1,1,0,0,0,0,0,0,0,0,0,0,0,0,0,0,0,0,0,0,0,0,0,0,0,0,0,0,0,0
"06:15-06:30",0,0,0,0,0,0,0,0,1,1,0,0,0,1,0,1,0,0,0,0,0,1,0,0,0,0,0,0,0,0,0
"06:30-06:45",0,0,0,0,0,0,0,0,0,0,0,0,0,0,1,0,0,0,0,0,0,1,0,0,0,0,0,1,1,0,0
"06:45-07:00",0,0,0,0,0,0,0,0,0,0,0,0,0,0,0,0,0,0,0,0,0,0,0,0,0,0,0,0,0,0,0
"07:00-07:15",0,0,1,0,0,0,0,1,1,0,0,0,0,1,0,1,0,0,0,0,0,1,1,0,0,0,0,0,1,0,0
"07:15-07:30",1,0,2,-1,1,0,0,0,0,0,0,0,0,-1,-1,-1,-1,1,1,0,0,0,0,0,0,0,0,1,0,1,0
"07:30-07:45",0,0,0,0,0,0,0,0,0,0,0,0,0,0,0,0,1,0,0,0,-1,0,0,0,0,0,0,-1,0,-1,-1
"07:45-08:00",0,0,0,0,-1,0,0,-1,0,0,0,0,0,0,0,0,0,0,1,0,0,0,0,0,0,0,0,0,0,-1,-1
"08:00-08:15",1,0,0,2,1,0,0,0,0,0,0,0,0,0,0,0,0,0,-1,0,0,0,0,0,0,0,0,0,1,1,2
"08:15-08:30",-1,0,1,0,0,0,1,2,1,1,0,0,0,1,-1,2,2,0,0,0,0,-1,-1,1,0,0,0,1,1,-1,0
"08:30-08:45",0,0,0,-1,0,0,-1,-2,0,-1,0,0,0,0,1,0,0,-1,0,0,0,0,0,0,0,-1,0,0,-1,-1,0
"08:45-09:00",-1,-1,0,0,-1,0,0,0,1,-1,-2,0,0,-1,-1,-1,-2,-2,0,0,0,-1,-1,0,0,0,0,1,0,-2,-1
"09:00-09:15",0,0,-1,0,0,0,2,-1,1,1,0,0,0,-1,1,0,1,1,0,0,0,0,-1,0,0,0,0,-1,0,1,0
"09:15-09:30",0,0,0,0,0,0,-2,0,0,0,0,0,0,0,0,1,0,1,0,0,0,0,0,0,0,0,0,0,1,-2,1
"09:30-09:45",1,0,1,2,0,-1,0,1,1,1,0,0,0,0,1,0,0,-1,2,0,0,0,0,0,0,0,0,0,1,0,2
"09:45-10:00",1,2,1,0,0,0,2,-1,0,0,2,0,0,1,0,1,0,0,0,0,0,0,0,0,0,0,0,0,2,1,1
"10:00-10:15",2,1,1,0,0,1,1,1,1,2,-2,0,0,1,1,1,0,1,1,1,0,0,1,0,0,0,0,0,0,0,1
"10:15-10:30",0,1,2,0,0,0,0,0,-1,-1,-1,0,0,0,0,1,2,0,0,0,0,0,0,0,0,0,0,1,2,1,1
"10:30-10:45",0,0,1,-1,0,0,0,0,0,0,0,0,-1,-1,0,1,1,0,0,0,0,1,0,0,0,0,0,0,2,2,1
"10:45-11:00",2,1,0,0,0,0,0,0,0,0,1,0,0,0,0,0,2,0,0,0,0,1,0,0,0,0,0,0,0,-1,1
"11:00-11:15",1,-1,1,0,0,0,0,0,-1,0,1,0,0,0,0,-1,1,0,0,0,0,0,0,0,0,0,0,0,0,-1,0
"11:15-11:30",0,-1,1,0,0,0,1,0,0,0,-1,0,0,1,1,1,1,0,0,0,0,-1,0,0,0,0,0,1,1,0,-1
"11:30-11:45",0,-1,0,1,0,0,0,0,0,0,0,0,0,0,0,1,2,0,0,0,0,-2,0,0,0,0,0,0,-1,0,1
"11:45-12:00",0,0,0,0,0,-3,1,0,0,1,0,0,0,0,-1,-1,-1,0,0,0,0,-2,1,0,0,0,0,0,0,2,1
"12:00-12:15",0,0,0,0,-1,0,0,0,-1,0,0,0,0,0,0,0,1,0,0,0,-1,1,0,0,0,0,0,0,0,-1,0
"12:15-12:30",0,-3,-1,0,1,0,0,3,0,0,0,0,0,0,2,0,0,-3,0,0,0,0,0,0,0,0,0,0,0,0,0
"12:30-12:45",0,0,0,0,0,0,0,-1,0,-1,0,0,0,0,-1,0,1,-2,0,0,0,0,4,0,0,0,1,0,0,0,0
"12:45-13:00",1,0,-4,0,0,0,0,0,0,0,0,0,0,-1,-1,-1,0,1,0,0,0,0,2,0,0,0,0,-2,1,0,0
"13:00-13:15",0,-1,0,0,-1,0,1,0,0,-1,0,0,0,-1,0,-1,0,0,0,0,0,-1,-2,0,0,-1,-1,0,0,0,0
"13:15-13:30",0,1,0,0,0,0,0,0,0,-1,0,0,0,1,0,0,1,1,0,0,0,1,-1,-1,0,0,0,0,-1,0,1
"13:30-13:45",-1,0,0,-1,0,0,0,0,0,0,1,0,0,0,0,0,0,1,0,0,0,0,-1,1,0,1,0,0,0,0,0
"13:45-14:00",-1,0,-2,0,1,0,-1,0,-1,0,0,-1,0,0,-1,0,-1,0,0,0,0,0,1,0,0,0,0,0,1,-1,0
"14:00-14:15",1,1,2,1,0,0,2,2,0,1,2,0,0,2,-1,4,0,-1,0,0,0,0,1,0,0,0,0,1,1,0,2
"14:15-14:30",-2,0,1,2,0,0,1,0,0,0,0,1,0,-2,-1,-2,2,1,0,0,0,0,-2,0,0,0,0,-2,-2,0,0
"14:30-14:45",-1,0,-1,0,1,0,1,1,1,0,0,-1,0,0,0,1,1,-1,0,0,0,0,0,0,0,0,0,1,0,1,0
"14:45-15:00",0,1,3,0,0,0,3,-2,0,1,-1,0,0,2,-1,0,-2,0,0,0,0,-1,2,0,0,0,0,0,0,0,0
"15:00-15:15",-1,0,0,0,0,0,1,3,-1,0,0,0,0,2,2,-2,1,1,0,0,0,-1,-1,0,0,0,0,0,-2,3,0
"15:15-00:30",0,0,-1,1,0,0,-1,1,1,1,-1,0,0,-1,1,1,1,0,0,0,0,0,0,0,0,0,0,0,3,-1,0
"15:30-15:45",0,-2,0,0,0,0,0,0,-1,-1,0,0,0,0,1,-1,0,1,0,0,0,-1,0,0,0,0,0,0,-1,0,2
"15:45-16:00",-1,0,0,-2,0,0,-1,1,0,-1,0,0,0,1,-2,-1,0,1,0,0,0,0,-1,0,0,0,0,-1,0,1,0
"16:00-16:15",-2,0,-1,-1,1,0,2,-1,1,0,-2,0,0,-1,0,0,0,-1,0,0,0,0,0,0,0,0,0,-1,-1,0,-1
"16:15-16:30",0,0,1,1,0,0,0,1,0,0,0,0,0,0,0,-1,0,0,0,0,0,0,0,0,0,0,0,0,0,1,3
"16:30-16:45",0,0,0,-1,0,0,-2,0,1,0,1,0,0,-1,0,1,0,1,0,0,0,0,-1,0,0,0,0,0,0,0,0
"16:45-17:00",-1,0,-1,1,0,0,0,0,0,0,0,0,-1,0,0,0,0,-1,0,0,0,-1,0,0,0,0,0,-1,0,-1,0
"17:00-17:15",0,0,0,1,0,0,1,0,0,0,0,0,0,0,0,-1,0,0,0,0,0,2,1,0,0,0,0,-1,-1,0,1
"17:15-17:30",0,-2,0,0,0,0,-1,-1,0,1,0,0,0,1,-1,1,0,0,0,0,0,0,0,-1,0,0,0,0,0,0,0
"17:30-17:45",0,0,-1,0,0,0,2,-1,0,0,0,0,0,-1,-2,0,-1,0,0,0,0,0,0,0,0,0,0,-1,-1,-1,0
"17:45-18:00",0,2,2,-1,0,1,0,0,0,0,2,0,0,0,0,-1,-1,0,0,0,0,0,-1,0,0,0,0,0,0,0,1
"18:00-18:15",0,-2,-1,-1,0,0,-3,-1,-2,-1,-1,0,0,-3,-2,-2,0,0,0,0,0,-1,0,0,0,0,0,-1,0,-1,-1
"18:15-18:30",-3,1,4,0,0,0,0,-2,0,0,0,0,0,0,-3,0,-1,0,0,0,0,0,0,0,0,0,0,0,0,-1,0
"18:30-18:45",-1,0,-2,0,0,0,1,-2,1,-2,0,0,1,2,0,0,-2,0,0,0,0,-2,0,0,0,0,0,1,0,-1,0
"18:45-19:00",-1,1,-1,0,0,0,1,0,-1,1,1,-1,0,1,-1,0,-3,0,0,0,0,-1,-1,0,0,0,-1,0,0,-1,-1
"19:00-19:15",0,0,-2,0,0,1,-1,0,0,-1,0,0,0,-1,0,0,0,-2,0,0,0,-1,0,0,0,0,1,0,0,0,-2
"19:15-19:30",0,0,-1,1,0,-1,1,-1,0,-2,0,1,0,0,3,1,0,-1,0,0,0,0,0,0,0,0,0,-1,0,0,1
"19:30-19:45",0,0,1,0,0,0,-1,0,0,-1,1,0,0,0,0,1,-1,-1,0,0,0,-1,0,0,0,0,0,0,0,-1,0
"19:45-20:00",0,0,0,0,0,0,1,0,0,1,0,0,0,0,0,0,0,0,0,0,0,0,0,0,0,0,0,-1,0,0,0
"20:00-20:15",2,0,0,0,0,0,0,0,0,0,0,0,0,0,0,0,0,0,0,0,0,-2,0,0,0,0,0,0,-2,0,0
"20:15-20:30",-1,0,0,0,0,0,-1,1,0,0,0,0,0,0,1,0,0,-2,0,0,0,1,0,0,0,0,0,0,0,0,0
"20:30-20:45",-1,0,0,0,0,0,0,0,0,0,0,0,0,0,0,0,0,0,0,0,0,0,0,0,0,0,0,-1,0,0,0
"20:45-21:00",0,0,1,0,0,0,0,1,0,0,0,0,0,0,0,0,1,0,0,0,0,0,0,0,0,0,0,1,0,0,0
"21:00-21:15",0,0,-1,0,0,0,0,0,0,0,0,0,0,1,0,0,0,0,0,0,0,0,0,0,0,0,0,-1,-1,0,0
"21:15-21:30",0,0,0,0,0,0,0,0,0,0,0,0,0,0,0,0,-1,0,0,0,0,0,0,0,0,0,0,0,0,0,0
"21:30-21:45",0,0,0,0,0,0,0,0,0,0,0,0,0,-1,0,0,-1,0,0,0,0,0,0,0,0,0,0,0,0,0,0
"21:45-22:00",0,0,0,0,0,0,0,0,0,0,0,-1,0,0,0,-1,0,0,0,0,0,0,0,0,0,0,0,0,0,0,0
"22:00-22:15",0,0,0,-1,0,0,0,0,0,0,0,0,0,0,0,0,0,0,0,0,0,0,0,0,0,0,0,0,0,0,0
"22:15-22:30",0,0,0,0,0,0,0,0,0,0,0,0,0,0,0,0,0,0,0,0,0,0,0,0,0,0,0,0,0,0,0
"22:30-22:45",0,0,0,0,0,0,0,0,0,0,0,0,0,0,0,0,0,0,0,0,0,0,0,0,0,0,0,0,-2,0,0
"22:45-23:00",0,0,0,0,0,0,0,0,0,0,1,0,0,0,0,0,0,0,0,0,0,0,0,0,0,0,0,0,0,0,0
"23:00-23:15",0,0,0,0,0,0,0,0,0,0,0,0,0,0,0,0,0,0,0,0,0,0,0,0,0,0,0,0,0,0,-2
"23:15-23:30",0,-1,0,0,0,0,0,0,0,0,0,0,0,0,0,0,0,0,0,0,0,0,0,0,0,0,0,0,0,0,0
"23:30-23:45",0,0,0,0,0,0,0,0,0,0,0,0,0,0,0,0,0,0,0,0,0,0,0,0,0,0,0,0,0,0,0
"23:45-00:00",0,0,0,0,0,0,0,0,0,0,0,0,0,0,0,0,0,0,0,0,0,0,0,0,0,0,0,0,-1,0,0
