"","X0","X1","X2","X3","X4","X5","X6","X7","X8","X9","X10","X11","X12","X13","X14","X15","X16","X17","X18","X19","X20","X21","X22","X23","X24"
"1",0.876103521197677,0.000973448356886306,0.117854385552684,6.71343694404349e-05,0.00493437615387197,0,6.71343694404349e-05,0,0,0,0,0,0,0,0,0,0,0,0,0,0,0,0,0,0
"2",0.0574334530562921,0.818670068141385,0.00590782451075828,0.112920009398812,0.00013426873888087,0.00486724178443154,0,6.71343694404349e-05,0,0,0,0,0,0,0,0,0,0,0,0,0,0,0,0,0
"3",0.000973448356886306,0.0564600046994058,0.818737202510825,0.00584069014131784,0.112920009398812,0.00013426873888087,0.00486724178443154,0,6.71343694404349e-05,0,0,0,0,0,0,0,0,0,0,0,0,0,0,0,0
"4",0,0.000973448356886306,0.0564600046994058,0.818737202510825,0.00584069014131784,0.112920009398812,0.00013426873888087,0.00486724178443154,0,6.71343694404349e-05,0,0,0,0,0,0,0,0,0,0,0,0,0,0,0
"5",0,0,0.000973448356886306,0.0564600046994058,0.818737202510825,0.00584069014131784,0.112920009398812,0.00013426873888087,0.00486724178443154,0,6.71343694404349e-05,0,0,0,0,0,0,0,0,0,0,0,0,0,0
"6",0,0,0,0.000973448356886306,0.0564600046994058,0.818737202510825,0.00584069014131784,0.112920009398812,0.00013426873888087,0.00486724178443154,0,6.71343694404349e-05,0,0,0,0,0,0,0,0,0,0,0,0,0
"7",0,0,0,0,0.000973448356886306,0.0564600046994058,0.818737202510825,0.00584069014131784,0.112920009398812,0.00013426873888087,0.00486724178443154,0,6.71343694404349e-05,0,0,0,0,0,0,0,0,0,0,0,0
"8",0,0,0,0,0,0.000973448356886306,0.0564600046994058,0.818737202510825,0.00584069014131784,0.112920009398812,0.00013426873888087,0.00486724178443154,0,6.71343694404349e-05,0,0,0,0,0,0,0,0,0,0,0
"9",0,0,0,0,0,0,0.000973448356886306,0.0564600046994058,0.818737202510825,0.00584069014131784,0.112920009398812,0.00013426873888087,0.00486724178443154,0,6.71343694404349e-05,0,0,0,0,0,0,0,0,0,0
"10",0,0,0,0,0,0,0,0.000973448356886306,0.0564600046994058,0.818737202510825,0.00584069014131784,0.112920009398812,0.00013426873888087,0.00486724178443154,0,6.71343694404349e-05,0,0,0,0,0,0,0,0,0
"11",0,0,0,0,0,0,0,0,0.000973448356886306,0.0564600046994058,0.818737202510825,0.00584069014131784,0.112920009398812,0.00013426873888087,0.00486724178443154,0,6.71343694404349e-05,0,0,0,0,0,0,0,0
"12",0,0,0,0,0,0,0,0,0,0.000973448356886306,0.0564600046994058,0.818737202510825,0.00584069014131784,0.112920009398812,0.00013426873888087,0.00486724178443154,0,6.71343694404349e-05,0,0,0,0,0,0,0
"13",0,0,0,0,0,0,0,0,0,0,0.000973448356886306,0.0564600046994058,0.818737202510825,0.00584069014131784,0.112920009398812,0.00013426873888087,0.00486724178443154,0,6.71343694404349e-05,0,0,0,0,0,0
"14",0,0,0,0,0,0,0,0,0,0,0,0.000973448356886306,0.0564600046994058,0.818737202510825,0.00584069014131784,0.112920009398812,0.00013426873888087,0.00486724178443154,0,6.71343694404349e-05,0,0,0,0,0
"15",0,0,0,0,0,0,0,0,0,0,0,0,0.000973448356886306,0.0564600046994058,0.818737202510825,0.00584069014131784,0.112920009398812,0.00013426873888087,0.00486724178443154,0,6.71343694404349e-05,0,0,0,0
"16",0,0,0,0,0,0,0,0,0,0,0,0,0,0.000973448356886306,0.0564600046994058,0.818737202510825,0.00584069014131784,0.112920009398812,0.00013426873888087,0.00486724178443154,0,6.71343694404349e-05,0,0,0
"17",0,0,0,0,0,0,0,0,0,0,0,0,0,0,0.000973448356886306,0.0564600046994058,0.818737202510825,0.00584069014131784,0.112920009398812,0.00013426873888087,0.00486724178443154,0,6.71343694404349e-05,0,0
"18",0,0,0,0,0,0,0,0,0,0,0,0,0,0,0,0.000973448356886306,0.0564600046994058,0.818737202510825,0.00584069014131784,0.112920009398812,0.00013426873888087,0.00486724178443154,0,6.71343694404349e-05,0
"19",0,0,0,0,0,0,0,0,0,0,0,0,0,0,0,0,0.000973448356886306,0.0564600046994058,0.818737202510825,0.00584069014131784,0.112920009398812,0.00013426873888087,0.00486724178443154,0,6.71343694404349e-05
"20",0,0,0,0,0,0,0,0,0,0,0,0,0,0,0,0,0,0.000973448356886306,0.0564600046994058,0.818737202510825,0.00584069014131784,0.112920009398812,0.00013426873888087,0.00493437615387197,0
"21",0,0,0,0,0,0,0,0,0,0,0,0,0,0,0,0,0,0,0.000973448356886306,0.0564600046994058,0.818737202510825,0.00584069014131784,0.112920009398812,0.00013426873888087,0.00493437615387197
"22",0,0,0,0,0,0,0,0,0,0,0,0,0,0,0,0,0,0,0,0.000973448356886306,0.0564600046994058,0.818737202510825,0.00584069014131784,0.117854385552684,0.00013426873888087
"23",0,0,0,0,0,0,0,0,0,0,0,0,0,0,0,0,0,0,0,0,0.000973448356886306,0.0564600046994058,0.818737202510825,0.00597495888019871,0.117854385552684
"24",0,0,0,0,0,0,0,0,0,0,0,0,0,0,0,0,0,0,0,0,0,0.000973448356886306,0.0574334530562921,0.936591588063509,0.00500151052331241
"25",0,0,0,0,0,0,0,0,0,0,0,0,0,0,0,0,0,0,0,0,0,0,0.000973448356886306,0.0624349635796045,0.936591588063509
