"","X0","X1","X2","X3","X4","X5","X6","X7","X8","X9","X10","X11","X12","X13","X14","X15","X16","X17","X18","X19","X20","X21","X22","X23","X24"
"1",0.936524453694069,0.00104058272632674,0.0613943808532778,0,0.00104058272632674,0,0,0,0,0,0,0,0,0,0,0,0,0,0,0,0,0,0,0,0
"2",0.0613943808532778,0.875130072840791,0.00208116545265348,0.060353798126951,0,0.00104058272632674,0,0,0,0,0,0,0,0,0,0,0,0,0,0,0,0,0,0,0
"3",0.00104058272632674,0.060353798126951,0.875130072840791,0.00208116545265348,0.060353798126951,0,0.00104058272632674,0,0,0,0,0,0,0,0,0,0,0,0,0,0,0,0,0,0
"4",0,0.00104058272632674,0.060353798126951,0.875130072840791,0.00208116545265348,0.060353798126951,0,0.00104058272632674,0,0,0,0,0,0,0,0,0,0,0,0,0,0,0,0,0
"5",0,0,0.00104058272632674,0.060353798126951,0.875130072840791,0.00208116545265348,0.060353798126951,0,0.00104058272632674,0,0,0,0,0,0,0,0,0,0,0,0,0,0,0,0
"6",0,0,0,0.00104058272632674,0.060353798126951,0.875130072840791,0.00208116545265348,0.060353798126951,0,0.00104058272632674,0,0,0,0,0,0,0,0,0,0,0,0,0,0,0
"7",0,0,0,0,0.00104058272632674,0.060353798126951,0.875130072840791,0.00208116545265348,0.060353798126951,0,0.00104058272632674,0,0,0,0,0,0,0,0,0,0,0,0,0,0
"8",0,0,0,0,0,0.00104058272632674,0.060353798126951,0.875130072840791,0.00208116545265348,0.060353798126951,0,0.00104058272632674,0,0,0,0,0,0,0,0,0,0,0,0,0
"9",0,0,0,0,0,0,0.00104058272632674,0.060353798126951,0.875130072840791,0.00208116545265348,0.060353798126951,0,0.00104058272632674,0,0,0,0,0,0,0,0,0,0,0,0
"10",0,0,0,0,0,0,0,0.00104058272632674,0.060353798126951,0.875130072840791,0.00208116545265348,0.060353798126951,0,0.00104058272632674,0,0,0,0,0,0,0,0,0,0,0
"11",0,0,0,0,0,0,0,0,0.00104058272632674,0.060353798126951,0.875130072840791,0.00208116545265348,0.060353798126951,0,0.00104058272632674,0,0,0,0,0,0,0,0,0,0
"12",0,0,0,0,0,0,0,0,0,0.00104058272632674,0.060353798126951,0.875130072840791,0.00208116545265348,0.060353798126951,0,0.00104058272632674,0,0,0,0,0,0,0,0,0
"13",0,0,0,0,0,0,0,0,0,0,0.00104058272632674,0.060353798126951,0.875130072840791,0.00208116545265348,0.060353798126951,0,0.00104058272632674,0,0,0,0,0,0,0,0
"14",0,0,0,0,0,0,0,0,0,0,0,0.00104058272632674,0.060353798126951,0.875130072840791,0.00208116545265348,0.060353798126951,0,0.00104058272632674,0,0,0,0,0,0,0
"15",0,0,0,0,0,0,0,0,0,0,0,0,0.00104058272632674,0.060353798126951,0.875130072840791,0.00208116545265348,0.060353798126951,0,0.00104058272632674,0,0,0,0,0,0
"16",0,0,0,0,0,0,0,0,0,0,0,0,0,0.00104058272632674,0.060353798126951,0.875130072840791,0.00208116545265348,0.060353798126951,0,0.00104058272632674,0,0,0,0,0
"17",0,0,0,0,0,0,0,0,0,0,0,0,0,0,0.00104058272632674,0.060353798126951,0.875130072840791,0.00208116545265348,0.060353798126951,0,0.00104058272632674,0,0,0,0
"18",0,0,0,0,0,0,0,0,0,0,0,0,0,0,0,0.00104058272632674,0.060353798126951,0.875130072840791,0.00208116545265348,0.060353798126951,0,0.00104058272632674,0,0,0
"19",0,0,0,0,0,0,0,0,0,0,0,0,0,0,0,0,0.00104058272632674,0.060353798126951,0.875130072840791,0.00208116545265348,0.060353798126951,0,0.00104058272632674,0,0
"20",0,0,0,0,0,0,0,0,0,0,0,0,0,0,0,0,0,0.00104058272632674,0.060353798126951,0.875130072840791,0.00208116545265348,0.060353798126951,0,0.00104058272632674,0
"21",0,0,0,0,0,0,0,0,0,0,0,0,0,0,0,0,0,0,0.00104058272632674,0.060353798126951,0.875130072840791,0.00208116545265348,0.060353798126951,0,0.00104058272632674
"22",0,0,0,0,0,0,0,0,0,0,0,0,0,0,0,0,0,0,0,0.00104058272632674,0.060353798126951,0.875130072840791,0.00208116545265348,0.0613943808532778,0
"23",0,0,0,0,0,0,0,0,0,0,0,0,0,0,0,0,0,0,0,0,0.00104058272632674,0.060353798126951,0.875130072840791,0.00208116545265348,0.0613943808532778
"24",0,0,0,0,0,0,0,0,0,0,0,0,0,0,0,0,0,0,0,0,0,0.00104058272632674,0.0613943808532778,0.936524453694069,0.00104058272632674
"25",0,0,0,0,0,0,0,0,0,0,0,0,0,0,0,0,0,0,0,0,0,0,0.00104058272632674,0.0624349635796045,0.936524453694069
