"","X0","X1","X2","X3","X4","X5","X6","X7","X8","X9","X10","X11","X12","X13","X14","X15","X16","X17","X18","X19","X20","X21","X22","X23","X24"
"1",0.644914738049242,0.20712684437749,0.1037115064662,0.0334263570927642,0.00832790862349522,0.00202937442905458,0.000378910474796946,7.20036039349869e-05,1.0663324951144e-05,1.52433327247097e-06,1.55627799341231e-07,1.2775792949869e-08,8.21206248807157e-10,0,0,0,0,0,0,0,0,0,0,0,0
"2",0.535348774738917,0.23989965577906,0.137603109827924,0.0583736609278693,0.0205640789034011,0.0061301686221398,0.00165072051945084,0.000346993706347486,7.06357196681059e-05,1.05204729447526e-05,1.51237868576991e-06,1.54806593092424e-07,1.2775792949869e-08,8.21206248807157e-10,0,0,0,0,0,0,0,0,0,0,0
"3",0.327083100820096,0.260947940191624,0.214896017446618,0.115641385840655,0.0535962013908382,0.0197514156481824,0.00601134127065116,0.00164277948588953,0.000346981751760785,7.06348984618571e-05,1.05204729447526e-05,1.51237868576991e-06,1.54806593092424e-07,1.2775792949869e-08,8.21206248807157e-10,0,0,0,0,0,0,0,0,0,0
"4",0.152391926188035,0.190795405854714,0.254155562510491,0.207112706020995,0.114396815058151,0.0533323305647093,0.0197323766529691,0.00601027975860076,0.00164277948588953,0.000346981751760785,7.06348984618571e-05,1.05204729447526e-05,1.51237868576991e-06,1.54806593092424e-07,1.2775792949869e-08,8.21206248807157e-10,0,0,0,0,0,0,0,0,0
"5",0.0589398512296205,0.0977963762763992,0.188949843681627,0.252037799102269,0.206813017016625,0.114317229944712,0.0533306999418544,0.0197323056569572,0.00601027975860076,0.00164277948588953,0.000346981751760785,7.06348984618571e-05,1.05204729447526e-05,1.51237868576991e-06,1.54806593092424e-07,1.2775792949869e-08,8.21206248807157e-10,0,0,0,0,0,0,0,0
"6",0.0191859690173723,0.0404912330740999,0.0975190216460198,0.188550664245753,0.251990655543129,0.206799426298081,0.114317149940172,0.0533306974284801,0.0197323056569572,0.00601027975860076,0.00164277948588953,0.000346981751760785,7.06348984618571e-05,1.05204729447526e-05,1.51237868576991e-06,1.54806593092424e-07,1.2775792949869e-08,8.21206248807157e-10,0,0,0,0,0,0,0
"7",0.00508680785954339,0.0141752190960648,0.0404739884167194,0.0974657581300923,0.188546384004433,0.251989388329595,0.206799424033328,0.114317149894851,0.0533306974284801,0.0197323056569572,0.00601027975860076,0.00164277948588953,0.000346981751760785,7.06348984618571e-05,1.05204729447526e-05,1.51237868576991e-06,1.54806593092424e-07,1.2775792949869e-08,8.21206248807157e-10,0,0,0,0,0,0
"8",0.00107868493537163,0.00401327114371516,0.0141754409962606,0.040468910648667,0.0974655330603162,0.188546316757338,0.251989388295108,0.206799424032999,0.114317149894851,0.0533306974284801,0.0197323056569572,0.00601027975860076,0.00164277948588953,0.000346981751760785,7.06348984618571e-05,1.05204729447526e-05,1.51237868576991e-06,1.54806593092424e-07,1.2775792949869e-08,8.21206248807157e-10,0,0,0,0,0
"9",0.000184001159735809,0.00089492975499804,0.00401336820219615,0.0141751067899402,0.0404689038539419,0.0974655310237376,0.188546316757119,0.251989388295108,0.206799424032999,0.114317149894851,0.0533306974284801,0.0197323056569572,0.00601027975860076,0.00164277948588953,0.000346981751760785,7.06348984618571e-05,1.05204729447526e-05,1.51237868576991e-06,1.54806593092424e-07,1.2775792949869e-08,8.21206248807157e-10,0,0,0,0
"10",2.48694409095575e-05,0.000159140217245494,0.000894935853102843,0.00401335374799406,0.0141751066804618,0.0404689038210984,0.0974655310237376,0.188546316757119,0.251989388295108,0.206799424032999,0.114317149894851,0.0533306974284801,0.0197323056569572,0.00601027975860076,0.00164277948588953,0.000346981751760785,7.06348984618571e-05,1.05204729447526e-05,1.51237868576991e-06,1.54806593092424e-07,1.2775792949869e-08,8.21206248807157e-10,0,0,0
"11",2.46968063689322e-06,2.23999621219141e-05,0.000159140403079302,0.00089493546636939,0.00401335374726359,0.0141751066802427,0.0404689038210984,0.0974655310237376,0.188546316757119,0.251989388295108,0.206799424032999,0.114317149894851,0.0533306974284801,0.0197323056569572,0.00601027975860076,0.00164277948588953,0.000346981751760785,7.06348984618571e-05,1.05204729447526e-05,1.51237868576991e-06,1.54806593092424e-07,1.2775792949869e-08,8.21206248807157e-10,0,0
"12",1.67054102861261e-07,2.30262941708553e-06,2.23999650049677e-05,0.000159140397313194,0.00089493546636939,0.00401335374726359,0.0141751066802427,0.0404689038210984,0.0974655310237376,0.188546316757119,0.251989388295108,0.206799424032999,0.114317149894851,0.0533306974284801,0.0197323056569572,0.00601027975860076,0.00164277948588953,0.000346981751760785,7.06348984618571e-05,1.05204729447526e-05,1.51237868576991e-06,1.54806593092424e-07,1.2775792949869e-08,8.21206248807157e-10,0
"13",7.3020582759233e-09,1.59752062846959e-07,2.30262943534715e-06,2.23999649684444e-05,0.000159140397313194,0.00089493546636939,0.00401335374726359,0.0141751066802427,0.0404689038210984,0.0974655310237376,0.188546316757119,0.251989388295108,0.206799424032999,0.114317149894851,0.0533306974284801,0.0197323056569572,0.00601027975860076,0.00164277948588953,0.000346981751760785,7.06348984618571e-05,1.05204729447526e-05,1.51237868576991e-06,1.54806593092424e-07,1.2775792949869e-08,8.21206248807157e-10
"14",1.95455399402656e-10,7.10660287652064e-09,1.59752062846959e-07,2.30262943534715e-06,2.23999649684444e-05,0.000159140397313194,0.00089493546636939,0.00401335374726359,0.0141751066802427,0.0404689038210984,0.0974655310237376,0.188546316757119,0.251989388295108,0.206799424032999,0.114317149894851,0.0533306974284801,0.0197323056569572,0.00601027975860076,0.00164277948588953,0.000346981751760785,7.06348984618571e-05,1.05204729447526e-05,1.51237868576991e-06,1.54806593092424e-07,1.35969991986762e-08
"15",2.90131519101132e-12,1.92554084211645e-10,7.10660287652064e-09,1.59752062846959e-07,2.30262943534715e-06,2.23999649684444e-05,0.000159140397313194,0.00089493546636939,0.00401335374726359,0.0141751066802427,0.0404689038210984,0.0974655310237376,0.188546316757119,0.251989388295108,0.206799424032999,0.114317149894851,0.0533306974284801,0.0197323056569572,0.00601027975860076,0.00164277948588953,0.000346981751760785,7.06348984618571e-05,1.05204729447526e-05,1.51237868576991e-06,1.684035922911e-07
"16",1.82616219733206e-14,2.883053569038e-12,1.92554084211645e-10,7.10660287652064e-09,1.59752062846959e-07,2.30262943534715e-06,2.23999649684444e-05,0.000159140397313194,0.00089493546636939,0.00401335374726359,0.0141751066802427,0.0404689038210984,0.0974655310237376,0.188546316757119,0.251989388295108,0.206799424032999,0.114317149894851,0.0533306974284801,0.0197323056569572,0.00601027975860076,0.00164277948588953,0.00034698216236391,7.06348984618571e-05,1.05221153572503e-05,1.67872926243899e-06
"17",0,1.82616219733206e-14,2.883053569038e-12,1.92554084211645e-10,7.10660287652064e-09,1.59752062846959e-07,2.30262943534715e-06,2.23999649684444e-05,0.000159140397313194,0.00089493546636939,0.00401335374726359,0.0141751066802427,0.0404689038210984,0.0974655310237376,0.188546316757119,0.251989388295108,0.206799424032999,0.114317149894851,0.0533306974284801,0.0197323057253911,0.00601028023763773,0.00164278635282298,0.000346985173453489,7.06675671685798e-05,1.21577504191016e-05
"18",0,0,1.82616219733206e-14,2.883053569038e-12,1.92554084211645e-10,7.10660287652064e-09,1.59752062846959e-07,2.30262943534715e-06,2.23999649684444e-05,0.000159140397313194,0.00089493546636939,0.00401335374726359,0.0141751066802427,0.0404689038210984,0.0974655310237376,0.188546316757119,0.251989388295108,0.206799424032999,0.114317149894851,0.0533306983334506,0.019732312060184,0.00601035997234676,0.00164282617152145,0.000347372890041467,8.23108078288596e-05
"19",0,0,0,1.82616219733206e-14,2.883053569038e-12,1.92554084211645e-10,7.10660287652064e-09,1.59752062846959e-07,2.30262943534715e-06,2.23999649684444e-05,0.000159140397313194,0.00089493546636939,0.00401335374726359,0.0141751066802427,0.0404689038210984,0.0974655310237376,0.188546316757119,0.251989388363542,0.206799424512036,0.114317161453684,0.0533307726071952,0.0197330889323803,0.0060108160722167,0.00164664275779836,0.000424547759479054
"20",0,0,0,0,1.82616219733206e-14,2.883053569038e-12,1.92554084211645e-10,7.10660287652064e-09,1.59752062846959e-07,2.30262943534715e-06,2.23999649697038e-05,0.000159140397438979,0.000894935471292944,0.00401335384580795,0.014175107826825,0.0404689127045073,0.0974655840765263,0.188546566221666,0.251990286817134,0.206802017893133,0.114323540445677,0.0533460490197169,0.0197474778759244,0.00603384129904849,0.00200831645677456
"21",0,0,0,0,0,1.82616219733206e-14,2.883053569038e-12,1.92554084211645e-10,7.10660287652064e-09,1.59752062846959e-07,2.30262943534715e-06,2.23999649697038e-05,0.000159140397438979,0.000894935471292944,0.00401335384580795,0.014175107826825,0.0404689127045073,0.0974655891064146,0.188546601430884,0.251990888640117,0.206805742754847,0.114355673858314,0.0533686713066329,0.0199093010996501,0.00782121190874237
"22",0,0,0,0,0,0,1.82616219733206e-14,2.883053569038e-12,1.92554084211645e-10,7.10660287652064e-09,1.59752155414491e-07,2.30263868052941e-06,2.24003268508995e-05,0.000159147640449166,0.000895019745098129,0.00401400677636269,0.0141790072068004,0.0404872484856,0.0975316264035503,0.188733923829376,0.252436693490376,0.207700735887071,0.115268347296548,0.0538992694550936,0.0246701037639308
"23",0,0,0,0,0,0,0,1.82616219733206e-14,2.883053569038e-12,1.92554084211645e-10,7.10660539536506e-09,1.59752406984077e-07,2.30264852763678e-06,2.24005239396121e-05,0.000159149933613933,0.000895037511915945,0.00401411288194025,0.0141796262715257,0.040489886342201,0.0975491766862519,0.188821573300724,0.253035407697427,0.208181364647641,0.118229335150523,0.0744204593493011
"24",0,0,0,0,0,0,0,0,1.82616219733206e-14,2.90131519101132e-12,1.96588879387207e-10,7.39881212740457e-09,1.69824598640563e-07,2.49226858965953e-06,2.45421587429442e-05,0.000175514023389217,0.000991788918554326,0.00446508156239461,0.0157935417568625,0.0450245590806798,0.108178783988305,0.208849455343925,0.273732612901715,0.212682524677069,0.130078925896855
"25",0,0,0,0,0,0,0,0,0,1.82616219733206e-14,2.99514214528803e-12,2.05959846445594e-10,7.76561687678011e-09,1.77166153183976e-07,2.5776889772274e-06,2.52039727065895e-05,0.000179466456153308,0.00101132874802467,0.00453869939993562,0.0160746656984695,0.0460226054255078,0.112918512675309,0.213057511056572,0.294173298179181,0.311995945558419
