"","X0","X1","X2","X3","X4","X5","X6","X7","X8","X9","X10","X11","X12","X13","X14","X15","X16","X17","X18","X19","X20","X21","X22","X23","X24"
"1",0.738869880322988,0.177697235896232,0.0680195556171427,0.0119462574185661,0.00293373718068411,0.000443898765144159,7.96420597542517e-05,8.9230629154351e-06,8.03911639539879e-07,6.57649337586398e-08,0,0,0,0,0,0,0,0,0,0,0,0,0,0,0
"2",0.526654357125791,0.308437724619021,0.105564307385782,0.0461984552121527,0.00975766120700314,0.00286308394877905,0.000435779613868263,7.89039130484704e-05,8.85729798167646e-06,8.03911639539879e-07,6.57649337586398e-08,0,0,0,0,0,0,0,0,0,0,0,0,0,0
"3",0.198012114298124,0.36879775165522,0.276311160882966,0.0981687897300545,0.0455658316880208,0.00975692306029735,0.00286301818384529,0.000435779613868263,7.89039130484704e-05,8.85729798167646e-06,8.03911639539879e-07,6.57649337586398e-08,0,0,0,0,0,0,0,0,0,0,0,0,0
"4",0.0448923637100068,0.170327745318873,0.352916107803267,0.275069819427534,0.0980837803066844,0.0455658316880208,0.00975692306029735,0.00286301818384529,0.000435779613868263,7.89039130484704e-05,8.85729798167646e-06,8.03911639539879e-07,6.57649337586398e-08,0,0,0,0,0,0,0,0,0,0,0,0
"5",0.00863971605062462,0.0422969091738192,0.1644008031244,0.352804474080588,0.275064133830248,0.0980837803066844,0.0455658316880208,0.00975692306029735,0.00286301818384529,0.000435779613868263,7.89039130484704e-05,8.85729798167646e-06,8.03911639539879e-07,6.57649337586398e-08,0,0,0,0,0,0,0,0,0,0,0
"6",0.00121084317235899,0.00850144656485875,0.0412302728655686,0.164395067025447,0.352804272801199,0.275064133830248,0.0980837803066844,0.0455658316880208,0.00975692306029735,0.00286301818384529,0.000435779613868263,7.89039130484704e-05,8.85729798167646e-06,8.03911639539879e-07,6.57649337586398e-08,0,0,0,0,0,0,0,0,0,0
"7",0.000105248914946271,0.00120663812028509,0.00840057560226356,0.0412301035947306,0.164395063396008,0.352804272801199,0.275064133830248,0.0980837803066844,0.0455658316880208,0.00975692306029735,0.00286301818384529,0.000435779613868263,7.89039130484704e-05,8.85729798167646e-06,8.03911639539879e-07,6.57649337586398e-08,0,0,0,0,0,0,0,0,0
"8",5.44691879955158e-06,0.000105180810039587,0.00120126200680902,0.00840057292817088,0.0412301035684064,0.164395063396008,0.352804272801199,0.275064133830248,0.0980837803066844,0.0455658316880208,0.00975692306029735,0.00286301818384529,0.000435779613868263,7.89039130484704e-05,8.85729798167646e-06,8.03911639539879e-07,6.57649337586398e-08,0,0,0,0,0,0,0,0
"9",1.63511338162416e-07,5.44646251466496e-06,0.00010501777253573,0.0012012619892596,0.00840057292817088,0.0412301035684064,0.164395063396008,0.352804272801199,0.275064133830248,0.0980837803066844,0.0455658316880208,0.00975692306029735,0.00286301818384529,0.000435779613868263,7.89039130484704e-05,8.85729798167646e-06,8.03911639539879e-07,6.57649337586398e-08,0,0,0,0,0,0,0
"10",2.63021913011463e-09,1.63511338162416e-07,5.44383229553484e-06,0.00010501777253573,0.0012012619892596,0.00840057292817088,0.0412301035684064,0.164395063396008,0.352804272801199,0.275064133830248,0.0980837803066844,0.0455658316880208,0.00975692306029735,0.00286301818384529,0.000435779613868263,7.89039130484704e-05,8.85729798167646e-06,8.03911639539879e-07,6.57649337586398e-08,0,0,0,0,0,0
"11",1.75494187163612e-11,2.63021913011463e-09,1.63493788743699e-07,5.44383229553484e-06,0.00010501777253573,0.0012012619892596,0.00840057292817088,0.0412301035684064,0.164395063396008,0.352804272801199,0.275064133830248,0.0980837803066844,0.0455658316880208,0.00975692306029735,0.00286301818384529,0.000435779613868263,7.89039130484704e-05,8.85729798167646e-06,8.03911639539879e-07,6.57649337586398e-08,0,0,0,0,0
"12",0,1.75494187163612e-11,2.63021913011463e-09,1.63493788743699e-07,5.44383229553484e-06,0.00010501777253573,0.0012012619892596,0.00840057292817088,0.0412301035684064,0.164395063396008,0.352804272801199,0.275064133830248,0.0980837803066844,0.0455658316880208,0.00975692306029735,0.00286301818384529,0.000435779613868263,7.89039130484704e-05,8.85729798167646e-06,8.03911639539879e-07,6.57649337586398e-08,0,0,0,0
"13",0,0,1.75494187163612e-11,2.63021913011463e-09,1.63493788743699e-07,5.44383229553484e-06,0.00010501777253573,0.0012012619892596,0.00840057292817088,0.0412301035684064,0.164395063396008,0.352804272801199,0.275064133830248,0.0980837803066844,0.0455658316880208,0.00975692306029735,0.00286301818384529,0.000435779613868263,7.89039130484704e-05,8.85729798167646e-06,8.03911639539879e-07,6.57649337586398e-08,0,0,0
"14",0,0,0,1.75494187163612e-11,2.63021913011463e-09,1.63493788743699e-07,5.44383229553484e-06,0.00010501777253573,0.0012012619892596,0.00840057292817088,0.0412301035684064,0.164395063396008,0.352804272801199,0.275064133830248,0.0980837803066844,0.0455658316880208,0.00975692306029735,0.00286301818384529,0.000435779613868263,7.89039130484704e-05,8.85729798167646e-06,8.03911639539879e-07,6.57649337586398e-08,0,0
"15",0,0,0,0,1.75494187163612e-11,2.63021913011463e-09,1.63493788743699e-07,5.44383229553484e-06,0.00010501777253573,0.0012012619892596,0.00840057292817088,0.0412301035684064,0.164395063396008,0.352804272801199,0.275064133830248,0.0980837803066844,0.0455658316880208,0.00975692306029735,0.00286301818384529,0.000435779613868263,7.89039130484704e-05,8.85729798167646e-06,8.03911639539879e-07,6.57649337586398e-08,0
"16",0,0,0,0,0,1.75494187163612e-11,2.63021913011463e-09,1.63493788743699e-07,5.44383229553484e-06,0.00010501777253573,0.0012012619892596,0.00840057292817088,0.0412301035684064,0.164395063396008,0.352804272801199,0.275064133830248,0.0980837803066844,0.0455658316880208,0.00975692306029735,0.00286301818384529,0.000435779613868263,7.89039130484704e-05,8.85729798167646e-06,8.03911639539879e-07,6.57649337586398e-08
"17",0,0,0,0,0,0,1.75494187163612e-11,2.63021913011463e-09,1.63493788743699e-07,5.44383229553484e-06,0.00010501777253573,0.0012012619892596,0.00840057292817088,0.0412301035684064,0.164395063396008,0.352804272801199,0.275064133830248,0.0980837803066844,0.0455658316880208,0.00975692306029735,0.00286301818384529,0.000435779613868263,7.89039130484704e-05,8.85729798167646e-06,8.69676573298519e-07
"18",0,0,0,0,0,0,0,1.75494187163612e-11,2.63021913011463e-09,1.63493788743699e-07,5.44383229553484e-06,0.00010501777253573,0.0012012619892596,0.00840057292817088,0.0412301035684064,0.164395063396008,0.352804272801199,0.275064133830248,0.0980837803066844,0.0455658316880208,0.00975692306029735,0.00286301818384529,0.000435779613868263,7.89039130484704e-05,9.72697455497498e-06
"19",0,0,0,0,0,0,0,0,1.75494187163612e-11,2.63021913011463e-09,1.63493788743699e-07,5.44383229553484e-06,0.00010501777253573,0.0012012619892596,0.00840057292817088,0.0412301035684064,0.164395063396008,0.352804272801199,0.275064133830248,0.0980837803066844,0.0455658316880208,0.00975692306029735,0.00286308394877905,0.000435713848934505,8.86308876034454e-05
"20",0,0,0,0,0,0,0,0,0,1.75494187163612e-11,2.63021913011463e-09,1.63493788743699e-07,5.44383229553484e-06,0.00010501777253573,0.0012012619892596,0.00840057292938119,0.0412301036796032,0.16439506720287,0.352804333727108,0.275064628815839,0.0980862627291488,0.0455768342454035,0.00978145760213226,0.00287200562211335,0.000476843710752938
"21",0,0,0,0,0,0,0,0,0,0,1.75494187163612e-11,2.63021913011463e-09,1.63493788743699e-07,5.44383229553484e-06,0.00010501777253573,0.0012012619892596,0.00840057292938119,0.0412301036796032,0.16439506720287,0.352804333727108,0.275064628815839,0.0980862627291488,0.0455816679680348,0.009776623879501,0.00334884933286629
"22",0,0,0,0,0,0,0,0,0,0,0,1.75494187163612e-11,2.63021913011463e-09,1.63493788743699e-07,5.44383229553484e-06,0.000105017861493128,0.00120127016222057,0.00840085273375793,0.0412345817338765,0.164431448643806,0.352986791778236,0.275873316783468,0.0998896830838816,0.0462372794282388,0.00963414781716893
"23",0,0,0,0,0,0,0,0,0,0,0,0,1.75494187163612e-11,2.63021913011463e-09,1.63493788743699e-07,5.44383471614432e-06,0.000105018083886624,0.00120127777594511,0.00840097458557489,0.0412355717050584,0.164436413488734,0.353008796893001,0.276037836208351,0.099792076089337,0.0557764251938377
"24",0,0,0,0,0,0,0,0,0,0,0,0,0,1.75494187163612e-11,2.64776854883099e-09,1.67230831557684e-07,5.69424010997964e-06,0.000112584456272141,0.00131541049935024,0.00930591691624066,0.0457530014232359,0.184107153830691,0.396214402426625,0.291361598672917,0.0718240676384085
"25",0,0,0,0,0,0,0,0,0,0,0,0,0,0,1.75494187163612e-11,2.73793625189092e-09,1.75514989276315e-07,5.97785134899175e-06,0.000117123436453882,0.00135228692587688,0.00949085738983311,0.0465726919482479,0.186852463788258,0.395961580499164,0.359646839890343
