"","X0","X1","X2","X3","X4","X5","X6","X7","X8","X9","X10","X11","X12","X13","X14","X15","X16","X17","X18","X19","X20","X21"
"1",0.562720284649727,0.290557550938203,0.100768688530093,0.0396428451545769,0.00604209324963914,0.00026853747776174,0,0,0,0,0,0,0,0,0,0,0,0,0,0,0,0
"2",0.391728473600137,0.33538318835457,0.181978346973469,0.0672253359151594,0.020536806662377,0.0030169707208091,0.000130877773478446,0,0,0,0,0,0,0,0,0,0,0,0,0,0,0
"3",0.169713246857765,0.275187826993945,0.299698277985108,0.171618721216924,0.0609999135506205,0.0196720654426629,0.00297907017949613,0.000130877773478446,0,0,0,0,0,0,0,0,0,0,0,0,0,0
"4",0.0466583213107721,0.133457461555133,0.268069932482807,0.297790246745991,0.170389569406224,0.0608582963841857,0.0196662241619115,0.00297907017949613,0.000130877773478446,0,0,0,0,0,0,0,0,0,0,0,0,0
"5",0.00831137416248245,0.0396052843389583,0.132577132714707,0.267855955654597,0.297639927920524,0.170376347257667,0.0608578058361771,0.0196662241619115,0.00297907017949613,0.000130877773478446,0,0,0,0,0,0,0,0,0,0,0,0
"6",0.00095898983116771,0.00744570764285852,0.0395384569067332,0.132562609920521,0.267844670272787,0.297639260327625,0.170376327147244,0.0608578058361771,0.0196662241619115,0.00297907017949613,0.000130877773478446,0,0,0,0,0,0,0,0,0,0,0
"7",6.99321523871984e-05,0.000893131371488579,0.00744272838772691,0.039537877871454,0.132562111176858,0.267844653914308,0.297639260027469,0.170376327147244,0.0608578058361771,0.0196662241619115,0.00297907017949613,0.000130877773478446,0,0,0,0,0,0,0,0,0,0
"8",3.04851603060708e-06,6.69784855183819e-05,0.000893060909967281,0.00744271589375108,0.0395378661278671,0.13256211102678,0.267844653914308,0.297639260027469,0.170376327147244,0.0608578058361771,0.0196662241619115,0.00297907017949613,0.000130877773478446,0,0,0,0,0,0,0,0,0
"9",7.11368713429548e-08,2.97827962598998e-06,6.69778101683375e-05,0.00089306079740894,0.00744271578119274,0.0395378661278671,0.13256211102678,0.267844653914308,0.297639260027469,0.170376327147244,0.0608578058361771,0.0196662241619115,0.00297907017949613,0.000130877773478446,0,0,0,0,0,0,0,0
"10",6.7535004439514e-10,7.04615212985597e-08,2.97827962598998e-06,6.69778101683375e-05,0.00089306079740894,0.00744271578119274,0.0395378661278671,0.13256211102678,0.267844653914308,0.297639260027469,0.170376327147244,0.0608578058361771,0.0196662241619115,0.00297907017949613,0.000130877773478446,0,0,0,0,0,0,0
"11",0,6.7535004439514e-10,7.04615212985597e-08,2.97827962598998e-06,6.69778101683375e-05,0.00089306079740894,0.00744271578119274,0.0395378661278671,0.13256211102678,0.267844653914308,0.297639260027469,0.170376327147244,0.0608578058361771,0.0196662241619115,0.00297907017949613,0.000130877773478446,0,0,0,0,0,0
"12",0,0,6.7535004439514e-10,7.04615212985597e-08,2.97827962598998e-06,6.69778101683375e-05,0.00089306079740894,0.00744271578119274,0.0395378661278671,0.13256211102678,0.267844653914308,0.297639260027469,0.170376327147244,0.0608578058361771,0.0196662241619115,0.00297907017949613,0.000130877773478446,0,0,0,0,0
"13",0,0,0,6.7535004439514e-10,7.04615212985597e-08,2.97827962598998e-06,6.69778101683375e-05,0.00089306079740894,0.00744271578119274,0.0395378661278671,0.13256211102678,0.267844653914308,0.297639260027469,0.170376327147244,0.0608578058361771,0.0196662241619115,0.00297907017949613,0.000130877773478446,0,0,0,0
"14",0,0,0,0,6.7535004439514e-10,7.04615212985597e-08,2.97827962598998e-06,6.69778101683375e-05,0.00089306079740894,0.00744271578119274,0.0395378661278671,0.13256211102678,0.267844653914308,0.297639260027469,0.170376327147244,0.0608578058361771,0.0196662241619115,0.00297907017949613,0.000130877773478446,0,0,0
"15",0,0,0,0,0,6.7535004439514e-10,7.04615212985597e-08,2.97827962598998e-06,6.69778101683375e-05,0.00089306079740894,0.00744271578119274,0.0395378661278671,0.13256211102678,0.267844653914308,0.297639260027469,0.170376327147244,0.0608578058361771,0.0196662241619115,0.00297907017949613,0.000130877773478446,0,0
"16",0,0,0,0,0,0,6.7535004439514e-10,7.04615212985597e-08,2.97827962598998e-06,6.69778101683375e-05,0.00089306079740894,0.00744271578119274,0.0395378661278671,0.13256211102678,0.267844653914308,0.297639260027469,0.170376327147244,0.0608578058361771,0.0196662241619115,0.00297907017949613,0.000130877773478446,0
"17",0,0,0,0,0,0,0,6.7535004439514e-10,7.04615212985597e-08,2.97827962598998e-06,6.69778101683375e-05,0.00089306079740894,0.00744271578119274,0.0395378661278671,0.13256211102678,0.267844653914308,0.297639260027469,0.170376327147244,0.0608578058361771,0.0196662241619115,0.00297907017949613,0.000130877773478446
"18",0,0,0,0,0,0,0,0,6.7535004439514e-10,7.04615212985597e-08,2.97827962598998e-06,6.69778101683375e-05,0.00089306079740894,0.00744271578119274,0.0395378661278671,0.13256211102678,0.267844653914308,0.297639260027469,0.170376327147244,0.0608578058361771,0.0196662241619115,0.00310994795297457
"19",0,0,0,0,0,0,0,0,0,6.7535004439514e-10,7.04615212985597e-08,2.97827962598998e-06,6.69778101683375e-05,0.00089306079740894,0.00744271578119274,0.0395378661278671,0.13256211102678,0.267844653914308,0.297639260027469,0.170376327147244,0.0608578058361771,0.0227761721148861
"20",0,0,0,0,0,0,0,0,0,0,6.7535004439514e-10,7.04615212985597e-08,2.97827962598998e-06,6.69778101683375e-05,0.00089306079740894,0.00744271578119274,0.0395378661278671,0.13256211102678,0.267844653914308,0.297639260027469,0.170376327147244,0.0836339779510632
"21",0,0,0,0,0,0,0,0,0,0,0,6.7535004439514e-10,7.04615212985597e-08,2.97827962598998e-06,6.69778101683375e-05,0.00089306079740894,0.00744271578119274,0.0395378661278671,0.13256211102678,0.267844653914308,0.29842452666834,0.253225038457436
"22",0,0,0,0,0,0,0,0,0,0,0,0,6.7535004439514e-10,7.04615212985597e-08,2.97827962598998e-06,6.69778101683375e-05,0.00089306079740894,0.00744271578119274,0.0395378661278671,0.133151061007433,0.285719074991285,0.533186194068147
