"","X0","X1","X2","X3","X4","X5","X6","X7","X8","X9","X10","X11","X12","X13","X14","X15","X16","X17","X18","X19","X20","X21"
"1",1,0,0,0,0,0,0,0,0,0,0,0,0,0,0,0,0,0,0,0,0,0
"2",0.512627531287952,0.487372468712048,0,0,0,0,0,0,0,0,0,0,0,0,0,0,0,0,0,0,0,0
"3",0.14113687828186,0.371490653006091,0.487372468712048,0,0,0,0,0,0,0,0,0,0,0,0,0,0,0,0,0,0,0
"4",0.0217521993579201,0.11938467892394,0.371490653006091,0.487372468712048,0,0,0,0,0,0,0,0,0,0,0,0,0,0,0,0,0,0
"5",0.00182673946565862,0.0199254598922615,0.11938467892394,0.371490653006091,0.487372468712048,0,0,0,0,0,0,0,0,0,0,0,0,0,0,0,0,0
"6",7.48887034756984e-05,0.00175185076218292,0.0199254598922615,0.11938467892394,0.371490653006091,0.487372468712048,0,0,0,0,0,0,0,0,0,0,0,0,0,0,0,0
"7",1.11774184292087e-06,7.37709616327775e-05,0.00175185076218292,0.0199254598922615,0.11938467892394,0.371490653006091,0.487372468712048,0,0,0,0,0,0,0,0,0,0,0,0,0,0,0
"8",0,1.11774184292087e-06,7.37709616327775e-05,0.00175185076218292,0.0199254598922615,0.11938467892394,0.371490653006091,0.487372468712048,0,0,0,0,0,0,0,0,0,0,0,0,0,0
"9",0,0,1.11774184292087e-06,7.37709616327775e-05,0.00175185076218292,0.0199254598922615,0.11938467892394,0.371490653006091,0.487372468712048,0,0,0,0,0,0,0,0,0,0,0,0,0
"10",0,0,0,1.11774184292087e-06,7.37709616327775e-05,0.00175185076218292,0.0199254598922615,0.11938467892394,0.371490653006091,0.487372468712048,0,0,0,0,0,0,0,0,0,0,0,0
"11",0,0,0,0,1.11774184292087e-06,7.37709616327775e-05,0.00175185076218292,0.0199254598922615,0.11938467892394,0.371490653006091,0.487372468712048,0,0,0,0,0,0,0,0,0,0,0
"12",0,0,0,0,0,1.11774184292087e-06,7.37709616327775e-05,0.00175185076218292,0.0199254598922615,0.11938467892394,0.371490653006091,0.487372468712048,0,0,0,0,0,0,0,0,0,0
"13",0,0,0,0,0,0,1.11774184292087e-06,7.37709616327775e-05,0.00175185076218292,0.0199254598922615,0.11938467892394,0.371490653006091,0.487372468712048,0,0,0,0,0,0,0,0,0
"14",0,0,0,0,0,0,0,1.11774184292087e-06,7.37709616327775e-05,0.00175185076218292,0.0199254598922615,0.11938467892394,0.371490653006091,0.487372468712048,0,0,0,0,0,0,0,0
"15",0,0,0,0,0,0,0,0,1.11774184292087e-06,7.37709616327775e-05,0.00175185076218292,0.0199254598922615,0.11938467892394,0.371490653006091,0.487372468712048,0,0,0,0,0,0,0
"16",0,0,0,0,0,0,0,0,0,1.11774184292087e-06,7.37709616327775e-05,0.00175185076218292,0.0199254598922615,0.11938467892394,0.371490653006091,0.487372468712048,0,0,0,0,0,0
"17",0,0,0,0,0,0,0,0,0,0,1.11774184292087e-06,7.37709616327775e-05,0.00175185076218292,0.0199254598922615,0.11938467892394,0.371490653006091,0.487372468712048,0,0,0,0,0
"18",0,0,0,0,0,0,0,0,0,0,0,1.11774184292087e-06,7.37709616327775e-05,0.00175185076218292,0.0199254598922615,0.11938467892394,0.371490653006091,0.487372468712048,0,0,0,0
"19",0,0,0,0,0,0,0,0,0,0,0,0,1.11774184292087e-06,7.37709616327775e-05,0.00175185076218292,0.0199254598922615,0.11938467892394,0.371490653006091,0.487372468712048,0,0,0
"20",0,0,0,0,0,0,0,0,0,0,0,0,0,1.11774184292087e-06,7.37709616327775e-05,0.00175185076218292,0.0199254598922615,0.11938467892394,0.371490653006091,0.487372468712048,0,0
"21",0,0,0,0,0,0,0,0,0,0,0,0,0,0,1.11774184292087e-06,7.37709616327775e-05,0.00175185076218292,0.0199254598922615,0.11938467892394,0.371490653006091,0.487372468712048,0
"22",0,0,0,0,0,0,0,0,0,0,0,0,0,0,0,1.11774184292087e-06,7.37709616327775e-05,0.00175185076218292,0.0199254598922615,0.11938467892394,0.371490653006091,0.487372468712048
