"","X0","X1","X2","X3","X4","X5","X6","X7","X8","X9","X10","X11","X12","X13","X14","X15","X16","X17","X18","X19","X20","X21"
"1",1,0,0,0,0,0,0,0,0,0,0,0,0,0,0,0,0,0,0,0,0,0
"2",0.21150683092209,0.78849316907791,0,0,0,0,0,0,0,0,0,0,0,0,0,0,0,0,0,0,0,0
"3",0.0140310832130509,0.19747574770904,0.78849316907791,0,0,0,0,0,0,0,0,0,0,0,0,0,0,0,0,0,0,0
"4",0.00026853747776174,0.0137625457352892,0.19747574770904,0.78849316907791,0,0,0,0,0,0,0,0,0,0,0,0,0,0,0,0,0,0
"5",0,0.00026853747776174,0.0137625457352892,0.19747574770904,0.78849316907791,0,0,0,0,0,0,0,0,0,0,0,0,0,0,0,0,0
"6",0,0,0.00026853747776174,0.0137625457352892,0.19747574770904,0.78849316907791,0,0,0,0,0,0,0,0,0,0,0,0,0,0,0,0
"7",0,0,0,0.00026853747776174,0.0137625457352892,0.19747574770904,0.78849316907791,0,0,0,0,0,0,0,0,0,0,0,0,0,0,0
"8",0,0,0,0,0.00026853747776174,0.0137625457352892,0.19747574770904,0.78849316907791,0,0,0,0,0,0,0,0,0,0,0,0,0,0
"9",0,0,0,0,0,0.00026853747776174,0.0137625457352892,0.19747574770904,0.78849316907791,0,0,0,0,0,0,0,0,0,0,0,0,0
"10",0,0,0,0,0,0,0.00026853747776174,0.0137625457352892,0.19747574770904,0.78849316907791,0,0,0,0,0,0,0,0,0,0,0,0
"11",0,0,0,0,0,0,0,0.00026853747776174,0.0137625457352892,0.19747574770904,0.78849316907791,0,0,0,0,0,0,0,0,0,0,0
"12",0,0,0,0,0,0,0,0,0.00026853747776174,0.0137625457352892,0.19747574770904,0.78849316907791,0,0,0,0,0,0,0,0,0,0
"13",0,0,0,0,0,0,0,0,0,0.00026853747776174,0.0137625457352892,0.19747574770904,0.78849316907791,0,0,0,0,0,0,0,0,0
"14",0,0,0,0,0,0,0,0,0,0,0.00026853747776174,0.0137625457352892,0.19747574770904,0.78849316907791,0,0,0,0,0,0,0,0
"15",0,0,0,0,0,0,0,0,0,0,0,0.00026853747776174,0.0137625457352892,0.19747574770904,0.78849316907791,0,0,0,0,0,0,0
"16",0,0,0,0,0,0,0,0,0,0,0,0,0.00026853747776174,0.0137625457352892,0.19747574770904,0.78849316907791,0,0,0,0,0,0
"17",0,0,0,0,0,0,0,0,0,0,0,0,0,0.00026853747776174,0.0137625457352892,0.19747574770904,0.78849316907791,0,0,0,0,0
"18",0,0,0,0,0,0,0,0,0,0,0,0,0,0,0.00026853747776174,0.0137625457352892,0.19747574770904,0.78849316907791,0,0,0,0
"19",0,0,0,0,0,0,0,0,0,0,0,0,0,0,0,0.00026853747776174,0.0137625457352892,0.19747574770904,0.78849316907791,0,0,0
"20",0,0,0,0,0,0,0,0,0,0,0,0,0,0,0,0,0.00026853747776174,0.0137625457352892,0.19747574770904,0.78849316907791,0,0
"21",0,0,0,0,0,0,0,0,0,0,0,0,0,0,0,0,0,0.00026853747776174,0.0137625457352892,0.19747574770904,0.78849316907791,0
"22",0,0,0,0,0,0,0,0,0,0,0,0,0,0,0,0,0,0,0.00026853747776174,0.0137625457352892,0.19747574770904,0.78849316907791
