"","X0","X1","X2","X3","X4","X5","X6","X7","X8","X9","X10","X11","X12","X13","X14","X15","X16","X17","X18","X19","X20","X21"
"1",0.530063326013405,0.261055907665582,0.135772870107116,0.0536902404126479,0.0155224651964007,0.00342566917195693,0.000442416193201118,2.65463687693707e-05,5.58870921460436e-07,0,0,0,0,0,0,0,0,0,0,0,0,0
"2",0.41863652960151,0.272308876685447,0.180184662742882,0.0859545396418172,0.0320648505791023,0.00883248058238816,0.00178278981086487,0.000221909704934647,1.30882727529037e-05,2.7237830068355e-07,0,0,0,0,0,0,0,0,0,0,0,0
"3",0.241712509825866,0.236999120325076,0.24005805101091,0.162057444424884,0.0789273878412402,0.0299734509654392,0.00832220229148555,0.00171841343838953,0.000218138102952257,1.30093954556863e-05,2.7237830068355e-07,0,0,0,0,0,0,0,0,0,0,0
"4",0.106019269745911,0.150084467396548,0.228680642738984,0.235872224508643,0.160668421481317,0.0785357544784515,0.0298787119016643,0.00831128523560042,0.00171781479284277,0.000218125946280558,1.30093954556863e-05,2.7237830068355e-07,0,0,0,0,0,0,0,0,0,0
"5",0.0374533647764599,0.070863469000439,0.14865026583765,0.228045701882102,0.235700582378854,0.160623523800713,0.0785250107144259,0.0298776279220554,0.00831123219533243,0.0017178137719312,0.000218125946280558,1.30093954556863e-05,2.7237830068355e-07,0,0,0,0,0,0,0,0,0
"6",0.0109225127101362,0.0267791936645411,0.0706961865111778,0.14858643461198,0.228032411168621,0.235697449571641,0.16062278354773,0.0785249490823681,0.0298776254863561,0.00831123215347931,0.0017178137719312,0.000218125946280558,1.30093954556863e-05,2.7237830068355e-07,0,0,0,0,0,0,0,0
"7",0.00257101325080226,0.00836956841850392,0.026766091530007,0.0706920131728508,0.148585802005841,0.228032282351323,0.235697419499053,0.160622781607734,0.0785249490327066,0.0298776254857315,0.00831123215347931,0.0017178137719312,0.000218125946280558,1.30093954556863e-05,2.7237830068355e-07,0,0,0,0,0,0,0
"8",0.00046659237102313,0.00210528037507863,0.00836889790296812,0.0267659236920514,0.0706919955864885,0.148585799145422,0.228032281688856,0.235697419466804,0.160622781607421,0.0785249490327066,0.0298776254857315,0.00831123215347931,0.0017178137719312,0.000218125946280558,1.30093954556863e-05,2.7237830068355e-07,0,0,0,0,0,0
"9",6.23084180636582e-05,0.000404309193728158,0.00210525912058525,0.00836889420365216,0.0267659234377703,0.070691995560135,0.148585799139332,0.228032281688622,0.235697419466804,0.160622781607421,0.0785249490327066,0.0298776254857315,0.00831123215347931,0.0017178137719312,0.000218125946280558,1.30093954556863e-05,2.7237830068355e-07,0,0,0,0,0
"10",5.85603165513052e-06,5.6452797053213e-05,0.000404308818221352,0.00210525908685288,0.00836889420224665,0.0267659234377703,0.070691995560135,0.148585799139332,0.228032281688622,0.235697419466804,0.160622781607421,0.0785249490327066,0.0298776254857315,0.00831123215347931,0.0017178137719312,0.000218125946280558,1.30093954556863e-05,2.7237830068355e-07,0,0,0,0
"11",3.68234148081651e-07,5.48780031807923e-06,5.64527942421826e-05,0.000404308818221352,0.00210525908685288,0.00836889420224665,0.0267659234377703,0.070691995560135,0.148585799139332,0.228032281688622,0.235697419466804,0.160622781607421,0.0785249490327066,0.0298776254857315,0.00831123215347931,0.0017178137719312,0.000218125946280558,1.30093954556863e-05,2.7237830068355e-07,0,0,0
"12",1.44296630409938e-08,3.53804485040657e-07,5.48780031807923e-06,5.64527942421826e-05,0.000404308818221352,0.00210525908685288,0.00836889420224665,0.0267659234377703,0.070691995560135,0.148585799139332,0.228032281688622,0.235697419466804,0.160622781607421,0.0785249490327066,0.0298776254857315,0.00831123215347931,0.0017178137719312,0.000218125946280558,1.30093954556863e-05,2.7237830068355e-07,0,0
"13",3.12258622677322e-10,1.41174044183165e-08,3.53804485040657e-07,5.48780031807923e-06,5.64527942421826e-05,0.000404308818221352,0.00210525908685288,0.00836889420224665,0.0267659234377703,0.070691995560135,0.148585799139332,0.228032281688622,0.235697419466804,0.160622781607421,0.0785249490327066,0.0298776254857315,0.00831123215347931,0.0017178137719312,0.000218125946280558,1.30093954556863e-05,2.7237830068355e-07,0
"14",2.81103036168632e-12,3.09447592315636e-10,1.41174044183165e-08,3.53804485040657e-07,5.48780031807923e-06,5.64527942421826e-05,0.000404308818221352,0.00210525908685288,0.00836889420224665,0.0267659234377703,0.070691995560135,0.148585799139332,0.228032281688622,0.235697419466804,0.160622781607421,0.0785249490327066,0.0298776254857315,0.00831123215347931,0.0017178137719312,0.000218125946280558,1.30093954556863e-05,2.7237830068355e-07
"15",0,2.81103036168632e-12,3.09447592315636e-10,1.41174044183165e-08,3.53804485040657e-07,5.48780031807923e-06,5.64527942421826e-05,0.000404308818221352,0.00210525908685288,0.00836889420224665,0.0267659234377703,0.070691995560135,0.148585799139332,0.228032281688622,0.235697419466804,0.160622781607421,0.0785249490327066,0.0298776254857315,0.00831123215347931,0.0017178137719312,0.000218125946280558,1.32817737563699e-05
"16",0,0,2.81103036168632e-12,3.09447592315636e-10,1.41174044183165e-08,3.53804485040657e-07,5.48780031807923e-06,5.64527942421826e-05,0.000404308818221352,0.00210525908685288,0.00836889420224665,0.0267659234377703,0.070691995560135,0.148585799139332,0.228032281688622,0.235697419466804,0.160622781607421,0.0785249490327066,0.0298778978640321,0.00831123215347931,0.00171917566343462,0.000229773450232827
"17",0,0,0,2.81103036168632e-12,3.09447592315636e-10,1.41174044183165e-08,3.53804485040657e-07,5.48780031807923e-06,5.64527942421826e-05,0.000404308818221352,0.00210525908685288,0.00836889420224665,0.0267659234377703,0.070691995560135,0.148585799139332,0.228032281688622,0.235697419466804,0.160622781607421,0.0785322384838479,0.0298778978640321,0.00834767940918597,0.00190521240681946
"18",0,0,0,0,2.81103036168632e-12,3.09447592315636e-10,1.41174044183165e-08,3.53804485040657e-07,5.48780031807923e-06,5.64527942421826e-05,0.000404308818221352,0.00210525908685288,0.00836889420224665,0.0267659234377703,0.070691995560135,0.148585799139332,0.228032281688622,0.235697964223405,0.160692187132545,0.0785349622668547,0.0302336415952717,0.00982447402003418
"19",0,0,0,0,0,2.81103036168632e-12,3.09447592315636e-10,1.41174044183165e-08,3.53804485040657e-07,5.48780031807923e-06,5.64527942421826e-05,0.000404308818221352,0.00210525908685288,0.00836889420224665,0.0267659234377703,0.070691995560135,0.148585799139332,0.228045226321101,0.236075710320906,0.160756910294938,0.0806308068740141,0.0375068571157746
"20",0,0,0,0,0,0,2.81103036168632e-12,3.09447592315636e-10,1.41174044183165e-08,3.53804485040657e-07,5.48780031807923e-06,5.64527942421826e-05,0.000404308818221352,0.00210525908685288,0.00836889420224665,0.0267659234377703,0.070691995560135,0.14868060110443,0.229546341563646,0.236549720146398,0.169779317949237,0.107045329302354
"21",0,0,0,0,0,0,0,2.81103036168632e-12,3.09447592315636e-10,1.41174044183165e-08,3.53804485040657e-07,5.48780031807923e-06,5.64527942421826e-05,0.000404308818221352,0.00210525908685288,0.00836889420224665,0.0267691919773785,0.0710556334144335,0.153084463617155,0.231416827468869,0.264236885556822,0.242496227029311
"22",0,0,0,0,0,0,0,0,2.81103036168632e-12,3.09447592315636e-10,1.41174044183165e-08,3.53804485040657e-07,5.48780031807923e-06,5.64527942421826e-05,0.000404308818221352,0.00210771049155903,0.00845738903457019,0.0282041731463917,0.0816935855763508,0.161562522162915,0.303100848538094,0.414407153403189
