"","X0","X1","X2","X3","X4","X5","X6","X7","X8","X9","X10","X11","X12","X13","X14","X15","X16","X17","X18","X19","X20","X21","X22","X23","X24"
"1",0.967741935483871,0,0,0,0.032258064516129,0,0,0,0,0,0,0,0,0,0,0,0,0,0,0,0,0,0,0,0
"2",0.061427948037998,0.906313987445873,0,0,0.00204759826793326,0.0302104662481957,0,0,0,0,0,0,0,0,0,0,0,0,0,0,0,0,0,0,0
"3",0.0302429506205056,0.0604209324963915,0.877078052366974,0,0.00100809835401685,0.00201403108321305,0.0292359350788991,0,0,0,0,0,0,0,0,0,0,0,0,0,0,0,0,0,0
"4",0.00194906233859327,0.0302429506205056,0.0584718701577982,0.877078052366974,6.49687446197756e-05,0.00100809835401685,0.00194906233859327,0.0292359350788991,0,0,0,0,0,0,0,0,0,0,0,0,0,0,0,0,0
"5",3.24843723098878e-05,0.00194906233859327,0.0302104662481957,0.0584718701577982,0.877079135179384,6.49687446197756e-05,0.00100701554160652,0.00194906233859327,0.0292359350788991,0,0,0,0,0,0,0,0,0,0,0,0,0,0,0,0
"6",0,3.24843723098878e-05,0.00194906233859327,0.0302104662481957,0.0584718701577982,0.877079135179384,6.49687446197756e-05,0.00100701554160652,0.00194906233859327,0.0292359350788991,0,0,0,0,0,0,0,0,0,0,0,0,0,0,0
"7",0,0,3.24843723098878e-05,0.00194906233859327,0.0302104662481957,0.0584718701577982,0.877079135179384,6.49687446197756e-05,0.00100701554160652,0.00194906233859327,0.0292359350788991,0,0,0,0,0,0,0,0,0,0,0,0,0,0
"8",0,0,0,3.24843723098878e-05,0.00194906233859327,0.0302104662481957,0.0584718701577982,0.877079135179384,6.49687446197756e-05,0.00100701554160652,0.00194906233859327,0.0292359350788991,0,0,0,0,0,0,0,0,0,0,0,0,0
"9",0,0,0,0,3.24843723098878e-05,0.00194906233859327,0.0302104662481957,0.0584718701577982,0.877079135179384,6.49687446197756e-05,0.00100701554160652,0.00194906233859327,0.0292359350788991,0,0,0,0,0,0,0,0,0,0,0,0
"10",0,0,0,0,0,3.24843723098878e-05,0.00194906233859327,0.0302104662481957,0.0584718701577982,0.877079135179384,6.49687446197756e-05,0.00100701554160652,0.00194906233859327,0.0292359350788991,0,0,0,0,0,0,0,0,0,0,0
"11",0,0,0,0,0,0,3.24843723098878e-05,0.00194906233859327,0.0302104662481957,0.0584718701577982,0.877079135179384,6.49687446197756e-05,0.00100701554160652,0.00194906233859327,0.0292359350788991,0,0,0,0,0,0,0,0,0,0
"12",0,0,0,0,0,0,0,3.24843723098878e-05,0.00194906233859327,0.0302104662481957,0.0584718701577982,0.877079135179384,6.49687446197756e-05,0.00100701554160652,0.00194906233859327,0.0292359350788991,0,0,0,0,0,0,0,0,0
"13",0,0,0,0,0,0,0,0,3.24843723098878e-05,0.00194906233859327,0.0302104662481957,0.0584718701577982,0.877079135179384,6.49687446197756e-05,0.00100701554160652,0.00194906233859327,0.0292359350788991,0,0,0,0,0,0,0,0
"14",0,0,0,0,0,0,0,0,0,3.24843723098878e-05,0.00194906233859327,0.0302104662481957,0.0584718701577982,0.877079135179384,6.49687446197756e-05,0.00100701554160652,0.00194906233859327,0.0292359350788991,0,0,0,0,0,0,0
"15",0,0,0,0,0,0,0,0,0,0,3.24843723098878e-05,0.00194906233859327,0.0302104662481957,0.0584718701577982,0.877079135179384,6.49687446197756e-05,0.00100701554160652,0.00194906233859327,0.0292359350788991,0,0,0,0,0,0
"16",0,0,0,0,0,0,0,0,0,0,0,3.24843723098878e-05,0.00194906233859327,0.0302104662481957,0.0584718701577982,0.877079135179384,6.49687446197756e-05,0.00100701554160652,0.00194906233859327,0.0292359350788991,0,0,0,0,0
"17",0,0,0,0,0,0,0,0,0,0,0,0,3.24843723098878e-05,0.00194906233859327,0.0302104662481957,0.0584718701577982,0.877079135179384,6.49687446197756e-05,0.00100701554160652,0.00194906233859327,0.0292359350788991,0,0,0,0
"18",0,0,0,0,0,0,0,0,0,0,0,0,0,3.24843723098878e-05,0.00194906233859327,0.0302104662481957,0.0584718701577982,0.877079135179384,6.49687446197756e-05,0.00100701554160652,0.00194906233859327,0.0292359350788991,0,0,0
"19",0,0,0,0,0,0,0,0,0,0,0,0,0,0,3.24843723098878e-05,0.00194906233859327,0.0302104662481957,0.0584718701577982,0.877079135179384,6.49687446197756e-05,0.00100701554160652,0.00194906233859327,0.0292359350788991,0,0
"20",0,0,0,0,0,0,0,0,0,0,0,0,0,0,0,3.24843723098878e-05,0.00194906233859327,0.0302104662481957,0.0584718701577982,0.877079135179384,6.49687446197756e-05,0.00100701554160652,0.00194906233859327,0.0292359350788991,0
"21",0,0,0,0,0,0,0,0,0,0,0,0,0,0,0,0,3.24843723098878e-05,0.00194906233859327,0.0302104662481957,0.0584718701577982,0.877079135179384,6.49687446197756e-05,0.00100701554160652,0.00194906233859327,0.0292359350788991
"22",0,0,0,0,0,0,0,0,0,0,0,0,0,0,0,0,0,3.24843723098878e-05,0.00194906233859327,0.0302104662481957,0.0584718701577982,0.906315070258283,6.49687446197756e-05,0.00100701554160652,0.00194906233859327
"23",0,0,0,0,0,0,0,0,0,0,0,0,0,0,0,0,0,0,3.24843723098878e-05,0.00194906233859327,0.0302104662481957,0.0604209324963915,0.906315070258283,6.49687446197756e-05,0.00100701554160652
"24",0,0,0,0,0,0,0,0,0,0,0,0,0,0,0,0,0,0,0,3.24843723098878e-05,0.00194906233859327,0.0312174817898023,0.0604209324963915,0.906315070258283,6.49687446197756e-05
"25",0,0,0,0,0,0,0,0,0,0,0,0,0,0,0,0,0,0,0,0,3.24843723098878e-05,0.00201403108321305,0.0312174817898023,0.0604209324963915,0.906315070258283
