"","X0","X1","X2","X3","X4","X5","X6","X7","X8","X9","X10","X11","X12","X13","X14","X15","X16","X17","X18","X19","X20","X21","X22","X23","X24"
"1",0.292978801865125,0.327348452760958,0.185428056346951,0.116511409581082,0.0505969995348469,0.0170625671580532,0.00613536290674749,0.00276745962636491,0.000946273311848455,0.000197083302678624,2.59596789178389e-05,1.54390330360772e-06,3.00231219332921e-08,0,0,0,0,0,0,0,0,0,0,0,0
"2",0.133976680669437,0.302506003484303,0.261685104756451,0.155625285433331,0.0856009644171869,0.0370699219135179,0.014129829563501,0.00564646211940102,0.00264897981044702,0.000898660894707459,0.000186221137174558,2.44098742222426e-05,1.44780893203421e-06,2.81173878667668e-08,0,0,0,0,0,0,0,0,0,0,0
"3",0.0381846390059233,0.141842700058615,0.284603777764293,0.250764776400194,0.145621589567803,0.0805995103657493,0.0355385911315422,0.0137013168655481,0.00549643947932797,0.00257063610221476,0.000870681566733876,0.000180288394115192,2.36249519134263e-05,1.40113565184802e-06,2.72103753549356e-08,0,0,0,0,0,0,0,0,0,0
"4",0.00772366148259249,0.0390199296994959,0.138105142854117,0.282743555874904,0.248902314763382,0.144781083782788,0.0803991010354205,0.0354982284733922,0.0136913584210076,0.00549126688470594,0.00256878268490232,0.000870287744305542,0.000180236170982443,2.36218424441833e-05,1.40107518434723e-06,2.72103753549356e-08,0,0,0,0,0,0,0,0,0
"5",0.00118487481585132,0.00779711764830694,0.0384384362482948,0.137845156226939,0.282469621862658,0.248785776230046,0.14475803350999,0.0803960697459526,0.0354980563865663,0.0136912720897093,0.0054912359944174,0.00256877612119518,0.000870286873919996,0.000180236119157955,2.36218414363916e-05,1.40107518434723e-06,2.72103753549356e-08,0,0,0,0,0,0,0,0
"6",0.00012103849594193,0.00119150897837568,0.00773760052462886,0.0384122865008912,0.137817362692357,0.282457915803157,0.248783536633116,0.144757767122372,0.0803960695412629,0.0354980563825016,0.0136912720897093,0.0054912359944174,0.00256877612119518,0.000870286873919996,0.000180236119157955,2.36218414363916e-05,1.40107518434723e-06,2.72103753549356e-08,0,0,0,0,0,0,0
"7",7.32226534337349e-06,0.000121435762537789,0.00118790815208007,0.00773602058261384,0.0384106060470843,0.137816655485037,0.28245778073319,0.248783520602306,0.14475776712068,0.0803960695412293,0.0354980563825016,0.0136912720897093,0.0054912359944174,0.00256877612119518,0.000870286873919996,0.000180236119157955,2.36218414363916e-05,1.40107518434723e-06,2.72103753549356e-08,0,0,0,0,0,0
"8",2.49424098793958e-07,7.3357758153915e-06,0.000121313103040871,0.00118785434402709,0.0077359633449795,0.0384105819620698,0.13781665088628,0.282457780187575,0.248783520602306,0.14475776712068,0.0803960695412293,0.0354980563825016,0.0136912720897093,0.0054912359944174,0.00256877612119518,0.000870286873919996,0.000180236119157955,2.36218414363916e-05,1.40107518434723e-06,2.72103753549356e-08,0,0,0,0,0
"9",4.42386268809091e-09,2.49663724689563e-07,7.33360028875082e-06,0.00012131214868466,0.00118785332884277,0.00773596291780026,0.0384105818805048,0.137816650876603,0.282457780187575,0.248783520602306,0.14475776712068,0.0803960695412293,0.0354980563825016,0.0136912720897093,0.0054912359944174,0.00256877612119518,0.000870286873919996,0.000180236119157955,2.36218414363916e-05,1.40107518434723e-06,2.72103753549356e-08,0,0,0,0
"10",3.18105673083651e-11,4.42558576048678e-09,2.49648081180369e-07,7.33359342628365e-06,0.000121312141384798,0.00118785332577106,0.00773596291721376,0.0384105818804352,0.137816650876603,0.282457780187575,0.248783520602306,0.14475776712068,0.0803960695412293,0.0354980563825016,0.0136912720897093,0.0054912359944174,0.00256877612119518,0.000870286873919996,0.000180236119157955,2.36218414363916e-05,1.40107518434723e-06,2.72103753549356e-08,0,0,0
"11",0,3.18105673083651e-11,4.42558576048678e-09,2.49648081180369e-07,7.33359342628365e-06,0.000121312141384798,0.00118785332577106,0.00773596291721376,0.0384105818804352,0.137816650876603,0.282457780187575,0.248783520602306,0.14475776712068,0.0803960695412293,0.0354980563825016,0.0136912720897093,0.0054912359944174,0.00256877612119518,0.000870286873919996,0.000180236119157955,2.36218414363916e-05,1.40107518434723e-06,2.72103753549356e-08,0,0
"12",0,0,3.18105673083651e-11,4.42558576048678e-09,2.49648081180369e-07,7.33359342628365e-06,0.000121312141384798,0.00118785332577106,0.00773596291721376,0.0384105818804352,0.137816650876603,0.282457780187575,0.248783520602306,0.14475776712068,0.0803960695412293,0.0354980563825016,0.0136912720897093,0.0054912359944174,0.00256877612119518,0.000870286873919996,0.000180236119157955,2.36218414363916e-05,1.40107518434723e-06,2.72103753549356e-08,0
"13",0,0,0,3.18105673083651e-11,4.42558576048678e-09,2.49648081180369e-07,7.33359342628365e-06,0.000121312141384798,0.00118785332577106,0.00773596291721376,0.0384105818804352,0.137816650876603,0.282457780187575,0.248783520602306,0.14475776712068,0.0803960695412293,0.0354980563825016,0.0136912720897093,0.0054912359944174,0.00256877612119518,0.000870286873919996,0.000180236119157955,2.36218414363916e-05,1.40107518434723e-06,2.72103753549356e-08
"14",0,0,0,0,3.18105673083651e-11,4.42558576048678e-09,2.49648081180369e-07,7.33359342628365e-06,0.000121312141384798,0.00118785332577106,0.00773596291721376,0.0384105818804352,0.137816650876603,0.282457780187575,0.248783520602306,0.14475776712068,0.0803960695412293,0.0354980563825016,0.0136912720897093,0.0054912359944174,0.00256877612119518,0.000870286873919996,0.000180236119157955,2.36218414363916e-05,1.42828555970217e-06
"15",0,0,0,0,0,3.18105673083651e-11,4.42558576048678e-09,2.49648081180369e-07,7.33359342628365e-06,0.000121312141384798,0.00118785332577106,0.00773596291721376,0.0384105818804352,0.137816650876603,0.282457780187575,0.248783520602306,0.14475776712068,0.0803960695412293,0.0354980563825016,0.0136912720897093,0.0054912359944174,0.00256877612119518,0.000870286873919996,0.000180236119157955,2.50501269960938e-05
"16",0,0,0,0,0,0,3.18105673083651e-11,4.42558576048678e-09,2.49648081180369e-07,7.33359342628365e-06,0.000121312141384798,0.00118785332577106,0.00773596291721376,0.0384105818804352,0.137816650876603,0.282457780187575,0.248783520602306,0.14475776712068,0.0803960695412293,0.0354980563825016,0.0136912720897093,0.0054912359944174,0.00256877612119518,0.000870286873919996,0.000205286246154049
"17",0,0,0,0,0,0,0,3.18105673083651e-11,4.42558576048678e-09,2.49648081180369e-07,7.33359342628365e-06,0.000121312141384798,0.00118785332577106,0.00773596291721376,0.0384105818804352,0.137816650876603,0.282457780187575,0.248783520602306,0.14475776712068,0.0803960695412293,0.0354980563825016,0.0136912720897093,0.0054912359944174,0.00256877612119518,0.00107557312007404
"18",0,0,0,0,0,0,0,0,3.18105673083651e-11,4.42558576048678e-09,2.49648081180369e-07,7.33359342628365e-06,0.000121312141384798,0.00118785332577106,0.00773596291721376,0.0384105818804352,0.137816650876603,0.282457780187575,0.248783520602306,0.14475776712068,0.0803960695412293,0.0354980563825016,0.0136912720897093,0.0054912359944174,0.00364434924126922
"19",0,0,0,0,0,0,0,0,0,3.18105673083651e-11,4.42558576048678e-09,2.49648081180369e-07,7.33359342628365e-06,0.000121312141384798,0.00118785332577106,0.00773596291721376,0.0384105818804352,0.137816650876603,0.282457780187575,0.248783520602306,0.14475776712068,0.0803960695412293,0.0354980563825016,0.0136912720897093,0.00913558523568662
"20",0,0,0,0,0,0,0,0,0,0,3.18105673083651e-11,4.42558576048678e-09,2.49648081180369e-07,7.33359342628365e-06,0.000121312141384798,0.00118785332577106,0.00773596291721376,0.0384105818804352,0.137816650876603,0.282457780187575,0.248783520602306,0.14475776712068,0.0803966618759309,0.0355034194796124,0.0228209018935835
"21",0,0,0,0,0,0,0,0,0,0,0,3.18105673083651e-11,4.42558576048678e-09,2.49648081180369e-07,7.33359342628365e-06,0.000121312141384798,0.00118785332577106,0.00773596291721376,0.0384105818804352,0.137816650876603,0.282457780187575,0.248785297606411,0.144799109614791,0.0806626180796663,0.058015245671245
"22",0,0,0,0,0,0,0,0,0,0,0,0,3.18105673083651e-11,4.42558576048678e-09,2.49648081180369e-07,7.33359342628365e-06,0.000121340770895375,0.00119011858232084,0.0077981053524518,0.0391240481394668,0.141546649650607,0.291179918441395,0.256615682594807,0.148650676193121,0.113765872576032
"23",0,0,0,0,0,0,0,0,0,0,0,0,0,3.18105673083651e-11,4.42558576048678e-09,2.49648081180369e-07,7.33550206032215e-06,0.000121491787998694,0.00119426141133671,0.00784566976972058,0.0393727147244004,0.142128178844318,0.291703183153565,0.25688042126268,0.260746489438442
"24",0,0,0,0,0,0,0,0,0,0,0,0,0,0,3.18105673083651e-11,4.42558576048678e-09,2.50634208766928e-07,7.41352756370368e-06,0.000123632249656894,0.00121883636025891,0.00797414750526961,0.0396731437992909,0.142416250740478,0.292002078396804,0.516584242329072
"25",0,0,0,0,0,0,0,0,0,0,0,0,0,0,0,3.18105673083651e-11,4.48920689510351e-09,2.55668112210898e-07,7.55162186423267e-06,0.000125217730232519,0.00122712524642337,0.00804861696452682,0.0409721573376905,0.150669422171643,0.79894964873849
