"","X0","X1","X2","X3","X4","X5","X6","X7","X8","X9","X10","X11","X12","X13","X14","X15","X16","X17","X18","X19","X20","X21","X22","X23","X24"
"1",0.105546153212443,0.120156006363595,0.140643869917364,0.14760665272819,0.134201178101352,0.111398186746323,0.0848896996470763,0.0601659275860325,0.0401087520657999,0.0251147500519445,0.0147428279335941,0.00805167574611502,0.00407906774986672,0.0019165487513174,0.000837138679349204,0.000341621323562778,0.000130751851884527,4.69035133626022e-05,1.56687699022036e-05,4.82671700414635e-06,1.35588832188427e-06,3.42678610175705e-07,7.65432977599769e-08,1.50243965409138e-08,2.40929286565257e-09
"2",0.0758894453026645,0.0949388921925058,0.123221303397247,0.140915046505997,0.138853587097907,0.12289271033095,0.0988796610009284,0.073594414585084,0.051370525915962,0.0337895889857833,0.0209270713178487,0.012136061326728,0.00656747878208019,0.00331247728786493,0.00156069442679072,0.000689642618439718,0.000287034798748579,0.000112610833113401,4.14516815481972e-05,1.41739467502821e-05,4.44914295246738e-06,1.26684028392027e-06,3.22823693894498e-07,7.43985654547565e-08,1.44595610685198e-08
"3",0.0418819221656696,0.0608569084380384,0.0931298582110859,0.122764437246691,0.13741754406413,0.135078946710052,0.118583497339095,0.0948944643646697,0.0704596930534122,0.0490999539807054,0.0322739689602293,0.019963192630366,0.0115710609833814,0.00626274957358381,0.00316238006865449,0.00149314049998735,0.000661652771854461,0.000276216631036267,0.000108663764193532,4.0084051550413e-05,1.37257580040615e-05,4.31174300847936e-06,1.22803715668637e-06,3.24264318743908e-07,7.46891251034748e-08
"4",0.0182131155464957,0.0317605698014433,0.0588545878006843,0.0925975835907048,0.121559974929142,0.136536795859478,0.134132614656359,0.117739398974943,0.0942650503137764,0.0700262066274482,0.0488281281079625,0.0321073955896352,0.0198695488378906,0.0115225093364534,0.00623994017902783,0.00315272506636072,0.00148945120829664,0.000660366391658534,0.000275801406146627,0.000108537556800667,4.00474587039587e-05,1.37155834124395e-05,4.30934660277744e-06,1.28090926359186e-06,3.44921307340982e-07
"5",0.00650693604954429,0.0137747345570237,0.0309361896486046,0.0586867773784277,0.0922771558354162,0.121393708645419,0.136363461344714,0.133981941942701,0.117632745831014,0.0941952596656509,0.069985494468324,0.0488039993930759,0.0320943686919025,0.0198629940041089,0.0115195328035305,0.00623873593158826,0.0031522944408188,0.00148931528592336,0.000660328608066343,0.000275792162156124,0.000108535570785782,4.00471310581226e-05,1.37179422366173e-05,4.52204544105853e-06,1.41062246650366e-06
"6",0.00194502211750179,0.00500882949749691,0.0135357738446021,0.0309023238612833,0.0586172413990953,0.0922524600563893,0.121368276854225,0.136341889146781,0.133967599051573,0.11762395163126,0.0941906544570998,0.0699828689805905,0.0488026536073421,0.0320937052021097,0.0198626965902712,0.0115194136325435,0.00623869382319463,0.00315228139061416,0.00148931177075256,0.000660327796674578,0.000275792074289605,0.000108536133383537,4.00624868673255e-05,1.44583861641303e-05,5.17620789348398e-06
"7",0.000491320323218612,0.00153627939174139,0.00495519354080885,0.0135312749191133,0.0308896149664063,0.058614254039301,0.0922493766682616,0.121365746725538,0.136340342039815,0.133966736831456,0.117623581833457,0.0941904590710317,0.0699827809250478,0.0488026121855952,0.0320936870644918,0.0198626893757638,0.0115194110894111,0.00623869303522623,0.00315228117843417,0.00148931173554363,0.000660328341928118,0.000275796568246813,0.000108615793513846,4.24015486886639e-05,1.72108079593851e-05
"8",0.000105343256238273,0.000399023443433516,0.00152662091055301,0.00495491839264616,0.0135293106500906,0.0308893104261696,0.0586139280436943,0.0922491190544992,0.121365601587299,0.136340268521825,0.1339667128935,0.117623570438657,0.0941904552952273,0.0699827793666447,0.0488026115503531,0.032093686817164,0.0198626892891578,0.011519411062578,0.00623869302800111,0.00315228130421041,0.00148931524889127,0.000660355376879943,0.000276145939041126,0.000115502505819674,5.23455974243401e-05
"9",1.91684474811405e-05,8.79120551442182e-05,0.00039760458073558,0.00152665217448853,0.00495466272744694,0.0135292857514475,0.0308892818914458,0.0586139064889993,0.0922491076603417,0.121365596165349,0.136340267150919,0.133966712267128,0.117623570314529,0.0941904552573805,0.0699827793543041,0.0488026115458665,0.032093686815628,0.0198626892886819,0.0115194110624506,0.00623869387861384,0.00315229937327838,0.00148944724745353,0.000661684111733893,0.000295270530883723,0.000147243858267455
"10",2.94736524961634e-06,1.6413182424986e-05,8.77426655830041e-05,0.000397615522800067,0.00152662434449327,0.00495466120278726,0.0135292838658204,0.0308892805579495,0.0586139058182357,0.0922491073521392,0.121365596101232,0.136340267119604,0.133966712263512,0.117623570313806,0.0941904552572521,0.0699827793542681,0.0488026115458555,0.0320936868156245,0.019862689288724,0.0115194153853547,0.00623877082667371,0.00315283628263933,0.00149392482616015,0.000711809302705597,0.000387293439104631
"11",3.79351754341656e-07,2.5852769525924e-06,1.63970912106057e-05,8.77442269545956e-05,0.000397613041728309,0.00152662427803241,0.00495466111521003,0.0135292838099163,0.0308892805309317,0.0586139058060832,0.0922491073499913,0.121365596100047,0.13634026711952,0.133966712263499,0.117623570313805,0.094190455257252,0.0699827793542681,0.0488026115458566,0.032093686816576,0.0198627066976377,0.0115196921361564,0.00624063489395253,0.00316646106871739,0.00161767850969402,0.000959566044251594
"12",4.02025060605555e-08,3.40364753570091e-07,2.58410313407895e-06,1.6397230840232e-05,8.77440528596341e-05,0.000397613039756488,0.00152662427532539,0.00495466111373895,0.0135292838092276,0.0308892805306263,0.0586139058060365,0.0922491073499619,0.121365596100046,0.13634026711952,0.133966712263499,0.117623570313805,0.094190455257252,0.0699827793543299,0.0488026115578229,0.0320937447459795,0.0198635693426356,0.0115253708940218,0.00627869435714342,0.00345429690807372,0.00224474990710345
"13",3.42057923164437e-09,3.68456276651671e-08,3.40302009483092e-07,2.5841114146714e-06,1.63972217296952e-05,8.77440528221463e-05,0.00039761303970419,0.00152662427530366,0.00495466111372903,0.0135292838092233,0.0308892805306257,0.0586139058060361,0.0922491073499619,0.121365596100046,0.13634026711952,0.133966712263499,0.117623570313805,0.0941904552584731,0.069982779462561,0.0488027791034145,0.0320961564062653,0.0198792466702312,0.0116243616708364,0.00691158740611468,0.00494890634646613
"14",2.25707186831866e-10,3.19720764861319e-09,3.68433047155559e-08,3.40302331844659e-07,2.58411108086052e-06,1.63972217292862e-05,8.7744052821581e-05,0.000397613039704054,0.0015266242753036,0.00495466111372901,0.0135292838092233,0.0308892805306257,0.0586139058060361,0.0922491073499619,0.121365596100046,0.136340267119521,0.133966712263517,0.117623570326076,0.0941904559768806,0.0699832238637934,0.0488090350194098,0.0321364898027805,0.0201211548639478,0.0129455197746271,0.0102503930106334
"15",1.10552906324539e-11,2.14707425626429e-10,3.19715219209032e-09,3.6843312580957e-08,3.4030232391087e-07,2.58411108085858e-06,1.63972217292836e-05,8.7744052821581e-05,0.000397613039704054,0.0015266242753036,0.00495466111372901,0.0135292838092233,0.0308892805306257,0.0586139058060361,0.0922491073499619,0.121365596100075,0.136340267120481,0.13396671235258,0.117623574020153,0.0941915785900377,0.0699985928323123,0.0489070983574389,0.0326929842973201,0.0227488403362377,0.0198971741145966
"16",3.80763644265217e-13,1.06752870161808e-11,2.14706665598437e-10,3.19715230066574e-09,3.68433124723816e-08,3.4030232391087e-07,2.58411108085858e-06,1.63972217292836e-05,8.7744052821581e-05,0.000397613039704054,0.0015266242753036,0.00495466111372901,0.0135292838092233,0.0308892805306257,0.0586139058060361,0.0922491073504699,0.121365596116925,0.136340267687711,0.133966728129894,0.117626272293871,0.0942271863613752,0.0702226461544536,0.0501063117279075,0.0376710365407211,0.0362063731078644
"17",8.58201584340291e-15,3.72186144607568e-13,1.06752824999951e-11,2.14706666243606e-10,3.19715230002057e-09,3.68433124723816e-08,3.4030232391087e-07,2.58411108085858e-06,1.63972217292836e-05,8.7744052821581e-05,0.000397613039704054,0.0015266242753036,0.00495466111372901,0.0135292838092233,0.0308892805306257,0.0586139058101996,0.0922491074885605,0.121365599141297,0.136340326342844,0.133972768191539,0.117702784746881,0.0947012575534,0.0726259106184788,0.0590609373262052,0.0619628340578252
"18",1.12446443807997e-16,8.46956939959491e-15,3.72186144607568e-13,1.06752824999951e-11,2.14706666243606e-10,3.19715230002057e-09,3.68433124723816e-08,3.4030232391087e-07,2.58411108085858e-06,1.63972217292836e-05,8.7744052821581e-05,0.000397613039704054,0.0015266242753036,0.00495466111372901,0.0135292838092233,0.03088928055244,0.0586139065337089,0.0922491207434306,0.121365799543589,0.136352837724495,0.134124162751102,0.118625511545048,0.0991714837328741,0.0878727823172777,0.100219826363891
"19",6.45169393444544e-19,1.11801274414552e-16,8.46956939959491e-15,3.72186144607568e-13,1.06752824999951e-11,2.14706666243606e-10,3.19715230002057e-09,3.68433124723816e-08,3.4030232391087e-07,2.58411108085858e-06,1.63972217292836e-05,8.7744052821581e-05,0.000397613039704054,0.0015266242753036,0.00495466111372901,0.0135292838831365,0.0308892830038963,0.05861394925909,0.0922497070429778,0.121389587765425,0.136627278408585,0.135769644860906,0.126344372185026,0.123698959669686,0.153901929538351
"20",0,6.45169393444544e-19,1.11801274414552e-16,8.46956939959491e-15,3.72186144607568e-13,1.06752824999951e-11,2.14706666243606e-10,3.19715230002057e-09,3.68433124723816e-08,3.4030232391087e-07,2.58411108085858e-06,1.63972217292836e-05,8.7744052821581e-05,0.000397613039716067,0.00152662427582283,0.00495466130893205,0.0135292901413266,0.0308893908270343,0.0586154020247236,0.0922909866874039,0.121845113798005,0.139320428525177,0.148194016712768,0.163697580786284,0.224631785918623
"21",0,0,6.45169393444544e-19,1.11801274414552e-16,8.46956939959491e-15,3.72186144607568e-13,1.06752824999951e-11,2.14706666243606e-10,3.19715230002057e-09,3.68433124723816e-08,3.4030232391087e-07,2.58411108085858e-06,1.63972217653241e-05,8.77440548914568e-05,0.000397613092727884,0.00152662553742845,0.00495468464603666,0.0135296108437604,0.0308931409033281,0.0586842630388198,0.0929990509874635,0.125948261609165,0.158108767304712,0.202219229806507,0.310631646273761
"22",0,0,0,6.45169393444544e-19,1.11801274414552e-16,8.46956939959491e-15,3.72186144607568e-13,1.06758631524492e-11,2.14772448243333e-10,3.20028798571427e-09,3.6927916426743e-08,3.41783567388265e-07,2.60237034446423e-06,1.656458832322e-05,8.89290461832403e-05,0.00040426552327235,0.00155674474031636,0.00506583882907467,0.0138675837565758,0.0317993736142762,0.061251184429523,0.101096969714729,0.154674296546572,0.232052863611667,0.398122401091541
"23",0,0,0,0,6.45169393444544e-19,1.11801274414552e-16,8.46956939959491e-15,3.72224854771175e-13,1.06802486190977e-11,2.14981493956246e-10,3.20592824933837e-09,3.70266659919027e-08,3.43000852709857e-07,2.61352817706198e-06,1.66435893319498e-05,8.93747944069138e-05,0.000406347635054265,0.00156537669184018,0.00510282548230253,0.0140896569567752,0.0333804491861646,0.0694881327431739,0.137245326169625,0.250598362076299,0.488014507687359
"24",0,0,0,0,0,6.45169393444544e-19,1.11801274414552e-16,8.48956965079169e-15,3.74490679206219e-13,1.07882555707694e-11,2.17895630162029e-10,3.25694885800419e-09,3.76555961800943e-08,3.48766073066557e-07,2.65436063549458e-06,1.68782838443283e-05,9.05897865945836e-05,0.000412979117130418,0.00160752240167047,0.00541062927406066,0.0162884585572264,0.0444898800431278,0.116529077365585,0.256905501539592,0.558245439362846
"25",0,0,0,0,0,0,6.45169393444544e-19,1.13091613201441e-16,8.63575187240745e-15,3.81458869636656e-13,1.09762643582393e-11,2.21187282334018e-10,3.29864225075726e-09,3.80916877842246e-08,3.5304274743908e-07,2.70437986156211e-06,1.7540189111727e-05,9.79990548973197e-05,0.000478439676208098,0.0020902860199023,0.00853268836233651,0.0309565758903078,0.102536783111087,0.256918452282742,0.598368136367915
