"","X0","X1","X2","X3","X4","X5","X6","X7","X8","X9","X10","X11","X12","X13","X14","X15","X16","X17","X18","X19","X20","X21","X22","X23","X24"
"1",0.73320997029267,0.192940085539805,0.0414809065178474,0.0107455429283181,0.0160375488574016,0.00462681410375704,0.000893190370818848,6.45674741350643e-05,1.37391524656637e-06,0,0,0,0,0,0,0,0,0,0,0,0,0,0,0,0
"2",0.335290599279503,0.470658731210257,0.134997632633469,0.0274888576856105,0.0109612929455587,0.0153106299345363,0.004389820297608,0.000840593079770242,6.05562284616008e-05,1.28670522571252e-06,0,0,0,0,0,0,0,0,0,0,0,0,0,0,0
"3",0.0955610366788861,0.273351080014724,0.445167542278663,0.128074020937658,0.0271042142913051,0.01076822977898,0.0148493110560581,0.00425113044911493,0.000813585130713795,5.86041852910392e-05,1.24519860552825e-06,0,0,0,0,0,0,0,0,0,0,0,0,0,0
"4",0.0193292674082588,0.0811410227377777,0.26951910344974,0.444173519077343,0.128044535245676,0.0270920593253062,0.0107377341967056,0.0148401225495368,0.00424933430305289,0.000813455089813923,5.86014181830269e-05,1.24519860552825e-06,0,0,0,0,0,0,0,0,0,0,0,0,0
"5",0.00296527265112792,0.0169802620584714,0.0806497382071104,0.269395768926321,0.444172772518515,0.128044327107965,0.0270915510656017,0.0107375810549303,0.0148400926137691,0.00424933213570456,0.000813455043695456,5.86014181830269e-05,1.24519860552825e-06,0,0,0,0,0,0,0,0,0,0,0,0
"6",0.000302911444271341,0.00272313847525528,0.0169316448940312,0.0806375868323894,0.269395760383094,0.444172772332504,0.128044327107965,0.0270915510656017,0.0107375810549303,0.0148400926137691,0.00424933213570456,0.000813455043695456,5.86014181830269e-05,1.24519860552825e-06,0,0,0,0,0,0,0,0,0,0,0
"7",1.83247317577654e-05,0.000288253270266322,0.00272020526748514,0.016930911616191,0.0806375867617843,0.269395760381557,0.444172772332504,0.128044327107965,0.0270915510656017,0.0107375810549303,0.0148400926137691,0.00424933213570456,0.000813455043695456,5.86014181830269e-05,1.24519860552825e-06,0,0,0,0,0,0,0,0,0,0
"8",6.24209788908837e-07,1.78253639266383e-05,0.000288153396700097,0.00272018029909358,0.016930911616191,0.0806375867617843,0.269395760381557,0.444172772332504,0.128044327107965,0.0270915510656017,0.0107375810549303,0.0148400926137691,0.00424933213570456,0.000813455043695456,5.86014181830269e-05,1.24519860552825e-06,0,0,0,0,0,0,0,0,0
"9",1.10711771959775e-08,6.15352847152055e-07,1.7823592538287e-05,0.000288152953853009,0.00272018029909358,0.016930911616191,0.0806375867617843,0.269395760381557,0.444172772332504,0.128044327107965,0.0270915510656017,0.0107375810549303,0.0148400926137691,0.00424933213570456,0.000813455043695456,5.86014181830269e-05,1.24519860552825e-06,0,0,0,0,0,0,0,0
"10",7.96092582899448e-11,1.10074897893456e-08,6.15340109670729e-07,1.78235893539167e-05,0.000288152953853009,0.00272018029909358,0.016930911616191,0.0806375867617843,0.269395760381557,0.444172772332504,0.128044327107965,0.0270915510656017,0.0107375810549303,0.0148400926137691,0.00424933213570456,0.000813455043695456,5.86014181830269e-05,1.24519860552825e-06,0,0,0,0,0,0,0
"11",0,7.96092582899448e-11,1.10074897893456e-08,6.15340109670729e-07,1.78235893539167e-05,0.000288152953853009,0.00272018029909358,0.016930911616191,0.0806375867617843,0.269395760381557,0.444172772332504,0.128044327107965,0.0270915510656017,0.0107375810549303,0.0148400926137691,0.00424933213570456,0.000813455043695456,5.86014181830269e-05,1.24519860552825e-06,0,0,0,0,0,0
"12",0,0,7.96092582899448e-11,1.10074897893456e-08,6.15340109670729e-07,1.78235893539167e-05,0.000288152953853009,0.00272018029909358,0.016930911616191,0.0806375867617843,0.269395760381557,0.444172772332504,0.128044327107965,0.0270915510656017,0.0107375810549303,0.0148400926137691,0.00424933213570456,0.000813455043695456,5.86014181830269e-05,1.24519860552825e-06,0,0,0,0,0
"13",0,0,0,7.96092582899448e-11,1.10074897893456e-08,6.15340109670729e-07,1.78235893539167e-05,0.000288152953853009,0.00272018029909358,0.016930911616191,0.0806375867617843,0.269395760381557,0.444172772332504,0.128044327107965,0.0270915510656017,0.0107375810549303,0.0148400926137691,0.00424933213570456,0.000813455043695456,5.86014181830269e-05,1.24519860552825e-06,0,0,0,0
"14",0,0,0,0,7.96092582899448e-11,1.10074897893456e-08,6.15340109670729e-07,1.78235893539167e-05,0.000288152953853009,0.00272018029909358,0.016930911616191,0.0806375867617843,0.269395760381557,0.444172772332504,0.128044327107965,0.0270915510656017,0.0107375810549303,0.0148400926137691,0.00424933213570456,0.000813455043695456,5.86014181830269e-05,1.24519860552825e-06,0,0,0
"15",0,0,0,0,0,7.96092582899448e-11,1.10074897893456e-08,6.15340109670729e-07,1.78235893539167e-05,0.000288152953853009,0.00272018029909358,0.016930911616191,0.0806375867617843,0.269395760381557,0.444172772332504,0.128044327107965,0.0270915510656017,0.0107375810549303,0.0148400926137691,0.00424933213570456,0.000813455043695456,5.86014181830269e-05,1.24519860552825e-06,0,0
"16",0,0,0,0,0,0,7.96092582899448e-11,1.10074897893456e-08,6.15340109670729e-07,1.78235893539167e-05,0.000288152953853009,0.00272018029909358,0.016930911616191,0.0806375867617843,0.269395760381557,0.444172772332504,0.128044327107965,0.0270915510656017,0.0107375810549303,0.0148400926137691,0.00424933213570456,0.000813455043695456,5.86014181830269e-05,1.24519860552825e-06,0
"17",0,0,0,0,0,0,0,7.96092582899448e-11,1.10074897893456e-08,6.15340109670729e-07,1.78235893539167e-05,0.000288152953853009,0.00272018029909358,0.016930911616191,0.0806375867617843,0.269395760381557,0.444172772332504,0.128044327107965,0.0270915510656017,0.0107375810549303,0.0148400926137691,0.00424933213570456,0.000813455043695456,5.86014181830269e-05,1.24519860552825e-06
"18",0,0,0,0,0,0,0,0,7.96092582899448e-11,1.10074897893456e-08,6.15340109670729e-07,1.78235893539167e-05,0.000288152953853009,0.00272018029909358,0.016930911616191,0.0806375867617843,0.269395760381557,0.444172772332504,0.128044327107965,0.0270915510656017,0.0107375810549303,0.0148400926137691,0.00424933213570456,0.000813455043695456,5.98466167885552e-05
"19",0,0,0,0,0,0,0,0,0,7.96092582899448e-11,1.10074897893456e-08,6.15340109670729e-07,1.78235893539167e-05,0.000288152953853009,0.00272018029909358,0.016930911616191,0.0806375867617843,0.269395760381557,0.444172772332504,0.128044327107965,0.0270915510656017,0.0107375810549303,0.0148400926137691,0.00424933213570456,0.000873301660484011
"20",0,0,0,0,0,0,0,0,0,0,7.96092582899448e-11,1.10074897893456e-08,6.15340109670729e-07,1.78235893539167e-05,0.000288152953853009,0.00272018029909358,0.016930911616191,0.0806375867617843,0.269395760381557,0.444172772332504,0.128044327107965,0.0270915510656017,0.0107390634342226,0.0148522481239659,0.00510899590669945
"21",0,0,0,0,0,0,0,0,0,0,0,7.96092582899448e-11,1.10074897893456e-08,6.15340109670729e-07,1.78235893539167e-05,0.000288152953853009,0.00272018029909358,0.016930911616191,0.0806375867617843,0.269395760381557,0.444172772332504,0.128048774245842,0.027191216366687,0.0113179523129212,0.0192782427130045
"22",0,0,0,0,0,0,0,0,0,0,0,0,7.96092582899448e-11,1.10074897893456e-08,6.15340109670729e-07,1.78235893539167e-05,0.00028822460218547,0.00272578813995634,0.0170816143139407,0.0822923963145343,0.277262644210996,0.458662627959312,0.132093659574547,0.026285308521882,0.00328928634608379
"23",0,0,0,0,0,0,0,0,0,0,0,0,0,7.96092582899448e-11,1.10074897893456e-08,6.15340109670729e-07,1.78283659094141e-05,0.000288598458242987,0.00273583498647298,0.0171919349507907,0.0828168552364969,0.278228768000253,0.458935273865694,0.132050607173159,0.0277336725357728
"24",0,0,0,0,0,0,0,0,0,0,0,0,0,0,7.96092582899448e-11,1.10074897893456e-08,6.17807996677717e-07,1.80215248724645e-05,0.000293789328943255,0.00279283398217882,0.0174629053938048,0.0833159499342249,0.278414036507187,0.459280834397399,0.158421000036294
"25",0,0,0,0,0,0,0,0,0,0,0,0,0,0,0,7.96092582899448e-11,1.11667083059254e-08,6.30269865261615e-07,1.83564197563528e-05,0.000297466683504922,0.00281031594624424,0.0176329658530325,0.0864145517255263,0.296357513456933,0.59646818839882
