"","X0","X1","X2","X3","X4","X5","X6","X7","X8","X9","X10","X11","X12","X13","X14","X15","X16","X17","X18","X19","X20","X21","X22","X23","X24","X25","X26","X27","X28","X29","X30"
"1",0.122056988431896,0.0820938824938245,0.0790391565078623,0.077148121402001,0.07295454992129,0.0699316315672927,0.0661024788814107,0.0616588735125023,0.0566218067035097,0.0511804688369539,0.0455429870304773,0.039896062583372,0.0344027097746249,0.0291980591215039,0.0243865942141874,0.0200411761657635,0.0162037807958114,0.0128880486927192,0.0100833406214893,0.00775980096469329,0.00587385612572042,0.00437361453394945,0.00320372898290207,0.00230944009571288,0.00163951191187625,0.00114825613138973,0.000795906941768387,0.00055131858000691,0.000376001049448334,0.000276197600014052,0.000261649824003258
"2",0.114798810809884,0.0775500788426968,0.0750568974146586,0.0737809652609226,0.070405139178673,0.0681472748045954,0.065109616048145,0.0614313276291561,0.057098367918247,0.0522643621276644,0.0471122567550647,0.0418165877876422,0.0365400635336073,0.0314273902627348,0.0265999159392053,0.0221518395064814,0.0181482689915383,0.0146254770618611,0.0115932081430664,0.0090386045650896,0.00693115871953973,0.00522807601808983,0.00387948710737292,0.00283309979350631,0.00203781765758292,0.00144649079708669,0.00101666676912377,0.000714689183595615,0.000494394771179387,0.000368737199491865,0.000352929402474279
"3",0.105652738457788,0.0717875681759605,0.0699632683233152,0.0694154591398129,0.0670237105472639,0.0656915293199868,0.0636259868547349,0.0609039409997373,0.0574688315691914,0.0534286953706258,0.0489317884920618,0.0441327378524398,0.0391884439657902,0.0342502177935729,0.0294558537333738,0.0249227888345744,0.0207430405920898,0.0169805916063212,0.0136713226073541,0.0108252083069732,0.00843022887407679,0.00645734276820743,0.00486585169207843,0.00360861527782734,0.00263639301826054,0.00190146203752771,0.00135873405909749,0.000972016017634396,0.000683757029963583,0.000519115250331564,0.000502761432003995
"4",0.0937561347203593,0.0642456520463711,0.0632422168526842,0.0635812698705306,0.0624091519672515,0.0622297104578479,0.0613929449052639,0.0599000667022252,0.0576418138100614,0.0546665997613165,0.0510744483954318,0.0469887925636311,0.0425523807877633,0.0379181887060648,0.033239040158288,0.028657486932767,0.0242971014750541,0.0202562537263494,0.0166048305965467,0.0133838717264419,0.010607716536417,0.00826803929259134,0.00633902759207278,0.00478303564984882,0.00355564363280863,0.0026102964833873,0.00189967893702763,0.00138537945050462,0.000992391540291267,0.000767888023979147,0.000752946698797879
"5",0.0813849860683497,0.0563278148005977,0.05609799424412,0.0572605522967195,0.0572565273807399,0.0581889302474132,0.0585671588498764,0.0583229232071771,0.0572970583849553,0.05547628740696,0.0529062808370908,0.0496701361462561,0.0458856004028419,0.0416962104369138,0.0372598070490524,0.0327361801810102,0.0282753481662022,0.024007915129052,0.0200383676193524,0.0164416432233977,0.0132628359123107,0.0105195776681177,0.00820638353766492,0.00630024721897822,0.00476602023154695,0.00356187709067186,0.00264047970569516,0.00196328032420146,0.00143207117927326,0.00112907701518889,0.00112042803824842
"6",0.0690633320892606,0.0483557814663795,0.0488040891017445,0.0506713916420529,0.0517113401752773,0.0536442707278679,0.0551508728033484,0.0561048992708016,0.0563043864372802,0.0556765788748914,0.0542098501940799,0.0519394617337307,0.0489473459585073,0.0453550441905796,0.0413127462034003,0.0369861547386301,0.0325428453578145,0.028139839205278,0.0239136378593733,0.0199734719426548,0.0163980102174454,0.0132353729333835,0.010505900816216,0.00820704242824564,0.00631844118101424,0.00480782897293871,0.00363115868033165,0.00275310672669978,0.0020448252963676,0.0016422916262384,0.0016486811481418
"7",0.0574643966296906,0.0407545748573182,0.0417360438838246,0.0441335702899087,0.0460157376079499,0.0487608370492938,0.0512250817957655,0.053241214222004,0.0545762677529967,0.0551056593923661,0.0547623363383798,0.0535297315412601,0.0514450413593328,0.0485954027349938,0.0451091836032482,0.0411438134151347,0.0368717543411228,0.0324664308191916,0.0280896605627211,0.023881748840534,0.0199549408912526,0.0163905052048129,0.0132392024305061,0.0105247276268032,0.00824769012483217,0.00639130566408818,0.00491922310936417,0.00380414456883973,0.00287708147069009,0.00235341894364002,0.00238927292810972
"8",0.0469018138281548,0.0337335042459906,0.0350915023887443,0.0378317234386093,0.0403295456094262,0.0436696922007775,0.0468829001675149,0.0497793683054479,0.0521091979471243,0.0537073037455422,0.0544573362047964,0.0542910980617115,0.0531956833663144,0.0512138620181218,0.048439055425773,0.0450058136218137,0.0410770825623582,0.0368299615663953,0.0324416221044681,0.0280768703903422,0.0238784904682992,0.0199611447574965,0.0164090026571958,0.01327706237756,0.0105931027695566,0.00836236518128426,0.00656129070367745,0.00517668200351694,0.00398678984847945,0.00332078063363694,0.00340835139984577
"9",0.0375680637000609,0.0274321137413124,0.0290144406454909,0.0319157479443978,0.0348008133352025,0.038511624241667,0.0422474364640071,0.0458138885314349,0.0489590338037565,0.051491197263184,0.0532547029585086,0.054134436575927,0.0540665698347892,0.053043478701565,0.0511133162716365,0.0483744969272391,0.0449658654281288,0.0410539072002708,0.0368185842124393,0.0324394350419753,0.0280834286367809,0.0238958573349509,0.0199949132673638,0.0164704192133525,0.0133828289881544,0.0107659747664944,0.00861437549494058,0.00693601657722696,0.00543959215984876,0.00461273405697934,0.00478470668088927
"10",0.0295357009219281,0.0219180076051104,0.0235899534320467,0.0264921670543566,0.0295541916057726,0.0334236982558256,0.0374580758826163,0.0414741209485275,0.0452319905285595,0.0485284648791095,0.0511813415969271,0.0530374327489354,0.0539860059162674,0.0539678722593126,0.0529798021690146,0.0510738438974111,0.0483516791497163,0.0449548373563058,0.0410520399298786,0.0368252542688317,0.0324561357071038,0.0281145768539328,0.0239504631267329,0.0200896881875945,0.0166293995913714,0.0136378665394087,0.011132452913941,0.00914992206186716,0.00730718312300876,0.00630672815992939,0.00660910332863127
"11",0.0227935529788396,0.017206645139507,0.0188582948576088,0.0216316328914738,0.0246911455126083,0.0285333656948617,0.0326597435433183,0.0369104974091245,0.0410700072927952,0.0449382039092762,0.048320645062125,0.0510380786359721,0.05294130226817,0.0539234472546135,0.0539287923680798,0.0529570881835309,0.0510628656265358,0.0483498995651852,0.0449615921807779,0.0410685703487104,0.0368551503851998,0.0325066788462711,0.0281991987896961,0.0240930814505694,0.0203239526898702,0.0169988263141845,0.0141612936772793,0.0118842856884941,0.0096639209601865,0.00848660760274272,0.00898163287236741
"12",0.0172678102024119,0.0132721932315243,0.014821591121758,0.017370769688559,0.0202863534745552,0.0239501298883127,0.0279907595106483,0.0322800459541471,0.0366356991144409,0.0408737671697717,0.0448018314857676,0.048228364869455,0.0509775145704013,0.0529031788807616,0.0539011751673396,0.0539180672962438,0.0529555545364889,0.0510699262553538,0.0483667204463869,0.0449914014422366,0.0411174618222928,0.0369340583301688,0.0326348005555994,0.0284098397382657,0.024432242102146,0.0208497327978073,0.0177331759077542,0.0151979364377009,0.012582257333158,0.0112384263341004,0.0120072143344176
"13",0.0128423913324585,0.0100585994743957,0.0114514581489013,0.0137156137957432,0.0163861913799422,0.0197593877180594,0.0235724981666149,0.0277328726078062,0.0320970907805541,0.0365074698602361,0.0407864143302504,0.0447441196298506,0.048191837190495,0.0509561544572782,0.0528930594368068,0.0539001864353508,0.0539257545437059,0.0529731279891742,0.0511004900741282,0.0484158482696021,0.0450683389612943,0.0412378508686235,0.0371245221283552,0.0329406115573925,0.0288924559149804,0.0251674547562785,0.0218615326652273,0.0191365945729203,0.0161267996410971,0.0146444586725674,0.0157888146398852
"14",0.00937695818878669,0.00748994969251593,0.00869682990860577,0.0106462788353062,0.0130093580611938,0.016018954933694,0.0195018084481753,0.0234009467235763,0.0276136970461394,0.0320153156782299,0.0364532045008499,0.0407519837387865,0.0447240732891897,0.0481826572967904,0.0509560170074279,0.0529017110440599,0.0539189624777919,0.0539577889407699,0.0530238088270479,0.0511783262799024,0.0485341152242834,0.0452486799567358,0.0415162375695665,0.0375610702521871,0.0336155464066374,0.0299023007675176,0.0265361098556272,0.0237263309225208,0.0203472050306822,0.0187754424873426,0.020418330608035
"15",0.00672219758664983,0.00547982970469932,0.00649173914626354,0.00812266555624731,0.0101496327852373,0.0127585252797119,0.0158467761994249,0.0193901236489843,0.0233251873879946,0.0275631621682789,0.0319832620981431,0.0364347225643961,0.0407439613562244,0.0447250020565394,0.0481925307676188,0.050976367519089,0.0529358094642016,0.0539722279632276,0.054038473268079,0.053144166203166,0.051356740820734,0.0487997048732884,0.0456488400309896,0.0421289179356702,0.0384885073746455,0.0349776057527348,0.0317192371673031,0.0289670631575745,0.0252703037240913,0.0236813364265059,0.0259653800122612
"16",0.00473174127813636,0.0039391655299562,0.00476246753356868,0.006090610922498,0.00778023955507481,0.00998173400004604,0.0126458204011515,0.0157758119712578,0.0193434916521972,0.0232955828153746,0.0275463237721065,0.031976468088088,0.0364367834992465,0.0407551536531308,0.0447471172376868,0.0482290773360533,0.0510329515507682,0.0530207407379326,0.0540974273715005,0.0542209442569558,0.0534086235999553,0.0517413209608918,0.0493652729790677,0.0464940033210612,0.0433807201901077,0.0402918717288085,0.0373438086825224,0.0348267621649862,0.0308920913876874,0.029381202020358,0.0324646698017989
"17",0.00327054144217691,0.00278224266197065,0.00343360912659516,0.00448786879341364,0.0058591346273506,0.00767018674712692,0.00990967560873317,0.0126021722750955,0.0157486740879546,0.0193282320922989,0.023289941789814,0.027549419641114,0.0319888683151331,0.0364605836665816,0.0407941858405292,0.044807318282206,0.048319044160991,0.0511647293929006,0.0532109294659657,0.0543689254204307,0.0546060619270006,0.0539559603977341,0.0525269658061667,0.0505107602841684,0.0481530471470934,0.0457235853158997,0.0433134628335507,0.0412371322801999,0.0371704626142348,0.035853183873248,0.0399030940822973
"18",0.00221992227273085,0.00193084647084349,0.00243277782579111,0.00324942076473904,0.00433452231012912,0.00578866766334375,0.00762552059032042,0.00988431255575852,0.0125883956092264,0.0157439953776622,0.0193321146619691,0.0233032274682134,0.0275745132149071,0.0320299752891824,0.0365240826907878,0.0408891590392196,0.0449462636153923,0.0485188106494161,0.0514477661795536,0.0536072294921443,0.0549195520194169,0.0553711899549501,0.0550280232815515,0.0540516702742654,0.052668867326158,0.0511384661096643,0.0495052653589434,0.0480915579971119,0.0440197552998406,0.0430259178491881,0.0482082107875546
"19",0.00147982500554959,0.0013166745738789,0.00169388775360047,0.00231178524551598,0.00315000753434267,0.0042907447106067,0.00576238659628024,0.00761267325054366,0.00988037716949191,0.0125927048731378,0.0157576626703992,0.0193578157093559,0.0233455269868865,0.0276402726848026,0.0321288901154867,0.0366693597091105,0.0410983478781774,0.0452422710116204,0.0489311898053793,0.0520147283162457,0.0543794424974909,0.0559692594432921,0.0568072667358476,0.0570200590109146,0.0568058123563128,0.056398520491446,0.0557749633600108,0.0552460705884828,0.0513083059852082,0.0507729915185581,0.0572401764120002
"20",0.000968911333218015,0.000882308331012862,0.00115909744561655,0.0016161721271298,0.00224896041891106,0.00312410663707762,0.00427700128197679,0.00575868729418179,0.0076170210018071,0.00989380674310035,0.012618105975798,0.0157998739155553,0.0194241190427253,0.0234462345210903,0.0277894214239211,0.0323450342973602,0.0369764530851136,0.0415267246828402,0.0458298145333603,0.0497252093458257,0.0530758091388635,0.0557914645758316,0.0578562252949927,0.0593603569594248,0.0604666649421193,0.0613719571274379,0.0619646232775197,0.0625239592385447,0.0588602174487697,0.0589122125461699,0.0667894460126802
"21",0.000623209729424192,0.000581094029761715,0.000779619248893788,0.00111048870021327,0.00157785556659336,0.00223514868226871,0.00311935816537979,0.0042808389103663,0.00577125054283024,0.00764111494920132,0.00993440781514193,0.0126827457328248,0.0158993243693778,0.0195731627402399,0.0236644966657442,0.02810222012525,0.0327842072370076,0.0375811398319373,0.0423441881979579,0.0469169073869283,0.0511519761823769,0.0549361382530045,0.0582214614517132,0.0610640539749706,0.0635878198377731,0.0659428462378009,0.0679122475261635,0.0697244494940177,0.0664623916566065,0.0672113522242212,0.0765824845339863
"22",0.000393917803664434,0.000376287146876409,0.000515652383941286,0.000750321351849717,0.00108852288494797,0.00157252892864145,0.00223750088452218,0.00313039311720347,0.00430267985725425,0.00580870063974313,0.00770170348943984,0.0100290563079752,0.0128266629552793,0.0161129550297889,0.0198831187708118,0.0241043786807936,0.0287132394860504,0.0336155503872078,0.0386901548727238,0.0437971003395236,0.0487918134833173,0.0535497929823754,0.058000230068186,0.0621700214013381,0.0661439331534665,0.0700194053047507,0.0734627633513056,0.0766355098010538,0.0738774450659792,0.0754015284310301,0.0862971316389362
"23",0.000244851710368204,0.000239773599932256,0.00033570877880903,0.000499089688325194,0.000739383585000822,0.00108960588716056,0.00158122817944135,0.00225627574244986,0.00316337697818337,0.00435701888470339,0.00589505089219478,0.00783518014113001,0.0102303497788125,0.013123148740926,0.0165396649600363,0.0204834168168076,0.0249301908803769,0.0298247370303378,0.0350803695763734,0.0405829838318145,0.0462016764697242,0.0518117987602892,0.0573293368285159,0.0627586238795064,0.0681479084545374,0.073540011955288,0.0784796583701529,0.0830503980789678,0.0808624669984305,0.0831985355624701,0.0955881789589118
"24",0.00014989584278721,0.000150619734200972,0.000215578383272255,0.000327599668974514,0.000495837733503074,0.000745821921100861,0.00110463148942774,0.00160881973791639,0.00230271807036758,0.00323856233828987,0.0044753402596151,0.00607663642292959,0.00810723065970337,0.0106283773974117,0.0136919090662882,0.0173335469323709,0.0215660686994952,0.0263732383968254,0.0317056944650314,0.0374807237068008,0.0435888236786154,0.0499141401078315,0.0563682691466404,0.0629401197117005,0.0696461281125504,0.0764763237295496,0.082856233812736,0.088786642858161,0.087192259937376,0.0903306932774137,0.104121514701092
"25",9.06763655737046e-05,9.36330691935409e-05,0.000137137363286359,0.000213216595135393,0.000330014995342206,0.000507199678231663,0.000767538939248926,0.0011423066454872,0.00167107354559631,0.00240257536397914,0.00339470581745374,0.00471362674495035,0.00643164261554619,0.00862357391438911,0.0113615167683942,0.0147081003444526,0.0187086537817883,0.0233830479041775,0.0287184355757007,0.0346651081340266,0.0411389696678353,0.0480388624695227,0.0552788601728734,0.0628389797461799,0.0707097046374814,0.0788332822629211,0.0865252308532743,0.0937052572052281,0.0926843321103466,0.0965699305184984,0.111612806193864
"26",5.45764030794386e-05,5.8051922844922e-05,8.71534976322817e-05,0.000138853808219774,0.000220113823519621,0.000346183310105954,0.000536067401403881,0.000816430165882656,0.00122233394393413,0.00179868537207247,0.00260113990609199,0.00369629500370252,0.00516074295930352,0.00707856497633681,0.00953693419612547,0.0126196829996989,0.016398994574525,0.0209257943881211,0.0262200093033629,0.0322630857002415,0.0389967327730714,0.0463370969329045,0.0542050712298182,0.0625769277422234,0.0714233071890312,0.0806459235419261,0.0894649170214914,0.0977264185143049,0.0972207505259568,0.101760018050369,0.117863142822678
"27",3.313075347705e-05,3.64265259638334e-05,5.61908415540466e-05,9.19287389628461e-05,0.000149528739928067,0.000241059962066638,0.000382529497496305,0.00059690438146385,0.000915431383136968,0.00137949974952013,0.00204222381057664,0.00296949100795807,0.00423999884241043,0.00594375133625435,0.00817851007550091,0.0110438383858622,0.014632668046434,0.0190207672822856,0.0242551778913863,0.0303440983296828,0.0372525121430506,0.0449135348282081,0.0532566816567453,0.0622578928451595,0.0718736065158191,0.0819733912902108,0.0917000708998455,0.100837991714032,0.100761906722989,0.105835606075296,0.122783649726704
"28",2.07878669887855e-05,2.37153876607566e-05,3.76750188408989e-05,6.33985441071232e-05,0.000105936278232835,0.000175190229724844,0.000284973886738766,0.000455526149247862,0.000715170138924457,0.00110245478859638,0.00166820760131378,0.00247720483038895,0.00360895648333259,0.00515700260806494,0.00722609135622874,0.0099267113250134,0.013366720434761,0.0176402773106146,0.0228150349819488,0.0289201026062212,0.0359392957031519,0.0438202080397182,0.0525006922654777,0.0619581019863709,0.0721393949957232,0.0828904743558571,0.0932960729189828,0.103092841062678,0.103346670732299,0.108824976099558,0.126400134013214
"29",1.39895856841823e-05,1.65838974471829e-05,2.71315026254865e-05,4.69217304862512e-05,8.04256765630152e-05,0.000136171088374834,0.000226508947769782,0.000369844380431749,0.000592482346334177,0.000930941253617283,0.00143430614564723,0.00216631216043867,0.00320664316753506,0.0046507966615742,0.00660780353606199,0.00919516072623483,0.0125305843170048,0.0167206581691739,0.0218472464225411,0.0279541760181255,0.0350388444524323,0.0430596595002811,0.051961165163701,0.0617225748204422,0.0722850026761241,0.0834784181879595,0.0943477549606849,0.104596318061545,0.105079958788848,0.110837225692916,0.128838389961376
"30",1.05084608617774e-05,1.28778177878454e-05,2.15878133405101e-05,3.81625922027725e-05,6.67248282324661e-05,0.000115018381057199,0.000194531493802001,0.000322580431716336,0.00052425009478465,0.000834803050653453,0.00130220445148527,0.00198944863678569,0.00297616717294467,0.00435884449825017,0.00624888210875942,0.00876780014120411,0.0120391002075921,0.0161767803423473,0.0212713077669369,0.0273755473708762,0.0344953748365069,0.0425961017754704,0.0516267294298754,0.0615679801164174,0.0723577285786773,0.0838164570050506,0.0949650835319581,0.105486506896153,0.106110444896621,0.112036839040091,0.13029362623154
"31",8.95574004500718e-06,1.12078728352989e-05,1.90699294838485e-05,3.41547452793582e-05,6.04128965281731e-05,0.00010521267070094,0.000179620487901316,0.000300417906218093,0.00049208415125871,0.000789249903923425,0.00123930449030601,0.00190484115684272,0.00286541837104601,0.00421795173729209,0.00607495435638717,0.00855988020540372,0.0117990521046075,0.015910121768334,0.0209878342418047,0.0270895878729026,0.0342255529343065,0.0423645842345084,0.0514580250877179,0.0614874669071874,0.0723892657719008,0.0839792342441324,0.0952663674220129,0.105923345159226,0.106617438950202,0.112628054224186,0.131011332455502
