"","X0","X1","X2","X3","X4","X5","X6","X7","X8","X9","X10","X11","X12","X13","X14","X15","X16","X17","X18","X19","X20","X21","X22","X23","X24","X25","X26","X27","X28","X29","X30"
"1",0.0969915333154068,0.082792018581967,0.0865103865641685,0.0962420481785164,0.102084043696313,0.101246907298303,0.0946518987994522,0.0835508945556829,0.069891601590033,0.0555925240426045,0.0421744089611403,0.0305951560201272,0.0212706022369341,0.014197666363556,0.00911171153923026,0.00562896559918785,0.00335027392949564,0.00192230698595494,0.00106371725576022,0.000567774406619225,0.000292335313300792,0.000145172525186128,6.95128724521484e-05,3.2080866486734e-05,1.42624096522132e-05,6.10398747104989e-06,2.51284527463409e-06,9.94774653359399e-07,3.80612099802928e-07,1.41963789506003e-07,6.19091735309955e-08
"2",0.0808305725484058,0.0707253763310223,0.076626135117561,0.0881711444866921,0.0967716891297241,0.0994848490010024,0.0964284701431176,0.0882659881305099,0.0765479542003768,0.063092894144895,0.0495655599755793,0.037207052535072,0.0267463863204872,0.0184463515974862,0.0122248109855511,0.00779504162046538,0.00478721163024477,0.00283380939904394,0.00161777971770882,0.000890995692106598,0.000473482963812752,0.000242771254369189,0.000120082662753035,5.72823007371531e-05,2.63408439614733e-05,1.16699067710472e-05,4.97800674896657e-06,2.04458231981778e-06,8.13451848833633e-07,3.16576895125888e-07,1.44742723842462e-07
"3",0.0637278505212619,0.0573938779234246,0.0648174929792847,0.0775658340469347,0.0886341319388892,0.0950901244661131,0.0962543237173347,0.0920455885693712,0.0833781378195185,0.0717379791955901,0.0587788356976594,0.0459724937122761,0.0343962455799682,0.0246653710975693,0.0169805472244923,0.0112388660349023,0.0071600386866396,0.00439484197027692,0.00260088115567265,0.00148480055154796,0.000817937590836927,0.00043484152603589,0.000223091611686683,0.000110432168018111,5.27265948201741e-05,2.42715072735822e-05,1.07667085311815e-05,4.60415997090601e-06,1.91160385375007e-06,7.7907478365e-07,3.74565455471483e-07
"4",0.0447365450860445,0.0420758007287703,0.0504168754604887,0.0636932741437609,0.0768482124972802,0.0871906117107797,0.0933039048901361,0.0942482040427041,0.0900517572787264,0.0815777498655631,0.0702343102407857,0.057601509609991,0.0451006041991697,0.0337817142312433,0.0242513589608784,0.0167131520077318,0.0110729666620178,0.00706102765549834,0.00433794786802286,0.00256938505000884,0.00146799585029471,0.000809293729907486,0.000430554682037797,0.000221042028635426,0.000109488005424873,5.23084696856844e-05,2.40960731488129e-05,1.07106394590231e-05,4.6320183710055e-06,1.97250773391125e-06,9.9380569313944e-07
"5",0.0294365626942666,0.0290441348945504,0.0370438910242648,0.0495309324297286,0.0632609498867002,0.0760872619713779,0.0862893941906776,0.092294304834874,0.0932363262938524,0.089128167504868,0.0807973925718548,0.0696158714321923,0.0571377844655425,0.0447696110474451,0.0335558799381476,0.0241036448337692,0.0166203471711665,0.0110168848999212,0.00702840105551675,0.0043196632384949,0.00255950991197738,0.00146285478600633,0.000806713665348465,0.000429307157094269,0.000220462075494585,0.000109231398321595,5.22080563112179e-05,2.40996606528195e-05,1.08460068213895e-05,4.82080340983671e-06,2.54009934412045e-06
"6",0.0179803962941359,0.0187371084129099,0.025558119746541,0.0362814963927577,0.0491798401632547,0.062839699669417,0.0756823833610726,0.0858910908846334,0.0919288852714485,0.0929262945668608,0.0888830441743981,0.0806148595139238,0.0694868736653862,0.0570507702757861,0.0447133637088668,0.0335209447139812,0.024082762435463,0.0166083228909849,0.0110102120689255,0.00702483133342069,0.00431782205320845,0.00255859427709699,0.00146241625651529,0.000806513174015339,0.000429223171229049,0.00022043803183982,0.000109252892374735,5.23399436062974e-05,2.44975445886726e-05,1.13562297872254e-05,6.24688156369714e-06
"7",0.0103517285609463,0.0114257047580729,0.016664643114923,0.0251029160710997,0.0360993713452284,0.0489892792232256,0.0626725299303884,0.0755247413136971,0.0857480802081187,0.0918079416614208,0.0928306509845315,0.0888116301214813,0.0805641548461664,0.0694524531473414,0.0570283450289024,0.0446993074631861,0.0335124560430401,0.0240778194614031,0.0166055465231333,0.0110087076565996,0.00702404494811654,0.00431742587234095,0.00255840363313132,0.00146233380090955,0.000806491740172486,0.000429248633085933,0.000220536799100227,0.000109612746989203,5.33385259310756e-05,2.57750478649355e-05,1.47807894454642e-05
"8",0.00562736983511262,0.00659434402097238,0.0102755441734176,0.0164080502903376,0.0250088839339069,0.0360156465743924,0.0489253304678355,0.0626182633622874,0.0754783565046796,0.0857107343561242,0.0917797589749575,0.0928105589267474,0.0887980121345882,0.0805553324426194,0.0694469687737884,0.0570250656126309,0.0446974188979718,0.0335114081945415,0.0240772594322533,0.0166052584239027,0.0110085654451986,0.00702397882315789,0.00431740196050363,0.00255841299312115,0.0014623824848141,0.000806608878210954,0.00042953376034748,0.000221451641775757,0.000112016261504381,5.64064006184909e-05,3.36760176737477e-05
"9",0.00290230903242414,0.00361420909370156,0.00600442954430825,0.0101459061572177,0.0163650527766586,0.0249751914027295,0.0359926319847804,0.0489075347613884,0.0626034838460576,0.0754666474186134,0.0857020025340703,0.0917735900699874,0.0928064068128488,0.0887953356571633,0.0805536737956953,0.0694459782096103,0.0570244948807322,0.0446971015831343,0.033511238050518,0.0240771717366189,0.0166052160496541,0.0110085496260159,0.00702398866734092,0.00431745874368647,0.00255855477744698,0.00146269514866258,0.000807343800982141,0.000431753870772102,0.000227019749415903,0.00011909504218994,7.39351755678779e-05
"10",0.00142330476376439,0.00188416790484209,0.00332968620332982,0.00594290157573681,0.010127068953929,0.0163520335694001,0.0249672727815186,0.0359873050991858,0.0489033170725396,0.0626002498378322,0.0754643057288941,0.0857003942490413,0.0917725376252377,0.0928057472816936,0.0887949383273246,0.0805534431204776,0.0694458490347716,0.0570244251399529,0.0446970654241408,0.0335112207185429,0.0240771669093122,0.0166052257576282,0.0110085981566931,0.0070241423930745,0.00431782016024179,0.00255934022371426,0.00146450389142565,0.000812528834916728,0.00044419114754186,0.000242731621538787,0.000156516491750974
"11",0.000664991580421867,0.000935665144735723,0.00175470202448255,0.00330224095733595,0.00593506018381366,0.0101222519811951,0.0163493789506538,0.0249657757608534,0.0359861719694041,0.0489024693111249,0.0625996477586392,0.0754638989185118,0.0857001318845698,0.0917723753238174,0.0928056505957843,0.0887948827201054,0.0805534122224712,0.0694458325023805,0.0570244169218086,0.0446970633121463,0.0335112285758052,0.0240772004704751,0.0166053490677412,0.0110089718610578,0.00702501435358572,0.00431970488675883,0.00256360545687494,0.00147616679283627,0.000839329809766236,0.000477761374885898,0.000319647325950788
"12",0.000296376074403459,0.00044305802054466,0.000879816085810918,0.00174309793540453,0.00329910060133956,0.00593333596286966,0.0101213722756835,0.0163489879469009,0.0249654965558359,0.0359859695327155,0.0489023291521902,0.0625995551407722,0.0754638404179259,0.085700096398488,0.0917723545660657,0.0928056388562955,0.0887948763118282,0.080553408976649,0.0694458317327612,0.0570244214655967,0.0446970869618042,0.0335113113349513,0.0240774919108731,0.0166062166443582,0.0110109871811246,0.00702934890666892,0.00432935620287581,0.00258888398820545,0.00153190771498881,0.000908415817982911,0.000630029326079022
"13",0.000126113474539705,0.000200206633232733,0.000420162802545481,0.000875154660775978,0.0017418867840139,0.00329850162457125,0.0059330434426981,0.0101212758260263,0.0163489236159075,0.0249654514138509,0.0359859390561266,0.0489023094305016,0.0625995429191308,0.0754638331330381,0.0857000922048217,0.0917723522359687,0.0928056376516012,0.0887948760646795,0.0805534110554485,0.0694458444360894,0.0570244773612526,0.0446972780112845,0.0335119702484209,0.0240794245215021,0.016610686707993,0.0110205533945598,0.00705032532059608,0.00438217027357109,0.00270081194645025,0.00166891293699852,0.00119883081179659
"14",5.12624512964218e-05,8.6379497235811e-05,0.0001912705430693,0.00041838035592565,0.000874704586219713,0.00174168475185623,0.00329840398023853,0.00593302107566263,0.0101212621773768,0.0163489144290151,0.0249654454105915,0.0359859352766617,0.0489023071480231,0.0625995415918214,0.0754638323893136,0.0857000918255312,0.0917723521827646,0.0928056385726348,0.0887948817460621,0.0805534404323223,0.0694459694295352,0.0570248997914342,0.0446987083551036,0.0335161066704968,0.0240889493794446,0.0166309662259485,0.011064379330978,0.00715672330956666,0.00459921207131358,0.002962717267959,0.00220261774459091
"15",1.99101049230036e-05,3.55967711721908e-05,8.30557508081453e-05,0.000190621556800653,0.000418219489755968,0.000874638473209343,0.00174165214476608,0.00329839901792821,0.00593301835444434,0.010121260426746,0.01634891332321,0.0249654447328274,0.0359859348772719,0.0489023069213035,0.0625995414747075,0.0754638323938723,0.0857000921938181,0.0917723546010396,0.0928056516119605,0.0887949462649623,0.0805537086762074,0.0694468665414367,0.0570278843474512,0.0447072222402202,0.0335356205302208,0.0241302781414981,0.01671904760907,0.011271110709833,0.0075632077114987,0.00508193908688257,0.00390772392014792
"16",7.38924363677059e-06,1.40136831781828e-05,3.44180775449789e-05,8.28307785993961e-05,0.000190566377301805,0.000418198554690322,0.000874627715759889,0.00174165109324213,0.0032983985153235,0.0059330180494928,0.010121260242737,0.0163489132145307,0.0249654446710671,0.0359859348440991,0.0489023069222896,0.0625995416342089,0.075463833333871,0.0857000976854549,0.0917723830572906,0.0928057877027082,0.0887954998138573,0.0805555404189945,0.0694528574039426,0.0570447482095197,0.0447456874432035,0.0336166452377335,0.0243006626591797,0.0171065145999304,0.0120063804857076,0.00842109698651721,0.00669375134438052
"17",2.62005243193484e-06,5.27031182826425e-06,1.36151457576189e-05,3.43438843682407e-05,8.28126656741897e-05,0.000190559981895071,0.000418195089404737,0.000874627500078909,0.00174165100569968,0.00329839846556042,0.00593301802091855,0.0101212602264755,0.01634891320574,0.0249654446682855,0.0359859348854724,0.0489023073005955,0.0625995437409588,0.0754638451873042,0.0857001572228258,0.0917726590395448,0.092806886679075,0.0887990976480997,0.0805671144170644,0.0694850170344634,0.057117733695158,0.0448985694162143,0.033933989915863,0.0250012015761792,0.0183909239062213,0.0134762653351709,0.0110680227756642
"18",8.87272316431304e-07,1.89317957342516e-06,5.14187181164178e-06,1.35918910204419e-05,3.43382098334323e-05,8.28107869100885e-05,0.000190558903731159,0.000418195046491982,0.000874627485762957,0.00174165099818918,0.00329839846152338,0.00593301801876829,0.0101212602257764,0.0163489132101487,0.0249654447644035,0.035985935698909,0.0489023117816453,0.0625995682170727,0.0754639647046037,0.0857006954116162,0.0917747586346332,0.0928136868053248,0.0888206249199133,0.0806261757584635,0.0696183589798388,0.0573954408149561,0.0454677748194566,0.0351556562260489,0.0271674361541272,0.0208182655683287,0.0176586151787943
"19",2.86827944961399e-07,6.49349225670494e-07,1.85374856573436e-06,5.13495310361078e-06,1.3590198861841e-05,3.43376808228848e-05,8.28104655496269e-05,0.00019055889543638,0.000418195044284966,0.000874627484707353,0.00174165099767115,0.00329839846135851,0.00593301801975211,0.0101212602374737,0.0163489134123246,0.0249654464281807,0.0359859447886392,0.048902360156019,0.0625997984241608,0.0754649738575117,0.08570455547923,0.0917871272335517,0.0928522370632696,0.0889250839894168,0.0808607480863458,0.0701040148535783,0.0583786200278592,0.0475221459193376,0.0386816458758568,0.0310290744331024,0.027170937606851
"20",8.84533386767541e-08,2.12562492328385e-07,6.37827371652855e-07,1.85179740492337e-06,5.13447396622962e-06,1.35900565114227e-05,3.43375895855283e-05,8.28104639891679e-05,0.000190558895111808,0.000418195044145205,0.0008746274846618,0.00174165099789664,0.00329839846396834,0.00593301804604858,0.0101212606436127,0.0163489166676615,0.0249654640584188,0.0359860364191445,0.0489027859211929,0.062601618498178,0.0754718042518527,0.0857262081357855,0.0918535950015182,0.0930301549260563,0.0893224000562156,0.0816783419898748,0.0717390968849612,0.0617085013769508,0.0530581339989642,0.0445962480673255,0.0402943209457881
"21",2.60001955369443e-08,6.63649520260636e-08,2.0936137957648e-07,6.37306616636803e-07,1.85166888556523e-06,5.13443746782499e-06,1.35900319455088e-05,3.43375893024733e-05,8.28104639444378e-05,0.000190558895096742,0.000418195044183437,0.000874627485256917,0.00174165100375974,0.0032983985199601,0.00593301882810456,0.0101212667439474,0.0163489493975897,0.0249656304847565,0.0359867926423358,0.0489059430318427,0.0626132494257962,0.0755082802799015,0.0858365217657321,0.0921453311953962,0.0936779001410643,0.0906469326605405,0.0842953661172916,0.0769383820288087,0.0700867573394755,0.0617728718724258,0.0575547118720383
"22",7.27745779922752e-09,1.97463883229883e-08,6.55203938562092e-08,2.09230072840447e-07,6.37274034660023e-07,1.85165999343414e-06,5.13443121487689e-06,1.35900318960953e-05,3.43375892968325e-05,8.28104639487836e-05,0.000190558895205248,0.000418195045518881,0.000874627497747119,0.00174165111734681,0.00329839996433366,0.00593302978331633,0.0101213249355256,0.0163492392894671,0.0249669202676614,0.0359920579741072,0.0489249948120362,0.0626723558766498,0.0756844295885427,0.0862968199716284,0.0931612371264323,0.0957416862159613,0.0946757072231087,0.0921098777182474,0.089151253136586,0.0824287422658969,0.0791282280699774
"23",1.93741130313017e-09,5.59390457197911e-09,1.95351011957354e-08,6.54891746383075e-08,2.09222283551892e-07,6.37271981917015e-07,1.85165849300281e-06,5.13443120670933e-06,1.35900318963238e-05,3.43375893139007e-05,8.28104641989782e-05,0.000190558898007526,0.000418195070452906,0.000874627714605729,0.00174165366060515,0.00329841875036347,0.00593312860127039,0.0101218081324601,0.0163513477440137,0.0249753497835622,0.0360220369607196,0.0490170126189902,0.0629426888710263,0.0763825593380575,0.0878281796509789,0.0962512173485705,0.101701875334981,0.105971631769458,0.109242863987498,0.105938236391087,0.104657946148321
"24",4.89918141906825e-10,1.5070537238698e-09,5.54386699581695e-09,1.95281175970593e-08,6.54874229007856e-08,2.0922183584039e-07,6.37271643403998e-07,1.85165849195896e-06,5.13443121021789e-06,1.3590031944436e-05,3.43375898821764e-05,8.28104698666182e-05,0.000190558945328273,0.000418195462566174,0.000874631985272902,0.00174168440398626,0.00329857890237536,0.00593389846573905,0.0101251077463366,0.0163642858275529,0.0250206118711066,0.0361595129659632,0.0494153219181657,0.0639595070306874,0.0785989962175841,0.0922697012579557,0.104717274997252,0.117392009478666,0.129085637988462,0.131158117715758,0.133137703587981
"25",1.17495350329622e-10,3.85618374787568e-10,1.49585783002342e-09,5.54240075410949e-09,1.95277479594166e-08,6.54873309321047e-08,2.09221764355694e-07,6.37271644864369e-07,1.85165850882285e-06,5.13443137160189e-06,1.3590033396763e-05,3.43376019680632e-05,8.28105604415651e-05,0.000190559639516745,0.000418202380557323,0.000874680242838863,0.00174193277906983,0.00329975258920763,0.00593884221676416,0.0101441374754304,0.0164298081142513,0.0252175623398036,0.0367224743632186,0.050836312004012,0.0670371582956004,0.0847229295413158,0.103806588767118,0.125643664546612,0.147363097652603,0.156538246119968,0.16293538759656
"26",2.66780738548566e-11,9.35717855969166e-11,3.83256865809346e-10,1.49556973375444e-09,5.54232779294349e-09,1.95277303034558e-08,6.54873177965981e-08,2.09221774647563e-07,6.37271732594609e-07,1.85165917736005e-06,5.13443609021808e-06,1.35900649537377e-05,3.43378019490159e-05,8.28118845804365e-05,0.000190570953675322,0.000418276849983067,0.000875054726150918,0.00174366193079194,0.0033068885654992,0.00596576705162695,0.010235298104784,0.0167007698341205,0.0259814376172577,0.03862857065675,0.0549366503356787,0.0751357711721269,0.0998017777103174,0.130596475272997,0.162987027807147,0.180364208913487,0.191993127600893
"27",5.7234420540135e-12,2.14950402444732e-11,9.31034265223051e-11,3.83204068733634e-10,1.49555637114182e-09,5.54232532928391e-09,1.95277349072897e-08,6.5487378991183e-08,2.0922222816433e-07,6.37274730479558e-07,1.85167724669034e-06,5.13453782301695e-06,1.35906088409527e-05,3.43407762350444e-05,8.2831917718427e-05,0.000190688997250828,0.0004188420690339,0.000877564287366438,0.00175371273110261,0.00334384608002914,0.00608835924014703,0.0105947101081414,0.0176984274649758,0.0284398706601801,0.0438761986683251,0.0652163989386939,0.0940449504415282,0.13272610964309,0.175316534319,0.201082276023526,0.218192821756261
"28",1.15753757813549e-12,4.66525931928293e-12,2.14079635703659e-11,9.30944971371578e-11,3.83202392663705e-10,1.49556141750178e-09,5.54237047258637e-09,1.95280686751129e-08,6.54895717363001e-08,2.09235247050362e-07,6.37345345137683e-07,1.85203225416249e-06,5.13621498854092e-06,1.35983986022309e-05,3.4381400857389e-05,8.30351014611871e-05,0.000191580759944583,0.000422545137096243,0.000891693486951356,0.00180371760253097,0.00350501516004565,0.0065517860111008,0.0118561628621987,0.0207599480711635,0.0349108814762026,0.0564272166800733,0.0879996465603904,0.132925433010323,0.184240014351339,0.217597019754014,0.239778396788766
"29",2.2011112954367e-13,9.54489391470903e-13,4.65017440625435e-12,2.14069709085444e-11,9.309792481459e-11,3.83232773898861e-10,1.49578316628901e-09,5.54383516766472e-09,1.95368611143168e-08,6.55377584154276e-08,2.09477851337913e-07,6.38477012397216e-07,1.85696729867741e-06,5.15683496799338e-06,1.36876509627989e-05,3.47607094672842e-05,8.45281837609938e-05,0.000197244696514689,0.000442726210565104,0.00095937084425053,0.00201323946351309,0.00409097789646126,0.00810606441179242,0.0155554583083622,0.0284773935889586,0.0496924266662597,0.0828576117313874,0.132191002005072,0.190097410756303,0.229456228311616,0.25572191418982
"30",3.92346869553244e-14,1.83627831157793e-13,9.52300245464228e-13,4.6522791023448e-12,2.14254939137046e-11,9.32326680262541e-11,3.84122568625103e-10,1.5011552478652e-09,5.57359917255573e-09,1.9688744966144e-08,6.62546111417147e-08,2.12623775888936e-07,6.51387707377532e-07,1.90718369676622e-06,5.35006052833427e-06,1.44127360575651e-05,3.73388989455676e-05,9.34265662061886e-05,0.000226556154846436,0.000534817399201609,0.00123039632399066,0.00274406577272531,0.00596693943575561,0.0124625649758781,0.0244904187561935,0.0453228844525397,0.0792961220206305,0.131328432083344,0.193493245763233,0.236859588719596,0.265890575162427
"31",6.59503147020576e-15,3.35093520811257e-14,1.86012192891487e-13,9.70090839370612e-13,4.76190217064926e-12,2.20656226735632e-11,9.67733535611782e-11,4.02622059432932e-10,1.59222242535088e-09,5.99519729279661e-09,2.15230893772805e-08,7.37612271835631e-08,2.41568914767714e-07,7.57231957329243e-07,2.28305476404364e-06,6.64271729487125e-06,1.86583904958301e-05,5.08796670397278e-05,0.000134967488724927,0.000349115668607358,0.000877386720488158,0.00211873959286038,0.00494587406741783,0.0109461471918648,0.0224827653089648,0.0430597082233694,0.0773809677449183,0.130761841870866,0.195130551090757,0.240613930283192,0.271118438718345
