"","X0","X1","X2","X3","X4","X5","X6","X7","X8","X9","X10","X11","X12","X13","X14","X15","X16","X17","X18","X19","X20","X21","X22","X23","X24","X25","X26","X27","X28","X29","X30"
"1",0.100983451489667,0.0808852339835121,0.0925588044232663,0.0903928842974283,0.0902954701862351,0.0876144603235199,0.0825988892962992,0.0754649146757003,0.0665543758230689,0.056600878380424,0.046426409446854,0.0367649368207803,0.0281296557219971,0.0208156856501514,0.0149120140815149,0.010351564181459,0.00696902550320424,0.00455373670830662,0.00288992165347531,0.00178229081153891,0.00106870711204576,0.000623308635088308,0.000353715630558577,0.000195354019361338,0.000105024200751935,5.49691833974111e-05,2.80140582334198e-05,1.39053029269604e-05,6.76902098769472e-06,3.31594606343135e-06,2.31343217146224e-06
"2",0.0888272365980412,0.0720904630543531,0.0837368612547375,0.0838409947897628,0.0858767253577951,0.0855527070168044,0.0828220557365018,0.0776752726989176,0.0703072101079326,0.061359015242292,0.0516417330081423,0.0419527239054797,0.0329223971767794,0.0249813644675829,0.0183464130619334,0.0130526385624744,0.00900391802203277,0.00602685175141335,0.00391722144026738,0.00247377400334246,0.00151867678285757,0.000906751162774449,0.000526730975429068,0.000297780767148255,0.000163875156419699,8.780616217175e-05,4.58168783162928e-05,2.32905736693072e-05,1.16243577684491e-05,5.8559793787974e-06,4.21394746984886e-06
"3",0.0748937267258919,0.0617941798081364,0.0731289700236514,0.0754787216343475,0.0796889210371571,0.0819377940312136,0.0818788559681011,0.079237362382337,0.0739938673006907,0.0666148841026443,0.0578266878452796,0.0484406421467171,0.0391866120905148,0.0306415499548114,0.0231809503952959,0.0169821587782552,0.0120578115101004,0.00830430257643242,0.00555150675463091,0.00360472946175306,0.00227476334090145,0.0013957768563754,0.0008330943350326,0.000483862812495183,0.00027354287988233,0.000150562926577206,8.07103700677586e-05,4.2158020647198e-05,2.16484614946847e-05,1.12588447518771e-05,8.38662380216765e-06
"4",0.0583097553611503,0.0493080547046675,0.0599609286240598,0.06457315788697,0.0710287066140753,0.0761317166666732,0.0792382931006674,0.0797720901747771,0.0774268785615213,0.072394984744032,0.0652193799300837,0.0566504331483972,0.0474797643887527,0.0384310513629264,0.0300694858825408,0.0227635402024514,0.0166882187945809,0.0118577280402124,0.0081724629353323,0.00546730901716817,0.00355255965726134,0.00224337561706146,0.00137742876941648,0.000822669990248494,0.000478110966150107,0.000270476008955504,0.000149004698855519,7.99887494475318e-05,4.22660966107247e-05,2.26939823972052e-05,1.74853225452135e-05
"5",0.043330577827774,0.0376922778826456,0.0472643137006213,0.0532911503878025,0.0612170335300146,0.0685138216078898,0.074371006090186,0.077983319284629,0.0787614546578406,0.0765669769212516,0.0716575222238617,0.0646025625602045,0.0561459716744397,0.0470811325682438,0.0381271113078935,0.0298459305781608,0.022604766248313,0.0165791887282902,0.0117852414723286,0.00812575205621034,0.00543810478265987,0.0035348317259098,0.00223292315772168,0.00137144590178078,0.0008193604563051,0.000476379289539082,0.000269672459926993,0.000148759756179004,8.08794194259847e-05,4.48312535665455e-05,3.57004883732326e-05
"6",0.0306154696277573,0.0275123996918346,0.0357091127151487,0.0422904436711143,0.050835722733967,0.0594852112224459,0.0674079372354311,0.0736851181148387,0.0775067100342582,0.0784055044283142,0.0762921297310602,0.0714473801733815,0.0644417518627351,0.0560257067679875,0.04699370649645,0.0380655514898416,0.0298039763285958,0.022577078522101,0.0165614786115938,0.0117742522298118,0.00811913312650361,0.00543423605549079,0.00353264395583289,0.00223174190492106,0.0013708775474803,0.000819214193236867,0.000476563106962768,0.00027015129779204,0.000151148124263186,8.65002203983818e-05,7.11487784388956e-05
"7",0.0207437841275262,0.0193080707722259,0.0259896521756017,0.0323445176621282,0.0406787166114045,0.049745472534369,0.0588293566090287,0.06703614954999,0.0734494832374403,0.0773442244030358,0.0782872643089137,0.0762058925235411,0.0713828601759608,0.0643940114602843,0.0559911063914171,0.0469693175948387,0.0380488752516654,0.0297929195511446,0.0225699670942655,0.0165570402545439,0.0117715666936671,0.00811756638463653,0.00543337407685423,0.00353223761392661,0.00223168271899266,0.00137119111014589,0.000819952100946363,0.000477784079505645,0.000275187457121027,0.00016265124916404,0.000138124225704036
"8",0.0134969820510994,0.0130399446913105,0.018227750094403,0.0238298448930952,0.0313366573099663,0.0400204170101588,0.0493693638223583,0.0586338883965598,0.0669246424340363,0.0733809433729078,0.0772995653120952,0.0782582090297426,0.0761858073480327,0.0713688704790148,0.0643843330197983,0.0559845482554589,0.0469649938335335,0.0380461089333304,0.0297912049211689,0.0225689423206702,0.0165564610099527,0.01177128242359,0.00811750203684896,0.005433522799735,0.0035326942363488,0.00223269023569834,0.00137296502175562,0.000822664871879918,0.0004880069065028,0.000298017559203045,0.00026117536973308
"9",0.00845167867252724,0.00848781609072054,0.0123290834515057,0.0169136228111822,0.023232100189485,0.0309575262070355,0.039812412777215,0.0492682432787908,0.058580493715572,0.0668945804278322,0.0733630458622817,0.0772891104200018,0.0782514630354556,0.0761813169949565,0.0713658403477527,0.0643823077342561,0.0559832245076353,0.0469641542900941,0.0380455986572842,0.029790920679276,0.0225688272837528,0.0165565047859981,0.0117715265937253,0.00811805924039803,0.00543466348135347,0.00353494734072545,0.00223650443279744,0.0013786704963845,0.000842788857772877,0.000532009186885463,0.000480958149335159
"10",0.00509877734994791,0.00532815922967435,0.00804449510015469,0.0115645341776831,0.0165736311058912,0.0230220092445213,0.0308461817761327,0.0397612590935496,0.049242910438467,0.0585673132457433,0.0668874369913118,0.0733594290955552,0.0772870212185421,0.078250188436039,0.0761805044941683,0.0713653185892665,0.0643819796859346,0.05598303036158,0.0469640607667385,0.038045599112265,0.0297910430406382,0.0225691512255103,0.0165571872688139,0.0117728501203748,0.00812059807374467,0.00543946475002762,0.00354287578988316,0.00224814301499502,0.00141719703362174,0.000925192926163728,0.000862457243049623
"11",0.00296605978334442,0.00322736127956402,0.00506454253881361,0.00761809434131466,0.0113786075076149,0.0164614810813025,0.0229643553876533,0.0308209246886485,0.0397493334463055,0.0492370488869986,0.0585643561867835,0.0668861339279985,0.0733587625291042,0.0772866563191833,0.0782499723588073,0.076180374245093,0.0713652469883819,0.0643819593939611,0.055983074633904,0.0469642150188683,0.0380459651370222,0.0297918201724501,0.022570691800981,0.0165600914757086,0.0117782616927434,0.0081305072056665,0.00545546606514866,0.00356593064842273,0.00231987480673862,0.00156712131058507,0.00150570914087694
"12",0.0016648004250162,0.0018870463714541,0.00307717424922514,0.00483603195286445,0.00752007334032419,0.0113208349075744,0.0164326109900395,0.0229522325316717,0.030815407613588,0.0397467295445475,0.0492358016478327,0.0585638733359339,0.0668859178075223,0.0733586611784781,0.0772866052681457,0.0782499512424093,0.0761803834820603,0.0713653065562605,0.0643821219808939,0.055983454727868,0.0469650414720488,0.0380476655925774,0.0297951297876114,0.0225768275630224,0.0165712549799848,0.0117981153777384,0.00816187688079676,0.00549981488052286,0.00369579324642069,0.00258481282084903,0.00255864824470678
"13",0.000902083081749185,0.00106547197017881,0.00180486703299107,0.00295934329513418,0.00478613963357953,0.00749132988227799,0.0113068593719572,0.016426969082797,0.0229497385817127,0.0308142621592522,0.0397461982182765,0.0492356165405174,0.0585638002224715,0.0668858908012365,0.0733586559397387,0.0772866218521328,0.0782500096561209,0.0761805365980476,0.0713656725882748,0.0643829459063011,0.0559852143369133,0.046968611967034,0.0380545231084837,0.0298076571093233,0.0225991321352254,0.0166098649447826,0.0118578360577679,0.0082446983034613,0.00572834798560208,0.00415039123652666,0.00423071040012103
"14",0.000472100038202207,0.000581133536174007,0.00102221484967219,0.00174634674918491,0.00293479939265397,0.00477231903069413,0.0074847913273097,0.0113043187250137,0.0164258733540989,0.0229492447620431,0.0308140374288361,0.0397461265988397,0.0492355922576872,0.0585637975132111,0.0668859059395075,0.073358705568156,0.0772867541155876,0.078250337315656,0.0761813045640661,0.0713673802626727,0.0643865526433037,0.0559924486360644,0.0469823377857,0.0380792517749636,0.0298508155928488,0.022671984709431,0.0167202314219087,0.0120079438888321,0.00863549208008777,0.00648543760769636,0.00680442052988558
"15",0.000238727099462946,0.000306285827031575,0.000559207877750109,0.00099420258956359,0.00173466909341656,0.00292837424154439,0.0047693626941306,0.00748368554572455,0.0113038522419543,0.0164256660351192,0.0229491515867666,0.0308140106310079,0.03974612136203,0.0492356028003142,0.058563835429439,0.0668860113647685,0.0733589780948292,0.0772874209291522,0.0782518854427038,0.0761847151867827,0.0713745128908512,0.0644007057227491,0.0560189936792465,0.04702953501646,0.0381601107358201,0.0299841361000921,0.0228698950037068,0.016984169040771,0.0126570102600596,0.00985867495450125,0.0106404905222396
"16",0.000116682042885668,0.000156037116950111,0.00029557670213839,0.000546277380474916,0.000988826164981008,0.00173177999725548,0.0029270824846819,0.00476889787059932,0.00748349352791506,0.0113037679674965,0.016425628902607,0.0229491435894066,0.0308140160855492,0.0397461476300492,0.0492356803951762,0.058564045679979,0.0668865495603412,0.0733602843804138,0.0772904290745332,0.0782584558635471,0.0761983287158358,0.0714012519435602,0.0644503091964016,0.0561060865082562,0.0471761810275887,0.0383966282263066,0.0303283440552535,0.0233199321738099,0.018030696039426,0.014573068057375,0.0161703716391947
"17",5.51407906003701e-05,7.68598759994857e-05,0.000150994225321565,0.000289818539508914,0.000543881229478437,0.000987569332227701,0.00173123452395289,0.00292689385082694,0.004768821584814,0.00748346066310601,0.0113037546493204,0.0164256303867082,0.0229491599200509,0.0308140686988985,0.0397462977328517,0.0492360832381129,0.0585650693662774,0.0668890160589727,0.0733659207771109,0.0773026401662405,0.0782835341551752,0.0762471115097331,0.0714908053726804,0.0646056657317445,0.0563634528556689,0.0475827455054782,0.0389769535958107,0.0310720930975436,0.0249570357048024,0.0209388001472624,0.0238694867137092
"18",2.5200975757096e-05,3.66140351104998e-05,7.45695862176754e-05,0.000148519704193552,0.000288784528071279,0.000543352162849268,0.000987346730925296,0.00173116066340137,0.00292686473270435,0.00476880975473272,0.00748345807252471,0.0113037636630963,0.0164256631202283,0.0229492588519053,0.030814347698658,0.0397470412095663,0.0492379597123949,0.0585695589998448,0.0668992004749051,0.0733878137892162,0.077347225333374,0.0783694641127849,0.0764032829209203,0.0717586240565651,0.0650425784666532,0.0570402406108395,0.0485306548596331,0.0401676041680656,0.0335551123671688,0.0292304215176595,0.0342055031200217
"19",1.11409342438449e-05,1.68717144570389e-05,3.5610572022558e-05,7.35431322752054e-05,0.000148087597516937,0.000288569000042839,0.000543264387159061,0.000987318884083037,0.0017311502074359,0.00292686166637922,0.00476881337811621,0.00748347670707535,0.0113038237183559,0.0164258415269672,0.0229497582259552,0.0308156697025061,0.0397503559814697,0.04924583710793,0.0585873023149891,0.0669370584196882,0.073464291813855,0.0774933238898242,0.0786324400550947,0.0768492898031309,0.0724757155867483,0.066132896945661,0.0585392995075443,0.0503758300650085,0.0438164098109286,0.0396301047425228,0.0475600426010024
"20",4.7648046579959e-06,7.52145964122659e-06,1.64474973550721e-05,3.51995168584839e-05,7.33682547649688e-05,0.000148002630713911,0.000288535581135834,0.000543254376956823,0.000987315755519595,0.00173115142291272,0.00292687107720711,0.00476884691054857,0.00748358187134802,0.0113041333884408,0.0164267025271829,0.0229520230035999,0.0308213120033474,0.0397636766320303,0.0492756360190466,0.0586504250628885,0.0670635867059358,0.0737039521797075,0.0779207182516664,0.0793495945296815,0.077986468307333,0.0741744338361572,0.0684264474628394,0.061305426574096,0.055566926160223,0.0521641219101247,0.0641295542860682
"21",1.97161145751643e-06,3.24430921127044e-06,7.34840239255106e-06,1.62885643582144e-05,3.51309788153379e-05,7.33358493196073e-05,0.000147990386322091,0.000288532323241569,0.000543254362175697,0.000987320144520487,0.00173116852708246,0.00292692815745035,0.00476902394703816,0.00748409943630359,0.0113055630615781,0.016430439420739,0.022961274176398,0.0308430123796487,0.039811898244343,0.0493770694952873,0.0588522212259679,0.0674426799449301,0.074373950766012,0.0790334045999798,0.0810907718824451,0.080543919165982,0.0775666678578626,0.0724346654702058,0.0684499881718829,0.0666455186021518,0.0838213185348866
"22",7.8932784648035e-07,1.35407412298405e-06,3.17618370447242e-06,7.28907020705021e-06,1.62625574850085e-05,3.51190378448792e-05,7.33315995767515e-05,0.00014798973065507,0.000288534101354536,0.000543262400884776,0.000987348614852353,0.00173126173708632,0.00292721493674437,0.00476985659481811,0.00748638463242304,0.0113114987258725,0.0164450424305866,0.0229953118672926,0.0309181564852816,0.0399688852496319,0.0496871093305032,0.0594300323381212,0.0684550285191877,0.0760384764280188,0.0816053670155611,0.0848081362910826,0.0853899222247333,0.0831762851358247,0.0819406081171472,0.0826402509972972,0.106170714244241
"23",3.05726901956737e-07,5.46841591941573e-07,1.32819705283954e-06,3.15479941760391e-06,7.27952241766071e-06,1.62583306403221e-05,3.5117751277066e-05,7.33321161603971e-05,0.000147993166577049,0.000288547154499271,0.000543307506273074,0.000987494816403913,0.00173170828049275,0.00292850277962095,0.00477336863541851,0.007495450729785,0.0113336668949141,0.016496394041952,0.0231079589957948,0.0311519330988232,0.0404273181567467,0.050534914661556,0.0609029729715192,0.0708536557385106,0.0797002425295656,0.0868173462773525,0.0914889525254465,0.092966911091974,0.0953965515123297,0.0994748361449103,0.130312649004065
"24",1.1455211226315e-07,2.13674866756694e-07,5.37358938913777e-07,1.32075836490871e-06,3.15141657442534e-06,7.27812284510521e-06,1.62581758733507e-05,3.51190513513905e-05,7.3337593455619e-05,0.000148013201114411,0.000288615606669468,0.000543527621989381,0.000988162423134747,0.00173362110886039,0.00293368677158415,0.00478666998082271,0.00752778038844853,0.0114081057606161,0.0166586778740461,0.0234425839229364,0.0318036511966215,0.041623664482434,0.0525966380027732,0.0642295262818257,0.0758740219236806,0.086742916463424,0.0956990123128676,0.101360513427444,0.10814132801073,0.116296832475922,0.155035120057664
"25",4.15136899337074e-08,8.07730727085015e-08,2.10323647452929e-07,5.34864262920933e-07,1.31961378913157e-06,3.15104143008145e-06,7.27848281326268e-06,1.62602675538512e-05,3.51272087656389e-05,7.33670055431589e-05,0.000148112827787459,0.00028893356886383,0.000544485360692967,0.000990888838338045,0.00174096466159453,0.00295241719835573,0.00483192829476094,0.00763137383328622,0.0116325930306399,0.0171186866529068,0.0243326096757179,0.0334258615454619,0.044397721002816,0.0570332534206547,0.0708529336588666,0.0850393184448883,0.0981229210375655,0.108100187215232,0.119563829416489,0.132186995924837,0.178926613295667
"26",1.4547773921557e-08,2.95341541236844e-08,7.96319290909035e-08,2.09521020994047e-07,5.34512925246569e-07,1.31963044913186e-06,3.15175357019218e-06,7.28155149110565e-06,1.62719429251201e-05,3.51688290074497e-05,7.35066799136923e-05,0.000148554917685796,0.000290255174307987,0.000548221472508295,0.00100088645512228,0.00176630598578668,0.00301327910923894,0.00497040308119971,0.00792963918274588,0.0122400118155346,0.0182863347294872,0.0264461538240879,0.0370132117073338,0.0500869040969894,0.0654400965933398,0.0823380932241319,0.0990908557595285,0.113146518994418,0.129210135723849,0.146301697943226,0.20059487207431
"27",4.92825593338685e-09,1.04431876768337e-08,2.91612133659312e-08,7.93909003636216e-08,2.09454693853203e-07,5.3472725165582e-07,1.32072719089862e-06,3.15614793735467e-06,7.29792795216254e-06,1.63294338149055e-05,3.53592969476167e-05,7.41028842026486e-05,0.000150319983756846,0.0002952018538364,0.000561354765206374,0.001033934402499,0.00184513304428364,0.00319144553868637,0.00535167749905031,0.00870108423311338,0.0137131621389988,0.0209344135498816,0.0309077658888865,0.0440313105663629,0.0603571385050681,0.0793038526227285,0.099065808738569,0.116654219194795,0.13684374921423,0.15801193495781,0.218908058778681
"28",1.61351291226574e-09,3.57062692187252e-09,1.03292913889252e-08,2.91074375305385e-08,7.94518892211972e-08,2.09860679446237e-07,5.36410404825538e-07,1.32714825362454e-06,3.17933052454937e-06,7.3772744238673e-06,1.658689089223e-05,3.61513233176385e-05,7.64135294211399e-05,0.000156714604806935,0.000311993569476876,0.000603196728716406,0.00113285409801233,0.0020668818756965,0.00366231733626425,0.0062973194414773,0.0104936392788639,0.0169115235601763,0.0262820972452196,0.0392508018899456,0.0561256041279958,0.0764991365755984,0.0985273545788102,0.118906512927479,0.142455770937736,0.166994209382567,0.233180166000475
"29",5.10875487555788e-10,1.18190322925599e-09,3.54551918249747e-09,1.03533788629622e-08,2.928266923715e-08,8.01760477971544e-08,2.12592598191507e-07,5.46251450413696e-07,1.36107853179334e-06,3.29112663426912e-06,7.72876535317098e-06,1.76402089519506e-05,3.91574779635662e-05,8.45797607844887e-05,0.000177819958426178,0.000363863160475606,0.000724340068694905,0.00140147953221409,0.00263166426462841,0.00478618140942759,0.00840925168543152,0.0142301896989869,0.0231071371381647,0.0358652326819685,0.053012152992067,0.0742936393901197,0.0978696710447786,0.120232139807295,0.146229397404146,0.173254595632516,0.243256601817992
"30",1.57815301581485e-10,3.83183488826726e-10,1.19653944199327e-09,3.63692759520319e-09,1.07154455747749e-08,3.06061744731578e-08,8.48219268503103e-08,2.28335602612636e-07,5.97690775429625e-07,1.52282960383752e-06,3.77965271550605e-06,9.14334096155951e-06,2.15609778345612e-05,4.95455618986187e-05,0.000110858588750397,0.000241220747959828,0.000509571093216397,0.00104288384135224,0.00206280340574024,0.00393271059915654,0.00720560488613587,0.0126481031455921,0.0211933749391131,0.0337787149060123,0.0510427096014622,0.0728388664295495,0.0973441628753575,0.120933602353122,0.148473644678647,0.177080791961943,0.249473866039479
"31",5.09766842196163e-11,1.31683438116667e-10,4.3321620571926e-10,1.38807957982628e-09,4.31755864195843e-09,1.30449436230743e-08,3.83256902323794e-08,1.09606288779135e-07,3.05367910376708e-07,8.29151088892658e-07,2.19402489707205e-06,5.65457849810254e-06,1.41792159930931e-05,3.45433349150087e-05,8.16153979663827e-05,0.00018664692643432,0.000412281651291013,0.000877664605963446,0.00179645978833334,0.00352697635600515,0.00662505947171158,0.0118743917929849,0.0202447417122403,0.0327300991751122,0.0500372257156613,0.0720780247998208,0.097042703545065,0.121250518816298,0.149577288080683,0.178995914475018,0.252604514717667
