"","X0","X1","X2","X3","X4","X5","X6","X7","X8","X9","X10","X11","X12","X13","X14","X15","X16","X17","X18","X19","X20","X21","X22","X23","X24","X25","X26","X27","X28","X29","X30"
"1",0.887562924936195,0.107123714566317,0.00519100269512008,0.000121274989956915,1.08281241032959e-06,0,0,0,0,0,0,0,0,0,0,0,0,0,0,0,0,0,0,0,0,0,0,0,0,0,0
"2",0.269662519856073,0.637278415975381,0.0881116942657503,0.00482826053765966,0.000118026552725926,1.08281241032959e-06,0,0,0,0,0,0,0,0,0,0,0,0,0,0,0,0,0,0,0,0,0,0,0,0,0
"3",0.189810518656317,0.111736495434322,0.605639720157961,0.0878680614734261,0.00482609491283901,0.000118026552725926,1.08281241032959e-06,0,0,0,0,0,0,0,0,0,0,0,0,0,0,0,0,0,0,0,0,0,0,0,0
"4",0.0291785460211516,0.165200358194345,0.107176772374424,0.605631057658678,0.0878680614734261,0.00482609491283901,0.000118026552725926,1.08281241032959e-06,0,0,0,0,0,0,0,0,0,0,0,0,0,0,0,0,0,0,0,0,0,0,0
"5",0.0162811674017158,0.0181923313059476,0.159909736757475,0.107172441124782,0.605631057658678,0.0878680614734261,0.00482609491283901,0.000118026552725926,1.08281241032959e-06,0,0,0,0,0,0,0,0,0,0,0,0,0,0,0,0,0,0,0,0,0,0
"6",0.00125822802080299,0.0155275299641264,0.017687740722734,0.159909736757475,0.107172441124782,0.605631057658678,0.0878680614734261,0.00482609491283901,0.000118026552725926,1.08281241032959e-06,0,0,0,0,0,0,0,0,0,0,0,0,0,0,0,0,0,0,0,0,0
"7",0.000617203073887871,0.00100701554160653,0.015161539369435,0.017687740722734,0.159909736757475,0.107172441124782,0.605631057658678,0.0878680614734261,0.00482609491283901,0.000118026552725926,1.08281241032959e-06,0,0,0,0,0,0,0,0,0,0,0,0,0,0,0,0,0,0,0,0
"8",1.73249985652736e-05,0.000617203073887871,0.000989690543041252,0.015161539369435,0.017687740722734,0.159909736757475,0.107172441124782,0.605631057658678,0.0878680614734261,0.00482609491283901,0.000118026552725926,1.08281241032959e-06,0,0,0,0,0,0,0,0,0,0,0,0,0,0,0,0,0,0,0
"9",8.66249928263678e-06,1.73249985652736e-05,0.000608540574605234,0.000989690543041252,0.015161539369435,0.017687740722734,0.159909736757475,0.107172441124782,0.605631057658678,0.0878680614734261,0.00482609491283901,0.000118026552725926,1.08281241032959e-06,0,0,0,0,0,0,0,0,0,0,0,0,0,0,0,0,0,0
"10",0,8.66249928263678e-06,1.73249985652736e-05,0.000608540574605234,0.000989690543041252,0.015161539369435,0.017687740722734,0.159909736757475,0.107172441124782,0.605631057658678,0.0878680614734261,0.00482609491283901,0.000118026552725926,1.08281241032959e-06,0,0,0,0,0,0,0,0,0,0,0,0,0,0,0,0,0
"11",0,0,8.66249928263678e-06,1.73249985652736e-05,0.000608540574605234,0.000989690543041252,0.015161539369435,0.017687740722734,0.159909736757475,0.107172441124782,0.605631057658678,0.0878680614734261,0.00482609491283901,0.000118026552725926,1.08281241032959e-06,0,0,0,0,0,0,0,0,0,0,0,0,0,0,0,0
"12",0,0,0,8.66249928263678e-06,1.73249985652736e-05,0.000608540574605234,0.000989690543041252,0.015161539369435,0.017687740722734,0.159909736757475,0.107172441124782,0.605631057658678,0.0878680614734261,0.00482609491283901,0.000118026552725926,1.08281241032959e-06,0,0,0,0,0,0,0,0,0,0,0,0,0,0,0
"13",0,0,0,0,8.66249928263678e-06,1.73249985652736e-05,0.000608540574605234,0.000989690543041252,0.015161539369435,0.017687740722734,0.159909736757475,0.107172441124782,0.605631057658678,0.0878680614734261,0.00482609491283901,0.000118026552725926,1.08281241032959e-06,0,0,0,0,0,0,0,0,0,0,0,0,0,0
"14",0,0,0,0,0,8.66249928263678e-06,1.73249985652736e-05,0.000608540574605234,0.000989690543041252,0.015161539369435,0.017687740722734,0.159909736757475,0.107172441124782,0.605631057658678,0.0878680614734261,0.00482609491283901,0.000118026552725926,1.08281241032959e-06,0,0,0,0,0,0,0,0,0,0,0,0,0
"15",0,0,0,0,0,0,8.66249928263678e-06,1.73249985652736e-05,0.000608540574605234,0.000989690543041252,0.015161539369435,0.017687740722734,0.159909736757475,0.107172441124782,0.605631057658678,0.0878680614734261,0.00482609491283901,0.000118026552725926,1.08281241032959e-06,0,0,0,0,0,0,0,0,0,0,0,0
"16",0,0,0,0,0,0,0,8.66249928263678e-06,1.73249985652736e-05,0.000608540574605234,0.000989690543041252,0.015161539369435,0.017687740722734,0.159909736757475,0.107172441124782,0.605631057658678,0.0878680614734261,0.00482609491283901,0.000118026552725926,1.08281241032959e-06,0,0,0,0,0,0,0,0,0,0,0
"17",0,0,0,0,0,0,0,0,8.66249928263678e-06,1.73249985652736e-05,0.000608540574605234,0.000989690543041252,0.015161539369435,0.017687740722734,0.159909736757475,0.107172441124782,0.605631057658678,0.0878680614734261,0.00482609491283901,0.000118026552725926,1.08281241032959e-06,0,0,0,0,0,0,0,0,0,0
"18",0,0,0,0,0,0,0,0,0,8.66249928263678e-06,1.73249985652736e-05,0.000608540574605234,0.000989690543041252,0.015161539369435,0.017687740722734,0.159909736757475,0.107172441124782,0.605631057658678,0.0878680614734261,0.00482609491283901,0.000118026552725926,1.08281241032959e-06,0,0,0,0,0,0,0,0,0
"19",0,0,0,0,0,0,0,0,0,0,8.66249928263678e-06,1.73249985652736e-05,0.000608540574605234,0.000989690543041252,0.015161539369435,0.017687740722734,0.159909736757475,0.107172441124782,0.605631057658678,0.0878680614734261,0.00482609491283901,0.000118026552725926,1.08281241032959e-06,0,0,0,0,0,0,0,0
"20",0,0,0,0,0,0,0,0,0,0,0,8.66249928263678e-06,1.73249985652736e-05,0.000608540574605234,0.000989690543041252,0.015161539369435,0.017687740722734,0.159909736757475,0.107172441124782,0.605631057658678,0.0878680614734261,0.00482609491283901,0.000118026552725926,1.08281241032959e-06,0,0,0,0,0,0,0
"21",0,0,0,0,0,0,0,0,0,0,0,0,8.66249928263678e-06,1.73249985652736e-05,0.000608540574605234,0.000989690543041252,0.015161539369435,0.017687740722734,0.159909736757475,0.107172441124782,0.605631057658678,0.0878680614734261,0.00482609491283901,0.000118026552725926,1.08281241032959e-06,0,0,0,0,0,0
"22",0,0,0,0,0,0,0,0,0,0,0,0,0,8.66249928263678e-06,1.73249985652736e-05,0.000608540574605234,0.000989690543041252,0.015161539369435,0.017687740722734,0.159909736757475,0.107172441124782,0.605631057658678,0.0878680614734261,0.00482609491283901,0.000118026552725926,1.08281241032959e-06,0,0,0,0,0
"23",0,0,0,0,0,0,0,0,0,0,0,0,0,0,8.66249928263678e-06,1.73249985652736e-05,0.000608540574605234,0.000989690543041252,0.015161539369435,0.017687740722734,0.159909736757475,0.107172441124782,0.605631057658678,0.0878680614734261,0.00482609491283901,0.000118026552725926,1.08281241032959e-06,0,0,0,0
"24",0,0,0,0,0,0,0,0,0,0,0,0,0,0,0,8.66249928263678e-06,1.73249985652736e-05,0.000608540574605234,0.000989690543041252,0.015161539369435,0.017687740722734,0.159909736757475,0.107172441124782,0.605631057658678,0.0878680614734261,0.00482609491283901,0.000118026552725926,1.08281241032959e-06,0,0,0
"25",0,0,0,0,0,0,0,0,0,0,0,0,0,0,0,0,8.66249928263678e-06,1.73249985652736e-05,0.000608540574605234,0.000989690543041252,0.015161539369435,0.017687740722734,0.159909736757475,0.107172441124782,0.605631057658678,0.0878680614734261,0.00482609491283901,0.000118026552725926,1.08281241032959e-06,0,0
"26",0,0,0,0,0,0,0,0,0,0,0,0,0,0,0,0,0,8.66249928263678e-06,1.73249985652736e-05,0.000608540574605234,0.000989690543041252,0.015161539369435,0.017687740722734,0.159909736757475,0.107172441124782,0.605631057658678,0.0878680614734261,0.00482609491283901,0.000118026552725926,1.08281241032959e-06,0
"27",0,0,0,0,0,0,0,0,0,0,0,0,0,0,0,0,0,0,8.66249928263678e-06,1.73249985652736e-05,0.000608540574605234,0.000989690543041252,0.015161539369435,0.017687740722734,0.159909736757475,0.107172441124782,0.605631057658678,0.0878680614734261,0.00482609491283901,0.000118026552725926,1.08281241032959e-06
"28",0,0,0,0,0,0,0,0,0,0,0,0,0,0,0,0,0,0,0,8.66249928263678e-06,1.73249985652736e-05,0.000608540574605234,0.000989690543041252,0.015161539369435,0.017687740722734,0.159909736757475,0.107172441124782,0.605631057658678,0.0878680614734261,0.00482609491283901,0.000119109365136255
"29",0,0,0,0,0,0,0,0,0,0,0,0,0,0,0,0,0,0,0,0,8.66249928263678e-06,1.73249985652736e-05,0.000608540574605234,0.000989690543041252,0.015161539369435,0.017687740722734,0.159909736757475,0.107172441124782,0.605632140471089,0.0878669786610158,0.00494520427797526
"30",0,0,0,0,0,0,0,0,0,0,0,0,0,0,0,0,0,0,0,0,0,8.66249928263678e-06,1.73249985652736e-05,0.000608540574605234,0.000989690543041252,0.015161539369435,0.0176899063475546,0.159909736757475,0.107320786424997,0.605546598290673,0.0927472141943712
"31",0,0,0,0,0,0,0,0,0,0,0,0,0,0,0,0,0,0,0,0,0,0,8.66249928263678e-06,1.73249985652736e-05,0.000612871824246553,0.000991856167861911,0.0154582299698653,0.0177288875943265,0.167123433035091,0.104275917927151,0.693782815983611
