"","X0","X1","X2","X3","X4","X5","X6","X7","X8","X9","X10","X11","X12","X13","X14","X15","X16","X17","X18","X19","X20","X21","X22","X23","X24","X25","X26","X27","X28","X29","X30"
"1",0.117503094585833,0.0712389991054391,0.0743680385547547,0.076373592297399,0.0761011300085146,0.0734106511061384,0.0694994270988419,0.0647803068033233,0.0593866499263695,0.0535530908901644,0.0475004212596438,0.0414286215089309,0.0355222575243076,0.0299364566044528,0.0247914161454571,0.0201704101382426,0.0161200835570785,0.012653348723102,0.00975433463606523,0.00738471569047967,0.00549064820486759,0.00400954426875122,0.00287603571144502,0.00202671594592511,0.00140352384696692,0.00095584853868187,0.000641825574250588,0.000430337006616689,0.000301609049527459,0.000187700035447577,0.000199165652962148
"2",0.109878785749615,0.0669296471430298,0.0702713779339225,0.0726878116409204,0.0730703106341603,0.0712375807107727,0.0682482108525978,0.0644331189545809,0.0598720046874233,0.054752277130867,0.0492639964126786,0.0435933655185943,0.03792578228005,0.0324296430460832,0.0272473916020341,0.0224897435061907,0.0182324612708237,0.0145163122003739,0.0113498715875669,0.00871455660733846,0.00657105834411239,0.00486625785282401,0.00353979226334002,0.00252966893362846,0.00177663282600271,0.00122724234212299,0.000836156890102415,0.000569519461725372,0.000406489053445212,0.000256301315858297,0.000276631247194544
"3",0.100347583976277,0.061505373698336,0.065066504554476,0.0679411791182602,0.0690850503800591,0.0682742375773339,0.06640290612744,0.0637057177118805,0.0601979695401557,0.0560071360917964,0.0512807337166333,0.0461812950360104,0.0408876936882183,0.0355774277555844,0.0304143532616693,0.0255388608955887,0.0210605500891171,0.0170544575626617,0.0135608508649268,0.0105881569255113,0.00811822866609432,0.00611294753863155,0.00452115434573209,0.00328509833398094,0.00234591731020608,0.00164793289990423,0.00114233529615305,0.000792715727072104,0.000578117396318284,0.000370110948888163,0.000407402965063746
"4",0.0880450753801815,0.0544576944136764,0.0582437024554661,0.0616395977541558,0.0636922494103363,0.0641338546168382,0.0636576007249839,0.0623820801650432,0.0602436106899393,0.0572921656641804,0.0536161483312518,0.0493402096742799,0.0446256965415271,0.0396524032616657,0.0346033191979824,0.0296505419578876,0.024943187348239,0.0205988987370808,0.0166994854034207,0.0132906149531962,0.0103849410819727,0.00796767044691562,0.00600342534672489,0.00444337870810325,0.00323195370056255,0.0023126445285732,0.00163369590750212,0.00115702034691515,0.00086372657774299,0.000561957255654564,0.000631449417980213
"5",0.0754042491918108,0.0471420102696363,0.0510649769161107,0.054882099667511,0.0577466756896511,0.0593632022349726,0.0602365115159207,0.0603796243737324,0.059655358323927,0.0580350724640734,0.0555409381781555,0.0522479150176205,0.0482852667177101,0.043819959741727,0.0390404325169706,0.0341397876388554,0.0292998424520238,0.0246781499597067,0.0203991216390549,0.0165496971754127,0.0131793225710365,0.0103034392691912,0.00790935691267141,0.00596337739467824,0.00441830825189739,0.00322069759957487,0.0023188665979033,0.00167641125178836,0.00128123049250953,0.000846989698014411,0.000971108276131009
"6",0.062985870625631,0.0398713834407083,0.0438217709046627,0.0479207500010867,0.0514395105212245,0.0540743806106617,0.0561657276244795,0.0576393164005367,0.0582962318667483,0.0580341195644283,0.0568063307046974,0.0546288901985463,0.0515848770451657,0.0478116849794517,0.0434861730314986,0.0388072442743528,0.0339776057094681,0.0291871815718648,0.0245998965342566,0.020344893157313,0.0165125039672746,0.0131545873594441,0.0102883094620037,0.00790229697944242,0.00596428316129836,0.00442941076632538,0.0032509211585692,0.00239968733120289,0.00187802660095917,0.0012612355974655,0.00147489884921081
"7",0.0514866593874796,0.0330459092402891,0.0369014618243669,0.0411112032094521,0.0450690788800539,0.0484841759771329,0.0515674087387059,0.0541830829396923,0.0560888403745941,0.0571207886104455,0.0571674259957234,0.0561816654672859,0.0541893641385884,0.0512823065738499,0.0476071291038188,0.0433497586510913,0.0387170594911771,0.0339182533549202,0.0291482650301125,0.0245746633221953,0.0203291813616186,0.0165040106817894,0.0131523670180514,0.0102925281473516,0.00791467009959492,0.00598962198620438,0.00448243305067796,0.00337961100912364,0.00270927365273236,0.0018481597376454,0.00220364294421449
"8",0.0412065421109439,0.0268505151258108,0.030498926057674,0.0346521485265924,0.0388259395114274,0.0427600568973887,0.0465724285786983,0.0500929555873601,0.0530566586948842,0.0552548376572329,0.0565208008187463,0.0567461473838455,0.0558938303783551,0.0539978998572006,0.0511580633356278,0.0475282899288886,0.0433007130359496,0.0386871529316637,0.0339005787325217,0.0291386360457008,0.0245708726255253,0.02033053448106,0.016511010560701,0.0131666323117888,0.010317644243218,0.00795861036564254,0.00607508398815516,0.00468054054524017,0.003844776019865,0.00266378387380991,0.00323738978846047
"9",0.0323065773700562,0.0213968747117391,0.0247466435393981,0.0286964416187011,0.0328772837743418,0.0370725687492455,0.0413410961547865,0.0455036192056577,0.0492935406138227,0.0524768204719475,0.0548460544321693,0.0562394756397858,0.0565579671824109,0.0557715823328324,0.0539207458921726,0.0511107759957466,0.0475002378869474,0.0432848645349476,0.038679185726215,0.0338981758693594,0.0291410489662531,0.0245787192491332,0.0203456590531284,0.0165365664291535,0.0132084737148917,0.0103879399750657,0.00809117366174658,0.00637304740201497,0.00536609996034585,0.00377545604268726,0.00467528384327508
"10",0.0248167261071104,0.0167245002666416,0.0197115756069593,0.0233430588838255,0.0273539959905902,0.0315785215929368,0.0360444946461947,0.0405844883370977,0.0449491841436456,0.0488991822983051,0.0522039616733625,0.0546616032524005,0.0561183416030012,0.0564808632255402,0.0557241243517102,0.0538926853495127,0.0510951657784047,0.0474926960650222,0.0432829761238142,0.0386820843356929,0.0339063872137715,0.029156541528209,0.0246049168893441,0.0203876821170535,0.0166033302733715,0.0133179063437594,0.0105892521384796,0.00853100947339869,0.00736517173379551,0.00526142744996187,0.00663614520706514
"11",0.0186799248008496,0.0128226766436189,0.015412159692709,0.0186473491294419,0.0223527239323561,0.0264145198530157,0.0308507658748511,0.0355211265004079,0.0402086326750363,0.044686908922937,0.0487209518300033,0.0520854849591015,0.0545851218704514,0.0560706297355936,0.0564523374335016,0.0557081721310079,0.0538850337427017,0.0510933868014165,0.0474958642869447,0.0432915007117856,0.0386978175906628,0.0339329278005881,0.0291993794291467,0.024671827965127,0.020491749676801,0.0167702863471765,0.0136178532670919,0.0112267016775969,0.00994073962807061,0.00720873968204379,0.00925670540794205
"12",0.0137789505141091,0.00964342971781953,0.0118276624792206,0.0146253779134387,0.0179340449887285,0.0216885259961679,0.0259108402186775,0.0304968302527724,0.0352720375802391,0.0400381253183259,0.044573126223744,0.0486466112416693,0.0520384094161692,0.0545565521493773,0.0560544511200005,0.0564445523361102,0.0557064681787126,0.0538885048601748,0.0511024152144645,0.0475121781804888,0.0433185477715277,0.0387413347633719,0.0340011973291028,0.0293037676634259,0.0248309976966159,0.02074175681927,0.017208898958197,0.0145247718427359,0.0131930195669613,0.00970944210973086,0.012687171578629
"13",0.00996091640334959,0.00711402073490659,0.00890813045899118,0.0112600468126319,0.0141234539674133,0.0174748710745691,0.0213475548121416,0.025676763304564,0.0303354383485966,0.0351637308543946,0.0399672445955764,0.044527756433388,0.0486186921296146,0.0520224002225251,0.0545488254287315,0.0560529257296329,0.0564484471334792,0.0557162158188576,0.053905837627275,0.0511306366431596,0.0475568166668472,0.0433882176137051,0.0388480735590728,0.0341611261060304,0.0295428093889313,0.025198469055071,0.0213711066253203,0.0184751636950721,0.0172162371840016,0.0128547600217944,0.0170833115503342
"14",0.00705761231450097,0.00514795445593686,0.00658401450606776,0.00850828109896436,0.0109148519922618,0.0138129398586362,0.0172490271732868,0.0211961371062565,0.0255745535688863,0.0302683085874047,0.0351208258804347,0.0399406390311103,0.0445123702431971,0.0486113003468773,0.0520212097488053,0.0545532689727846,0.0560635868218729,0.0564671516315991,0.0557463123398794,0.0539526816028966,0.051202548507667,0.0476662613855872,0.0435521734546682,0.0390887640981447,0.034513598416017,0.0300728538778903,0.0260842708054639,0.0231055288240843,0.0220892095211858,0.0167271416778867,0.0225946221497238
"15",0.00490147736516324,0.00365424653741593,0.00477509496987595,0.0063088527565603,0.00827616717194188,0.0107093952547141,0.0136665582730296,0.0171532463633757,0.0211329500037416,0.0255341283159884,0.0302434010510724,0.0351064253680127,0.0399338310916831,0.0445116605565662,0.048616373717023,0.0520328813157779,0.054573571305833,0.0560960325774573,0.0565172071253351,0.0558220954615263,0.054066248410158,0.0513714080793973,0.0479136908078425,0.0439079310252384,0.0395989033424486,0.0352636163219047,0.031295352888092,0.0284138683558796,0.0278644193372211,0.0213903913448047,0.0293485735048985
"16",0.00333690565847834,0.00254457001327441,0.00339810472671191,0.00459004076330309,0.00615621811756456,0.0081431411126379,0.0106165735702139,0.0136073888036187,0.0171152822757752,0.0211096223969009,0.0255208614582712,0.0302373250064625,0.0351062726132029,0.0399395380236856,0.0445243040469947,0.0486382785687074,0.0520678667154373,0.0546273833518236,0.0561770099931556,0.0566371863286197,0.0559980341029915,0.0543220648568418,0.0517381054872631,0.0484299049847608,0.0446323586672811,0.0406396099820513,0.0369172657912539,0.0343623119885866,0.0345564156576991,0.0268784759122922,0.037431579024118
"17",0.00222713585093708,0.00173818589911519,0.00237267074635852,0.00327644324986091,0.00449187819562718,0.00607195984870464,0.0080856294018851,0.0105810339958251,0.0135855302564923,0.0171029694843014,0.0211042649162945,0.0255212362149848,0.0302435598620546,0.0351196952730351,0.0399627895662223,0.0445616071172208,0.0486958449551266,0.0521544972244997,0.0547553142859488,0.0563629956877746,0.0569044340479127,0.0563783092767694,0.0548554186479056,0.0524730435332833,0.0494387875369924,0.0460477865725027,0.0428310059269631,0.0408730027936739,0.0421307606618952,0.0331840305144568,0.0468681784553544
"18",0.00145738523460097,0.00116481634750826,0.00162544830366343,0.0022944736285979,0.0032147243624143,0.00443973369099201,0.00603728284831183,0.00806515748871578,0.0105695208154457,0.013580667455142,0.017103715822175,0.0211108040365786,0.0255350839381071,0.0302676433127118,0.0351586505124262,0.0400233999293839,0.0446533730427364,0.0488317378754427,0.0523519510075776,0.0550374146223281,0.0567606447779493,0.0574585925163592,0.0571390404809747,0.0558813934455256,0.0538502276095574,0.0513247640229537,0.0488913836185169,0.0478269924133104,0.0504950853951134,0.0402480337561342,0.0576008576887242
"19",0.000935120609356079,0.000765801626694296,0.00109255080712522,0.00157632814860058,0.00225659255534822,0.00318331603747609,0.00441963197959907,0.00602646051921708,0.00806059622232538,0.0105703487061434,0.013587181861794,0.0171174966122273,0.0211349767501896,0.0255746273875607,0.0303298862927607,0.0352538910406903,0.0401656300769862,0.0448611506846363,0.0491292466562858,0.0527701657747258,0.055616336232281,0.0575514598561766,0.0585216623839885,0.0585423944701036,0.0577229605106825,0.0563108508671421,0.0549360901568138,0.0550668619385227,0.0594940547372785,0.0479525040343809,0.0694738244628672
"20",0.000588399438832167,0.000493969269566566,0.000720536506319911,0.0010624395892182,0.00155373266779938,0.00223838384641894,0.00317252144092928,0.00441523271348667,0.00602711793173424,0.00806668145128732,0.0105834887413593,0.0136105514691556,0.0171562717163551,0.0211968831771802,0.0256706566889414,0.0304751020458224,0.0354682834644485,0.040475033519589,0.0452982388570317,0.0497344658846781,0.0535937843059117,0.0567202016170867,0.0590054844932787,0.0604009200081673,0.0609530891794251,0.0608647500468487,0.0607973013185942,0.0624034729785898,0.0689100775560219,0.0561182636383925,0.0822246644375089
"21",0.000363118472551088,0.000312649416164003,0.000466294810446696,0.000702599999235349,0.00104950468771058,0.00154390014327535,0.00223369944210485,0.0031728254360235,0.00442054740354658,0.00603903582735963,0.00808832682732382,0.0106200182495529,0.0136698369143357,0.0172497132871416,0.0213403644065906,0.0258855319112539,0.0307891276954277,0.0359164614274448,0.0411003391635749,0.0461520262626261,0.0508779727249587,0.0550990679183447,0.0586646247968029,0.061467034157768,0.0634880487313403,0.0648768015402383,0.0663145803260644,0.0696268794115492,0.0784713923703067,0.0645097512981076,0.0954879249408095
"22",0.000219833680713269,0.000194219111793321,0.000296189114270093,0.000456033501506267,0.000695748315116518,0.00104508886129575,0.00154353202993928,0.0022380113091023,0.00318306769445942,0.00443965424220683,0.00607194363421375,0.00814272048156548,0.0107072862597778,0.0138061772915199,0.0174573411209348,0.0216486549604061,0.0263319397141161,0.031419781340049,0.0367863490915137,0.0422728052701414,0.0476992795352025,0.0528807060145763,0.057638446523835,0.0618155072258138,0.0653317785121222,0.0682786397338295,0.0713475836431142,0.0765209635177894,0.0878685264316396,0.0728483195849583,0.108813872252459
"23",0.000130618379410752,0.00011847646529307,0.000184778180474521,0.000290732910123241,0.000453076448113647,0.000695034020855708,0.00104816814939385,0.00155183449060924,0.00225402217942467,0.00321128868994412,0.00448725553925183,0.00614979678214397,0.00826666861660769,0.0108995683670144,0.0140968886580168,0.0178856814728985,0.0222637081298514,0.0271927937115963,0.0325948340325323,0.0383514529321496,0.0443102650967058,0.0502956307556792,0.0561157692800358,0.0615762525799306,0.0665421347369602,0.0710476122217642,0.0757871023219385,0.082880917378555,0.0967791629982703,0.0808344907018317,0.121703983772604
"24",7.62437516566121e-05,7.10555906329902e-05,0.000113375293971262,0.000182356799865829,0.000290392771548445,0.000455149356517784,0.00070127225169915,0.00106085627591008,0.00157479005430913,0.00229360015234173,0.003277365389501,0.0045945874459062,0.00631964210034392,0.00852854573556753,0.011292951022351,0.0146724823705339,0.018705904097982,0.0234020732334201,0.0287319658624079,0.0346229589300233,0.0409591263899996,0.047585979255911,0.0543115897312955,0.0609164936078818,0.0672204979532381,0.0732051711099742,0.0795631192522339,0.0885319390306122,0.104899588771648,0.0881777150354155,0.133661211375282
"25",4.38183271426552e-05,4.20104277277207e-05,6.86313328223985e-05,0.000112934307202817,0.000183927670539743,0.000294823178445591,0.000464580984726825,0.000718927443250095,0.00109202161187863,0.00162796349305492,0.00238181386890425,0.0034199009318418,0.00481897141499828,0.00666373826241678,0.00904244633904504,0.0120401840015877,0.0157300167847222,0.0201625294350405,0.0253548472436137,0.0312803105197892,0.0378631506077673,0.044977030592659,0.0524395132339846,0.0600171805981363,0.0674951007725674,0.0748095810089929,0.082648963114807,0.0933469013451105,0.111978969889792,0.0946300999834225,0.144249111273992
"26",2.49180606504765e-05,2.46292219543228e-05,4.12594113707017e-05,6.9563285831699e-05,0.00011604775381519,0.000190548399750017,0.000307612668457682,0.000487778155079814,0.0007594142738512,0.00116067412190592,0.00174131757486539,0.00256415116152808,0.00370562158882178,0.00525499888212215,0.00731154974106548,0.00997910361036573,0.0133576954665379,0.0175324796209788,0.0225606825221185,0.0284576259785381,0.0351865535549776,0.0426514240956476,0.0506848515129589,0.0590480228697771,0.0675012394032917,0.0759443684289035,0.0850607872813548,0.097259578268526,0.117849765519778,0.100017506169809,0.15314823139535
"27",1.41726702030944e-05,1.44930874084018e-05,2.496032788895e-05,4.32224833000755e-05,7.40321775307798e-05,0.000124803871492939,0.000206852469705607,0.00033676936840209,0.000538339273671616,0.00084476329157849,0.00130102732886157,0.0019661735414673,0.00291501987141393,0.00423869973433257,0.00604326972856491,0.0084455358055916,0.0115654516662257,0.0155149232477922,0.0203834690463385,0.0262215592454852,0.0330265847109814,0.0407307988195337,0.049183495619646,0.058146013628156,0.0673623083448391,0.076704808779012,0.086852353727096,0.100270425762844,0.122447471851626,0.10426106005824,0.160197140460755
"28",8.24105123541283e-06,8.76261815075907e-06,1.5566705475762e-05,2.77657221243523e-05,4.89502806632611e-05,8.49000808968292e-05,0.000144706845314468,0.000242167866772167,0.000397720910880204,0.000640818601319074,0.00101264231193454,0.00156894083025663,0.00238255996975755,0.0035450060889968,0.00516619453973057,0.00737135457354418,0.0102941931374965,0.0140658586695052,0.0187998738084095,0.024573646391761,0.03141161353325,0.0392694498422274,0.0480116517091062,0.0574024314899574,0.0671757980249337,0.0771849499473001,0.088105166694607,0.102441672688656,0.125812155546539,0.107381329921052,0.165403909598131
"29",5.09480315388592e-06,5.65740600500671e-06,1.03897712974841e-05,1.91128866904616e-05,3.46995996954309e-05,6.19038145071407e-05,0.000108400999123253,0.000186168704149566,0.000313414600276226,0.000517027426539676,0.000835493775174322,0.00132209323314659,0.00204796031116392,0.00310434635042408,0.00460317627380359,0.00667475602885332,0.00946156099911921,0.0131074360038556,0.0177421623841043,0.0234618249179429,0.0303100710350304,0.0382597262316316,0.0471870991227862,0.0568598415371427,0.0670064158836873,0.0774676265066798,0.0889163014714616,0.103883592807004,0.128072932541629,0.109485697625571,0.168928014948335
"30",3.53292648293807e-06,4.08867230072152e-06,7.73860167370141e-06,1.46260477746362e-05,2.72230684833836e-05,4.97039530319821e-05,8.8934808366679e-05,0.000155836743654939,0.000267301849882018,0.000448678966123279,0.00073679846628198,0.00118336826276785,0.00185834615591432,0.00285262022651237,0.00427906283742379,0.00627074764853915,0.00897515659066198,0.0125435766777808,0.0171155047020474,0.0227983729497755,0.0296476963648397,0.0376471121491359,0.0466806520342401,0.0565186784435724,0.0668868622639275,0.0776188793411389,0.0893860932510889,0.104734770066313,0.129418919886772,0.110741929480218,0.17103718656326
"31",2.85132457180156e-06,3.39558868570306e-06,6.55618977158887e-06,1.26077233266478e-05,2.38329752004167e-05,4.41303912733679e-05,7.99780543535606e-05,0.000141785568240426,0.0002458016805364,0.000416613879442771,0.000690222376038295,0.00111753136538383,0.00176787197866343,0.00273188924323539,0.00412284551889318,0.00607509793700006,0.00873852575579469,0.0122680415543516,0.0168079334621862,0.0224712881687973,0.0293195944543314,0.0373419976573887,0.0464265465606946,0.0563451458117321,0.0668222535583265,0.07768811738988,0.0896133821065154,0.105151658832272,0.130081717883296,0.111361570430151,0.172079214579651
