"","0","1","2","3","4","5","6","7","8","9","10","11","12","13","14","15","16","17","18","19","20","21"
"0",0.741935483870968,0.193548387096774,0.032258064516129,0,0.032258064516129,0,0,0,0,0,0,0,0,0,0,0,0,0,0,0,0,0
"1",0.258064516129032,0.483870967741935,0.193548387096774,0.032258064516129,0,0.032258064516129,0,0,0,0,0,0,0,0,0,0,0,0,0,0,0,0
"2",0.161290322580645,0.0967741935483871,0.483870967741935,0.193548387096774,0.032258064516129,0,0.032258064516129,0,0,0,0,0,0,0,0,0,0,0,0,0,0,0
"3",0.0645161290322581,0.0967741935483871,0.0967741935483871,0.483870967741935,0.193548387096774,0.032258064516129,0,0.032258064516129,0,0,0,0,0,0,0,0,0,0,0,0,0,0
"4",0,0.0645161290322581,0.0967741935483871,0.0967741935483871,0.483870967741935,0.193548387096774,0.032258064516129,0,0.032258064516129,0,0,0,0,0,0,0,0,0,0,0,0,0
"5",0,0,0.0645161290322581,0.0967741935483871,0.0967741935483871,0.483870967741935,0.193548387096774,0.032258064516129,0,0.032258064516129,0,0,0,0,0,0,0,0,0,0,0,0
"6",0,0,0,0.0645161290322581,0.0967741935483871,0.0967741935483871,0.483870967741935,0.193548387096774,0.032258064516129,0,0.032258064516129,0,0,0,0,0,0,0,0,0,0,0
"7",0,0,0,0,0.0645161290322581,0.0967741935483871,0.0967741935483871,0.483870967741935,0.193548387096774,0.032258064516129,0,0.032258064516129,0,0,0,0,0,0,0,0,0,0
"8",0,0,0,0,0,0.0645161290322581,0.0967741935483871,0.0967741935483871,0.483870967741935,0.193548387096774,0.032258064516129,0,0.032258064516129,0,0,0,0,0,0,0,0,0
"9",0,0,0,0,0,0,0.0645161290322581,0.0967741935483871,0.0967741935483871,0.483870967741935,0.193548387096774,0.032258064516129,0,0.032258064516129,0,0,0,0,0,0,0,0
"10",0,0,0,0,0,0,0,0.0645161290322581,0.0967741935483871,0.0967741935483871,0.483870967741935,0.193548387096774,0.032258064516129,0,0.032258064516129,0,0,0,0,0,0,0
"11",0,0,0,0,0,0,0,0,0.0645161290322581,0.0967741935483871,0.0967741935483871,0.483870967741935,0.193548387096774,0.032258064516129,0,0.032258064516129,0,0,0,0,0,0
"12",0,0,0,0,0,0,0,0,0,0.0645161290322581,0.0967741935483871,0.0967741935483871,0.483870967741935,0.193548387096774,0.032258064516129,0,0.032258064516129,0,0,0,0,0
"13",0,0,0,0,0,0,0,0,0,0,0.0645161290322581,0.0967741935483871,0.0967741935483871,0.483870967741935,0.193548387096774,0.032258064516129,0,0.032258064516129,0,0,0,0
"14",0,0,0,0,0,0,0,0,0,0,0,0.0645161290322581,0.0967741935483871,0.0967741935483871,0.483870967741935,0.193548387096774,0.032258064516129,0,0.032258064516129,0,0,0
"15",0,0,0,0,0,0,0,0,0,0,0,0,0.0645161290322581,0.0967741935483871,0.0967741935483871,0.483870967741935,0.193548387096774,0.032258064516129,0,0.032258064516129,0,0
"16",0,0,0,0,0,0,0,0,0,0,0,0,0,0.0645161290322581,0.0967741935483871,0.0967741935483871,0.483870967741935,0.193548387096774,0.032258064516129,0,0.032258064516129,0
"17",0,0,0,0,0,0,0,0,0,0,0,0,0,0,0.0645161290322581,0.0967741935483871,0.0967741935483871,0.483870967741935,0.193548387096774,0.032258064516129,0,0.032258064516129
"18",0,0,0,0,0,0,0,0,0,0,0,0,0,0,0,0.0645161290322581,0.0967741935483871,0.0967741935483871,0.483870967741935,0.193548387096774,0.0645161290322581,0
"19",0,0,0,0,0,0,0,0,0,0,0,0,0,0,0,0,0.0645161290322581,0.0967741935483871,0.0967741935483871,0.483870967741935,0.193548387096774,0.0645161290322581
"20",0,0,0,0,0,0,0,0,0,0,0,0,0,0,0,0,0,0.0645161290322581,0.0967741935483871,0.0967741935483871,0.483870967741935,0.258064516129032
"21",0,0,0,0,0,0,0,0,0,0,0,0,0,0,0,0,0,0,0.0645161290322581,0.0967741935483871,0.0967741935483871,0.741935483870968
