"","V1","V2","V3","V4","V5","V6","V7","V8","V9","V10","V11","V12","V13","V14","V15","V16","V17","V18","V19","V20","V21","V22","V23","V24","V25","V26","V27","V28","V29","V30","V31"
"00:00-00:15",1,0,0,0,1,0,0,0,0,0,0,0,0,0,0,0,0,0,0,0,0,0,0,0,0,0,0,0,0,0,0
"00:15-00:30",0,0,0,0,0,0,0,0,0,0,0,0,0,0,0,0,0,0,0,0,0,0,0,0,0,0,0,0,0,0,1
"00:30-00:45",0,0,0,0,0,0,0,0,0,0,0,0,0,0,0,0,0,0,0,0,0,0,0,0,0,0,0,0,0,0,10
"00:45-01:00",0,0,0,0,0,0,0,0,0,0,0,0,0,0,0,0,0,0,0,0,0,0,0,0,0,0,0,0,0,0,0
"01:00-01:15",0,0,0,0,0,0,0,0,0,0,0,0,0,0,0,0,0,0,0,0,0,0,0,0,0,0,0,0,0,0,0
"01:15-01:30",0,0,0,0,0,0,0,0,0,0,0,0,0,0,0,0,0,0,0,0,0,0,0,0,0,0,0,0,0,0,0
"01:30-01:45",0,0,0,0,0,0,0,0,0,0,0,0,0,0,0,0,0,0,0,0,0,0,0,0,0,0,0,0,0,0,0
"01:45-02:00",0,0,0,0,0,0,0,0,0,0,0,0,0,0,0,0,0,0,0,0,0,0,0,0,0,0,0,0,0,0,0
"02:00-02:15",0,0,0,0,0,0,0,0,0,0,0,0,0,0,0,0,0,0,0,0,0,0,0,0,0,0,0,0,0,0,0
"02:15-02:30",0,0,0,0,0,0,0,0,0,0,0,0,0,0,0,0,0,0,0,0,0,0,0,0,0,0,0,0,0,0,0
"02:30-02:45",0,0,0,0,0,0,0,0,0,0,0,0,0,0,0,0,0,0,0,0,0,0,0,0,0,0,0,0,0,0,0
"02:45-03:00",0,0,0,0,0,0,0,0,0,0,0,0,0,0,0,0,0,0,0,0,0,0,0,0,0,0,0,0,0,0,0
"03:00-03:15",0,0,0,0,0,0,0,0,0,0,0,0,0,0,0,0,0,0,0,0,0,0,0,0,0,0,0,0,0,0,0
"03:15-03:30",0,0,0,0,0,0,0,0,0,0,0,0,0,0,0,0,0,0,0,0,0,0,0,0,0,0,0,0,0,0,0
"03:30-03:45",0,0,0,0,0,0,0,0,0,0,0,0,0,0,0,0,0,0,0,0,0,0,0,0,0,0,0,0,0,0,0
"03:45-04:00",0,0,0,0,0,0,0,0,0,0,0,0,0,0,0,0,0,0,0,0,0,0,0,0,0,0,0,0,0,0,0
"04:00-04:15",0,0,0,0,0,0,0,0,0,0,0,0,0,0,0,0,0,0,0,0,0,0,0,0,0,0,0,0,0,0,0
"04:15-04:30",0,0,0,0,0,0,0,0,0,0,0,0,0,0,0,0,0,0,0,0,0,0,0,0,0,0,0,0,0,0,0
"04:30-04:45",0,0,0,0,0,0,0,0,0,0,0,0,0,0,0,0,0,0,0,0,0,0,0,0,0,0,0,0,0,0,0
"04:45-05:00",0,0,0,0,0,0,0,0,0,0,0,0,0,0,0,0,0,0,0,0,0,0,0,0,0,0,0,0,0,0,0
"05:00-05:15",0,0,0,0,0,0,0,0,0,0,0,0,0,0,0,0,0,0,0,0,0,0,0,0,0,0,0,0,0,0,0
"05:15-05:30",0,0,0,0,0,0,0,0,0,0,0,0,0,0,0,0,0,0,0,0,0,0,0,0,0,0,0,0,0,0,0
"05:30-05:45",0,0,0,0,0,0,0,0,0,0,0,0,0,0,0,0,0,0,0,0,0,0,0,0,0,0,0,0,0,0,0
"05:45-06:00",0,0,0,0,0,0,0,0,0,0,0,0,0,0,0,0,0,0,1,0,0,0,0,0,0,0,0,0,0,0,0
"06:00-06:15",0,0,0,0,0,0,1,0,0,0,0,0,0,1,1,0,0,1,0,0,0,1,0,0,0,0,0,0,0,0,1
"06:15-06:30",2,1,2,1,0,0,1,2,1,2,1,0,0,1,1,1,1,0,0,0,0,1,1,0,0,0,0,1,3,1,0
"06:30-06:45",0,0,1,0,0,0,0,1,1,0,0,0,0,0,0,1,0,0,0,0,0,1,0,0,0,0,0,0,0,1,1
"06:45-07:00",1,1,1,0,0,0,0,1,0,2,0,0,0,1,2,0,2,0,0,0,0,0,0,0,0,0,0,0,2,1,0
"07:00-07:15",3,0,0,0,2,0,1,2,0,2,2,2,0,2,3,2,3,1,0,0,0,2,1,0,0,0,0,1,2,1,3
"07:15-07:30",3,3,0,0,1,0,3,4,1,0,1,1,0,4,2,3,3,2,0,0,0,3,1,1,0,0,0,3,4,5,2
"07:30-07:45",2,1,0,0,0,0,1,3,1,3,1,0,0,0,2,4,3,0,0,0,0,2,2,1,0,0,0,3,1,3,3
"07:45-08:00",1,5,0,3,0,3,1,0,1,0,5,1,0,2,7,3,3,5,0,0,0,3,3,0,0,0,0,4,2,2,1
"08:00-08:15",5,1,2,2,0,0,5,5,5,5,2,0,0,4,7,2,7,9,0,0,0,2,4,1,1,0,0,3,5,3,5
"08:15-08:30",4,3,5,9,1,0,4,2,6,1,3,0,0,3,9,10,4,6,1,0,0,3,2,1,0,0,0,2,4,9,5
"08:30-08:45",3,2,5,6,0,0,5,6,2,6,13,0,0,4,4,10,5,7,0,1,0,2,1,1,0,0,0,3,9,8,7
"08:45-09:00",2,3,10,7,0,0,5,7,2,8,10,1,0,5,1,0,1,7,0,1,1,5,7,0,0,0,0,3,1,2,4
"09:00-09:15",4,5,5,7,3,0,4,4,5,4,7,2,0,4,0,1,3,7,2,0,1,3,1,0,0,0,1,3,2,1,5
"09:15-09:30",2,3,6,3,1,0,1,3,2,1,4,1,1,1,0,1,3,2,2,0,2,1,4,0,0,0,0,2,0,2,0
"09:30-09:45",1,1,2,2,0,0,2,0,2,1,2,0,0,1,2,0,0,3,0,0,0,3,2,1,0,1,0,0,1,0,6
"09:45-10:00",1,1,0,3,1,1,3,2,1,2,4,0,0,3,1,0,2,2,1,0,0,3,5,0,0,1,0,1,0,0,3
"10:00-10:15",2,1,3,0,2,0,3,0,5,7,2,1,0,3,0,1,1,0,1,0,0,1,0,0,1,0,0,1,3,0,1
"10:15-10:30",2,3,6,1,3,0,2,1,4,2,3,1,0,5,0,1,1,1,0,0,0,3,3,0,0,1,1,1,1,0,2
"10:30-10:45",2,0,2,4,0,1,2,1,2,2,2,1,1,1,1,1,4,0,2,0,0,3,0,0,1,1,1,1,1,0,7
"10:45-11:00",0,1,3,1,1,0,1,3,3,4,1,2,1,2,1,4,3,1,2,0,0,1,0,0,0,0,2,1,3,5,1
"11:00-11:15",1,1,0,2,1,0,1,3,2,2,3,1,1,1,0,2,3,0,0,0,0,0,1,0,0,0,0,1,1,1,2
"11:15-11:30",1,3,1,1,1,0,1,1,0,1,3,1,1,1,1,1,1,0,1,0,1,1,1,0,0,1,0,3,1,1,3
"11:30-11:45",0,1,3,0,1,1,1,2,4,2,0,4,1,2,0,0,1,3,2,0,0,0,3,0,0,0,0,2,0,1,2
"11:45-12:00",3,3,2,2,1,0,1,1,0,2,0,1,4,1,0,3,1,1,0,0,0,0,0,2,0,0,1,0,0,0,3
"12:00-12:15",1,0,2,2,1,1,1,0,1,1,1,1,2,0,1,2,1,1,3,0,0,1,1,2,1,1,3,1,0,1,2
"12:15-12:30",3,0,1,1,2,0,0,1,1,0,2,1,0,0,0,0,3,2,1,1,0,2,0,0,0,0,1,1,3,1,1
"12:30-12:45",1,1,1,1,1,0,2,3,1,0,1,0,0,0,1,1,0,4,1,1,2,0,1,1,0,0,0,0,3,2,2
"12:45-13:00",4,0,1,4,4,2,3,1,1,0,2,1,2,1,0,1,1,1,0,3,1,0,1,1,0,0,0,1,1,1,0
"13:00-13:15",4,0,1,3,0,0,0,1,1,2,1,2,0,0,2,1,0,0,1,0,0,1,3,0,1,1,1,0,1,0,1
"13:15-13:30",1,0,4,2,2,0,0,4,0,2,2,5,1,1,3,3,1,0,0,2,0,3,2,0,1,0,2,3,1,3,1
"13:30-13:45",1,1,1,3,1,2,2,2,0,1,1,3,0,3,2,8,2,4,1,0,0,0,1,0,0,0,1,2,2,0,1
"13:45-14:00",0,1,3,0,2,1,2,3,2,2,2,0,1,2,1,1,2,1,3,1,0,2,0,0,0,0,0,2,4,1,5
"14:00-14:15",2,0,4,4,1,2,2,5,1,1,4,1,0,1,0,3,1,4,1,0,0,2,3,2,4,1,1,5,1,3,4
"14:15-14:30",3,2,1,3,1,1,3,2,3,2,2,0,0,2,3,3,4,5,1,1,1,0,3,0,0,0,0,0,1,1,2
"14:30-14:45",2,1,4,3,1,0,9,2,6,3,2,2,2,3,2,0,3,8,0,1,1,1,1,1,0,1,1,1,4,3,1
"14:45-15:00",0,0,1,1,1,0,4,5,4,2,4,1,1,3,4,2,0,5,0,1,0,0,2,3,1,0,0,0,1,2,4
"15:00-15:15",2,0,2,5,0,1,4,2,0,2,5,1,0,4,4,2,5,1,3,0,0,3,2,1,0,0,1,1,4,2,9
"15:15-00:30",4,1,1,5,2,1,5,2,3,3,2,1,0,3,0,6,5,3,0,0,2,5,4,1,2,0,1,4,1,2,3
"15:30-15:45",1,0,0,2,1,1,1,2,2,0,4,1,1,2,2,1,3,4,0,1,0,2,1,1,1,0,0,1,1,4,2
"15:45-16:00",1,2,0,5,1,0,2,4,1,2,2,0,0,3,2,2,1,4,1,0,0,2,1,1,0,0,1,0,1,4,0
"16:00-16:15",1,0,1,7,1,2,3,4,3,1,0,1,1,1,0,3,0,1,0,2,2,4,2,0,1,2,0,0,2,0,2
"16:15-16:30",1,2,1,7,0,0,0,4,1,0,4,0,0,2,3,1,2,2,3,2,0,0,4,0,1,1,2,2,6,0,1
"16:30-16:45",2,0,4,5,1,1,0,4,2,2,2,0,2,1,2,4,3,3,0,1,0,1,2,0,0,2,1,0,2,0,2
"16:45-17:00",1,0,0,1,0,1,1,1,3,3,2,0,1,2,1,2,3,3,1,1,0,1,2,0,0,0,1,1,1,0,0
"17:00-17:15",1,2,3,1,1,0,1,0,1,3,1,1,0,1,0,3,2,2,0,1,1,0,3,0,0,0,0,2,1,0,1
"17:15-17:30",1,1,3,0,0,1,4,4,4,3,1,1,0,0,3,2,2,1,0,0,0,2,1,2,0,2,0,2,4,2,2
"17:30-17:45",3,7,3,9,0,0,2,0,2,3,2,0,0,8,4,4,2,4,0,0,2,1,4,1,2,2,0,3,2,2,3
"17:45-18:00",3,2,2,3,2,0,4,1,4,3,2,0,1,2,0,4,2,6,2,0,1,3,1,0,2,0,1,2,5,0,2
"18:00-18:15",0,5,1,0,0,0,4,3,2,4,3,0,3,5,2,4,1,5,0,0,0,4,2,0,0,2,0,3,3,6,2
"18:15-18:30",4,1,1,2,0,1,2,1,3,1,3,0,0,5,7,8,8,0,0,0,3,2,0,3,1,0,1,3,6,4,4
"18:30-18:45",7,2,6,3,1,0,4,5,2,5,3,0,1,5,11,3,6,2,0,0,0,5,3,0,1,0,2,6,5,6,6
"18:45-19:00",3,6,2,5,3,0,3,6,2,1,5,1,0,3,6,4,2,2,1,0,0,3,2,0,0,2,0,2,3,0,7
"19:00-19:15",11,2,5,2,3,1,4,5,2,7,5,0,1,3,3,4,9,5,1,0,0,2,4,0,0,2,0,2,5,5,4
"19:15-19:30",2,3,0,1,0,0,3,3,6,7,1,0,1,4,5,6,6,1,0,2,1,4,3,1,0,1,2,3,3,4,4
"19:30-19:45",2,4,1,1,0,0,1,4,0,3,1,3,1,4,3,2,1,2,0,1,0,2,7,1,3,0,0,1,3,1,5
"19:45-20:00",0,6,1,1,1,0,3,1,1,2,2,0,1,2,3,1,3,3,0,0,1,2,4,0,0,0,1,2,4,0,1
"20:00-20:15",1,0,2,4,0,0,0,4,0,2,0,1,0,3,2,2,2,7,0,0,1,0,0,0,0,2,1,2,0,0,1
"20:15-20:30",2,1,1,1,0,0,2,1,1,0,1,1,0,1,1,1,2,3,0,0,0,2,1,1,0,2,2,0,2,0,0
"20:30-20:45",1,5,0,0,0,1,2,0,3,3,0,0,0,2,2,2,1,0,0,0,2,0,3,0,2,0,0,0,5,0,2
"20:45-21:00",2,0,0,1,0,0,0,1,1,1,0,0,0,0,3,0,1,2,0,0,0,1,0,0,0,0,0,0,1,0,1
"21:00-21:15",1,3,1,3,0,0,2,1,1,0,2,0,0,1,0,0,1,1,1,0,0,0,0,1,0,0,0,0,2,0,1
"21:15-21:30",1,1,0,0,1,0,0,0,3,0,1,0,0,0,1,2,1,2,0,3,0,1,1,0,0,0,0,0,1,0,1
"21:30-21:45",1,1,0,0,1,0,0,2,3,0,1,0,0,0,0,0,1,1,0,0,1,0,1,0,0,0,0,0,2,0,0
"21:45-22:00",0,0,0,1,1,0,0,0,1,0,1,0,0,0,0,0,0,0,0,1,0,0,0,0,0,0,0,0,0,0,0
"22:00-22:15",0,0,0,0,0,0,1,0,0,0,0,0,0,0,0,0,0,0,0,0,0,0,0,2,0,0,0,0,0,0,1
"22:15-22:30",0,0,1,0,0,0,0,0,0,1,0,0,0,0,2,0,0,0,0,0,0,0,0,2,0,1,2,0,0,0,0
"22:30-22:45",0,0,0,0,0,0,0,0,1,0,1,0,0,0,0,0,0,3,0,0,0,0,0,0,0,0,0,0,0,0,0
"22:45-23:00",0,0,0,0,0,0,0,0,0,0,0,0,0,0,0,0,0,0,0,0,0,1,0,0,0,0,0,0,0,0,0
"23:00-23:15",0,0,0,1,0,0,0,0,0,0,0,0,0,0,0,1,0,0,0,0,0,1,0,0,0,0,0,0,0,0,2
"23:15-23:30",0,0,0,0,0,0,1,0,0,0,0,0,0,0,0,0,3,0,0,0,0,0,0,0,0,0,0,0,0,0,0
"23:30-23:45",0,0,0,0,0,0,0,0,0,0,0,0,0,0,0,0,0,0,0,0,0,0,0,1,0,0,0,0,0,0,1
"23:45-00:00",0,0,0,0,0,0,0,0,0,0,0,0,0,0,0,0,0,0,0,0,0,0,0,0,0,0,0,0,0,0,0
