"","X0","X1","X2","X3","X4","X5","X6","X7","X8","X9","X10","X11","X12","X13","X14","X15","X16","X17","X18","X19","X20","X21"
"1",0.807825788612138,0.180820791435117,0.0110351159208319,0.000315022918761279,3.28111315179997e-06,0,0,0,0,0,0,0,0,0,0,0,0,0,0,0,0,0
"2",0.21520842571018,0.626635745750783,0.147118801640215,0.0107187228669083,0.000315022918761279,3.28111315179997e-06,0,0,0,0,0,0,0,0,0,0,0,0,0,0,0,0
"3",0.0408421753914956,0.180416942969276,0.620585053100191,0.147118801640215,0.0107187228669083,0.000315022918761279,3.28111315179997e-06,0,0,0,0,0,0,0,0,0,0,0,0,0,0,0
"4",0.00356489789026576,0.03780541052201,0.179888809948496,0.620585053100191,0.147118801640215,0.0107187228669083,0.000315022918761279,3.28111315179997e-06,0,0,0,0,0,0,0,0,0,0,0,0,0,0
"5",8.21405043840036e-05,0.0034949263494942,0.0377932415583975,0.179888809948496,0.620585053100191,0.147118801640215,0.0107187228669083,0.000315022918761279,3.28111315179997e-06,0,0,0,0,0,0,0,0,0,0,0,0,0
"6",0,8.21405043840036e-05,0.0034949263494942,0.0377932415583975,0.179888809948496,0.620585053100191,0.147118801640215,0.0107187228669083,0.000315022918761279,3.28111315179997e-06,0,0,0,0,0,0,0,0,0,0,0,0
"7",0,0,8.21405043840036e-05,0.0034949263494942,0.0377932415583975,0.179888809948496,0.620585053100191,0.147118801640215,0.0107187228669083,0.000315022918761279,3.28111315179997e-06,0,0,0,0,0,0,0,0,0,0,0
"8",0,0,0,8.21405043840036e-05,0.0034949263494942,0.0377932415583975,0.179888809948496,0.620585053100191,0.147118801640215,0.0107187228669083,0.000315022918761279,3.28111315179997e-06,0,0,0,0,0,0,0,0,0,0
"9",0,0,0,0,8.21405043840036e-05,0.0034949263494942,0.0377932415583975,0.179888809948496,0.620585053100191,0.147118801640215,0.0107187228669083,0.000315022918761279,3.28111315179997e-06,0,0,0,0,0,0,0,0,0
"10",0,0,0,0,0,8.21405043840036e-05,0.0034949263494942,0.0377932415583975,0.179888809948496,0.620585053100191,0.147118801640215,0.0107187228669083,0.000315022918761279,3.28111315179997e-06,0,0,0,0,0,0,0,0
"11",0,0,0,0,0,0,8.21405043840036e-05,0.0034949263494942,0.0377932415583975,0.179888809948496,0.620585053100191,0.147118801640215,0.0107187228669083,0.000315022918761279,3.28111315179997e-06,0,0,0,0,0,0,0
"12",0,0,0,0,0,0,0,8.21405043840036e-05,0.0034949263494942,0.0377932415583975,0.179888809948496,0.620585053100191,0.147118801640215,0.0107187228669083,0.000315022918761279,3.28111315179997e-06,0,0,0,0,0,0
"13",0,0,0,0,0,0,0,0,8.21405043840036e-05,0.0034949263494942,0.0377932415583975,0.179888809948496,0.620585053100191,0.147118801640215,0.0107187228669083,0.000315022918761279,3.28111315179997e-06,0,0,0,0,0
"14",0,0,0,0,0,0,0,0,0,8.21405043840036e-05,0.0034949263494942,0.0377932415583975,0.179888809948496,0.620585053100191,0.147118801640215,0.0107187228669083,0.000315022918761279,3.28111315179997e-06,0,0,0,0
"15",0,0,0,0,0,0,0,0,0,0,8.21405043840036e-05,0.0034949263494942,0.0377932415583975,0.179888809948496,0.620585053100191,0.147118801640215,0.0107187228669083,0.000315022918761279,3.28111315179997e-06,0,0,0
"16",0,0,0,0,0,0,0,0,0,0,0,8.21405043840036e-05,0.0034949263494942,0.0377932415583975,0.179888809948496,0.620585053100191,0.147118801640215,0.0107187228669083,0.000315022918761279,3.28111315179997e-06,0,0
"17",0,0,0,0,0,0,0,0,0,0,0,0,8.21405043840036e-05,0.0034949263494942,0.0377932415583975,0.179888809948496,0.620585053100191,0.147118801640215,0.0107187228669083,0.000315022918761279,3.28111315179997e-06,0
"18",0,0,0,0,0,0,0,0,0,0,0,0,0,8.21405043840036e-05,0.0034949263494942,0.0377932415583975,0.179888809948496,0.620585053100191,0.147118801640215,0.0107187228669083,0.000315022918761279,3.28111315179997e-06
"19",0,0,0,0,0,0,0,0,0,0,0,0,0,0,8.21405043840036e-05,0.0034949263494942,0.0377932415583975,0.179888809948496,0.620585053100191,0.147118801640215,0.0107187228669083,0.000318304031913079
"20",0,0,0,0,0,0,0,0,0,0,0,0,0,0,0,8.21405043840036e-05,0.0034949263494942,0.0377932415583975,0.179888809948496,0.620585904927644,0.147121483319234,0.0110334933923502
"21",0,0,0,0,0,0,0,0,0,0,0,0,0,0,0,0,8.21405043840036e-05,0.0034950176167213,0.0377970274581881,0.179978628167515,0.62090399149567,0.157743194757521
"22",0,0,0,0,0,0,0,0,0,0,0,0,0,0,0,0,0,8.77078052366972e-05,0.00372595750394414,0.0409248950484071,0.191980474726617,0.763280964915795
