"","X0","X1","X2","X3","X4","X5","X6","X7","X8","X9","X10","X11","X12","X13","X14","X15","X16","X17","X18","X19","X20","X21"
"1",0.831525500426194,0.146300303888544,0.0205421618723786,0.00156668749881015,6.39521588122394e-05,1.38220354030623e-06,1.19517202561232e-08,0,0,0,0,0,0,0,0,0,0,0,0,0,0,0
"2",0.558778894884272,0.317720104665421,0.105084925370758,0.0169305884462441,0.00142129280654181,6.27996715018275e-05,1.38220354030623e-06,1.19517202561232e-08,0,0,0,0,0,0,0,0,0,0,0,0,0,0
"3",0.217322411811066,0.352062683978673,0.307818208428904,0.104402660839582,0.0169085483084707,0.00142129280654181,6.27996715018275e-05,1.38220354030623e-06,1.19517202561232e-08,0,0,0,0,0,0,0,0,0,0,0,0,0
"4",0.0538583121704693,0.16507510170216,0.350526799597592,0.307745014515701,0.104400737072302,0.0169085483084707,0.00142129280654181,6.27996715018275e-05,1.38220354030623e-06,1.19517202561232e-08,0,0,0,0,0,0,0,0,0,0,0,0
"5",0.00897906432253036,0.0450325253314367,0.16492550173578,0.350523166406909,0.307744970189266,0.104400737072302,0.0169085483084707,0.00142129280654181,6.27996715018275e-05,1.38220354030623e-06,1.19517202561232e-08,0,0,0,0,0,0,0,0,0,0,0
"6",0.000957915352819429,0.00803019507009299,0.0450235824731722,0.164925398493663,0.350523166406909,0.307744970189266,0.104400737072302,0.0169085483084707,0.00142129280654181,6.27996715018275e-05,1.38220354030623e-06,1.19517202561232e-08,0,0,0,0,0,0,0,0,0,0
"7",5.99763203647843e-05,0.000898224887889019,0.00802991063774273,0.0450235810500881,0.164925398493663,0.350523166406909,0.307744970189266,0.104400737072302,0.0169085483084707,0.00142129280654181,6.27996715018275e-05,1.38220354030623e-06,1.19517202561232e-08,0,0,0,0,0,0,0,0,0
"8",1.95295895154664e-06,5.80269191235392e-05,0.000898221330178717,0.00802991063774273,0.0450235810500881,0.164925398493663,0.350523166406909,0.307744970189266,0.104400737072302,0.0169085483084707,0.00142129280654181,6.27996715018275e-05,1.38220354030623e-06,1.19517202561232e-08,0,0,0,0,0,0,0,0
"9",2.49039721105649e-08,1.92805497943608e-06,5.80269191235392e-05,0.000898221330178717,0.00802991063774273,0.0450235810500881,0.164925398493663,0.350523166406909,0.307744970189266,0.104400737072302,0.0169085483084707,0.00142129280654181,6.27996715018275e-05,1.38220354030623e-06,1.19517202561232e-08,0,0,0,0,0,0,0
"10",0,2.49039721105649e-08,1.92805497943608e-06,5.80269191235392e-05,0.000898221330178717,0.00802991063774273,0.0450235810500881,0.164925398493663,0.350523166406909,0.307744970189266,0.104400737072302,0.0169085483084707,0.00142129280654181,6.27996715018275e-05,1.38220354030623e-06,1.19517202561232e-08,0,0,0,0,0,0
"11",0,0,2.49039721105649e-08,1.92805497943608e-06,5.80269191235392e-05,0.000898221330178717,0.00802991063774273,0.0450235810500881,0.164925398493663,0.350523166406909,0.307744970189266,0.104400737072302,0.0169085483084707,0.00142129280654181,6.27996715018275e-05,1.38220354030623e-06,1.19517202561232e-08,0,0,0,0,0
"12",0,0,0,2.49039721105649e-08,1.92805497943608e-06,5.80269191235392e-05,0.000898221330178717,0.00802991063774273,0.0450235810500881,0.164925398493663,0.350523166406909,0.307744970189266,0.104400737072302,0.0169085483084707,0.00142129280654181,6.27996715018275e-05,1.38220354030623e-06,1.19517202561232e-08,0,0,0,0
"13",0,0,0,0,2.49039721105649e-08,1.92805497943608e-06,5.80269191235392e-05,0.000898221330178717,0.00802991063774273,0.0450235810500881,0.164925398493663,0.350523166406909,0.307744970189266,0.104400737072302,0.0169085483084707,0.00142129280654181,6.27996715018275e-05,1.38220354030623e-06,1.19517202561232e-08,0,0,0
"14",0,0,0,0,0,2.49039721105649e-08,1.92805497943608e-06,5.80269191235392e-05,0.000898221330178717,0.00802991063774273,0.0450235810500881,0.164925398493663,0.350523166406909,0.307744970189266,0.104400737072302,0.0169085483084707,0.00142129280654181,6.27996715018275e-05,1.38220354030623e-06,1.19517202561232e-08,0,0
"15",0,0,0,0,0,0,2.49039721105649e-08,1.92805497943608e-06,5.80269191235392e-05,0.000898221330178717,0.00802991063774273,0.0450235810500881,0.164925398493663,0.350523166406909,0.307744970189266,0.104400737072302,0.0169085483084707,0.00142129280654181,6.27996715018275e-05,1.38220354030623e-06,1.19517202561232e-08,0
"16",0,0,0,0,0,0,0,2.49039721105649e-08,1.92805497943608e-06,5.80269191235392e-05,0.000898221330178717,0.00802991063774273,0.0450235810500881,0.164925398493663,0.350523166406909,0.307744970189266,0.104400737072302,0.0169085483084707,0.00142129280654181,6.27996715018275e-05,1.38220354030623e-06,1.19517202561232e-08
"17",0,0,0,0,0,0,0,0,2.49039721105649e-08,1.92805497943608e-06,5.80269191235392e-05,0.000898221330178717,0.00802991063774273,0.0450235810500881,0.164925398493663,0.350523166406909,0.307744970189266,0.104400737072302,0.0169085483084707,0.00142129280654181,6.27996715018275e-05,1.39415526056236e-06
"18",0,0,0,0,0,0,0,0,0,2.49039721105649e-08,1.92805497943608e-06,5.80269191235392e-05,0.000898221330178717,0.00802991063774273,0.0450235810500881,0.164925398493663,0.350523166406909,0.307744970189266,0.104400737072302,0.0169085483084707,0.0014213764685836,6.4110164720597e-05
"19",0,0,0,0,0,0,0,0,0,0,2.49039721105649e-08,1.92805497943608e-06,5.80269191235392e-05,0.000898221330178717,0.00802991063774273,0.0450235810500881,0.164925398493663,0.350523167401701,0.307745003884306,0.104401086578404,0.0169176734247494,0.0014759773210906
"20",0,0,0,0,0,0,0,0,0,0,0,2.49039721105649e-08,1.92805497943608e-06,5.80269191235392e-05,0.000898221330178717,0.00802991089600615,0.0450235908691538,0.164925622023586,0.350527074528489,0.307779951813951,0.104779860215727,0.0179757884448333
"21",0,0,0,0,0,0,0,0,0,0,0,0,2.49039721105649e-08,1.9280826505162e-06,5.80290318910309e-05,0.00089829927543636,0.00803143900166928,0.045042332818413,0.165111374506926,0.351822918915507,0.315145023006892,0.113888630456643
"22",0,0,0,0,0,0,0,0,0,0,0,0,0,2.65919079980587e-08,2.0569614675091e-06,6.20708855832736e-05,0.000964413099553644,0.00866787883852208,0.0493196053076238,0.186391921832098,0.417960624951062,0.336631401532182
