"","0","1","2","3","4","5","6","7","8","9","10","11","12","13","14","15"
"0",0.806451612903226,0.161290322580645,0.032258064516129,0,0,0,0,0,0,0,0,0,0,0,0,0
"1",0.225806451612903,0.580645161290323,0.161290322580645,0.032258064516129,0,0,0,0,0,0,0,0,0,0,0,0
"2",0.032258064516129,0.193548387096774,0.580645161290323,0.161290322580645,0.032258064516129,0,0,0,0,0,0,0,0,0,0,0
"3",0,0.032258064516129,0.193548387096774,0.580645161290323,0.161290322580645,0.032258064516129,0,0,0,0,0,0,0,0,0,0
"4",0,0,0.032258064516129,0.193548387096774,0.580645161290323,0.161290322580645,0.032258064516129,0,0,0,0,0,0,0,0,0
"5",0,0,0,0.032258064516129,0.193548387096774,0.580645161290323,0.161290322580645,0.032258064516129,0,0,0,0,0,0,0,0
"6",0,0,0,0,0.032258064516129,0.193548387096774,0.580645161290323,0.161290322580645,0.032258064516129,0,0,0,0,0,0,0
"7",0,0,0,0,0,0.032258064516129,0.193548387096774,0.580645161290323,0.161290322580645,0.032258064516129,0,0,0,0,0,0
"8",0,0,0,0,0,0,0.032258064516129,0.193548387096774,0.580645161290323,0.161290322580645,0.032258064516129,0,0,0,0,0
"9",0,0,0,0,0,0,0,0.032258064516129,0.193548387096774,0.580645161290323,0.161290322580645,0.032258064516129,0,0,0,0
"10",0,0,0,0,0,0,0,0,0.032258064516129,0.193548387096774,0.580645161290323,0.161290322580645,0.032258064516129,0,0,0
"11",0,0,0,0,0,0,0,0,0,0.032258064516129,0.193548387096774,0.580645161290323,0.161290322580645,0.032258064516129,0,0
"12",0,0,0,0,0,0,0,0,0,0,0.032258064516129,0.193548387096774,0.580645161290323,0.161290322580645,0.032258064516129,0
"13",0,0,0,0,0,0,0,0,0,0,0,0.032258064516129,0.193548387096774,0.580645161290323,0.161290322580645,0.032258064516129
"14",0,0,0,0,0,0,0,0,0,0,0,0,0.032258064516129,0.193548387096774,0.580645161290323,0.193548387096774
"15",0,0,0,0,0,0,0,0,0,0,0,0,0,0.032258064516129,0.193548387096774,0.774193548387097
