"","0","1","2","3","4","5","6","7","8","9","10","11","12","13","14","15"
"0",0.548387096774194,0.354838709677419,0.0967741935483871,0,0,0,0,0,0,0,0,0,0,0,0,0
"1",0,0.548387096774194,0.354838709677419,0.0967741935483871,0,0,0,0,0,0,0,0,0,0,0,0
"2",0,0,0.548387096774194,0.354838709677419,0.0967741935483871,0,0,0,0,0,0,0,0,0,0,0
"3",0,0,0,0.548387096774194,0.354838709677419,0.0967741935483871,0,0,0,0,0,0,0,0,0,0
"4",0,0,0,0,0.548387096774194,0.354838709677419,0.0967741935483871,0,0,0,0,0,0,0,0,0
"5",0,0,0,0,0,0.548387096774194,0.354838709677419,0.0967741935483871,0,0,0,0,0,0,0,0
"6",0,0,0,0,0,0,0.548387096774194,0.354838709677419,0.0967741935483871,0,0,0,0,0,0,0
"7",0,0,0,0,0,0,0,0.548387096774194,0.354838709677419,0.0967741935483871,0,0,0,0,0,0
"8",0,0,0,0,0,0,0,0,0.548387096774194,0.354838709677419,0.0967741935483871,0,0,0,0,0
"9",0,0,0,0,0,0,0,0,0,0.548387096774194,0.354838709677419,0.0967741935483871,0,0,0,0
"10",0,0,0,0,0,0,0,0,0,0,0.548387096774194,0.354838709677419,0.0967741935483871,0,0,0
"11",0,0,0,0,0,0,0,0,0,0,0,0.548387096774194,0.354838709677419,0.0967741935483871,0,0
"12",0,0,0,0,0,0,0,0,0,0,0,0,0.548387096774194,0.354838709677419,0.0967741935483871,0
"13",0,0,0,0,0,0,0,0,0,0,0,0,0,0.548387096774194,0.354838709677419,0.0967741935483871
"14",0,0,0,0,0,0,0,0,0,0,0,0,0,0,0.548387096774194,0.451612903225806
"15",0,0,0,0,0,0,0,0,0,0,0,0,0,0,0,1
