"","X0","X1","X2","X3","X4","X5","X6","X7","X8","X9","X10","X11","X12","X13","X14","X15","X16","X17","X18","X19","X20","X21","X22","X23","X24","X25","X26","X27","X28","X29","X30","X31","X32","X33","X34","X35","X36"
"1",0.319167528828654,0.17265037093644,0.110152200917508,0.0864931340328237,0.0718463079885592,0.0587491021246966,0.0469542818366615,0.0366883535007294,0.028014301558504,0.0209084212995905,0.0152590462889388,0.0108917659634312,0.00760460206274978,0.00519375918714188,0.00346997869430539,0.00226792604043744,0.00145016146661563,0.000907252288274631,0.000555406835036662,0.00033275064606584,0.000195122682848068,0.000112004625213789,6.29450772348673e-05,3.46371730990112e-05,1.86652273392494e-05,9.85115039391897e-06,5.09275530203784e-06,2.57915021339405e-06,1.27967937536967e-06,6.22113286172242e-07,2.96374090124361e-07,1.38394799597732e-07,6.33971576913655e-08,2.85573295461052e-08,1.2625052501168e-08,5.71276959214467e-09,2.80732339056853e-09
"2",0.313061956222739,0.169871252618285,0.108992545685399,0.0861686745120902,0.0720983560421699,0.05944446068861,0.0479542896521414,0.0378563440641558,0.0292310234350647,0.0220802145785022,0.0163211919769986,0.0118073887267534,0.00836030551305584,0.00579365945775767,0.00392953389515662,0.00260849886809359,0.00169480797057973,0.00107786053785706,0.000671057124629537,0.00040903610110663,0.000244131868850861,0.000142694191205922,8.16895457415012e-05,4.58104049822572e-05,2.51684756718868e-05,1.35487778196381e-05,7.14736460305103e-06,3.69524364935734e-06,1.87256810713599e-06,9.30201963370225e-07,4.53032724829928e-07,2.16380666494751e-07,1.01450014228234e-07,4.68100563332548e-08,2.12068943589642e-08,9.8516275688167e-09,4.95426865461067e-09
"3",0.302109485253424,0.164851779881489,0.106854211013468,0.0855130988097352,0.0724728469554448,0.0606211441306996,0.0496936713453657,0.0399191011777381,0.0314050914398274,0.024195831932122,0.0182578940194041,0.0134932846830211,0.0097654349862679,0.00692019480036283,0.00480124100284266,0.00326115310953647,0.00216853444625018,0.00141173189185342,0.000899822474112368,0.000561589626556781,0.000343230235199685,0.000205450743623486,0.000120459154582758,6.91889785819182e-05,3.89362015384927e-05,2.14705206795047e-05,1.16025660776722e-05,6.14518791349797e-06,3.1902983138523e-06,1.623646035836e-06,8.10195147591062e-07,3.965212157531e-07,1.90536048222618e-07,9.01380990082268e-08,4.18654221092036e-08,1.99646033789995e-08,1.02673887478068e-08
"4",0.285585440924704,0.157202210163452,0.103497276134594,0.0843574752166674,0.072860593199031,0.0622331914763307,0.0521897608305991,0.0429519510676527,0.0346597999065358,0.0274132030433311,0.0212470109600366,0.0161331020704586,0.011997401042058,0.00873556468385669,0.0062264754061429,0.00434395914772344,0.0029661721454855,0.00198232301486488,0.00129670165360312,0.000830287110792114,0.000520456916910089,0.000319420180319324,0.000191963275000626,0.000112982559869227,6.51330766129791e-05,3.67829837722527e-05,2.03518337345138e-05,1.10337945235545e-05,5.86224002902052e-06,3.052656033765e-06,1.55832092151134e-06,7.80127101656637e-07,3.83452875399957e-07,1.85592447967777e-07,8.81666066601475e-08,4.30453629833675e-08,2.25799513382392e-08
"5",0.264432910799431,0.147270338876595,0.0989607109450538,0.0825710481298593,0.073026462114349,0.063987611826444,0.0551362855177319,0.0466728528223222,0.0387634253319255,0.0315644198118592,0.025186479563888,0.0196838821809093,0.0150602460583588,0.0112766319310959,0.00826127033568365,0.00592068702379096,0.00415078938822262,0.00284661074036942,0.00190982055376812,0.00125362952990868,0.000805220644595559,0.000506167515805815,0.00031144155527052,0.000187600102216491,0.000110645860129252,6.39076364019228e-05,3.61537433458583e-05,2.00355626790113e-05,1.08783228792877e-05,5.78770339895058e-06,3.01816445771314e-06,1.54335212632578e-06,7.74885914567168e-07,3.83176573223157e-07,1.85921803612407e-07,9.27936294430902e-08,4.95771983278709e-08
"6",0.23983616632053,0.135514021901528,0.0933279626798984,0.0800302580305711,0.0727133142081181,0.0655446761002848,0.0581619498625405,0.0507244848513782,0.0434070958691807,0.0364101128987084,0.0299141992672589,0.0240574204436096,0.0189285048267654,0.0145653874572833,0.0109589041144189,0.00806124603229153,0.0057971964263802,0.00407601918865656,0.00280221279502055,0.00188396709676111,0.0012388667653557,0.000796955097062378,0.000501630396754052,0.000309000198181283,0.000186312592646226,0.000109980527084682,6.35708809358659e-05,3.59869833112676e-05,1.99550787915668e-05,1.08409604727067e-05,5.7718729419579e-06,3.01316817576237e-06,1.54458051333756e-06,7.79986278044794e-07,3.86367248328823e-07,1.9702548686308e-07,1.07147567407684e-07
"7",0.213118489368693,0.122472470033195,0.0867376268362918,0.0766509051998223,0.0716849948759175,0.066563336932923,0.0608708849770097,0.0547044140780531,0.0482220901798417,0.0416439271943245,0.0352017876855402,0.0291066076907362,0.0235297549307268,0.018590935002631,0.014353706918666,0.0108287129808338,0.00798268742328508,0.00575068162645341,0.00404899086497089,0.00278679921700664,0.00187534023653621,0.0012341281209693,0.000794400821339167,0.000500279498981569,0.000308299385147056,0.000185956155561216,0.00010980304620247,6.34847640095212e-05,3.59469732192837e-05,1.99384529770675e-05,1.08369145371219e-05,5.77508899297932e-06,3.02226827004594e-06,1.55849153093993e-06,7.88059918049437e-07,4.10530169962406e-07,2.2717470770568e-07
"8",0.185563847400414,0.108697914043847,0.0793718786760129,0.0724078586677286,0.0697657472311226,0.0667519828138547,0.0628963593155987,0.0582144136075972,0.0528194940446712,0.0469197870342833,0.0407691939733388,0.0346290938715614,0.028740230071762,0.0233003440142887,0.0184501657829856,0.0142689971264028,0.0107787015325311,0.00795371096708567,0.00573420100097508,0.00403978733480096,0.0027817517648832,0.0018726213926584,0.00123268964102562,0.000793653382489413,0.000499898255414279,0.000308108775199532,0.000185863249195519,0.000109759794852513,6.34671804539979e-05,3.59437004258096e-05,1.99450028688083e-05,1.08509928948514e-05,5.79792938565253e-06,3.05339605570547e-06,1.57613828488853e-06,8.38731913037421e-07,4.72161127381668e-07
"9",0.15833040096065,0.0947225444280656,0.0714518469126012,0.0673476608957918,0.0668652333741098,0.0659018826377327,0.0639377577743574,0.0608958437005767,0.0568195110230869,0.0518720503583251,0.0462944022155439,0.0403670376641417,0.0343765360125507,0.0285850788924171,0.0232069936843563,0.0183951130252296,0.0142371596149793,0.0107606395847993,0.00794365477724382,0.00572870386117154,0.00403683564014391,0.002780194311857,0.00187181363179449,0.00123227789075296,0.000793447348259785,0.000499797599489853,0.000308061869436576,0.000185844455274303,0.000109757437558611,6.34768989797483e-05,3.59656384212474e-05,1.99788812716033e-05,1.09011817565168e-05,5.86396431208509e-06,3.09024607517218e-06,1.67980485851011e-06,9.61802018200588e-07
"10",0.132392949457311,0.081031951974507,0.0632274870088445,0.0615895533242288,0.0629898931501095,0.0639080623366869,0.0637886015925829,0.0624610765020082,0.0598819199171758,0.0561408977134777,0.0514307445309953,0.0460149424401131,0.0401943071940875,0.0342721759764844,0.0285233764228499,0.023171269664967,0.0183748521222598,0.0142258992432855,0.0107545041300728,0.00794037530257122,0.0057269830235907,0.00403594853250695,0.00277974480627783,0.0018715898728692,0.00123216900109846,0.000793396749373362,0.000499777655152287,0.000308060321593846,0.000185857800472376,0.000109786893367907,6.35276280831444e-05,3.6039209542904e-05,2.0084528377366e-05,1.10374522854456e-05,5.93886890303309e-06,3.29765064466631e-06,1.92000123215373e-06
"11",0.108502534857441,0.0680404553299892,0.0549606286163905,0.055314693081249,0.0582404476627895,0.060776997028405,0.0623545345028509,0.0627197810709373,0.0617369509423912,0.0594032245726445,0.0558334007342683,0.0512384406378889,0.0458976108750863,0.0401243787841809,0.0342314303605787,0.0285001563508265,0.0231583267633072,0.0183677947616275,0.0142221335760242,0.0107525367583415,0.00793936805232883,0.00572647722259883,0.0040356993650563,0.00277962484718076,0.00187153468651594,0.00123214749669076,0.000793395800772878,0.000499794117654819,0.000308097950300142,0.000185924354533865,0.000109895129252209,6.36814285693771e-05,3.62559751851352e-05,2.03595359857859e-05,1.118622114023e-05,6.34480807722786e-06,3.7557409296185e-06
"12",0.0871662560514928,0.0560713934086801,0.0469042862531836,0.0487461144548921,0.0527967384490876,0.056620371527573,0.0596585052356158,0.0615957352662279,0.0622115539410928,0.0614043412234842,0.0591916108665454,0.0557023104513391,0.0511592240853048,0.0458508730106917,0.0400974415549571,0.0342162646580888,0.0284918187586711,0.0231538520477758,0.0183654504018399,0.0142209342422525,0.0107519373129653,0.00793907526148881,0.0057263378645499,0.00403563598083857,0.00277960024115981,0.00187153323615602,0.00123216628939773,0.000793440162266439,0.000499877310025587,0.000308238138681755,0.000186147653321647,0.000110208812637455,6.41165885969703e-05,3.67993203997385e-05,2.0648412292255e-05,1.19633834748432e-05,7.19814294206049e-06
"13",0.0686530623227056,0.0453472620755572,0.039282908109565,0.0421236961322675,0.0468928755392669,0.05163577266187,0.0558314747676002,0.0591300910433793,0.0612452610438084,0.0619840075196693,0.0612605993176012,0.0591031520659027,0.0556491942136437,0.0511280870115056,0.0458330513565817,0.040087486597988,0.0342108423872603,0.0284889411412037,0.0231523648855777,0.0183647021862264,0.0142205679185333,0.0107517632401873,0.00793899623266,0.00572630658934315,0.00403563220571856,0.00277961946015925,0.00187158265686283,0.00123226282971074,0.000793613104429352,0.000500163548494189,0.000308688114989687,0.000186773685696721,0.000111064199392857,6.51676791177739e-05,3.7347637799561e-05,2.21033655690525e-05,1.35151521459757e-05
"14",0.053021385381222,0.0359902216759643,0.0322767958012241,0.0356787811679143,0.0407875341567963,0.046078193755245,0.0510906091272552,0.0554706105292001,0.0588927715745424,0.0610921533666275,0.0618877842298459,0.0612016344982059,0.059067873751562,0.0556285826740131,0.0511163301498121,0.0458265100385778,0.0400839412651975,0.0342089729402849,0.0284879831711952,0.0231518883913512,0.0183644727671637,0.0142204623086256,0.0107517197474982,0.00793898718716376,0.005726324362358,0.0040356835657721,0.00277972609578005,0.00187178132949006,0.00123261213744286,0.000794184401017525,0.000501051198499175,0.00030991138733303,0.000188420118378424,0.000113054726888253,6.61845904441897e-05,4.00102854121209e-05,2.48561446868351e-05
"15",0.0401609667634723,0.0280314284615455,0.0260126294370563,0.0296125005925278,0.0347345447899084,0.0402275398820299,0.0457090874162163,0.0508490303553442,0.0553129567147407,0.0587915934343606,0.0610288069440743,0.0618490681564288,0.0611785105826185,0.059054378696269,0.0556208919648146,0.0511120557072298,0.0458241971432028,0.0400827249590243,0.0342083524147497,0.0284876769621545,0.02315174364976,0.018364410222768,0.0142204443865222,0.010751733782552,0.00793903845262471,0.00572643573458294,0.00403590170486498,0.00278012401122075,0.00187247161527709,0.00123372874282657,0.000795899240971039,0.000503391514104422,0.000313013964455955,0.000192109468686479,0.000114896387899599,7.0945742094573e-05,4.47700010114362e-05
"16",0.0298405447980164,0.0214265303650032,0.020560678155438,0.0240805693148657,0.0289581366830532,0.0343573810618564,0.0399827030314155,0.0455506254035334,0.050746379567299,0.0552473901715509,0.0587506710801379,0.0610038407204592,0.061834166754779,0.0611698131959763,0.059049419333051,0.055618133797659,0.0511105627867142,0.0458234124953643,0.040082325793601,0.0342081574650667,0.0284875885927483,0.023151713140289,0.0183644184957586,0.0142204936931919,0.0107518473698544,0.00793926660439858,0.00572687038677714,0.00403668217638562,0.00278146069911673,0.00187460958460626,0.00123697316300695,0.000800282438673759,0.000509114165148792,0.000319704332591682,0.000195364027446628,0.00012321041723498,7.89587379212221e-05
"17",0.0217546125638553,0.0160744995032897,0.0159381413271049,0.0191857381866133,0.0236356556026203,0.0287091690653856,0.0341982737373448,0.0398808982121015,0.0454851713535604,0.0507047705998946,0.0552214998265292,0.058734901322081,0.0609944320913603,0.0618286724061633,0.0611666767428435,0.0590476726791947,0.0556171874596412,0.0511100657042813,0.0458231612366889,0.04008220678917,0.0342081113380896,0.0284875896724667,0.0231517598031925,0.0183645326977418,0.0142207285054434,0.0107523022117813,0.0079401154157198,0.00572837169913136,0.00403921944171875,0.00278547106064392,0.00188062045033642,0.00124500822591151,0.000810611171942377,0.000520980307286209,0.000325311370361383,0.00020953283837597,0.000136327380124274
"18",0.0155644849215477,0.0118371799040131,0.0121172068159552,0.0149775885304517,0.0188888226920273,0.0234745400811598,0.0286078720653093,0.0341342334492848,0.0398400546073852,0.0454593424406872,0.0506887550083012,0.0552117643024906,0.0587290969474088,0.0609910414706273,0.0618267350111982,0.0611655966906904,0.059047087541458,0.05561688165752,0.0511099150586328,0.0458230982554399,0.0400822001428621,0.0342081559173852,0.028487705390496,0.0231520001650659,0.0183650034918204,0.0142216174969141,0.0107539293876107,0.0079429487596984,0.0057330930641541,0.00404658865077773,0.00279637433623159,0.00189503388668122,0.00126324430178848,0.000831186332503185,0.000530387024663889,0.000348858694652092,0.000230375505097179
"19",0.0109309249370364,0.00855739810212138,0.0090359523232617,0.0114582340131944,0.014783026345437,0.0187865801834769,0.0234113535726312,0.0285684359810386,0.0341093046949763,0.0398243849164611,0.0454496680470234,0.0506828906985175,0.0552082730823307,0.058727058420844,0.0609898765733535,0.0618260860598939,0.0611652470010047,0.0590469092781757,0.0556168032227416,0.051109901698746,0.0458231424118318,0.0400823205070674,0.0342084055064274,0.028488192674172,0.0231529250914746,0.0183667104337581,0.0142246808737937,0.0107591760091379,0.00795156113031949,0.00574635678945576,0.00406594897110838,0.00282166764245506,0.00192651772258739,0.00129810495599636,0.000846531764819536,0.000568513645863928,0.000380934717455957
"20",0.00753736616059751,0.0060741383579919,0.00661017857060401,0.00859188930021621,0.0113330042229234,0.0147193837124582,0.0187479588212134,0.0233875821254965,0.0285535587181324,0.0341000196427853,0.0398186835891643,0.0454462258314929,0.0506808468677971,0.0552070818734586,0.0587263793197587,0.0609895009485454,0.0618258891145157,0.0611651575487628,0.0590468920214662,0.0556168501337422,0.0511100313987926,0.0458234088830604,0.0400828336845771,0.0342093717195898,0.0284899783094646,0.0231561464997942,0.0183723746145341,0.0142342131366959,0.0107745749304527,0.0079749413089673,0.00578000015151832,0.00410935618762152,0.00287479617239839,0.00198419906788235,0.00132240180613706,0.000906606781813659,0.00061617846556807
"21",0.00510416752375105,0.00423399978580894,0.00474456395758633,0.00631616683500406,0.00851268948461821,0.0112941341556815,0.0146962478528982,0.0187339321193924,0.0233789019922144,0.0285481869687525,0.0340967438669649,0.0398167167765846,0.0454450633648585,0.0506801727801574,0.0552067015861839,0.0587261758826848,0.0609894074486443,0.0618258726242845,0.061165211792325,0.0590470376508197,0.0556171436889739,0.051110586971794,0.0458244377595258,0.0400847154188291,0.0342127614519801,0.028495953805371,0.0231664313754079,0.0183893646226673,0.0142611968528875,0.0108149277898114,0.00803214056747795,0.00585282343539792,0.00419694209285586,0.00296793900054934,0.00202144578823864,0.00141438684249505,0.000974708086512736
"22",0.00339526409302156,0.00289880281033499,0.00334202620231349,0.00455325687452744,0.00626693560540887,0.00848938901070031,0.0112805478864308,0.0146881446530518,0.0187289808904985,0.0233758683281549,0.0285463530172483,0.0340956514884593,0.0398160768153208,0.0454446980274996,0.0506799755298349,0.0552066121849745,0.0587261660747301,0.0609894748685174,0.0618260421656626,0.0611655454650471,0.0590476564515905,0.0556182689980617,0.0511126103465824,0.0458280402371897,0.0400910419830081,0.0342236531167225,0.0285142891314449,0.0231961330648598,0.0184356942039416,0.0143293717371558,0.0109100390919516,0.0081515217087132,0.00599380251665494,0.00434360945162699,0.00302303884778481,0.00215806518736209,0.00150735193360295
"23",0.00221903078762042,0.00194970635348147,0.00231071998106332,0.00321966626289251,0.00452316987578968,0.00625322269972506,0.00848156572689232,0.0112759637791424,0.0146853833127538,0.01872730891745,0.0233748691013223,0.0285457657432162,0.0340953151805123,0.0398158960387949,0.0454446202261605,0.0506799784568836,0.0552066991460059,0.0587263684611181,0.0609898632283974,0.061826749255409,0.0611668079773862,0.0590498877122512,0.0556221762401676,0.0511193880007553,0.0458396439855094,0.0401105417245504,0.0342557350375524,0.0285652021336626,0.0232740493409886,0.0185484002206208,0.0144839830329865,0.011101169891664,0.00837293126460829,0.00621880191158518,0.00442189794013346,0.00321940297471459,0.00227811807622287
"24",0.00142523848617081,0.00128849830271868,0.00156857719074778,0.00223377556643345,0.00320158417064495,0.00451524415566748,0.00624880422804527,0.00847902568401653,0.0112744582144142,0.0146844851114202,0.0187267816999912,0.0233745688583887,0.0285456075472905,0.0340952541826701,0.0398159165414782,0.0454447323859615,0.0506802222417327,0.0552071569429377,0.0587271899388897,0.0609913090107202,0.0618292644079699,0.0611711440617257,0.0590572929136022,0.0556346981195509,0.051140288758737,0.0458739157465835,0.0401656120324805,0.0343412738767977,0.0286935067127076,0.0234562950939735,0.0187939846177877,0.0147826520746047,0.0114401850778708,0.00870883171917202,0.00632489673180164,0.00469417467651928,0.00336355291776636
"25",0.000899774392625385,0.000836840125307783,0.0010456434796949,0.00152099718273304,0.00222308633751982,0.00319708423027738,0.00451279604441924,0.00624742586481463,0.00847822429362599,0.0112739906928747,0.0146842216991811,0.0187266477849509,0.0233745267457703,0.0285456480883778,0.0340953950479981,0.0398162079180576,0.0454452716877474,0.0506811815323197,0.0552088297660386,0.058730068303667,0.0609962072841717,0.0618375171493961,0.0611849038481527,0.0590799879430926,0.0556716369545709,0.0511993780680072,0.0459666001770155,0.0403063996671884,0.0345480451720959,0.0289815999786957,0.0238372354123086,0.019249190387302,0.0152882763395397,0.0119275381325973,0.00884443946189557,0.00668754124120157,0.00484964156475823
"26",0.00055844687891316,0.000534221963174302,0.000684663257576688,0.00101670653608432,0.00151478064526685,0.00222057619360567,0.00319575386204471,0.00451206473700916,0.00624701240198007,0.00847799492196069,0.0112738793420128,0.0146841975761069,0.0187267078981532,0.0233746964145108,0.028545988711044,0.0340960215188142,0.0398173196709811,0.0454472041300501,0.0506844887448122,0.0552144147357349,0.0587393846393416,0.0610115691227277,0.0618625490104595,0.0612252055895706,0.0591439763291132,0.0557714905808796,0.0513522088730805,0.0461934602129629,0.0406323242640939,0.0349929954979068,0.0295582550540739,0.0245133668937807,0.019982967503008,0.0159743701233399,0.0120878185921916,0.00930548932534576,0.00682542824827923
"27",0.000340803711449822,0.000335268947834846,0.000440432032652977,0.000667352272697263,0.00101314946884332,0.00151340530834133,0.00221986840552949,0.00319537754935147,0.00451186457715068,0.00624692029154584,0.00847798571138579,0.0112739557711623,0.0146843921076555,0.0187270931078155,0.023375405681902,0.028547251888636,0.0340982227769139,0.0398210884613224,0.0454535556427309,0.0506950368928868,0.0552316896451718,0.0587673009366883,0.0610560786463908,0.0619325646374055,0.0613337106874311,0.0593091821552711,0.0560181701659018,0.0517098150355004,0.0466955892808833,0.0413032681185443,0.0358442186154515,0.0305360796138753,0.0255482695577343,0.0209183362832197,0.0161425370828139,0.0126419205423887,0.00937283838751119
"28",0.000204533277028223,0.000206882086075636,0.000278404818463391,0.000430244363533679,0.000665350091395816,0.00101241051833742,0.00151303961143091,0.00221968707580065,0.00319530062459444,0.00451186625567911,0.00624700774961866,0.00847819747661597,0.0112743742123929,0.0146851678591018,0.0187284861358012,0.0233778510199559,0.0285514616934208,0.034105341193202,0.0398329223954062,0.0454729117703352,0.0507262040049218,0.055281118964137,0.0588445108996999,0.0611748721218657,0.0621123952672308,0.0616009630070242,0.0596984885935452,0.0565690992608555,0.0524652911667872,0.0476825608012879,0.0425274964631224,0.0372196846342175,0.0319526183233043,0.0267802430291516,0.0210584302334208,0.0167617641571219,0.0125528188441073
"29",0.000120729746951311,0.000125536199042237,0.000172962334984189,0.000272506652603593,0.000429136857785271,0.000664963469057503,0.00101223307723815,0.00151297115164584,0.00221969539623018,0.00319539304937007,0.00451208529637118,0.00624744285393908,0.00847901268965927,0.0112758548413351,0.0146877948604519,0.0187330510952209,0.0233856294034418,0.0285644677524363,0.0341266948849273,0.0398673646481005,0.0455275099996635,0.0508112981324196,0.055411510535853,0.0590409652679536,0.0614656514841675,0.0625344507918133,0.0622008964939244,0.0605270718098253,0.057678027993831,0.0538803200835607,0.0493963493065307,0.0444072775944172,0.0390984239052633,0.0335155818793566,0.0268285508018636,0.0216816634370576,0.0163889242216982
"30",7.00969723813644e-05,7.49174642071329e-05,0.000105627663134143,0.000169603852262955,0.00027190702424874,0.000428945350100883,0.000664894916266817,0.0010122429991087,0.0015130631335824,0.00221991206538213,0.00319582712362754,0.00451290837695964,0.00624895673362127,0.008481731865151,0.0112806345782093,0.014696024430955,0.018746937587413,0.0234086031942996,0.0286017461384219,0.0341860415304549,0.039960079590723,0.0456696811514396,0.0510252659074857,0.0557275674886392,0.0594988402410799,0.062115232118134,0.0634358484791975,0.0634158603326582,0.0621133309252105,0.0596532617974817,0.0562130902573197,0.0518892028003524,0.0468173752378231,0.0410011388265163,0.0333718778704772,0.027351075425078,0.0208506485505865
"31",4.00364545482503e-05,4.39756424438367e-05,6.3420013115246e-05,0.000103748931719603,0.000169291010206363,0.000271828428694639,0.000428952012186136,0.000664982438792721,0.00101245086273834,0.00151348286977251,0.00222071641546153,0.00319732368209961,0.00451562813501691,0.00625379309688536,0.00849015224807038,0.0112949930678441,0.014720009985816,0.0187861959938053,0.0234715712215053,0.0287007268643714,0.0343385303811886,0.0401903251418853,0.0460103426213181,0.0515191007391611,0.0564284784843113,0.0604715356639615,0.0634336305029179,0.0651703025905393,0.0656243071782547,0.0647947467803066,0.0627372000929199,0.0594166040201381,0.054873408171409,0.0490287271612788,0.0405217580721066,0.0336377923110266,0.025839930712174
"32",2.2497070889633e-05,2.53930592894213e-05,3.74441986259757e-05,6.23926685175132e-05,0.000103602816515535,0.000169291212582795,0.000271912281327908,0.000429153437509408,0.000665389711369946,0.00101323399511428,0.00151494804369183,0.00222339747901898,0.00320212826077267,0.00452406277051836,0.00626829959308411,0.0085145943638947,0.0113353371515101,0.014785241538355,0.0188895034815116,0.0236317999784584,0.028944059482382,0.0347002916995397,0.0407166353904995,0.0467594178463026,0.0525612676757373,0.0578439590404113,0.0623462388909758,0.0658410775232946,0.0681589344827118,0.0691596965598572,0.0687489647953387,0.0667197305431393,0.0629733726882837,0.0573080490446987,0.0480231282113969,0.0403214646069624,0.0311840884059019
"33",1.24397950738603e-05,1.44286675537126e-05,2.17484650540707e-05,3.69062995533386e-05,6.23571059644263e-05,0.00010368422980844,0.000169491569956381,0.000272315930014289,0.000429927103183895,0.00066683570821534,0.00101588246677974,0.0015197060817079,0.00223178180462455,0.00321661689813808,0.00454860984040852,0.00630906340300185,0.00858092878767651,0.0114410839836819,0.0149503319794071,0.0191418189147442,0.0240091570577821,0.0294960834417789,0.0354897109518897,0.0418196221707798,0.0482637649773278,0.0545613086243551,0.0604327129501275,0.0655911119823076,0.0697670457216943,0.0726797786046304,0.0740692820133238,0.0735285290042405,0.0707852717580245,0.0654807372845708,0.0555418353896237,0.0470991663339286,0.0366389226990586
"34",6.77981147925069e-06,8.08220200227168e-06,1.24516502011085e-05,2.15194210462668e-05,3.69999547414597e-05,6.26089583130523e-05,0.000104174504781167,0.000170404307850519,0.000273980418416593,0.000432912980418388,0.000672107205516545,0.00102503898893979,0.00153534650298433,0.00225803960548623,0.00325992103429446,0.00461872790682875,0.0064204734314088,0.00875453548339095,0.0117062374999987,0.0153470099791843,0.0197227011817455,0.0248411766965365,0.0306607631127575,0.0370817298772378,0.0439421764727804,0.0510196115328837,0.0580404291534209,0.0646814817682476,0.0705918981530251,0.0753602852299455,0.0785603304903338,0.0795750256565886,0.0779404280368767,0.0731210988383312,0.0626638570964344,0.0535833223026233,0.0418863325529406
"35",3.66098965148722e-06,4.48812418811073e-06,7.06933599121931e-06,1.24470476897494e-05,2.17872422229391e-05,3.7535113897606e-05,6.35993680331211e-05,0.000105968154536192,0.000173600076335269,0.000279586410979108,0.000442593621646092,0.000688557330341797,0.00105253413823534,0.00158052762958306,0.00233099399781935,0.00337561335152283,0.00479880758857308,0.00669542678878655,0.00916605505440702,0.0123095366585702,0.0162126310445327,0.0209371852544231,0.026505671326942,0.0328868725829838,0.0399830604762106,0.0476206528988926,0.0555482141307436,0.0634262897415764,0.0708432966005661,0.0772760783592632,0.082146134930275,0.0846368542464504,0.0840951260037947,0.0798083034818171,0.0689660249449609,0.0593682079934412,0.0465890079601083
"36",2.0617769681036e-06,2.59970281623125e-06,4.18609090742299e-06,7.5088285380066e-06,1.3380673637503e-05,2.34696793319838e-05,4.04937699354999e-05,6.87176557467684e-05,0.000114684995524223,0.000188215469176221,0.00030370853343788,0.000481774841673454,0.000751172261131688,0.00115095184574885,0.00173261699881789,0.00256196875549545,0.00372016301194358,0.00530336401733255,0.0074202812788585,0.0101868658318469,0.0137175809280385,0.0181130128956587,0.023444006002683,0.0297336000181196,0.036937863968403,0.0449279515012744,0.0534783999572005,0.0622464579517615,0.0707815862611847,0.0784791760413673,0.0846438043207042,0.0883010782019682,0.0886444750841361,0.0848159051052339,0.0737235044924081,0.0637613754595349,0.0501720357914477
"37",1.27451927217489e-06,1.64979994442458e-06,2.71112100021075e-06,4.94729602009358e-06,8.96262039940919e-06,1.59814426179652e-05,2.80334918535054e-05,4.8370263941043e-05,8.20893996460863e-05,0.00013701290119374,0.000224878744111151,0.000362896453786298,0.000575688291161532,0.000897581496749148,0.00137512599529686,0.00206958161075779,0.00305895195825325,0.0044389524683328,0.0063221208137915,0.0088341526726625,0.0121065537337893,0.016264932032795,0.0214126057553459,0.0276103649581749,0.0348531896301737,0.0430463609487481,0.0519867101417042,0.0613340032172073,0.0706151058797078,0.0791720680662483,0.0862295368049179,0.0907028116366306,0.0916760702893155,0.0881866382358724,0.0769457177210401,0.0667504242524988,0.0526159433350317
