"","X0","X1","X2","X3","X4","X5","X6","X7","X8","X9","X10","X11","X12","X13","X14","X15","X16","X17","X18","X19","X20","X21","X22","X23","X24","X25","X26","X27","X28","X29","X30","X31","X32","X33","X34","X35","X36"
"1",0.187629347953566,0.195255564179429,0.146714920926655,0.119476284969185,0.0983572962719878,0.0768505695339294,0.0570213901884037,0.0411557715389046,0.0286467087445249,0.0191149252992995,0.0122660130757935,0.00756725082233833,0.00448932002649976,0.00256293544430745,0.00140951953019818,0.000747329034401221,0.000382303417884485,0.000188828955702603,9.01059970595679e-05,4.15603090813755e-05,1.8535908243285e-05,7.99623310738056e-06,3.33716647711259e-06,1.34752001850694e-06,5.2645673045318e-07,1.98988209516322e-07,7.27544145055326e-08,2.57248239622516e-08,8.79355232386636e-09,2.90480347382618e-09,9.26818027732597e-10,2.85460075148746e-10,8.48162892336553e-11,2.42929148811876e-11,6.70532580582674e-12,1.809750448823e-12,5.61242407952343e-13
"2",0.180249531328336,0.188370490921165,0.143088028754973,0.11819581148766,0.0988420795616556,0.0786607515507624,0.0596418388841929,0.0440567131175736,0.0314321557870301,0.0215356059268868,0.0142078029734628,0.00902338651743117,0.00551782380931389,0.00325098265052217,0.00184730643803859,0.00101311746876468,0.000536673864063075,0.000274781545037172,0.000136064477839952,6.51919599291798e-05,3.02347098526687e-05,1.3577191015882e-05,5.90468451772321e-06,2.4872408177749e-06,1.01481571067091e-06,4.01033756462602e-07,1.53475048703353e-07,5.68667745688382e-08,2.03941623680051e-08,7.07624045245546e-09,2.37427343068115e-09,7.69891826694352e-10,2.41098508574182e-10,7.28607884726958e-11,2.12437730591554e-11,6.07462555496765e-12,2.01624809081419e-12
"3",0.167498637371515,0.176373431404362,0.136568647631222,0.115631886041022,0.0993188552861576,0.0815007664901531,0.0640092758906655,0.0490532403412213,0.0363559403442868,0.025916163053895,0.0178014750414404,0.0117780908042164,0.00750637085728094,0.00461049785092035,0.0027313521596701,0.00156168490580232,0.000862357105939037,0.000460177896217982,0.000237434804248033,0.000118507430530918,5.72398017321591e-05,2.67631126526751e-05,1.21160590624909e-05,5.31175849371834e-06,2.25527185716791e-06,9.27341845708181e-07,3.69252012578658e-07,1.42355408902592e-07,5.31230257750868e-08,1.91823383048372e-08,6.69951886248257e-09,2.26194522322988e-09,7.37816909814934e-10,2.32358718780525e-10,7.06506973601310e-11,2.11184843097404e-11,7.39042604310964e-12
"4",0.149299540488787,0.159039414602941,0.126730649009034,0.11121860383424,0.0992054636478172,0.0848961288943265,0.0698447227619788,0.056096242883219,0.0435800948289553,0.032572914442718,0.0234448500833146,0.0162428500153254,0.0108303247482653,0.00695295715771166,0.00430082882738322,0.00256482686904373,0.00147564779824903,0.000819613052564538,0.000439741896626948,0.000228026496777926,0.000114334670662077,5.5456358033447e-05,2.60284710244785e-05,1.18244143876317e-05,5.20019987950597e-06,2.21417044316667e-06,9.1276481267908e-07,3.64279090305963e-07,1.40725122592501e-07,5.26100377969982e-08,1.90276315127244e-08,6.65488106076734e-09,2.24965575767527e-09,7.34661449202869e-10,2.31829846600938e-10,7.20945578087835e-11,2.64692137390303e-11
"5",0.12776032829504,0.138175489420128,0.114194617522294,0.104704606826978,0.0976658316374003,0.087690039150516,0.0759360290705742,0.064141178589696,0.052354216918352,0.0410814593645377,0.0309990513807854,0.0224838840703332,0.0156730983503942,0.0105048708686396,0.00677467964449339,0.00420677602088007,0.00251711463496106,0.00145235917691851,0.000808667995767925,0.000434786430241411,0.000225864151981751,0.000113425062086822,5.50874461415611e-05,2.58842236274959e-05,1.17700497594753e-05,5.18045828615572e-06,2.20726707774845e-06,9.10441932186203e-07,3.63527706178926e-07,1.40491749867011e-07,5.25405424573178e-08,1.9007826174634e-08,6.64951848887392e-09,2.2485335981901e-09,7.35341598432882e-10,2.37569777414597e-10,9.13835977877882e-11
"6",0.105085324799372,0.115752238304218,0.0998033691266639,0.0960719597503452,0.0940324554170918,0.0887725628783006,0.0809796871020345,0.0719395446708082,0.0616656157105547,0.0507575971117653,0.0401153746044027,0.030431451951953,0.0221566654666681,0.0154906078153127,0.0104073127010399,0.00672430278502754,0.00418175027239614,0.00250515017784587,0.00144685105151449,0.000806225065382757,0.000433742251735837,0.000225433925262743,0.000113254168949012,5.50220071281015e-05,2.58600721779223e-05,1.17614618661725e-05,5.17751769724212e-06,2.20629818485832e-06,9.10135026242405e-07,3.63434355930281e-07,1.40464528368375e-07,5.25329527638943e-08,1.90059161114175e-08,6.65003978783072e-09,2.25208711446596e-09,7.5525369634568e-10,3.04135511693217e-10
"7",0.0832183875917629,0.0936062119818033,0.0845428033363685,0.0856267068664293,0.0880130934960155,0.0873425472369421,0.0838318508052182,0.0782243768013102,0.0703325747038676,0.0606612380267362,0.0501744314926872,0.0397875784348072,0.0302477599568189,0.0220565248012181,0.0154383933864631,0.0103808912847476,0.00671143861440109,0.00417572363755848,0.00250243239420291,0.00144567093614987,0.000805731530655047,0.000433543431016476,0.000225356767729212,0.000113225326476971,5.50116241511522e-05,2.5856473957242e-05,1.1760262073588e-05,5.17713303197345e-06,2.20617971517395e-06,9.1010002178352e-07,3.63424469384236e-07,1.40461898561708e-07,5.253270934337e-08,1.90094760431154e-08,6.66271821066884e-09,2.31783046458144e-09,9.76555259343216e-10
"8",0.0635471441868574,0.0731528627684191,0.0693801894335799,0.0739543083230312,0.079765265446751,0.0830855600016904,0.0837466755496598,0.0819505527819935,0.0771943242834057,0.0697057004870353,0.0603121204953499,0.0499882816698611,0.0396861741359992,0.0301935710463555,0.0220289650872838,0.015424677019602,0.010374321427236,0.0067084114931668,0.00417438170572533,0.00250186003186027,0.00144543603843447,0.00080563877547073,0.000433508194341202,0.000225343893020667,0.000113220803958018,5.50100977056784e-05,2.58559792783395e-05,1.17601083103839e-05,5.17708729059473e-06,2.20616674888428e-06,9.1009662970789e-07,3.63423816211012e-07,1.40463361815162e-07,5.25455687220733e-08,1.90518825355301e-08,6.87160152434832e-09,3.02771147184205e-09
"9",0.0468556957544536,0.0553019305909525,0.0551475274196467,0.0618044777572896,0.0698327508686787,0.0761968800373197,0.0804895309565304,0.0824689898683189,0.081296300631333,0.0768046972392415,0.0694978573132358,0.060208561982332,0.0499335888483764,0.0396574699895723,0.0301793720031768,0.0220219875441518,0.015421374851107,0.0103728178830432,0.00670775292432373,0.00417410428255412,0.00250174765663555,0.00144539227889156,0.000805622399789674,0.00043350230814879,0.000225341862222697,0.000113220132075068,5.50098848397998e-05,2.5855914922159e-05,1.17600900052492e-05,5.17708258687505e-06,2.20616611529742e-06,9.10097438779065e-07,3.63429844528649e-07,1.40506353827039e-07,5.26821293439651e-08,1.96917979192899e-08,9.07055948608023e-09
"10",0.0334021154441472,0.040481583022748,0.0424598566804558,0.0499437597428022,0.0589935525052855,0.0672838953820021,0.0743334838714516,0.0796228568141232,0.0820552572456541,0.0810539360981016,0.0766811094982911,0.0694416776105372,0.0601800309146144,0.0499189006461484,0.0396504776339988,0.0301759743488932,0.0220203954764563,0.0154206566336117,0.0103725060772498,0.00670762272570568,0.00417405201084945,0.00250172748814153,0.00144538480403684,0.000805619740549232,0.000433501400929091,0.000225341565888492,0.000113220039809761,5.50098580712935e-05,2.58559086393317e-05,1.17600897205678e-05,5.17708490044229e-06,2.20617051607352e-06,9.10118711504586e-07,3.63567916075691e-07,1.40931119210881e-07,5.45740250291645e-08,2.62738925305507e-08
"11",0.023051810828472,0.0287238310615856,0.0316774044302064,0.0390228752450831,0.0480787495804313,0.0571937543408181,0.0659526819122032,0.0737439300477768,0.0793602860874426,0.0819029436117523,0.0809796428360879,0.0766512084896088,0.0694272798966813,0.0601727904037474,0.0499156591285235,0.0396489219648656,0.03017525295301,0.0220200730403412,0.0154205178278289,0.0103724485758933,0.00670759981600764,0.00417404323733928,0.00250172426066255,0.0014453836645021,0.000805619354952752,0.000433501276525715,0.000225341528737617,0.000113220031724446,5.50098607664683e-05,2.5855914746054e-05,1.17601002683999e-05,5.17710188367054e-06,2.20624235350705e-06,9.1054654065496e-07,3.64845264800618e-07,1.46332815680073e-07,7.36225434252152e-08
"12",0.0154225270668221,0.0197781904496736,0.0229138544262843,0.0294919906878564,0.0378156309846989,0.0468215761804732,0.0562482827379019,0.0655499208005702,0.073575485938878,0.0792627449295146,0.0818571514368535,0.0809637563963828,0.0766440856901033,0.0694238008979206,0.0601713865874333,0.0499149958793505,0.039648618351767,0.0301751187746845,0.0220200158568528,0.0154204943583088,0.0103724393063694,0.00670759629552529,0.00417404195263637,0.00250172381077688,0.0014453835140426,0.000805619308696694,0.000433501267312675,0.000225341536361116,0.00011322005153759,5.50098856311345e-05,2.58559535032887e-05,1.17601614266742e-05,5.17733629943654e-06,2.20752323199108e-06,9.14262595662917e-07,3.79748377551105e-07,1.99653339440693e-07
"13",0.0100170435893123,0.0132311463426695,0.0160825188425368,0.0215745406170803,0.0287275906737429,0.0369478466303703,0.0461561351355366,0.0559726095871493,0.0654404022338244,0.0735116839807733,0.0792335837916956,0.0818485170469625,0.080960207716307,0.0766424092849844,0.0694232323708443,0.0601711234018944,0.0499148773993394,0.0396485667489999,0.0301750970656092,0.0220200070525498,0.0154204909196102,0.0103724380142337,0.00670759582899297,0.00417404179162378,0.00250172375967334,0.00144538350518992,0.00080561932313276,0.000433501306676919,0.000225341607481981,0.000113220138753935,5.50100201496897e-05,2.58561640803871e-05,1.17609015405203e-05,5.18104542280012e-06,2.21798703135811e-06,9.54013851672543e-07,5.24160365932845e-07
"14",0.00632500144542417,0.00860941484422311,0.0109619220141724,0.0152905299154614,0.0211000960019321,0.0281371149362648,0.0364858635283912,0.0459681751466931,0.0559007219538126,0.0653980427328177,0.0734925931875578,0.0792286903065499,0.0818466808300684,0.0809593675815218,0.076642192670881,0.0694231346901716,0.0601710803575292,0.0499148589973781,0.0396485591336033,0.0301750940237142,0.0220200058814135,0.0154204904857797,0.0103724378605333,0.00670759577940848,0.00417404178390244,0.00250172378196028,0.00144538356812039,0.000805619456105618,0.000433501539922327,0.00022534189831666,0.000113220587029402,5.50107166044667e-05,2.58584260996819e-05,1.17712995815904e-05,5.20957581469484e-06,2.32053420963374e-06,1.3325270244002e-06
"15",0.00388765509762755,0.0054548455094725,0.0072623609350184,0.0105095090071929,0.0150014385387843,0.0207053289270429,0.0278223033727194,0.036359116876675,0.04592093629038,0.0558725056059537,0.0653853767478101,0.0734896919741081,0.0792276841049406,0.0818462311410391,0.08095928927231,0.076642158506375,0.0694231200314012,0.0601710742341487,0.0499148565141712,0.0396485581602381,0.0301750936558812,0.0220200057485305,0.015420490442765,0.0103724378566716,0.00670759580675043,0.0041740418715477,0.00250172398545661,0.00144538398655464,0.000805620187690886,0.000433502471870951,0.000225343336400067,0.000113222804135609,5.50174113371407e-05,2.58866673583409e-05,1.18466469773381e-05,5.46550882733547e-06,3.28076383023188e-06
"16",0.00232880978635758,0.00336853818256728,0.00468056873026776,0.00701243756845889,0.0103364548127138,0.0147430222625639,0.0204957064868173,0.0277383517928636,0.0363283393994407,0.045902306953862,0.0558641265073441,0.0653836003784117,0.0734891095733355,0.0792274268673151,0.0818462040258507,0.0809592779172515,0.0766421537910539,0.0694231181164767,0.0601710734763146,0.0499148562240693,0.0396485580541843,0.0301750936222881,0.0220200057495429,0.0154204904785822,0.0103724379599803,0.00670759608282242,0.00417404249203648,0.00250172524897174,0.00144538619375224,0.000805623062389428,0.0004335069165806,0.000225350138204369,0.000113241995702775,5.50917721814062e-05,2.6079444933293e-05,1.24647315191562e-05,7.82320298644602e-06
"17",0.00136093471207434,0.00202909365130371,0.00293690468142954,0.00454691079750463,0.00691067263737663,0.0101713589093086,0.0146071280361189,0.0204413927965264,0.0277186384253196,0.036316268085566,0.0458968522352871,0.0558630252765525,0.0653832514121553,0.0734889558225563,0.0792274177915082,0.0818462004106484,0.080959276474404,0.0766421532247853,0.0694231178990183,0.0601710733965281,0.0499148562001088,0.0396485580605797,0.0301750936663868,0.0220200058775614,0.0154204908034064,0.0103724387864703,0.00670759790368235,0.00417404616680288,0.00250173166291092,0.00144539473364788,0.000805636300215541,0.000433527038326215,0.000225403428113297,0.000113431901253777,5.55696441164109e-05,2.75240055004881e-05,1.80671449394366e-05
"18",0.000776500979675272,0.00119298641588998,0.00179533101225958,0.00286763411847828,0.00448816893232915,0.006808015548552,0.0100858265485258,0.0145729482914386,0.0204290597536589,0.0277110145973644,0.0363128047432349,0.0458961733472472,0.0558628140071662,0.0653831581098821,0.0734889528591996,0.0792274166800091,0.0818461999877806,0.0809592763153455,0.0766421531668172,0.0694231178827744,0.0601710734069948,0.0499148562519438,0.0396485582112682,0.0301750940641937,0.0220200068497328,0.015420493187597,0.0103724439403677,0.00670760820614835,0.00417406412932617,0.00250175609726304,0.0014454327213758,0.000805693705150414,0.00043367034156859,0.000225873961962849,0.000114579592982333,5.88369883611264e-05,4.04050461289705e-05
"19",0.000432796500385877,0.000684890861731618,0.00106977750374915,0.00176050382443229,0.00283439474204517,0.00442618192491313,0.00675585545096096,0.0100649656228337,0.0145654460461855,0.0204243875448177,0.0277088814898655,0.036312393860167,0.0458960465848939,0.0558627578088953,0.0653831571581839,0.0734889525266529,0.0792274165606679,0.0818461999458665,0.0809592763043015,0.0766421531782111,0.0694231179377225,0.0601710735754275,0.0499148567125474,0.0396485593877624,0.0301750968607486,0.0220200134830971,0.0154205072623237,0.0103724717932646,0.00670765670167938,0.00417413145774408,0.00250186109912934,0.00144559062076078,0.000806066765610294,0.00043480156456365,0.000228544149221102,0.000121730918047169,8.74842705839552e-05
"20",0.000235709966791202,0.000384008189423321,0.000621575670530906,0.00105277309354826,0.00174209730199183,0.00279811205729078,0.00439540791814891,0.00674353206075408,0.0100605417358356,0.0145626751954874,0.0204231170405885,0.0277086393001241,0.0363123194179087,0.0458960134584333,0.0558627575061437,0.0653831570607047,0.0734889524944734,0.0792274165526502,0.0818461999555233,0.0809592763542593,0.0766421533482994,0.0694231184379904,0.0601710749135349,0.0499148600462194,0.0396485671225996,0.0301751146570193,0.0220200505677458,0.0154205798890131,0.0103725980332138,0.00670783534439623,0.00417441092501738,0.00250227968927708,0.00144653030173878,0.000808705335097013,0.000440818227304514,0.000243687648707908,0.000183333182208125
"21",0.000125433842329808,0.000210267485986778,0.000352227166886302,0.000613504286225258,0.00104281731473187,0.00172153932650995,0.00278056510922314,0.00438837136300635,0.00674100837196095,0.0100589542060365,0.0145619446739358,0.0204229786606198,0.027708596821049,0.036312300456968,0.0458960133626005,0.0558627574782359,0.0653831570538985,0.0734889525012335,0.079227416592114,0.0818462001050709,0.0809592768434066,0.0766421547627835,0.0694231221541482,0.0601710839729282,0.0499148806168884,0.0396486131570685,0.03017520893796,0.0220202332524833,0.0154208967921551,0.0103730544376396,0.00670855140296909,0.00417548000605968,0.00250456840803852,0.00145249969273024,0.000821830664385179,0.000471833793849488,0.000371704925877611
"22",6.52019439550924e-05,0.000112407837119085,0.000194658291820983,0.00034849848090207,0.000608254884921291,0.00103155405439385,0.00171187790904607,0.00277668537880023,0.00438698044833233,0.00674013056835764,0.0100585491091557,0.0145618682367761,0.0204229552013199,0.0277085863253943,0.0363123004269018,0.0458960133557426,0.0558627574822463,0.0653831570819215,0.0734889526176804,0.0792274170127427,0.0818462014500103,0.0809592806702692,0.0766421646472201,0.069423145783112,0.0601711365880251,0.0499149954302371,0.0396488444477032,0.0301756523022548,0.0220210005321409,0.01542201957676,0.0103748203543399,0.00671118087004423,0.00418086651761095,0.00251766100365585,0.00148020690595122,0.000883243425620553,0.00072877284750882
"23",3.30877122770323e-05,5.86411450267792e-05,0.000104894902220708,0.000192980038843281,0.000345805451094192,0.000602293344833003,0.00102642045978331,0.00170981377049975,0.00277594545831737,0.00438651234949391,0.00673991404928547,0.0100585083552968,0.0145618557261929,0.0204229495946852,0.0277085863167368,0.0363123004288576,0.0458960133747577,0.0558627575658345,0.0653831574074324,0.0734889537548065,0.0792274205643157,0.0818462113808094,0.0809593058915996,0.0766422238510306,0.0694232752680036,0.0601714127155283,0.0499155430148303,0.0396498828233273,0.0301774443535374,0.0220236604012374,0.0154262108801128,0.0103810461698187,0.0067234213342511,0.00420868732989302,0.00257422397941236,0.00159770048639218,0.00138093834961887
"24",1.63788528639973e-05,2.9833020164224e-05,5.50933721018531e-05,0.000104158195222509,0.000191638264602829,0.000342759480941689,0.000599662474674294,0.00102536141893903,0.0017094341295302,0.00277570484855479,0.00438640085297784,0.00673989309664248,0.0100585019210088,0.0145618528396234,0.0204229495947545,0.0277085863297888,0.0363123004874172,0.0458960136112007,0.0558627584438387,0.0653831603711284,0.0734889627789706,0.0792274453235557,0.0818462731952683,0.0809594484981025,0.0766425305636591,0.0694239156920816,0.0601726639153623,0.0499178901080873,0.0396539207198628,0.0301835124867205,0.0220332328681943,0.0154403953574597,0.0104078813914037,0.00678064789579962,0.00432026955467016,0.00279125955630839,0.0025273084885113
"25",7.90090814347933e-06,1.47883689096438e-05,2.818831161041e-05,5.47776948218479e-05,0.000103510026596293,0.000190137003894529,0.00034145978776296,0.00059913877056621,0.00102517366281569,0.00170931497223117,0.00277564955286897,0.00438639047273983,0.00673988990816883,0.010058500491026,0.0145618528485189,0.0204229496362856,0.0277085864984598,0.036312301131487,0.0458960158972646,0.0558627658931876,0.0653831824514663,0.0734890221423787,0.0792275909599222,0.0818466035819422,0.0809601479098034,0.0766439628947863,0.0694266746767963,0.060177783990052,0.0499266672379695,0.0396672514235973,0.0302045456375211,0.0220643152530134,0.0154971036680907,0.010521715806698,0.00699316012331766,0.00470700984067828,0.00446397056460154
"26",3.70977688324714e-06,7.13601815665734e-06,1.40398591336293e-05,2.80561918181387e-05,5.44745981059405e-05,0.000102796766928381,0.000189518411598692,0.000341210317038844,0.00059904931860034,0.00102511683619551,0.00170928857178219,0.00277564460070559,0.00438638895235161,0.00673988923125906,0.0100585005206544,0.0145618529692563,0.0204229501004799,0.0277085881858702,0.0363123068682576,0.0458960339437926,0.0558628179203723,0.0653833193759921,0.0734893521026078,0.0792283272871206,0.0818481389329379,0.0809632362954135,0.0766498323832162,0.0694374516336613,0.0601961852439248,0.0499548612908982,0.0397116990187683,0.0302700180031399,0.022179716934594,0.0157158277788332,0.0109120499839074,0.00765721996322232,0.00760339381251582
"27",1.69335234836115e-06,3.348464976432e-06,6.80184850993161e-06,1.39858364375579e-05,2.79191935008541e-05,5.41481690291185e-05,0.000102513283754505,0.000189404003845798,0.000341169288011714,0.000599023234595139,0.0010251047076752,0.0017092862990025,0.002775643907156,0.00438638866028577,0.00673988931904368,0.0100585008558483,0.0145618541936656,0.0204229543477558,0.027708602039371,0.0363123489565909,0.0458961519190318,0.0558631216436989,0.0653840380921486,0.0734909302156506,0.0792315703474191,0.081854554858872,0.0809752754217619,0.0766717064197148,0.0694746380634009,0.0602535598542257,0.05004513976235,0.0398441638787911,0.0304959236237966,0.0225851277190118,0.0164064291312905,0.01200938127354,0.0124777078138859
"28",7.50399004475619e-07,1.52615480278052e-06,3.20231657563825e-06,6.78027216233524e-06,1.39260676031191e-05,2.77753978411026e-05,5.40231680521747e-05,0.000102462805584616,0.000189385898835753,0.000341157771980788,0.000599017877616516,0.00102510370922249,0.00170928601043013,0.00277564383976959,0.00438638891655935,0.00673989022743691,0.0100585039839534,0.0145618645163244,0.0204229866141302,0.0277086966376892,0.0363126065529291,0.0458968000662719,0.055864626993459,0.06538729047296,0.0734975197474311,0.0792444053704943,0.0818783479759938,0.0810180593426156,0.0767440919312698,0.0695868979055482,0.0604296641204379,0.050302316249689,0.0402690405063936,0.031219745103095,0.0237604743671476,0.0181488835950975,0.0197108571135856
"29",3.22384838836246e-07,6.74835935648253e-07,1.463661853805e-06,3.19390540885865e-06,6.75513832310752e-06,1.38651487909413e-05,2.7722404022776e-05,5.4001757503861e-05,0.000102455126111309,0.000189381014462901,0.000341155505582968,0.000599017477427557,0.0010251036560098,0.00170928619205544,0.00277564460599862,0.00438639138533878,0.00673989811368228,0.0100585284952663,0.0145619375105525,0.0204231923798797,0.0277092396223005,0.0363139393836546,0.0458998349013506,0.0558710757483854,0.0654001713088663,0.0735222372811142,0.0792896861570439,0.0819589271622408,0.0811536577059358,0.0769550715564748,0.0699164549380008,0.0609081913312615,0.0510689541554906,0.0415117952730052,0.0331410687393787,0.0264147291191564,0.029944974917288
"30",1.34081402915672e-07,2.89139961203159e-07,6.48771409733e-07,1.46046547811121e-06,3.1837320588035e-06,6.73034162166682e-06,1.38435680424571e-05,2.77136829555172e-05,5.39986337194348e-05,0.000102453150031143,0.000189380130044402,0.000341155448192807,0.000599017737437144,0.00102510449184418,0.00170928861277538,0.00277565157125036,0.00438641160943423,0.00673995631642842,0.0100586915803224,0.0145623757252879,0.0204243063567711,0.0277118961240042,0.0363198533035167,0.0459121735484944,0.0558953491505992,0.0654460525396569,0.0736052715922726,0.0794358401038696,0.0822033030824515,0.0815342856940021,0.077546173391588,0.0707687397459371,0.0622332397177748,0.0531170936444913,0.0445234072997736,0.0370121187777635,0.0437134071373298
"31",5.3905535021401e-08,1.19887500905223e-07,2.78564252495962e-07,6.47589507314837e-07,1.45650772435576e-06,3.17404525549622e-06,6.72191065745878e-06,1.38401668834563e-05,2.7712484753392e-05,5.39979238882725e-05,0.000102452970015397,0.000189380534269595,0.00034115662913692,0.000599020780510869,0.00102511231022449,0.00170930891914575,0.0027757049565903,0.00438655228376773,0.00674032253186578,0.0100596191083076,0.0145646270182408,0.0204294871496002,0.0277231184571909,0.0363427665832509,0.0459564674934855,0.055977703867783,0.0655930928044812,0.0738608963770828,0.0798597491851622,0.0828623892378499,0.0825497006903723,0.0789973386380748,0.0729587455321173,0.0654666469476903,0.05763489970664,0.0499162434414549,0.0612694928597247
"32",2.09177302534395e-08,4.80423514621707e-08,1.15724719773718e-07,2.78140910304792e-07,6.4611451216574e-07,1.45288759045152e-06,3.17090851395326e-06,6.72069255295891e-06,1.38398620745993e-05,2.77125786790397e-05,5.39987328697125e-05,0.000102455207555538,0.00018938584860333,0.000341168999577611,0.000599049445794464,0.00102517897007886,0.00170946525329518,0.00277607432308545,0.00438742510638684,0.00674236121597177,0.0100642580023348,0.0145747816439054,0.0204506612542298,0.0277650932818309,0.0364220304323542,0.0461007917480902,0.0562309395919347,0.0660263263156391,0.0745708174233552,0.0809568256550708,0.0845333779065617,0.0849098313035513,0.0824525440509447,0.077836745837204,0.0719368029385279,0.0647888119996012,0.0823987916420049
"33",7.82249929878894e-09,1.85811996891042e-08,4.64579387449223e-08,1.15580562174626e-07,2.77621939211124e-07,6.44841311025162e-07,1.45183103070423e-06,3.17065298574786e-06,6.72105109774898e-06,1.38410674173616e-05,2.77157189034595e-05,5.40062791848859e-05,0.000102472673045826,0.000189425418097493,0.000341257282761586,0.000599244550748412,0.00102560833575296,0.00171040874349346,0.00277814194608256,0.00439191890415157,0.00675195406953747,0.0100841619805567,0.0146145319450393,0.0205267770580731,0.0279048324635413,0.0366701489222263,0.0465267973376109,0.0569449697082291,0.0671770385817824,0.0763288304331299,0.0835920051806342,0.0881973330584997,0.0901048816065739,0.0894669481983792,0.0866573440100418,0.0809361451631329,0.106268804922803
"34",2.81602402123052e-09,6.92991529744061e-09,1.80094036908726e-08,4.64391173330322e-08,1.15483440746329e-07,2.77397517238583e-07,6.45019699573635e-07,1.45307929577566e-06,3.17397965560101e-06,6.72892830720359e-06,1.38590546788586e-05,2.77556087969739e-05,5.40924960867965e-05,0.000102654797107704,0.000189802462414018,0.000342024896879084,0.000600787285268284,0.00102867997262035,0.00171648084295011,0.00279005736341549,0.00441504326692809,0.00679606391350339,0.0101662226716853,0.0147626826690076,0.0207857479407287,0.028345177988797,0.0373980309443127,0.0477044127108778,0.0587863383862244,0.0699236226940259,0.0803374430370211,0.0890307702981618,0.0956236167348935,0.0996664365973442,0.100827378164321,0.0972721715256746,0.131280177593894
"35",9.75943931940668e-10,2.49321777812557e-09,6.74574694217854e-09,1.80571813351176e-08,4.65584272490953e-08,1.15819403858261e-07,2.78527972395362e-07,6.48142935213208e-07,1.46082235924408e-06,3.19236243497259e-06,6.77122384419621e-06,1.39535457854854e-05,2.79608973331441e-05,5.45269397498641e-05,0.000103552093492886,0.000191615391497866,0.000345617533561522,0.000607788107311588,0.00104212149363941,0.00174192703881496,0.00283748786710704,0.00450180580327212,0.00695105799717535,0.010435639015231,0.0152174220590379,0.0215331944447701,0.0295410084276136,0.0392696885363533,0.0505415781619174,0.0629037131922449,0.0757512496060049,0.0880178773771161,0.0990991223162701,0.107960379610491,0.113467916269992,0.112509664905859,0.155319589638885
"36",3.4247659287621e-10,9.10470230542217e-10,2.56967358949132e-09,7.15329828653361e-09,1.91552441289208e-08,4.94244560605457e-08,1.23108944081285e-07,2.96340952257861e-07,6.90095737563576e-07,1.55645769022815e-06,3.40373757464327e-06,7.2247065569729e-06,1.48989507864048e-05,2.98783094438769e-05,5.83145874102555e-05,0.000110848950699217,0.000205343508868896,0.000370875345661755,0.000653290253241517,0.00112245448685542,0.00188092263494091,0.00307297258263002,0.00489165336452264,0.00758046888776637,0.0114250951865707,0.0167335161316796,0.0237963879623525,0.0328428135696835,0.0439467991349603,0.0569153728371855,0.0713617576252267,0.0862552400764669,0.100884284973503,0.113757361268608,0.12303599838723,0.124452105188014,0.174587971792613
"37",1.31052695295942e-10,3.63028312411394e-10,1.06940020606147e-09,3.09701615624852e-09,8.61482020645806e-09,2.30563211937051e-08,5.94798430317281e-08,1.48080376926004e-07,3.56189409534313e-07,8.28789657046331e-07,1.86764340471153e-06,4.08049508219116e-06,8.65288024219915e-06,1.78268038342368e-05,3.57158881031221e-05,6.96474336013558e-05,0.00013229676016853,0.000244957943995735,0.00044235197828642,0.000779349389400857,0.00133975328835261,0.00224674025824827,0.00367339950558392,0.0058508074404011,0.0090694274532809,0.0136719175822905,0.020026476220571,0.02849266769494,0.0393235794264313,0.0525298038243779,0.067918357014087,0.0845340109099316,0.101634143441684,0.117416877681274,0.129515365022988,0.132770666714022,0.188247830434488
