"","X0","X1","X2","X3","X4","X5","X6","X7","X8","X9","X10","X11","X12","X13","X14","X15","X16","X17","X18","X19","X20","X21","X22","X23","X24","X25","X26","X27","X28","X29","X30","X31","X32","X33","X34","X35","X36"
"1",0.222841295145617,0.164703795417082,0.131008827937349,0.112002356724155,0.0920901085300539,0.0738799500180469,0.0578654869418596,0.0440440932299688,0.0325370590634892,0.0233315030999544,0.0162406710306676,0.0109725337548456,0.00719482838843422,0.0045787342503251,0.00282825018892468,0.00169593950683178,0.000987480016186109,0.000558472309098526,0.000306885088248882,0.000163909153965713,8.51209059296769e-05,4.29953372648366e-05,2.11297806737224e-05,1.01060270016224e-05,4.70528567885911e-06,2.13306228007257e-06,9.41690063708983e-07,4.04908552594267e-07,1.69586247408159e-07,6.91881844749423e-08,2.74970941364336e-08,1.06450403051299e-08,4.01433917321138e-09,1.47516840107242e-09,5.30221836573495e-10,1.86618203138522e-10,8.45319253743609e-11
"2",0.216666135411306,0.160597432158738,0.128520737536049,0.110746376785807,0.0919974457068695,0.0747117254739166,0.0593285172972431,0.0458525389902816,0.0344420569463688,0.025143254243643,0.0178369457480288,0.0122937840342129,0.00823097690158268,0.00535296892948314,0.00338170550174588,0.00207556952688962,0.00123793496082542,0.000717699044163773,0.000404587149241978,0.000221847946462211,0.000118364298648664,6.14682303299916e-05,3.10798021084269e-05,1.53046569937071e-05,7.34163109598919e-06,3.43143096236534e-06,1.56295177953766e-06,6.93842209558266e-07,3.00234848914734e-07,1.26639835854801e-07,5.20709504674064e-08,2.08704171573012e-08,8.15431304185208e-09,3.10716169342143e-09,1.1596866907038e-09,4.24302305804985e-10,2.01491280278588e-10
"3",0.205764608137931,0.153306261203158,0.124029610049456,0.108384396962733,0.0916675176838346,0.0760231711342396,0.061791367106392,0.0489795785766389,0.0377987433438554,0.028388040029999,0.0207400691972271,0.0147332155599214,0.0101730518328977,0.00682631982102504,0.00445120291099671,0.00282065527700374,0.00173729430612088,0.00104027228586227,0.00060574474714723,0.000343107193050157,0.000189103010896043,0.000101443272841431,5.29815685156336e-05,2.6947205828123e-05,1.33502325626193e-05,6.44370741185703e-06,3.03058537287951e-06,1.38905158591582e-06,6.20517433317913e-07,2.70184840483786e-07,1.1467062386892e-07,4.74384626048149e-08,1.9130381494714e-08,7.5246041544118e-09,2.90089931472515e-09,1.09669105793225e-09,5.41553093070411e-10
"4",0.189703602848664,0.142472995137229,0.117196648514144,0.10458501103582,0.0908099139565882,0.0775987863147693,0.0651397000102037,0.0534235380721112,0.0427120940584415,0.0332566145891631,0.0251968196996138,0.0185618559902246,0.013288313364744,0.00924160169919088,0.00624294513125433,0.00409637129015983,0.00261114296267524,0.00161723873341933,0.000973518299884028,0.00056972917911242,0.000324250522564955,0.000179520534087487,9.67158641659729e-05,5.0716917199297e-05,2.58935275228695e-05,1.28739918830204e-05,6.23457475634462e-06,2.94134998686998e-06,1.35205261367859e-06,6.05611287850863e-07,2.64350524227623e-07,1.12454453961724e-07,4.66273050550834e-08,1.88576567571829e-08,7.47968257708302e-09,2.90997979980123e-09,1.48691092353902e-09
"5",0.169826102520445,0.128905515713669,0.108358839437986,0.099313623389406,0.089076348856293,0.0788889665030079,0.0687460163987236,0.0585858470710319,0.0486885623599407,0.0393999661238661,0.0310083435789951,0.0237116153796382,0.0176062690585967,0.0126893168771747,0.00887585865882468,0.00602552787891986,0.00397062746419338,0.00254043333150632,0.00157859716516755,0.00095300321966184,0.000559149784063557,0.000318951435820632,0.000176942327195622,9.54972683045169e-05,5.01573061320934e-05,2.56438058249249e-05,1.27656943143288e-05,6.18892843262092e-06,2.92265073901154e-06,1.34460829572239e-06,6.0273303394528e-07,2.63275907956201e-07,1.12083561422379e-07,4.65480786576237e-08,1.89716486038529e-08,7.58639675189604e-09,4.00519563303846e-09
"6",0.147685214326467,0.113567040096091,0.0979715166087906,0.0926196790373966,0.086154783252891,0.0793255510538346,0.0719112674580913,0.0637546444755479,0.0550980312660383,0.0463302586339166,0.0378533001116879,0.0300207958223801,0.0230967943186681,0.0172326860883874,0.0124676962062275,0.00874754696133459,0.00595307989978721,0.00393077113365517,0.00251908772224197,0.00156747588685403,0.000947369291725127,0.000556375613121327,0.000317623912850836,0.00017632500921228,9.52183110956741e-05,5.00348026461028e-05,2.55915222956619e-05,1.27440073642282e-05,6.18018639621717e-06,2.91922829692798e-06,1.34331206155642e-06,6.02275621507261e-07,2.6317323976027e-07,1.12194646926874e-07,4.69747016154909e-08,1.93011246205431e-08,1.05233037386755e-08
"7",0.124848633113777,0.0974674165615825,0.0865804701860501,0.0846728931369763,0.0818556620162467,0.0784337708854674,0.0739768174922377,0.0681959576835413,0.0612317781684768,0.053442556255087,0.0452783066084892,0.0372031280257005,0.029629033635465,0.0228662212220951,0.0170999754022275,0.0123929797801911,0.00870642178271795,0.00593097198553724,0.00391917711582231,0.00251316278859501,0.00156452818990428,0.000945942662845877,0.00055570427817254,0.000317316856711905,0.000176188532734665,9.51593709772763e-05,5.00100713875454e-05,2.5581441345509e-05,1.27400182684766e-05,6.17866035472338e-06,2.9186788036007e-06,1.34317608731602e-06,6.02399654675262e-07,2.63617680248408e-07,1.13385816108884e-07,4.78673472112832e-08,2.69456179444913e-08
"8",0.102664836491334,0.0815164372226358,0.0747505178736041,0.0757541712868273,0.0761609351531995,0.0759242557454133,0.0744387465862009,0.0712686752011044,0.0663996822719395,0.0600824312734204,0.0527321857541454,0.0448521763468774,0.0369542957006988,0.02948716920674,0.0227870620318526,0.0170566883592913,0.0123697784090796,0.00869424183287846,0.00592471736541853,0.00391603995447828,0.00251162809390044,0.00156379687286119,0.000945603548320067,0.000555551376581558,0.000317249858109648,0.000176160013483649,9.51475822443897e-05,5.00053436124482e-05,2.55796101101221e-05,1.27393520146308e-05,6.17847681139412e-06,2.91879071047019e-06,1.34368172095165e-06,6.03640852764392e-07,2.66748401409359e-07,1.15705595500451e-07,6.72375230843634e-08
"9",0.0821656287275224,0.0664554873864655,0.063020550997484,0.0662342849703678,0.0692327165520989,0.0717326795988765,0.0730129661233779,0.0725036669266231,0.0700086321907037,0.0656097264316508,0.0596056007154243,0.052453773410858,0.0446944166601494,0.036867197920827,0.0294401342830676,0.0227621450219777,0.0170437197362883,0.0123631460146229,0.00869091204892382,0.00592307894451814,0.00391525134575257,0.0025112574987366,0.00156362712081934,0.000945527862078897,0.000555518563376328,0.000317236037391397,0.000176154365369843,9.51453538028182e-05,5.00045187226327e-05,2.55793789068457e-05,1.2739441849863e-05,6.17899075986984e-06,2.92020104824678e-06,1.34692873368592e-06,6.11616348245879e-07,2.72604806089768e-07,1.63509661996853e-07
"10",0.0640357599046331,0.0528247807982126,0.0518639555454722,0.0565336981307389,0.0613850092892127,0.0660150577665145,0.0696600849212967,0.0716559023676834,0.0716318068653868,0.0694704329591246,0.0652910750883843,0.0594239257438208,0.0523537269566379,0.0446409612103899,0.0368393401356191,0.0294259060660628,0.0227549973141292,0.0170401810969652,0.0123614190711574,0.00869008220145106,0.00592268713049934,0.00391507003427069,0.00251117547323265,0.00156359092239281,0.00094551230842811,0.000555512069882932,0.000317233418099466,0.000176153374920272,9.51450718658709e-05,5.00046315428254e-05,2.55798991291254e-05,1.2740901770723e-05,6.18266695280095e-06,2.92843072285295e-06,1.36670657078795e-06,6.26005624764575e-07,3.87521193612313e-07
"11",0.0486263459990972,0.0409553132474444,0.0416551025397492,0.0470714800064371,0.0530289199621656,0.0591063308390691,0.0645714799202655,0.0687245100412403,0.0710597295928464,0.0712674754671073,0.0692577498166451,0.0651721398820682,0.0593600726389896,0.0523206738595873,0.0446243670322089,0.0368312086806361,0.0294219938115935,0.0227531405648183,0.0170393093857097,0.0123610139533667,0.00868989608151816,0.00592260283308291,0.00391503252173891,0.00251115912856357,0.00156358397479159,0.000945509447693472,0.000555510965583823,0.000317233103887754,0.000176153524849064,9.51457224288947e-05,5.00061526082895e-05,2.5583729291983e-05,1.27501819360954e-05,6.2029762078613e-06,2.97620528296761e-06,1.40112376596411e-06,8.95085716168584e-07
"12",0.0360004137796776,0.030982449859359,0.0326479370677139,0.0382157388493033,0.0446061596988571,0.0514542111335556,0.0581214186022931,0.0639366339372304,0.068321137401374,0.070814313876565,0.0711253937846208,0.0691793638104507,0.065130890745747,0.0593392987237989,0.0523106065495337,0.0446196408126298,0.0368290432875711,0.0294210184646727,0.02275270589483,0.0170391168799892,0.0123609291048038,0.00868985891741545,0.00592258671667997,0.00391502563965563,0.00251115626284312,0.00156358285471519,0.000945509136726512,0.000555511168876819,0.000317233909073095,0.000176155405176454,9.51497588497369e-05,5.00158623958994e-05,2.56065449180384e-05,1.27990212743959e-05,6.31539811958793e-06,3.05634058016236e-06,2.01479811610302e-06
"13",0.0260020317886475,0.0228789857675132,0.0249717631167156,0.0302468020197652,0.0365258635709373,0.0435431398592765,0.0507954504795434,0.057697242330534,0.0636666038085127,0.0681567278617201,0.0707193790285453,0.0710733984563118,0.069152360794888,0.0651175655815348,0.0593330243193959,0.0523077713000414,0.0446184025794511,0.0368285163229983,0.0294207979207269,0.0227526143101476,0.0170390788876244,0.012360913315973,0.00868985235940579,0.00592258402419157,0.00391502459703726,0.00251115599544986,0.00156358312050498,0.00094551010438836,0.000555513448162267,0.000317238845964414,0.000176165717861545,9.51737171006625e-05,5.00705419354335e-05,2.57210050856335e-05,1.30567271082907e-05,6.49700288297173e-06,4.41937211011349e-06
"14",0.0183334029668418,0.0164991770594061,0.0186429755027215,0.0233387835170165,0.029116752054859,0.0358243408195584,0.0431110996351141,0.0505165478403147,0.0575186846587032,0.0635573698796887,0.0680935309574032,0.0706848322401368,0.0710555763487408,0.069143675508737,0.0651135558053719,0.0593312634457773,0.0523070318531354,0.0446181036305913,0.0368283989207656,0.0294207526324218,0.0227525969459304,0.0170390722101833,0.0123609107470719,0.0086898514221296,0.00592258382785053,0.00391502493714034,0.00251115711271787,0.00156358579696152,0.000945516008420242,0.000555525937369397,0.000317264447602259,0.00017622332111781,9.5301467957172e-05,5.03319516548939e-05,2.6296408165808e-05,1.34572245756795e-05,9.44495583918264e-06
"15",0.0126262262733947,0.0116246986686637,0.0135880517759154,0.0175597174434082,0.0226008210381825,0.0286639368931748,0.0355465853479201,0.0429308856968546,0.0504002330411195,0.0574470072591056,0.0635156977345284,0.0680707092005655,0.0706730796743988,0.0710498833422056,0.0691410766590318,0.0651124348810543,0.0593308051581664,0.0523068535060086,0.0446180371634235,0.0368283749834804,0.029420744209058,0.0227525940348336,0.0170390712741629,0.0123609106206051,0.00868985185804298,0.00592258510763558,0.00391502797826447,0.00251116396679842,0.00156360056827217,0.000945546720483578,0.000555587787567923,0.000317399412712267,0.000176514259752846,9.58831904815327e-05,5.15831547447419e-05,2.7155671684849e-05,1.9664444289568e-05
"16",0.00849843406179127,0.0080053605438912,0.00967178961155154,0.0128863238453775,0.0170887128750854,0.0223148690430028,0.0284890097342193,0.0354323607899219,0.0428564767506993,0.0503539905281481,0.0574199514025054,0.0635008231190153,0.0680630398763851,0.0706693710083887,0.0710481991215637,0.0691403571744859,0.065112145252683,0.0593306950949313,0.0523068139180199,0.0446180236379962,0.0368283706027548,0.0294207429440833,0.0227525939186111,0.0170390718438629,0.0123609121345805,0.00868985532497167,0.00592259287147263,0.0039150449936891,0.00251119994072523,0.00156367409250943,0.000945692172615246,0.000555895916325172,0.00031804515857236,0.000177775383091019,9.853230900414e-05,5.33760706192196e-05,3.98769328423587e-05
"17",0.00559316211950551,0.00539062440471716,0.00672536952994195,0.00922744885506264,0.0125923180325152,0.0169120344059262,0.0222070439797887,0.0284181333118936,0.0353857576876655,0.0428272665280725,0.050336785642188,0.0574104485284293,0.0634959104170305,0.0680606627247563,0.070668293183963,0.0710477406501426,0.0691401740601402,0.0651120765684645,0.0593306709191125,0.0523068059876662,0.0446180213482858,0.0368283703222123,0.0294207436843934,0.0227525958246088,0.0170390759691864,0.0123609210454682,0.00868987461119706,0.00592263408056506,0.0039151303950899,0.00251137136925674,0.00156400709445429,0.000946377521562801,0.000557292441315829,0.000320707994963262,0.00018323521411257,0.000102169091949958,7.87444543889348e-05
"18",0.00360099856132573,0.0035507968743447,0.00457034981022133,0.00645012449268108,0.00904787669672414,0.0124855237437694,0.0168470499515552,0.0221640737254749,0.0283896357659257,0.0353677542198755,0.0428165955684227,0.0503308643170219,0.0574073778404674,0.0634944220735665,0.0680599877327841,0.0706680064638069,0.071047626539617,0.0691401315673002,0.0651120618660763,0.0593306663925894,0.0523068051690627,0.0446180222510796,0.0368283728420671,0.0294207489235188,0.0227526065540377,0.0170390982993843,0.0123609678764741,0.00868997208139317,0.00592283180205845,0.00391551977047301,0.00251211360091858,0.00156549193360911,0.000949319555038817,0.00056276701602167,0.000331658193688854,0.00019040283561975,0.000151377091997199
"19",0.00226883516755854,0.00228874884854964,0.00303651761425088,0.00440345519047417,0.00634277066416764,0.00898473859808547,0.0124472700813087,0.0168216415488784,0.0221470996581656,0.0283788386351348,0.0353613191146345,0.042813009685939,0.050328999107445,0.0574064719905444,0.0634940108442046,0.0680598130712699,0.070667937085632,0.071047600901751,0.0691401230229007,0.0651120598597695,0.0593306673404509,0.0523068085281262,0.0446180292180801,0.0368283865564596,0.029420776084277,0.0227526612519152,0.0170392094963786,0.0123611930843291,0.00869041862231081,0.0059236934964362,0.00391713040792418,0.002515246458427,0.00157152757318262,0.000960274842086581,0.000584130062720233,0.000345375296102132,0.000283210990121778
"20",0.00139938369403682,0.00144410052675229,0.00197315898245643,0.00293741931973818,0.00434062455345415,0.00630627112343172,0.00896276639924654,0.0124326402124876,0.0168118124881083,0.0221408123491835,0.028375074089116,0.0353592138124204,0.0428119116506814,0.0503284648260239,0.057406229169019,0.0634939077158385,0.0680597722679932,0.0706679223756368,0.0710475967806961,0.069140123734759,0.0651120641981812,0.0593306766689414,0.0523068266784357,0.0446180639872204,0.0368284535558093,0.0294209069653419,0.0227529193247323,0.0170397177694136,0.0123621769255354,0.00869227671093399,0.00592709599775491,0.00392356593794112,0.00252730013263355,0.00159285735196101,0.00100079832426058,0.000609601540743874,0.000515491859073088
"21",0.000845152338372973,0.000892168428295528,0.00125448790864536,0.00191552311578197,0.00290141748767593,0.00431999955508226,0.00629396811671799,0.00895457487592159,0.0124271155595983,0.0168082634377116,0.0221386795697825,0.0283738778250332,0.0353585884764265,0.0428116068876851,0.0503283262250386,0.0574061704399826,0.0634938848912315,0.0680597649787828,0.0706679224051302,0.0710476020737812,0.0691401358929292,0.0651120881658344,0.0593307221965598,0.0523069121854893,0.0446182248657134,0.0368287591250139,0.0294214919792992,0.0227540394893028,0.0170418323091893,0.0123660807986618,0.00869927337870142,0.00593996308987454,0.00394698971543189,0.0025676861699085,0.00166755804654447,0.00104665049653173,0.000912497498329369
"22",0.000499894923258153,0.000539819984106249,0.000780608035025327,0.00122165198086858,0.00189532771463636,0.00289002894530692,0.0043132893332793,0.0062895130807704,0.00895156455297357,0.0124251760352619,0.0168070947161798,0.0221380225244002,0.0283735337481021,0.035358420626269,0.0428115306676294,0.0503282943733344,0.057406159134675,0.0634938837146659,0.0680597710017736,0.0706679375319099,0.0710476327561715,0.0691401948384214,0.0651121985166871,0.059330926056616,0.0523072877153565,0.0446189200502161,0.0368300531767816,0.0294239013676712,0.0227584717659815,0.0170498228662384,0.0123800829014914,0.00872430422888409,0.00598423533443145,0.00402131229613922,0.00270142390637999,0.00174748818974548,0.00157022140835383
"23",0.000289614519312993,0.00031995124972483,0.000475539709921807,0.000762285089202341,0.00121056302982598,0.00188918476488038,0.00288646641153049,0.00431093815176803,0.00628792458852262,0.00895053944528728,0.0124245571934287,0.0168067462265142,0.0221378398360266,0.0283734447241326,0.0353583806595618,0.0428115151281247,0.0503282915696624,0.0574061654975743,0.063493901529007,0.0680598084872968,0.0706680111914892,0.0710477724788406,0.0691404533880171,0.0651126693004991,0.0593317771328993,0.0523088268433012,0.0446217101773113,0.0368351074226181,0.0294329581729487,0.0227744008559038,0.0170770864552927,0.0124274405194012,0.00880564563197278,0.0061170922177624,0.00425368953929888,0.00283617720877089,0.00262552365235965
"24",0.000164355490150831,0.000185783721327985,0.00028368097797376,0.000465527432796713,0.000756326524851438,0.00120732705735082,0.00188734463693927,0.00288526323199089,0.00431012710726926,0.00628740103603201,0.00895022309065602,0.0124243788964846,0.0168066528441177,0.0221377947810967,0.0283734256874356,0.0353583761192531,0.0428115213791176,0.0503283113800099,0.0574062089140207,0.0634939892553512,0.0680599786037941,0.0706683308286667,0.0710483578816561,0.0691415056279751,0.0651145398169125,0.0593350888745493,0.0523146835641058,0.044632040905978,0.0368531373668487,0.0294638720024227,0.0228260298111171,0.0171641850334919,0.0125726300704822,0.00903616871991731,0.00650865431006404,0.00447304917387092,0.00426372784391424
"25",9.1362566919979e-05,0.000105694450417522,0.000165744938543747,0.000278325267141128,0.000462394983790876,0.000754662123275975,0.00120640270517161,0.00188674800053524,0.00288486285817767,0.0043098689323449,0.00628724506648401,0.00895013529609806,0.0124243333391774,0.0168066320181972,0.0221377888404392,0.0283734314453778,0.0353583969356474,0.0428115689530177,0.0503284104347165,0.0574064060685036,0.0634943680929407,0.068060684360015,0.0706696111298764,0.0710506322808181,0.0691454879640681,0.0651214560385757,0.0593470417764789,0.0523352356700659,0.0446669819921334,0.0369115098125099,0.0295589117439542,0.0229816588353582,0.0174157833637406,0.0129605723062184,0.00967544224512234,0.00685277709854414,0.00672143006559558
"26",4.97445799844974e-05,5.89147911687368e-05,9.48564209587785e-05,0.000162941652352717,0.000276714708100457,0.000461559252712014,0.000754210659155123,0.00120611615362996,0.00188655704436628,0.00288474006495025,0.00430979494690704,0.00628720382153643,0.00895011495776178,0.0124243267482861,0.0168066370753273,0.0221378095551332,0.0283734807637874,0.035358502799901,0.0428117855420463,0.0503288373764839,0.0574072197607152,0.0634958716430094,0.0680633874975878,0.0706743613844583,0.0710588360256827,0.0691594879493569,0.0651451409823512,0.0593867872933854,0.0524010877134746,0.0447741402961414,0.0370814677955497,0.0298288959115882,0.0234046179964786,0.0180484239009925,0.0139707886986415,0.0101944191475678,0.0102802170884624
"27",2.65257179671983e-05,3.21741227358272e-05,5.31779222527438e-05,9.34213351604802e-05,0.000162132063907505,0.000276305088289623,0.000461344885619495,0.000754077426453563,0.00120602824823362,0.00188650085765612,0.00288470661174564,0.00430977724061223,0.00628719752344773,0.00895011930413205,0.0124243463281661,0.0168066854809706,0.0221379166183813,0.0283737059726571,0.0353589586962901,0.0428126765823929,0.0503305221300958,0.057410308182865,0.0635013765521537,0.0680729640337031,0.0706906928243894,0.0710862632046213,0.0692049830420747,0.0652197486665371,0.0595073336799772,0.0525921521218689,0.0450691600110518,0.0375358418198158,0.0305180859935576,0.0244033754556164,0.0195918903830284,0.0147208771179998,0.015246646753565
"28",1.38504002521789e-05,1.72130711128709e-05,2.92030399693025e-05,5.24597540786707e-05,9.30236128152822e-05,0.000161936105127644,0.000276206136913629,0.000461284959988269,0.00075403847637112,0.00120600377538614,0.00188648710917156,0.00288470143009723,0.00430978102172275,0.00628721520186026,0.00895016440564401,0.0124244489413176,0.0168069072490708,0.0221383775880665,0.0283746304713761,0.0353607504739419,0.0428160375062637,0.0503366346951024,0.057421112602183,0.0635199929796674,0.0681043419589581,0.0707426178466948,0.071170837113892,0.0693407018220767,0.0654337754198688,0.0598378204611734,0.0530887525842565,0.0458103361203596,0.0386233230045308,0.032042887100474,0.0266805639186568,0.0206266640295661,0.0219149176119849
"29",7.08015279930971e-06,9.02019803097296e-06,1.57081038482736e-05,2.88519000648658e-05,5.2268882106834e-05,9.29321259327251e-05,0.000161891719124464,0.000276180139903645,0.000461268563623734,0.000754028899179095,0.00120600016224128,0.00188649055674554,0.00288471686704932,0.00430982122287434,0.00628730890842449,0.00895037199723778,0.0124248913472055,0.0168078169359836,0.0221401846414688,0.0283781020654716,0.0353672085659397,0.04282768824818,0.050357056582613,0.0574559739408019,0.0635781034106741,0.068199192359626,0.0708945076776946,0.0714096615456456,0.069708650246129,0.0659875409913303,0.0606474578347975,0.0542593336439659,0.0474702943790431,0.0408719654962911,0.0352828603352611,0.028035662638188,0.0305119067144961
"30",3.54244234344226e-06,4.629092985416e-06,8.27484826072129e-06,1.55404567011513e-05,2.87624625248617e-05,5.22272266135388e-05,9.29128441655206e-05,0.000161881035164085,0.00027617410015161,0.000461266570131639,0.000754032320227931,0.0012060136217397,0.00188652563422823,0.00288479983312382,0.00431000843165442,0.0062877160709753,0.00895122745917816,0.0124266289306377,0.0168112309913173,0.0221466785972434,0.0283900717381585,0.0353886130100962,0.0428648758531349,0.0504199364860298,0.0575596485208889,0.0637451099927215,0.0684623678605009,0.0713003946914208,0.0720211638472667,0.0706061462436761,0.0672643321008761,0.0624353186670138,0.0567076638047243,0.0506695295417359,0.0453110915378096,0.0369541912768628,0.0411294718577084
"31",1.73429454539096e-06,2.32592225244285e-06,4.26830544820325e-06,8.19674512068179e-06,1.54995895567337e-05,2.87440490682103e-05,5.22193222129533e-05,9.29092208412497e-05,0.000161880477115945,0.000276177874475266,0.000461278935216802,0.00075406365372868,0.00120608747735869,0.00188669313962656,0.00288516781753827,0.00431079208827677,0.00628933346809757,0.00895446215264751,0.0124328983227671,0.0168230114419576,0.0221681524546662,0.0284280749085237,0.0354539734686906,0.0429742436910381,0.0505982016862699,0.0578430242670036,0.0641846904188422,0.069127763947458,0.0722813662468129,0.0734259384849991,0.0725509018771221,0.0699014823055471,0.0659201927195799,0.0610929924797016,0.0565171441639185,0.0472285395879628,0.0536555729940041
"32",8.30563656244065e-07,1.14392658819046e-06,2.1553241568037e-06,4.23288109485903e-06,8.17868914325541e-06,1.54920255152422e-05,2.87417798863276e-05,5.2220219577955e-05,9.29143745777307e-05,0.000161894146418916,0.000276210106350654,0.000461351973490956,0.000754225262654068,0.00120643732111678,0.00188743307602852,0.00288669412562499,0.00431385799435764,0.00629532423583194,0.00896584220396279,0.0124539090260772,0.0168607162996661,0.0222339384717128,0.0285397182077977,0.0356383557968595,0.043270737438853,0.0510626222479097,0.0585515771881348,0.0652369870426716,0.0706457763583744,0.0744024443585428,0.076283065295336,0.0763019981608917,0.0746809133452167,0.0717017550126547,0.0684842275809237,0.0585168912761929,0.0677191866621441
"33",3.88982720327403e-07,5.50549686921208e-07,1.0652270185388e-06,2.1398626378142e-06,4.22557555400169e-06,8.17675487006937e-06,1.54939968268454e-05,2.8748604442784e-05,5.22364666230724e-05,9.2950616875758e-05,0.00016197303443586,0.000276379016942354,0.000461708009842148,0.000754963065911053,0.00120793754866544,0.00189042047592113,0.00289250971035377,0.00432491009880861,0.00631580726871861,0.00900283668699324,0.0125189957034789,0.016972239873202,0.0224200267344185,0.0288420796412816,0.036116698329564,0.0440073718452825,0.0521660748132175,0.0601575222877339,0.0675021343496333,0.0737323910684294,0.0784458444357668,0.0814201910214314,0.0826067426271656,0.0819969030894426,0.0806435070034762,0.0702871776599207,0.0826686779627006
"34",1.7824759621286e-07,2.59452252158225e-07,5.15649907945979e-07,1.05986772187395e-06,2.13964672001438e-06,4.23097798001793e-06,8.19067489686556e-06,1.55239713293416e-05,2.88107383352347e-05,5.23629499154524e-05,9.32045046288707e-05,0.00016247611796817,0.000277363175270024,0.000463607695805599,0.000758577664207389,0.00121470828331682,0.00190288792876104,0.00291504431424848,0.00436483665944116,0.00638506982575379,0.00912036059867466,0.0127138810913627,0.017287836733266,0.0229187629390427,0.0296105777735209,0.0372702367048261,0.045691722556882,0.0545541421167596,0.0634352340733566,0.071841271118633,0.07924279060993,0.0852028424694423,0.089386256790577,0.0914409719823434,0.0922781902969208,0.0818080873753699,0.0975457864230297
"35",8.01445631456404e-08,1.20089357912545e-07,2.45290014253315e-07,5.16141942942766e-07,1.06586111342597e-06,2.15503838065207e-06,4.26458557512923e-06,8.26090041462127e-06,1.56675422537919e-05,2.9099042090421e-05,5.29322738031442e-05,9.43107262047921e-05,0.000164591569297069,0.000281344398848311,0.000470978805052966,0.000771995817944558,0.00123870513796602,0.00194501158466269,0.00298755468033593,0.00448712281290966,0.00658694267916789,0.00944629995901506,0.0132281435659085,0.0180800155464213,0.0241088659079531,0.0313519998127493,0.0397477533900236,0.0491110889926429,0.059116940294925,0.0692974577375208,0.0790494924298547,0.0877619648555157,0.0948305208032788,0.0995509259723834,0.102648512662465,0.0922761740687696,0.111250878878667
"36",3.72632759752304e-08,5.75303417700984e-08,1.20816186734321e-07,2.60372559729784e-07,5.50245237584398e-07,1.13800563908821e-06,2.30286919716198e-06,4.56063975704873e-06,8.84170144211513e-06,1.67845805454703e-05,3.12062824606713e-05,5.68329911262882e-05,0.000101398296779454,0.000177234884661987,0.000303488842014021,0.000509056871211053,0.00083626379149921,0.00134513677508767,0.00211787540691047,0.00326276252429114,0.00491634242621941,0.00724228991675677,0.0104251361036389,0.0146570769559993,0.0201166103428704,0.026938905492736,0.035179069689128,0.0447719162973354,0.0554910610928387,0.066916813137944,0.0784149081487597,0.0892553001981353,0.0986247435234617,0.105527474036143,0.110513857773999,0.100330112410994,0.121902471762811
"37",1.90837760663726e-08,3.03359538030727e-08,6.54272190177017e-08,1.44281280042034e-07,3.1174455493316e-07,6.58868954210848e-07,1.36199680356636e-06,2.75457020850149e-06,5.45228262593438e-06,1.05654038009022e-05,2.00491950234353e-05,3.72657664236622e-05,6.7857839419426e-05,0.000121063446076514,0.000211623313668061,0.000362436296611373,0.000608082290788446,0.000999229544407097,0.00160774450475827,0.00253200387596152,0.00390146648382792,0.00587903020610397,0.00865916363813712,0.0124594193792557,0.017502890026547,0.0239897834183695,0.0320572447474975,0.0417293366290102,0.0528593041879843,0.0650753775702211,0.077736135282971,0.0900390091579328,0.101027681248451,0.109496185255174,0.115858029185333,0.105863543753891,0.129277679760972
