"","X0","X1","X2","X3","X4","X5","X6","X7","X8","X9","X10","X11","X12","X13","X14","X15","X16","X17","X18","X19","X20","X21","X22","X23","X24","X25","X26","X27","X28","X29","X30","X31","X32","X33","X34","X35","X36"
"1",0.429659942126279,0.124532096940992,0.103431922326376,0.0804943025205272,0.06230462087278,0.0491636875657691,0.038400683817055,0.0297698631484958,0.0227681310764144,0.0171502944587725,0.0127003181899336,0.00923673279708747,0.00659446966043276,0.00462051927480311,0.0031770675030973,0.00214382015143672,0.00141970619243227,0.000922754792815627,0.00058868843439929,0.000368665492013685,0.000226655420784905,0.000136812985081721,8.1088396049769e-05,4.71958656005714e-05,2.6977841995022e-05,1.51465097449662e-05,8.35340983350832e-06,4.52589696368162e-06,2.40924476958323e-06,1.26020508156266e-06,6.47982826125717e-07,3.27263764160808e-07,1.6284028374925e-07,7.99835788338658e-08,3.8346753274437e-08,1.87096842575226e-08,1.17552837529897e-08
"2",0.423552700448679,0.123257799873669,0.10271272271663,0.0803693025477224,0.0626372758111217,0.0497957190600718,0.0392194261267752,0.0306757626446452,0.0236839220842856,0.0180187596385225,0.0134837456582173,0.0099144131317051,0.00715948021917159,0.00507617162574525,0.00353341734255679,0.00241461626707423,0.00161997253830627,0.00106707366716575,0.000690136690544517,0.000438289393577679,0.000273342372544517,0.000167421585210332,0.000100719927565316,5.9519829628124e-05,3.45536766265835e-05,1.97086854140287e-05,1.10457831352039e-05,6.08353723636277e-06,3.2929487071317e-06,1.75200464248948e-06,9.16658429912304e-07,4.71199357199551e-07,2.38776514660821e-07,1.19515647156523e-07,5.83725944044058e-08,2.90460758621668e-08,1.85944757291129e-08
"3",0.412493427720109,0.120925067386731,0.101373887615381,0.0800981512155587,0.0631931083481992,0.0508986046654537,0.0406702297781196,0.0322970853741708,0.0253366066118274,0.0195981655261438,0.0149192743412723,0.0111655761978335,0.00821062950446053,0.00593049423623548,0.00420688346896614,0.00293056459291221,0.00200471510530835,0.00134668601267657,0.000888389313223506,0.00057554860484997,0.000366207476208425,0.000228859595554524,0.000140488979401756,8.47196784025755e-05,5.01920752344088e-05,2.92170336323455e-05,1.67120407053151e-05,9.39418683831064e-06,5.19007549920675e-06,2.81855697319424e-06,1.5053740196331e-06,7.8988921060176e-07,4.08726539653262e-07,2.08976296098505e-07,1.04179932764159e-07,5.29567887450643e-08,3.4579321640684e-08
"4",0.395572257732724,0.117298520959843,0.099242144118583,0.0795805692550382,0.0639361610687302,0.052489170559286,0.0428148899193681,0.0347312545818015,0.0278494657429668,0.0220276311552481,0.0171523565592183,0.0131336852411996,0.00988275968923702,0.00730502786677634,0.00530297671358345,0.00378015768039745,0.00264580987300657,0.0018182348280324,0.0012268235497572,0.000812764489804348,0.000528709523306526,0.000337727556863885,0.000211858619241196,0.000130525087961706,7.89862157230525e-05,4.69528095768705e-05,2.7420168338438e-05,1.57334816686408e-05,8.87114546284546e-06,4.91581434147744e-06,2.67873671220595e-06,1.43370556510356e-06,7.56854108145672e-07,3.94844853593789e-07,2.00656208109233e-07,1.04031831419603e-07,6.91636265895483e-08
"5",0.373473783996709,0.112455737640139,0.0963029465835851,0.0787119901764664,0.064703403773649,0.0543807837259305,0.045468955994734,0.0378156970980364,0.0310938333230203,0.0252175510541968,0.0201318222907136,0.0158012548697904,0.0121849277135168,0.0092273989201851,0.00686030529119498,0.00500657429888701,0.00358615438959901,0.00252109446076873,0.00173948079280587,0.00117796780191536,0.000782987562754348,0.000510878280628068,0.000327236338866016,0.00020579392061915,0.000127080649426539,7.70643512013726e-05,4.58995214649088e-05,2.68534308705707e-05,1.54344816535817e-05,8.71678608287616e-06,4.84046920813618e-06,2.63935281541974e-06,1.41973112301992e-06,7.54797314107262e-07,3.90520928270295e-07,2.06221782446816e-07,1.39387408934671e-07
"6",0.347111610606356,0.106516058573929,0.0925592450727834,0.0773787767528226,0.0653018721431141,0.0563432076141111,0.048396628278431,0.0413344448841014,0.0348904120825417,0.0290341509597585,0.023771169663012,0.0191253412458122,0.0151104508320814,0.0117181384933547,0.00891736843750163,0.00665796445968694,0.00487682787668244,0.00350440062582678,0.00247046479638888,0.00170865872880871,0.00115952067476204,0.000772132460207556,0.000504597919322548,0.000323663882355663,0.000203796201013145,0.000125982728420852,7.64717261212815e-05,4.55859606707517e-05,2.66916493520468e-05,1.53538098845734e-05,8.68334767427322e-06,4.82091253691813e-06,2.640979565674e-06,1.43012680169572e-06,7.52899626619898e-07,4.04701371564668e-07,2.77893199003127e-07
"7",0.317578102616708,0.0996420344454736,0.0880426695037399,0.0754776460756027,0.0655317759030945,0.0581247135428875,0.0513286266699253,0.0450297976630807,0.0390141479682532,0.0332981255160441,0.0279423102328707,0.0230281283962229,0.0186260903792634,0.0147799681557237,0.0115030381954084,0.00877976473566847,0.00657146326381396,0.00482338391014122,0.0034719386951145,0.00245107559824281,0.00169726829598726,0.00115293849132172,0.000768390759599718,0.000502505707906197,0.00032251350574601,0.000203174808461002,0.000125653836003667,7.63024651838841e-05,4.5503121240081e-05,2.66548411913092e-05,1.53503581480722e-05,8.67616050401829e-06,4.839969278823e-06,2.66925288743304e-06,1.42963092875688e-06,7.82023834137417e-07,5.45304488594202e-07
"8",0.286007350993366,0.0920211337907055,0.0828123544290135,0.0729312950261083,0.0652130849388392,0.0594831437994489,0.0539929453866577,0.0486291223909006,0.0432149073142571,0.0377983807922862,0.0324827088772409,0.0273985976410089,0.0226698054680948,0.0183932696879789,0.0146311891841782,0.0114095849401592,0.0087220846411796,0.00653647570866115,0.00480252015291567,0.00345970358194647,0.00244401759353453,0.00169326242654916,0.00115070148000908,0.000767162006183234,0.00050184261237789,0.000322163186514519,0.000202995482290087,0.000125567764859659,7.62680110135688e-05,4.54968237995942e-05,2.66817064652941e-05,1.53534369576175e-05,8.72226721765701e-06,4.89934170015569e-06,2.669484676502e-06,1.48582880543414e-06,1.05180208915198e-06
"9",0.253514514489113,0.083860633508086,0.0769590094449505,0.0697016653511142,0.0642048740354844,0.060207637977483,0.0561358972362663,0.0518626588309655,0.0472303190961219,0.0422991009650967,0.0371967556818742,0.032089017957082,0.0271436588594124,0.0225069048380659,0.0182908717262229,0.0145679203031419,0.0113711818273126,0.00869918313624505,0.00652305374042163,0.00479478648720072,0.00345532118107936,0.00244157490233222,0.0016919235172065,0.00114998076465633,0.000766782782394885,0.000501650304940478,0.000322073359385148,0.000202963568959269,0.000125571158890179,7.62924018953002e-05,4.55679597758007e-05,2.66982868605123e-05,1.54481439839679e-05,8.83884748277757e-06,4.89941142702425e-06,2.77454939811941e-06,1.99336766181019e-06
"10",0.221146879473934,0.0753815878436224,0.0706056983678177,0.0657983157148661,0.0624196228243829,0.0601365016039078,0.0575412427038948,0.0544815690237927,0.0508007337309425,0.0465501751382246,0.0418609617254864,0.0369149832194725,0.0319094333518211,0.0270306052034868,0.0224368701431824,0.0182482284484387,0.0145424227461475,0.0113562116856015,0.00869055089614578,0.00651816355290435,0.00479206429132206,0.00345383249861258,0.00244077639184615,0.00169150583465239,0.00114977167784802,0.000766688826767573,0.000501622539535351,0.000322088100641806,0.000203010624491444,0.000125640423992409,7.64409334188282e-05,4.56084020862916e-05,2.68831924776775e-05,1.56700591557139e-05,8.83659860903896e-06,5.09101079920344e-06,3.71119566069501e-06
"11",0.189834917149605,0.0668090350864678,0.0639032854543946,0.0612806181240462,0.059831729516371,0.0591708662573968,0.0580474645281491,0.0562767814157463,0.0536874230244207,0.0503027070913663,0.0462352312393596,0.041661615682405,0.0367897168163413,0.0318315825473891,0.0269829724088326,0.0224082240552712,0.0182313182208159,0.0145326277837182,0.0113506447834482,0.00868744639280649,0.00651646544520355,0.00479115502527074,0.00345335916392299,0.00244054237918568,0.00169140499854729,0.00114974922350727,0.000766718781732739,0.000501695729773753,0.00032220383873415,0.000203159053881552,0.000125931099604988,7.65275535216791e-05,4.59597974575105e-05,2.72961554230953e-05,1.56599011130743e-05,9.17778031120697e-06,6.78649444760976e-06
"12",0.160349027252236,0.0583597382234411,0.0570212553669823,0.0562536067086638,0.0564791638204527,0.0572822911562614,0.0575608132086375,0.0570960951589539,0.055691721875247,0.0533278835274299,0.0500792740721285,0.0460958392585409,0.0415750944849615,0.0367365144886185,0.0317993510836873,0.0269637748624702,0.0223970038243431,0.018224888116052,0.0145290162396082,0.0113486582008376,0.00868637871591867,0.0065159091848547,0.00479088149343018,0.00345324468922274,0.00244052393231459,0.0016914539672837,0.00114985655296223,0.000766887792332833,0.000501935212269246,0.000322499787044799,0.000203711279401571,0.00012610775504597,7.71813447793299e-05,4.67125249862766e-05,2.72644918957185e-05,1.62528422108724e-05,1.21875044833897e-05
"13",0.133272525238685,0.0502303154367722,0.050135973614413,0.0508583529224325,0.0524578452048314,0.054512662426633,0.0560614395493182,0.056856184414555,0.0566715415237989,0.0554359012335812,0.0531715296896924,0.0499830124014444,0.0460367200663131,0.0415390495383032,0.036714837886624,0.0317865280377696,0.0269563318726983,0.0223927704105602,0.0182225316744651,0.0145277360994306,0.011347985128211,0.00868604573004249,0.00651577045195883,0.00479086290235352,0.00345331428644478,0.00244067422437746,0.00169169199776216,0.00115020002674708,0.000767357683325352,0.000502506798870944,0.000323527087484442,0.000204060531527133,0.000127300235183363,7.85255618676476e-05,4.66283622965726e-05,2.82690739079389e-05,2.14906753077556e-05
"14",0.108992953607561,0.0425873435451112,0.0434182025319469,0.0452585489522919,0.0479098779152252,0.0509666305605008,0.0536018179617876,0.055547748443034,0.0565528235462135,0.0564922586869812,0.0553280918319546,0.0531059755759859,0.0499431283227509,0.0460125678911474,0.0415246018142769,0.0367063290828181,0.0317816106135324,0.0269535492814537,0.0223912336888261,0.0182217103893634,0.0145273230003078,0.0113478098032779,0.00868602098270598,0.00651586011348021,0.00479106251408977,0.0034536388272925,0.00244115114220968,0.00169235951526462,0.00115109699175994,0.000768437261958796,0.000504381990430491,0.000324199538202397,0.000206192981617294,0.000129651444416248,7.83219604514133e-05,4.82850013913327e-05,3.72026883706666e-05
"15",0.0877100308372202,0.0355603999395781,0.0370215383960817,0.0396253980283172,0.0430076648165627,0.0467980207517561,0.0502979627587786,0.0532332360204537,0.0553343783966801,0.0564291594517069,0.0564191014427285,0.0552841490403445,0.0530794741996412,0.0499271729848014,0.046003061285056,0.0415190193718219,0.0367031124809277,0.0317797994882767,0.0269525613603145,0.0223907253498821,0.0182214876982357,0.0145272857989016,0.0113479176799867,0.00868627348742648,0.00651628453197118,0.00479170453811928,0.00345455677208446,0.00244241521112539,0.00169403557796493,0.00115309544566204,0.000771796972911422,0.000505644644656499,0.000327937341690859,0.000210219297970955,0.000129190279612774,8.09755503671736e-05,6.32127703720721e-05
"16",0.0694564841521952,0.0292384878380052,0.0310731185857806,0.0341229378295273,0.0379363344626499,0.0421924188883847,0.0463149623216834,0.0500376802965193,0.0530855454498636,0.0552504719346939,0.0563803580462874,0.0563901566809856,0.0552668473036098,0.0530691150488917,0.0499210223472005,0.0459994589711221,0.0415169517202902,0.0367019602343824,0.0317791918423616,0.0269522856587124,0.0223906708593786,0.0182216114184291,0.0145275927149894,0.0113484502587594,0.00868710425164348,0.00651750718925689,0.00479342723357656,0.00345690029894905,0.00244548543047538,0.00169766274103956,0.00115900294556789,0.000774110161779567,0.000512064158410449,0.000334683774856115,0.000209226736770435,0.000133307243091286,0.000105402969869691
"17",0.0541275531400374,0.0236698999950582,0.0256675160021223,0.028895595656189,0.0328768341320928,0.0373483962082941,0.0418489652608146,0.0461340514491884,0.049937082497686,0.0530295639814003,0.0552184952775997,0.0563616492429193,0.056379081009846,0.0552602558861753,0.0530652176324415,0.0499187496978205,0.0459981675093893,0.0415162546722514,0.0367016336264817,0.0317791186754588,0.026952423035033,0.0223910318366558,0.0182222563126645,0.0145286260645356,0.0113500162762713,0.00868937518712874,0.00652067227530042,0.00479768596384916,0.00346241488797511,0.00245193944336272,0.00170785394997127,0.00116313811399308,0.000784908071329245,0.000523117575500698,0.000332636253908565,0.000215388944840933,0.000172434254402887
"18",0.0415149356030295,0.0188651782095776,0.0208641941731426,0.0240592067607829,0.0279916219981994,0.0324597188569493,0.0371080215370425,0.0417251813167429,0.0460666161042683,0.0499003577581653,0.0530089925491927,0.0552066406552061,0.0563547089643081,0.0563749818139158,0.0552578484414709,0.0530638296965867,0.0499179861973424,0.0459978006163376,0.0415161662584791,0.0367017841190818,0.03177953172082,0.0269531802973036,0.0223922738688462,0.0182241861619214,0.0145315054688006,0.011354146246329,0.00869507487126799,0.006528259830385,0.004807397188549,0.00347367065887259,0.00246918248481301,0.00171506663286758,0.00118091679920935,0.000802601938171973,0.000519047187883215,0.000341482818385892,0.000276704195741764
"19",0.0313412859105126,0.0148024904917273,0.01668835526444,0.0196960563656735,0.0234142517869205,0.0277004541265675,0.032294085928334,0.0370246250801896,0.0416806810035759,0.0460429233246486,0.0498873658911551,0.0530016339462705,0.0552023907326072,0.056352226642107,0.0563735455391468,0.0552570493878398,0.0530634400603821,0.0499178910335111,0.0459979666396063,0.0415166296682742,0.0367026500882213,0.0317809813455696,0.0269554810794824,0.0223957897603315,0.0182293713114825,0.0145388686026114,0.0113642092981944,0.00870832764343249,0.00654502292325897,0.00482663110255383,0.00350227239611059,0.00248145450388891,0.00174370274105961,0.00120856238868569,0.000794775549842427,0.000531117005684048,0.000435433436089988
"20",0.0232920805139063,0.0114345488172679,0.0131345823681329,0.0158538644930872,0.0192434150825476,0.0232142300861354,0.0275880625804156,0.0322387459107873,0.0369957066141254,0.0416656435836312,0.0460348681175715,0.0498828948097358,0.0529990984546188,0.05520094038394,0.0563514222723143,0.0563731537965863,0.0552569598731144,0.0530636276984605,0.0499184056166715,0.045998937491537,0.0415182801099863,0.0367053179288256,0.0317851403135133,0.0269617571613071,0.0224049468723713,0.0182422451506293,0.0145562875021198,0.0113868984387852,0.00873668272038287,0.0065772151096176,0.00487312148986704,0.00352263220546169,0.00252654320257277,0.00178581225320195,0.00119397071751065,0.000810180011266365,0.000671780247983742
"21",0.0170426227401291,0.00869615047653562,0.0101724167189046,0.0125481239826154,0.0155413220073674,0.0191081643981068,0.0231391125993869,0.0275518824524779,0.0322202318877008,0.0369863137665126,0.0416607415108571,0.0460322155037889,0.0498814348938336,0.0529983065058888,0.0552005648768057,0.0563513523817713,0.0563733725500381,0.0552575308342293,0.0530647036196782,0.0499202511807316,0.0460019617334012,0.0415230739451786,0.0367126887734198,0.031796133608882,0.0269776236980639,0.0224270220969312,0.0182718028807964,0.0145943531819986,0.0114338837369028,0.00878943557045751,0.00665122718480168,0.0049060381776698,0.00359197268385459,0.0025889779550736,0.00175938502094743,0.00121179895901477,0.00101580590523578
"22",0.0122789901038167,0.00651152391723303,0.00775293037495227,0.00976688397506362,0.0123357643465934,0.0154512875179888,0.0190587046213718,0.0231158020072867,0.0275402017846119,0.0322144580745553,0.0369833918001076,0.0416592195365791,0.0460314329370134,0.0498810848646583,0.0529982687561111,0.0552008266029923,0.0563519901157557,0.0563745613627449,0.0552595742495015,0.0530680790795823,0.0499256662907539,0.0460104142387709,0.0415359018609942,0.036731593197247,0.031823109293636,0.0270147446397448,0.0224761807096277,0.0183343678164119,0.0146705937147652,0.0115184802690822,0.00890476959140252,0.00670304771858112,0.00501008349701594,0.00368190555138644,0.00254242264597835,0.00177671813085732,0.00150502480521426
"23",0.00871266124518742,0.00480085003796179,0.00581542824220783,0.00747695437206571,0.00962487424576455,0.0122767503568349,0.015419200619139,0.0190439021924328,0.0231085413385357,0.0275367159900558,0.0322127684114462,0.0369825796178345,0.0416588911065978,0.0460314345415532,0.0498814020933827,0.0529989885209032,0.0552021454195076,0.0563542482833679,0.0563783001788626,0.0552656124287428,0.053077601544985,0.0499403133139144,0.0460323478410067,0.0415678201129953,0.0367765922757719,0.0318843134927481,0.0270948574596169,0.0225768894922535,0.0184554607529797,0.0148032846678671,0.0116942885664292,0.0089841264602489,0.00685518259119039,0.00513561161802184,0.00360205673691746,0.00255281672864372,0.0021841871020151
"24",0.00608928384286283,0.00348556086908664,0.00429359180323882,0.0056305633797433,0.00738347474509871,0.00958678283446365,0.0122562401951841,0.0154099401247731,0.0190394647195117,0.0231064932239255,0.0275358046559801,0.0322124360251928,0.0369826202896627,0.0416592743486081,0.046032254885684,0.0498828766534189,0.0530014941137799,0.0552062845575704,0.0563609438719333,0.056388914784358,0.0552820807242901,0.0531025551530474,0.0499771596582311,0.0460852552455505,0.0416414587854537,0.0368755145229295,0.0320122073439136,0.0272535572723157,0.0227650599063681,0.0186589076900483,0.0150652347695909,0.0118123443424234,0.00920056322931564,0.0070243722969551,0.00500218563867283,0.00359336080452136,0.00310388269228594
"25",0.00419251313317942,0.00249224439664764,0.00312060616479189,0.00417167856983968,0.00556998400623213,0.00735926329302487,0.00957387052671644,0.0122505440225493,0.0154072955434709,0.0190383347283258,0.0231061141525548,0.0275358710878663,0.0322128914695184,0.0369835596111673,0.0416609356482245,0.0460350530956107,0.0498874768513846,0.0530089208401589,0.0552180684715048,0.0563792990251414,0.056416926777175,0.05532387060391,0.0531633572198557,0.0500632383317457,0.0462034417584212,0.0417981436107545,0.0370754481831023,0.0322569249159244,0.0275394776355258,0.0230697683086534,0.0190400757843268,0.0152355548170707,0.0121113514037999,0.00941967026977931,0.00680706254483162,0.00495360602327132,0.00431755717393211
"26",0.00284407209487608,0.00175517476859595,0.00223304360587941,0.00304144266514168,0.00413302745855152,0.00555483539652741,0.00735127006936832,0.00957045057768825,0.0122490530792109,0.0154067973855881,0.0190384029456617,0.0231066385623782,0.0275369432157659,0.0322147689322379,0.0369866995284442,0.04166607083086,0.0460433141542015,0.0499005612154724,0.0530293097616433,0.0552492792480384,0.0564261387291738,0.056485690031038,0.0554223852652379,0.0533007652841698,0.0502492024259783,0.0464465561926614,0.0421040727839526,0.0374445189711523,0.0326814750775823,0.0279849311853882,0.02361089423389,0.0192778440637899,0.0156356763061146,0.0123819624300775,0.00907460938273502,0.00668549064885219,0.00587663149206482
"27",0.00190120411814708,0.00121762401961827,0.00157347542158695,0.00218242480334588,0.00301716844387668,0.00412371149980812,0.00554999695660617,0.00734931591116971,0.00956974938549723,0.0122490793661387,0.0154073774242988,0.0190396099900675,0.0231087506580774,0.0275404631945536,0.0322205057566809,0.036995899934751,0.0416806083350937,0.0460659386760123,0.0499352072275442,0.053081438884061,0.0553262015082195,0.0565372219978314,0.0566423136952734,0.0556374755845528,0.053587490041853,0.0506185417726772,0.0469045121582065,0.0426481374132419,0.038060116276284,0.0333165467045989,0.0287335596112981,0.0239311413513863,0.0197947767272777,0.0159506029250784,0.0118477417295669,0.00883041489850663,0.00782365559720155
"28",0.00125256858754178,0.000832191005639743,0.00109192994267942,0.00154160659521406,0.00216743205995142,0.00301156581693721,0.00412089993287336,0.005549033064503,0.00734924799394483,0.00957035398951227,0.0122504075870393,0.0154097204695555,0.0190435202035653,0.0231151205015609,0.0275506682143225,0.0322366110717263,0.0370209395101298,0.0417189391974708,0.0461236600546897,0.050020601435495,0.0532053450806329,0.0555021853528073,0.0567813341181639,0.056972213180287,0.0560703638702614,0.0541365140605731,0.0512887591999189,0.0476879213726916,0.0435191104699432,0.0389422157925862,0.0343245315217811,0.0291480975949368,0.0245730503311021,0.0201327374873991,0.0151442841653126,0.0114105019266844,0.0101838172405557
"29",0.000813431178901777,0.000560411676978765,0.000746402959859564,0.00107218703970623,0.00153252752790601,0.00216419053165686,0.00301009684823598,0.00412069693785246,0.00554962001706373,0.00735066098509534,0.00957289487470779,0.0122546736425064,0.0154166911169298,0.0190547076460983,0.0231327954955482,0.027578167132256,0.0322787328162969,0.0370844282004956,0.0418130272768697,0.0462605986142596,0.0502160417413207,0.053478372259748,0.055874718775974,0.0572766020027045,0.0576116035243927,0.0568682719049855,0.0550947231902392,0.0523897428823154,0.0488892790305642,0.0447114954196519,0.040261155048381,0.0348374607517088,0.0299094531144288,0.0248925553727269,0.0189466344442465,0.0144192752554834,0.0129556727618933
"30",0.00052077587441651,0.000371904206787344,0.000502663021750694,0.000734394365884151,0.00106684842778803,0.00153082265372705,0.0021636977293563,0.00301062603993237,0.0041221426844001,0.00555229474739205,0.00735520073637459,0.00958035771850076,0.0122667051486512,0.0154357683177983,0.0190844760496056,0.0231785075795881,0.0276472253019596,0.0323813187121234,0.0372341669068469,0.0420275688885704,0.0465619173888024,0.050630175821383,0.054034228256726,0.0566015812518786,0.0581995112969125,0.0587442246142642,0.0582053714027181,0.0566035464571391,0.0540036555834027,0.0504560383145473,0.0463858991710523,0.0408630945693224,0.0356919013049801,0.0301427624974541,0.0231928742249976,0.0178132240984962,0.0161025286344599
"31",0.000328752073015643,0.000243266750488307,0.000333590021378132,0.000495540957320808,0.000731440585694547,0.0010662260030658,0.00153118558201443,0.00216512351267776,0.00301335510012644,0.00412684008931126,0.00556008106595817,0.00736783392372643,0.00960050002145186,0.0122982902858175,0.0154844839973508,0.0191583668226206,0.0232886878123629,0.0278086589586968,0.0326135739649114,0.0375619664092829,0.0424808546353746,0.0471750619288892,0.0514398700959968,0.0550756342137066,0.057901801796262,0.0597680710117528,0.0605634110455726,0.0602196722467636,0.0587129699058261,0.056002134783994,0.0525144608458591,0.0470475241072401,0.0417563730666943,0.0357404337591588,0.0277714228024618,0.0215061623592588,0.0195463774579062
"32",0.000204691758819492,0.000156899209020576,0.000218257316693059,0.000329565037004812,0.000494184891297951,0.00073173289972092,0.00106755817311655,0.00153391563000398,0.00216988766189196,0.00302131665802595,0.00413983985634656,0.00558092637551896,0.00740069782448222,0.00965144743312968,0.0123759421722509,0.0156008131415135,0.0193295908543714,0.0235361762703557,0.0281597043446524,0.033101767492963,0.0382268007772641,0.0433660884942301,0.0483252925960147,0.052894886732858,0.0568615503388508,0.0600188279711195,0.0621786666652131,0.0631800477448946,0.0628986436888743,0.0611834581826246,0.0584465159560656,0.0531797586972167,0.0478913941669024,0.0414885804900161,0.0325207408007208,0.0253678779007301,0.0231659537952149
"33",0.000125788680262168,9.98660480536448e-05,0.000140917759731816,0.000216267779884876,0.000329434052484952,0.000495481366997671,0.000734414958810188,0.00107233884470503,0.00154195562530669,0.00218308021007529,0.00304256817287586,0.00417349721610247,0.00563334452612348,0.00748096196915511,0.00977224981136764,0.0125545846885424,0.015860263020724,0.019699448621923,0.0240533292101577,0.0288683096506294,0.0340520827611767,0.0394723070083679,0.0449582991281681,0.0503058657303037,0.0552840746934732,0.0596431347229614,0.0631263078253416,0.0654819853575733,0.0664810702482502,0.0658522584245056,0.0639781947027818,0.0590273506754038,0.0538487806379683,0.0471449691705161,0.0372357857736333,0.0292287573725529,0.0268006735530993
"34",7.65012510493257e-05,6.29251089713383e-05,9.00828889175371e-05,0.000140530370912778,0.000217497496355922,0.000332362408549556,0.000500632111406779,0.000743053351490646,0.00108644031358179,0.00156457352102196,0.00221878088759668,0.00309803191327275,0.00425828780054745,0.0057608513072187,0.00766949225896179,0.0100462057830261,0.0129455964297704,0.0164080620501707,0.0204521640752811,0.025066749242683,0.0302035318495306,0.0357709431320823,0.0416299906020657,0.047592886186058,0.0534240020533109,0.0588433293332689,0.0635369267676504,0.0671707683599222,0.0694147044220637,0.0698765382914141,0.0689006745160798,0.0643357672168163,0.0593432061218757,0.0524215899475799,0.0416673889022552,0.0328790882746598,0.030249843452571
"35",4.63861522391934e-05,3.95671439149438e-05,5.74942643084595e-05,9.12100489317442e-05,0.000143498242980238,0.000222911956632316,0.000341406442731087,0.000515380448181721,0.00076666559306462,0.00112365562474169,0.00162233029580615,0.00230702579304106,0.00323071809904067,0.00445454514012402,0.00604627037952012,0.00807740238873928,0.0106187457099951,0.0137342720767017,0.0174733756921536,0.021861763729075,0.0268914582508823,0.0325106501305783,0.0386143200330865,0.0450368698342676,0.0515469973811419,0.0578459884832704,0.0635755120266419,0.0683318397094631,0.0716949304151834,0.073161330057806,0.0730345865001343,0.0688708314073742,0.0641002195269554,0.057033434643757,0.04556462413353,0.0361048277848505,0.0333069544591449
"36",2.94417380290827e-05,2.60347466092714e-05,3.83934203476071e-05,6.19207454569694e-05,9.89985436811001e-05,0.00015627757299181,0.000243268947566169,0.000373318065655487,0.000564656629525707,0.000841649660950748,0.00123608301585518,0.00178837099490425,0.00254847982500367,0.00357629657543139,0.00494111130720915,0.0067198394401692,0.00899360956304178,0.0118423929167447,0.0153374781471286,0.0195317667825213,0.0244481294251424,0.0300664387837407,0.0363102504600566,0.0430346873162924,0.0500162572385363,0.056946578473723,0.0634374164586566,0.0690344869382731,0.0732499615980441,0.0754943493378162,0.0760367238016415,0.0722072586685161,0.0676348346102091,0.0604840716540325,0.0484937110306967,0.0385377595088146,0.0356176960569768
"37",2.03827147740765e-05,1.86181376024608e-05,2.78220714827869e-05,4.55321137941609e-05,7.38378616288523e-05,0.000118215017984256,0.000186640083620503,0.000290511369948531,0.000445717071132921,0.000673935230332701,0.00100406515334715,0.00147369349551233,0.00213041602897513,0.00303275549736655,0.00425033012917662,0.00586285134044434,0.00795748293636009,0.01062409713898,0.0139480491257033,0.0180002414451634,0.0228245289820966,0.0284229580420341,0.0347398080844949,0.0416461719365703,0.0489261291474049,0.0562670470058913,0.0632623592279858,0.0694247131602768,0.0742205381446581,0.0770011413679785,0.0780104740063215,0.0744230720735818,0.0700002823531335,0.0628055987569876,0.0504710816927443,0.0401845579117361,0.0371843441427655
