"","X0","X1","X2","X3","X4","X5","X6","X7","X8","X9","X10","X11","X12","X13","X14","X15","X16","X17","X18","X19","X20","X21","X22","X23","X24","X25","X26","X27","X28","X29","X30","X31","X32","X33","X34","X35","X36"
"1",0.125300964837439,0.178300751251372,0.171019645944567,0.135513968362736,0.10204831212998,0.0742610490191094,0.0540438288980791,0.0404236267525065,0.0307887812367074,0.0235243171473499,0.017868056214147,0.0134171204466052,0.00993201710960324,0.00723824810221936,0.00518931616161247,0.0036581813890197,0.00253505398031687,0.00172672206560123,0.00115598709716963,0.000760645082659655,0.000491954658501049,0.000312755171460142,0.000195455111851066,0.00012008316401569,7.25339168599076e-05,4.30781277956688e-05,2.51572401024216e-05,1.44475558704541e-05,8.15993275184149e-06,4.53289270421185e-06,2.47685838312777e-06,1.33142131782378e-06,7.04167535182299e-07,3.66499447930605e-07,1.87990664258851e-07,9.7778380910548e-08,8.42835488792629e-08
"2",0.123800460936527,0.176265179452805,0.16927847111769,0.134432987553763,0.101580278286485,0.0742968758139877,0.0544360100865266,0.0410315416840124,0.0315084605073427,0.0242807017930445,0.018607033029798,0.0141018385692766,0.0105399919760709,0.00775872618989584,0.00562063592318302,0.00400515210633477,0.00280655991381267,0.00193371156060684,0.00130992611152245,0.00087244203748063,0.000571308594908235,0.000367846730038816,0.000232888338826675,0.000144990543469224,8.87711537107502e-05,5.34534348369149e-05,3.16580348353564e-05,1.84429946847336e-05,1.05694921458489e-05,5.95921060974763e-06,3.30580836226971e-06,1.80458368650537e-06,9.69502513327738e-07,5.12732589906511e-07,2.67352069847911e-07,1.41620617773103e-07,1.25221921049333e-07
"3",0.121072216252268,0.172559643095145,0.166099330765032,0.132444998848261,0.100700065695712,0.0743298006580915,0.0551181040317695,0.042110920309,0.0327987435837873,0.0256467231514658,0.0199504185250922,0.0153545574887087,0.0116594467908784,0.00872333232099962,0.00642534680942433,0.00465693214006279,0.00332016943453194,0.00232810118928352,0.00160540452686057,0.00108865463591696,0.00072596388337713,0.00047606362375012,0.000307010244716328,0.000194713806090808,0.00012145600968573,7.45153003017741e-05,4.49681139932232e-05,2.66948696754236e-05,1.5590081469257e-05,8.95779922326763e-06,5.06441146685972e-06,2.81767087240945e-06,1.54294337208222e-06,8.3178420078409e-07,4.42192805670492e-07,2.39261864214837e-07,2.17750835521126e-07
"4",0.116872452156795,0.166845337708248,0.161174958464079,0.129333000957278,0.0992777779371843,0.0743059700779416,0.0560960114992232,0.0437115391435898,0.0347413731590615,0.027726473595453,0.022016105179728,0.0172992993513233,0.0134138861604127,0.0102496605915169,0.00771115375959151,0.00570879533382,0.00415750954286191,0.00297777083925038,0.00209730310785052,0.00145248040061349,0.000989060145078255,0.000662208860717986,0.000435946415248339,0.000282195797294289,0.000179625010166672,0.000112436239626271,6.92145571819197e-05,4.19056144422921e-05,2.49554821064337e-05,1.46189456325856e-05,8.4249862677431e-06,4.77739985026033e-06,2.6659658129038e-06,1.46443091227316e-06,7.93297298748444e-07,4.38110053231879e-07,4.09776479402833e-07
"5",0.111339830235582,0.159298520638972,0.154630502530876,0.125136028208987,0.0972770286785817,0.0741331081120972,0.0572462528007637,0.0457019384488373,0.0372140668781854,0.0304179910795198,0.0247283196797054,0.0198879085743097,0.0157808404203629,0.012336789422513,0.00949343206015906,0.00718696969042097,0.00535069894260153,0.00391666082963371,0.00281837939669673,0.0019935397262479,0.00138603844045122,0.000947213524447675,0.000636284166430751,0.000420147791635487,0.000272724972371931,0.000174040055125738,0.000109196586958589,6.73662839424783e-05,4.08687785793041e-05,2.43837356205727e-05,1.43094626473167e-05,8.26110091483334e-06,4.69271953758433e-06,2.62363862103484e-06,1.44657240097294e-06,8.14405810143721e-07,7.81409442834644e-07
"6",0.104665540323409,0.150165152358959,0.146647257642567,0.119922418144475,0.0946658502501038,0.0737029667254946,0.0584152440378136,0.0479127156548111,0.0400538426677809,0.0335798261341091,0.0279759810652843,0.0230430666567475,0.0187158235346622,0.0149690693892827,0.0117795676032071,0.00911540133169539,0.00693399114614916,0.00518391213438031,0.0038084034809604,0.00274922387769866,0.00195006627723459,0.00135914449671449,0.000930839962156401,0.000626473126876065,0.000414361784205299,0.000269366693724093,0.000172122020697867,0.000108119181928292,6.67716440214883e-05,4.05467016345155e-05,2.42134628791658e-05,1.42227809806754e-05,8.21916716409298e-06,4.67429671732483e-06,2.62165683130633e-06,1.50379183298938e-06,1.47879480140932e-06
"7",0.0970858723107562,0.139752759736525,0.137459845031795,0.113794159068208,0.0914266760717236,0.072904555642316,0.059433013597656,0.0501483098973657,0.0430652818401907,0.0370350735533728,0.0316125652988124,0.0266546403933814,0.0221461664122745,0.0181085612834427,0.0145610450964019,0.0115083328053849,0.00893741316419526,0.00681886117135322,0.0051105682554447,0.00376240596333358,0.00272082900799203,0.00193281233451809,0.00134882365694305,0.000924762096484609,0.000622949526216944,0.000412351149800293,0.000268238137166564,0.000171500058791637,0.000107783881734125,6.65957095216342e-05,4.04588194706884e-05,2.41742859084581e-05,1.42090298500181e-05,8.21829322611966e-06,4.68805320869087e-06,2.73940824220091e-06,2.75995698138215e-06
"8",0.0888530293349991,0.128392618581742,0.127327683320892,0.106874879647565,0.0875588636733672,0.0716375007397572,0.0601327099505776,0.0522082794151935,0.0460403984945293,0.0405878300002953,0.035468164900285,0.0305872045824333,0.0259744899770947,0.0216953332585643,0.0178116014953508,0.0143673144027929,0.0113834739752399,0.00885805309746047,0.00676917010331791,0.00507993429608531,0.00374381579259703,0.00270972414262223,0.00192628224856387,0.00134504357033963,0.000922608631595658,0.000621743254296497,0.000411688301418766,0.000267883239419626,0.000171317631840828,0.00010769602915019,6.6560562831586e-05,4.0454130597429e-05,2.41846587110671e-05,1.42261858633898e-05,8.25384963026738e-06,4.91350845622859e-06,5.07101451245022e-06
"9",0.0802238304596685,0.11642587112943,0.116526250389753,0.0993092055500086,0.0830850874232077,0.0698235327001882,0.0603646742543388,0.0539014978194692,0.0487710320806367,0.0440324743377684,0.0393549783946115,0.0346816584320804,0.0300768635996594,0.0256429267351292,0.0214809460375606,0.0176741427962418,0.0142801712913375,0.0113289644257443,0.0088244564199264,0.00674878252600863,0.00506775782386177,0.00373665924476151,0.00270558545520998,0.00192392810370508,0.00134372827791723,0.00092188931017476,0.000621361595252005,0.000411497034661951,0.000267798981728467,0.000171291584707252,0.000107704257008165,6.65913678940264e-05,4.04946816667177e-05,2.42278368454093e-05,1.42980339405626e-05,8.67218796341815e-06,9.16741992232291e-06
"10",0.0714501346654272,0.104191535091433,0.105339043951712,0.091261272513874,0.0780558267602589,0.0674156978282207,0.0600085802851783,0.0550593005784103,0.0510613059464093,0.0471640680947819,0.0430746892378985,0.0387590931678106,0.034303151925455,0.0298355944353731,0.0254896092930079,0.0213842039255839,0.0176137272283261,0.0142429233448585,0.01130633269947,0.0088109195703162,0.00674081695515166,0.00506314889163436,0.00373403900270325,0.00270412448083003,0.0019231334238431,0.00134331218726734,0.000921687201388119,0.000621282488579608,0.000411489979413781,0.000267831435263416,0.000171351046094389,0.000107786098567268,6.66804706369869e-05,4.05820857217534e-05,2.43633855927504e-05,1.50578039158005e-05,1.63025195807428e-05
"11",0.0627678447841508,0.0920120377001572,0.094046270915949,0.0829095542675759,0.0725501605623879,0.0644043874709881,0.05898342443047,0.0555478982471199,0.0527409313969698,0.049791083542439,0.0464293266977034,0.0426288139172755,0.0384816519008539,0.0341294713874753,0.0297269935627291,0.0254220716540736,0.0213425861204172,0.0175883914631026,0.0142277198530167,0.01129735378829,0.00880570711537057,0.00673784686619554,0.00506149238811282,0.00373314087885742,0.00270366038617356,0.00192291739543086,0.00134324013649453,0.000921704764934488,0.000621358994199001,0.000411600022846657,0.000267970405400442,0.00017151969252698,0.00010796083713184,6.68464068823352e-05,4.08295865663942e-05,2.57173062821695e-05,2.85131534388838e-05
"12",0.0543857902045902,0.0801779929908436,0.0829116259637711,0.0744386430152522,0.0666727789816142,0.0608194387510688,0.0572541117448982,0.0552785046871924,0.0536777360408859,0.0517489935975841,0.0492344883963466,0.0460998647280752,0.0424278769389158,0.0383579981607596,0.0340532932355359,0.029680229250799,0.0253935839444996,0.0213254260672851,0.0175781994617975,0.0142217650733167,0.011293939747405,0.00880379418640252,0.00673680896261988,0.00506096026537912,0.00373290334893476,0.00270359896876542,0.00192296787148647,0.00134337341453268,0.000921903080696762,0.000621596295430704,0.000411877941230773,0.000268294437368831,0.000171848136747589,0.000108266128670781,6.72877419259588e-05,4.31980907317384e-05,4.90401466287478e-05
"13",0.0464771971392529,0.0689359355903284,0.0721704004407022,0.0660300405611005,0.060548064403218,0.0567280281667272,0.0548334150474373,0.054213265216009,0.0537870852302663,0.052912269694632,0.0513326335292463,0.0489941664515872,0.0459561545273625,0.0423408748036096,0.0383051334437684,0.0340212127629198,0.0296608761038005,0.0253820264013357,0.0213186192106434,0.0175742608400536,0.0142195384144548,0.0112927242408287,0.00880317294544485,0.00673654024020603,0.00506091096898368,0.00373300171572449,0.00270380874560962,0.00192327995435495,0.00134377859051357,0.000922365980515319,0.000622124289411457,0.000412481011166174,0.000268896401548682,0.000172396960719998,0.000109036271882109,7.13548815376443e-05,8.29288230862657e-05
"14",0.0391746040236846,0.0584803034069582,0.0620202877008925,0.0578531505289275,0.0543121245490479,0.0522287924943945,0.051779190179459,0.0523662886451982,0.0530369851614127,0.0532032174703538,0.0526047409981462,0.0511596699683905,0.0488927629389169,0.0458957399718909,0.0423046445589311,0.0382833792778339,0.0340082014422775,0.0296531642702025,0.0253775215356366,0.021316044480457,0.0175728414440495,0.0142188113026725,0.0112924192342395,0.00880313854684122,0.00673670104441568,0.00506123086428845,0.00373346679787804,0.00270442937163402,0.00192405272148486,0.00134464657078299,0.000923342072656661,0.000623222003693165,0.000413561449416579,0.000269862263463723,0.000173712248273354,0.000115889892259311,0.000137858568927397
"15",0.032568277773698,0.0489499231543881,0.0526154736910406,0.0500573595344787,0.0481038000393833,0.0474431067267868,0.0481874487992092,0.0497998782383081,0.0514483832378652,0.0525966332168273,0.0529789362939654,0.0524819736588603,0.0510891463724032,0.0488514208632035,0.045871270518835,0.0422901050836668,0.0382747576392652,0.0340031348314542,0.0296502411930199,0.0253758939751207,0.021315207025615,0.0175725002018309,0.014218802633487,0.011292660010993,0.00880360175766186,0.00673738265286536,0.00506213857983563,0.00373463410575929,0.00270585617785959,0.00192564093719115,0.00134641335491315,0.00092530085847401,0.000625122839349839,0.00041522564614626,0.000272059448590209,0.000185041821360062,0.000225247106277247
"16",0.0267077098779281,0.0404286200571562,0.0440640979457667,0.0427658587727307,0.042055709339058,0.0425047498789301,0.0441823987222224,0.046616689427021,0.049090837976655,0.0511198393137455,0.0524350927329375,0.05289302261905,0.0524336686036512,0.0510613049048103,0.0488351693376368,0.0458617250944936,0.0422845061566415,0.0382715149058227,0.0340013183150493,0.0296493054033646,0.0253755258841972,0.0213152376436473,0.0175728493123932,0.0142194458589767,0.0112936191946666,0.00880490818060519,0.0067390693177073,0.00506426997546564,0.0037372094292712,0.00270870350929383,0.00192877689685356,0.00134984139700747,0.000928578659543903,0.000627928941821889,0.000418812606753704,0.000290424492830971,0.000361659314282136
"17",0.0216056027858044,0.0329493254112356,0.0364289247277288,0.0360716761205069,0.0362863192440881,0.0375492639234997,0.0399048076215045,0.0429489468206964,0.046074243679031,0.0488481955714077,0.0510048800808761,0.0523758145197608,0.0528604536375646,0.0524152383572785,0.0510507154487862,0.0488290423070818,0.0458581978510856,0.0422825337560869,0.0382705061462083,0.0340009433590287,0.0296493942096159,0.0253760099951571,0.021316111975963,0.0175741502375622,0.0142212549485398,0.0112960137924069,0.00880795489549955,0.00674287598815745,0.00506882675034282,0.00374221599073235,0.00271416300940398,0.00193466000809746,0.00135537946894898,0.000933205721148941,0.000633645139993837,0.00044799051819856,0.000570515980959532
"18",0.0172436395108813,0.0265008547596381,0.0297308092225003,0.0300361241020952,0.0308938068694986,0.0327041963842001,0.0355000954657786,0.0389460950551699,0.0425377164238543,0.0458967276394544,0.0487673110797898,0.0509645445766284,0.0523542065353514,0.0528484774730655,0.052408493722803,0.0510469073986615,0.048826942612778,0.0458571448629894,0.0422821777103367,0.0382706780494012,0.0340015903711133,0.029650542514867,0.0253777365821003,0.0213185291356844,0.0175774230386622,0.0142255268507951,0.0113013984745188,0.00881462029579478,0.00675078565101578,0.00507746186181718,0.00375153689964163,0.00272406048549546,0.00194382337460755,0.00136283397090996,0.00094208510452298,0.000679057307239206,0.000884038626327651
"19",0.0135792690606186,0.0210363941993446,0.0239543169978526,0.0246895730046248,0.0259521642201575,0.0280811544369969,0.0311074262083757,0.0347623096941016,0.0386370101945063,0.042408966431247,0.0458404165358528,0.0487402349129745,0.0509504468192728,0.0523465890710444,0.052844316621234,0.0524062649426833,0.0510458297236635,0.0488266281629475,0.0458574254649744,0.0422830183992092,0.0382721400411086,0.0340038084400781,0.0296537007406637,0.025382055148587,0.0213242974696131,0.0175848827087643,0.0142348574408098,0.0113128478328435,0.00882809004378333,0.00676539214134392,0.00509306270760017,0.00376785273824095,0.00273889953942841,0.00195554412177153,0.00137625377170032,0.00101128187192487,0.00134527814004522
"20",0.0105527678439559,0.0164827146939331,0.0190547227403661,0.0200342040324446,0.0215096605803469,0.0237702465606052,0.0268507824387523,0.0305451502911992,0.0345318858511151,0.0385443636581061,0.0423701438299147,0.0458224849235368,0.048731209229775,0.0509457441072905,0.0523441727032552,0.0528432082813334,0.052406004781513,0.0510462375734067,0.0488276905314137,0.0458592416861275,0.042285785250395,0.0382761388280729,0.0340093788066307,0.0296612252719983,0.025392011338217,0.0213370718853055,0.0176007439931787,0.0142541520435694,0.0113353479047976,0.0088523138345169,0.0067909808370268,0.00511940405775438,0.00379135418365329,0.00275685928949019,0.00197522876552667,0.00147940987755621,0.00200995749390832
"21",0.00809394832751876,0.0127492372347413,0.014965598326387,0.0160482276148271,0.017589480657863,0.0198371136155845,0.022832628364067,0.0264263365277183,0.0303747050491745,0.0344656999312742,0.0385178437010034,0.0423584423196784,0.045816856398405,0.0487284683198625,0.0509445594696687,0.0523439600950584,0.0528437532458868,0.0524073069492406,0.0510484431647386,0.0488310630019356,0.0458641647785449,0.0422927559432304,0.0382857323192679,0.034022224908244,0.0296780829732285,0.0254134762959479,0.0213635252929193,0.0176326390075756,0.0142910080102975,0.0113747205738429,0.00889342455144,0.00683260542858553,0.00515577377450667,0.0038181251285647,0.00278478858460412,0.00212556017720519,0.00294771993734989
"22",0.00612805196752694,0.00973626184474254,0.0116062852127895,0.0126909792032155,0.0141921366259519,0.0163224150136399,0.0191303676737691,0.0225152372519066,0.0263012134442046,0.0303277471135128,0.034447757922373,0.0385103608230806,0.0423551072622901,0.0458155001673792,0.0487282708397452,0.050945237967049,0.0523455139368623,0.0528463708894185,0.0524113342358671,0.0510543732971784,0.0488395568613915,0.0458760458751423,0.0423089572805726,0.0383072554715412,0.0340502404062392,0.0297134766678965,0.0254567561830864,0.0214152303509541,0.0176918198414241,0.0143537007992539,0.0114393806215233,0.00895775882928399,0.00688754464769431,0.00519449997402519,0.00385627039477343,0.00299875055118417,0.00424223255149994
"23",0.00458054748541394,0.00734190381626338,0.00888869779793193,0.00990831954930909,0.0112991269179983,0.0132433803951348,0.0157954474585152,0.0188952558502363,0.0224240837525732,0.0262681374239026,0.0303157641874364,0.0344431562841302,0.038508649122646,0.0423548634111133,0.045816293930891,0.0487300803363051,0.0509482874920465,0.0523502301213731,0.0528533813287722,0.052421473788716,0.0510687217024469,0.0488594305199778,0.0459029129901086,0.0423443651891081,0.0383529576124581,0.0341075051409665,0.0297829245901311,0.0255389298058204,0.0215083479093983,0.0177895657340221,0.0144532011504635,0.0115365570939157,0.00903866075174736,0.00694173331216911,0.00524428310085351,0.00415334045604978,0.0059894824896433
"24",0.00338072745172293,0.00546750919380171,0.00672308612022956,0.00763784717234753,0.0088772818328576,0.0105968838320908,0.0128546917732765,0.0156229375972265,0.0188293838425861,0.0224009993156859,0.0262603260019961,0.0303132166716857,0.03444274662718,0.0385095252586059,0.0423569266091223,0.0458197926010244,0.0487355212478034,0.0509564335521569,0.0523621272368028,0.0528703791759075,0.0524452807828432,0.0511013853004349,0.048903200116133,0.0459601126887305,0.0424175426665287,0.0384438509912199,0.0342167704581278,0.0299109113877345,0.0256824339221819,0.0216574891128857,0.0179392634441066,0.0145965152544153,0.0116525063548255,0.00911166894683435,0.00700307770503197,0.00564608313278468,0.00829356462106054
"25",0.00246413581897978,0.00402151817513539,0.00502256654023317,0.00581355133906925,0.00688327960496359,0.00836344580627688,0.0103132892299324,0.0127293586065312,0.0155757806469214,0.0188135176646772,0.0223962048573979,0.0262594140166506,0.0303141052969332,0.0344450568367144,0.0385134913108345,0.0423631304700862,0.0458291369693409,0.0487492660581483,0.0509762512373285,0.0523901359159742,0.0529092132253449,0.0524980455673034,0.0511714368929465,0.0489939282454865,0.0460750971614624,0.0425590399785246,0.0386123556222547,0.034412047882411,0.0301274118861378,0.0259049917524897,0.0218775060653866,0.018145388733695,0.0147579221760163,0.0117465677486725,0.00918149820426039,0.00753156415125998,0.011259348304208
"26",0.00177395727132414,0.00292189324124755,0.00370638540722351,0.00436966902404102,0.00526791261129165,0.00651160179914422,0.00815880663745443,0.0102232006758716,0.012696028983184,0.0155652247254657,0.0188110916683349,0.0223968772147113,0.0262619406439681,0.0303185575364925,0.0344520666407263,0.038524101529731,0.0423788245626851,0.0458519146996989,0.0487817280920583,0.0510216404711998,0.0524524173001099,0.052992979322269,0.0526081672283599,0.051312703601912,0.0491711827444421,0.0462910649306871,0.0428136500212797,0.0389040893529089,0.0347316176033185,0.0304519950795119,0.026220596297264,0.0221662403757498,0.0183630462902335,0.0148725443462183,0.0118166241170342,0.00985597533249105,0.0149816826203454
"27",0.00126155569233204,0.00209732382833538,0.00270200040573409,0.00324363813915653,0.00397980596754595,0.00500216975583912,0.00636563715129241,0.00809486860752336,0.0102001430297459,0.0126895692293348,0.0155649647607012,0.018813684705821,0.0224018143417256,0.0262697970002103,0.0303305009115843,0.03446980871412,0.0385499839526399,0.0424159359390973,0.0459042039866715,0.0488540445641902,0.0511198077540924,0.0525830516461798,0.0531629449461521,0.0528239979901489,0.0515806653785871,0.0494942287628483,0.0466678244023485,0.0432401605447747,0.0393653031033234,0.0351938921391085,0.0308933763941104,0.0266138617375414,0.022449578859766,0.0184926384116748,0.0149264697131686,0.0126494457299891,0.0195313018025739
"28",0.000886369374935237,0.00148746542552045,0.00194614326359317,0.00237814746609478,0.0029684169512166,0.00379207402888866,0.00489938957198907,0.00632104749206875,0.00807960358088457,0.0101971612490271,0.0126917229386209,0.0155702855988947,0.0188223972062892,0.0224151358853307,0.0262896594020065,0.0303595953778555,0.0345117307716494,0.0386093929752487,0.0424986920853586,0.0460173878130603,0.0490059959480606,0.0513197980563695,0.0528404509149696,0.0534863199028971,0.053221024863525,0.0520539577092882,0.0500398903452177,0.0472776474842525,0.0438905160891585,0.0400076606521803,0.0357949862804937,0.0314131912071596,0.0269682232311466,0.0225802678801771,0.018502406500981,0.015917516092712,0.0249383283828672
"29",0.000615363600895604,0.00104247755723879,0.00138506825639363,0.00172236357896707,0.00218625618341937,0.00283751543904232,0.00372085590040741,0.00486919890231366,0.00631199644931515,0.00808004538961575,0.0102024903008629,0.0127011951903907,0.015584962341659,0.0188443762162586,0.0224474524215449,0.02633642288357,0.0304261957795505,0.0346050377175085,0.0387379017200223,0.0426724887717499,0.0462481027973208,0.0493062434202324,0.0517019301918325,0.0533151939269245,0.0540624296532031,0.0538997091239926,0.0528268901101667,0.0508919812934994,0.0481729200170113,0.0447605354573333,0.0408037087728749,0.0364602193657267,0.0318361055915403,0.0270740300211864,0.0225023137376532,0.0196327908222542,0.0311752310965108
"30",0.000422216549048748,0.000722103955018716,0.000974200407690551,0.00123246541334458,0.00159036052740912,0.00209639772088154,0.00278933237408646,0.00370162939910713,0.00486558151453304,0.00631639906442435,0.00808994601144999,0.0102183603762009,0.0127251503710587,0.0156203365047541,0.0188957809860556,0.0225210058032118,0.0264400163675385,0.0305697212765824,0.034800513206389,0.0389993266539554,0.0430156327044502,0.0466895921217794,0.0498617419316992,0.052384141205118,0.0541331216732467,0.0550141154420996,0.0549696237323435,0.0539894240924333,0.0520940212846945,0.0493202419761657,0.0457841566056716,0.0416256051287415,0.036936899731076,0.031874922468476,0.0268457143481343,0.0237281930523966,0.0381420080187223
"31",0.00028638078944123,0.000494500657844112,0.000677383996016616,0.00087164079806843,0.00114310919976792,0.00153001812165613,0.00206519544347113,0.00277890615519844,0.003703428460807,0.00487515825811651,0.00633307758066,0.00811554775356177,0.0102563983604127,0.0127806844792846,0.0157001787759619,0.0190088148222771,0.0226785051042246,0.0266558743278914,0.0308605050793531,0.0351851261196187,0.0394985177762605,0.0436505729595361,0.0474792863335755,0.050820197233858,0.0535190767569941,0.0554367695616369,0.0564599587723749,0.0565168119277506,0.0555619554998785,0.0535653896000198,0.0505960203256714,0.0467609112058803,0.0421242076823123,0.0368470365752471,0.031412276652373,0.0280935126343282,0.0456570642186585
"32",0.000192128770148406,0.000334977048732378,0.000465909850227188,0.00060970876772343,0.000812519445294758,0.00110411312587471,0.0015117557823613,0.00206255027387747,0.00278693535443759,0.0037202612687971,0.00490193006485229,0.00637324160585996,0.00817449570437483,0.0103415542985685,0.0129018456206879,0.0158699168845559,0.0192428246584802,0.0229957880849112,0.0270786435648944,0.0314135371456534,0.0358948389488121,0.0403908422145358,0.0447473763736943,0.0487944961383854,0.0523578016673238,0.0552618200871305,0.0573422911560496,0.0584664202263792,0.0585188601730638,0.0573941936335416,0.0551029317310644,0.0517065646536111,0.0472279063546542,0.0418219827865452,0.0360443721104501,0.0325763346048972,0.0534563298195383
"33",0.000127651750699294,0.000224761020047493,0.000317452356235615,0.000422501144525602,0.000572147185076463,0.000789360198818343,0.00109644352039859,0.00151698439140965,0.0020785987095352,0.00281424333732505,0.00376193145353429,0.004963481028738,0.00646257188764129,0.00830218398789932,0.0105213211654294,0.0131510150034569,0.0162097498802205,0.0196985829508919,0.0235963767115237,0.0278554990862116,0.0323990836426522,0.0371194354388267,0.0418779926441617,0.0465086144372014,0.0508265537557867,0.0546291640133075,0.0577084511802588,0.0598748602405944,0.0609435480373249,0.0607302788999685,0.0591804643053004,0.0563010078385923,0.0520634472306899,0.0466075294083291,0.0405545691402896,0.0369886237195252,0.0612035192975624
"34",8.43220067880343e-05,0.000149981357290854,0.00021518407291103,0.000291344791052678,0.000401024474296128,0.000561881677786372,0.000792013023698431,0.00111159667080683,0.00154510862270399,0.00212251559418671,0.00287945204432246,0.00385670418254609,0.00509910483854926,0.0066538176786586,0.00856785287642247,0.0108847097964192,0.013640146807443,0.0168571919060535,0.0205406595335907,0.0246713917526595,0.0292013421041417,0.0340490251095386,0.0390959335359068,0.0441862261147181,0.0491328094393398,0.0537146114345213,0.0576883865046708,0.0608149215664198,0.062844891714875,0.0635177104678151,0.0627126696391465,0.0603784368652979,0.0564304330444677,0.0509866822745748,0.044724958683738,0.0411060837635716,0.0684888740290611
"35",5.58897781799477e-05,0.000100469442413329,0.000146511623538526,0.000201904344600021,0.000282621162632589,0.00040233112297524,0.000575760983151693,0.000820104187437565,0.00115687001560677,0.00161302825429148,0.00222153409268062,0.00302137902385267,0.00405717047160907,0.00537815644784356,0.00703649296625917,0.00908457082963445,0.0115712817867156,0.0145371904511827,0.0180087224715798,0.0219914292844388,0.0264634189495937,0.031368359536366,0.0366087680393788,0.042042315659787,0.0474849386466261,0.052704469931378,0.0574310730246255,0.0613848914574333,0.0642609716784228,0.065730442142934,0.0656113239947993,0.063796379258735,0.060146113452229,0.0547541379367699,0.0483439295449845,0.0447061755873884,0.0748988724179153
"36",3.88661865242487e-05,7.06006959231801e-05,0.000104598530439845,0.00014662282069868,0.000208571381227588,0.000301450847558364,0.000437633244255624,0.000632104937798571,0.000904082337900718,0.00127814016050753,0.00178496597204405,0.00246179423159156,0.00335246921555324,0.00450701727649546,0.0059804991102269,0.00783090505519054,0.0101158870156986,0.0128881815049513,0.0161897091194955,0.0200442741809202,0.0244499059730228,0.0293701270085087,0.0347249110015409,0.0403843572835899,0.0461693612708801,0.0518421869331077,0.057115484269099,0.061680638411479,0.0651916568844681,0.0672679177479031,0.0676798587184841,0.0662757852597852,0.062871951087597,0.0575407211216634,0.051037722528661,0.0474007005899851,0.0797183400852144
"37",2.92631678960203e-05,5.36456948392784e-05,8.05765372685533e-05,0.000114610239730944,0.000165278174931919,0.000241947707587068,0.000355490829575765,0.000519432279285315,0.000751425622980394,0.00107437682983411,0.00151733772751778,0.00211617712976951,0.00291395301193989,0.00396084733247129,0.00531341933761361,0.00703290755021926,0.00918231833490973,0.0118220802927542,0.0150041619018775,0.0187644758166112,0.023114566091887,0.0280317651393583,0.0334485988152952,0.0392446513612117,0.0452454936281534,0.0512110337165118,0.0568433836370667,0.061815480016832,0.0657540913320383,0.0682435189282716,0.0690213642910887,0.0679047254214301,0.0646784857158338,0.0593991867489284,0.0528430188835829,0.0492140458454934,0.0829728649073945
