"","X0","X1","X2","X3","X4","X5","X6","X7","X8","X9","X10","X11","X12","X13","X14","X15","X16","X17","X18","X19","X20","X21","X22","X23","X24","X25","X26","X27","X28","X29","X30","X31","X32","X33","X34","X35","X36"
"1",0.792261356265857,0.0819580713378471,0.111192923604336,0.00841670086549194,0.00574973389885015,0.000286945288737342,0.000129937489239551,3.24843723098878e-06,1.08281241032959e-06,0,0,0,0,0,0,0,0,0,0,0,0,0,0,0,0,0,0,0,0,0,0,0,0,0,0,0,0
"2",0,0.792261356265857,0.0819580713378471,0.111192923604336,0.00841670086549194,0.00574973389885015,0.000286945288737342,0.000129937489239551,3.24843723098878e-06,1.08281241032959e-06,0,0,0,0,0,0,0,0,0,0,0,0,0,0,0,0,0,0,0,0,0,0,0,0,0,0,0
"3",0,0,0.792261356265857,0.0819580713378471,0.111192923604336,0.00841670086549194,0.00574973389885015,0.000286945288737342,0.000129937489239551,3.24843723098878e-06,1.08281241032959e-06,0,0,0,0,0,0,0,0,0,0,0,0,0,0,0,0,0,0,0,0,0,0,0,0,0,0
"4",0,0,0,0.792261356265857,0.0819580713378471,0.111192923604336,0.00841670086549194,0.00574973389885015,0.000286945288737342,0.000129937489239551,3.24843723098878e-06,1.08281241032959e-06,0,0,0,0,0,0,0,0,0,0,0,0,0,0,0,0,0,0,0,0,0,0,0,0,0
"5",0,0,0,0,0.792261356265857,0.0819580713378471,0.111192923604336,0.00841670086549194,0.00574973389885015,0.000286945288737342,0.000129937489239551,3.24843723098878e-06,1.08281241032959e-06,0,0,0,0,0,0,0,0,0,0,0,0,0,0,0,0,0,0,0,0,0,0,0,0
"6",0,0,0,0,0,0.792261356265857,0.0819580713378471,0.111192923604336,0.00841670086549194,0.00574973389885015,0.000286945288737342,0.000129937489239551,3.24843723098878e-06,1.08281241032959e-06,0,0,0,0,0,0,0,0,0,0,0,0,0,0,0,0,0,0,0,0,0,0,0
"7",0,0,0,0,0,0,0.792261356265857,0.0819580713378471,0.111192923604336,0.00841670086549194,0.00574973389885015,0.000286945288737342,0.000129937489239551,3.24843723098878e-06,1.08281241032959e-06,0,0,0,0,0,0,0,0,0,0,0,0,0,0,0,0,0,0,0,0,0,0
"8",0,0,0,0,0,0,0,0.792261356265857,0.0819580713378471,0.111192923604336,0.00841670086549194,0.00574973389885015,0.000286945288737342,0.000129937489239551,3.24843723098878e-06,1.08281241032959e-06,0,0,0,0,0,0,0,0,0,0,0,0,0,0,0,0,0,0,0,0,0
"9",0,0,0,0,0,0,0,0,0.792261356265857,0.0819580713378471,0.111192923604336,0.00841670086549194,0.00574973389885015,0.000286945288737342,0.000129937489239551,3.24843723098878e-06,1.08281241032959e-06,0,0,0,0,0,0,0,0,0,0,0,0,0,0,0,0,0,0,0,0
"10",0,0,0,0,0,0,0,0,0,0.792261356265857,0.0819580713378471,0.111192923604336,0.00841670086549194,0.00574973389885015,0.000286945288737342,0.000129937489239551,3.24843723098878e-06,1.08281241032959e-06,0,0,0,0,0,0,0,0,0,0,0,0,0,0,0,0,0,0,0
"11",0,0,0,0,0,0,0,0,0,0,0.792261356265857,0.0819580713378471,0.111192923604336,0.00841670086549194,0.00574973389885015,0.000286945288737342,0.000129937489239551,3.24843723098878e-06,1.08281241032959e-06,0,0,0,0,0,0,0,0,0,0,0,0,0,0,0,0,0,0
"12",0,0,0,0,0,0,0,0,0,0,0,0.792261356265857,0.0819580713378471,0.111192923604336,0.00841670086549194,0.00574973389885015,0.000286945288737342,0.000129937489239551,3.24843723098878e-06,1.08281241032959e-06,0,0,0,0,0,0,0,0,0,0,0,0,0,0,0,0,0
"13",0,0,0,0,0,0,0,0,0,0,0,0,0.792261356265857,0.0819580713378471,0.111192923604336,0.00841670086549194,0.00574973389885015,0.000286945288737342,0.000129937489239551,3.24843723098878e-06,1.08281241032959e-06,0,0,0,0,0,0,0,0,0,0,0,0,0,0,0,0
"14",0,0,0,0,0,0,0,0,0,0,0,0,0,0.792261356265857,0.0819580713378471,0.111192923604336,0.00841670086549194,0.00574973389885015,0.000286945288737342,0.000129937489239551,3.24843723098878e-06,1.08281241032959e-06,0,0,0,0,0,0,0,0,0,0,0,0,0,0,0
"15",0,0,0,0,0,0,0,0,0,0,0,0,0,0,0.792261356265857,0.0819580713378471,0.111192923604336,0.00841670086549194,0.00574973389885015,0.000286945288737342,0.000129937489239551,3.24843723098878e-06,1.08281241032959e-06,0,0,0,0,0,0,0,0,0,0,0,0,0,0
"16",0,0,0,0,0,0,0,0,0,0,0,0,0,0,0,0.792261356265857,0.0819580713378471,0.111192923604336,0.00841670086549194,0.00574973389885015,0.000286945288737342,0.000129937489239551,3.24843723098878e-06,1.08281241032959e-06,0,0,0,0,0,0,0,0,0,0,0,0,0
"17",0,0,0,0,0,0,0,0,0,0,0,0,0,0,0,0,0.792261356265857,0.0819580713378471,0.111192923604336,0.00841670086549194,0.00574973389885015,0.000286945288737342,0.000129937489239551,3.24843723098878e-06,1.08281241032959e-06,0,0,0,0,0,0,0,0,0,0,0,0
"18",0,0,0,0,0,0,0,0,0,0,0,0,0,0,0,0,0,0.792261356265857,0.0819580713378471,0.111192923604336,0.00841670086549194,0.00574973389885015,0.000286945288737342,0.000129937489239551,3.24843723098878e-06,1.08281241032959e-06,0,0,0,0,0,0,0,0,0,0,0
"19",0,0,0,0,0,0,0,0,0,0,0,0,0,0,0,0,0,0,0.792261356265857,0.0819580713378471,0.111192923604336,0.00841670086549194,0.00574973389885015,0.000286945288737342,0.000129937489239551,3.24843723098878e-06,1.08281241032959e-06,0,0,0,0,0,0,0,0,0,0
"20",0,0,0,0,0,0,0,0,0,0,0,0,0,0,0,0,0,0,0,0.792261356265857,0.0819580713378471,0.111192923604336,0.00841670086549194,0.00574973389885015,0.000286945288737342,0.000129937489239551,3.24843723098878e-06,1.08281241032959e-06,0,0,0,0,0,0,0,0,0
"21",0,0,0,0,0,0,0,0,0,0,0,0,0,0,0,0,0,0,0,0,0.792261356265857,0.0819580713378471,0.111192923604336,0.00841670086549194,0.00574973389885015,0.000286945288737342,0.000129937489239551,3.24843723098878e-06,1.08281241032959e-06,0,0,0,0,0,0,0,0
"22",0,0,0,0,0,0,0,0,0,0,0,0,0,0,0,0,0,0,0,0,0,0.792261356265857,0.0819580713378471,0.111192923604336,0.00841670086549194,0.00574973389885015,0.000286945288737342,0.000129937489239551,3.24843723098878e-06,1.08281241032959e-06,0,0,0,0,0,0,0
"23",0,0,0,0,0,0,0,0,0,0,0,0,0,0,0,0,0,0,0,0,0,0,0.792261356265857,0.0819580713378471,0.111192923604336,0.00841670086549194,0.00574973389885015,0.000286945288737342,0.000129937489239551,3.24843723098878e-06,1.08281241032959e-06,0,0,0,0,0,0
"24",0,0,0,0,0,0,0,0,0,0,0,0,0,0,0,0,0,0,0,0,0,0,0,0.792261356265857,0.0819580713378471,0.111192923604336,0.00841670086549194,0.00574973389885015,0.000286945288737342,0.000129937489239551,3.24843723098878e-06,1.08281241032959e-06,0,0,0,0,0
"25",0,0,0,0,0,0,0,0,0,0,0,0,0,0,0,0,0,0,0,0,0,0,0,0,0.792261356265857,0.0819580713378471,0.111192923604336,0.00841670086549194,0.00574973389885015,0.000286945288737342,0.000129937489239551,3.24843723098878e-06,1.08281241032959e-06,0,0,0,0
"26",0,0,0,0,0,0,0,0,0,0,0,0,0,0,0,0,0,0,0,0,0,0,0,0,0,0.792261356265857,0.0819580713378471,0.111192923604336,0.00841670086549194,0.00574973389885015,0.000286945288737342,0.000129937489239551,3.24843723098878e-06,1.08281241032959e-06,0,0,0
"27",0,0,0,0,0,0,0,0,0,0,0,0,0,0,0,0,0,0,0,0,0,0,0,0,0,0,0.792261356265857,0.0819580713378471,0.111192923604336,0.00841670086549194,0.00574973389885015,0.000286945288737342,0.000129937489239551,3.24843723098878e-06,1.08281241032959e-06,0,0
"28",0,0,0,0,0,0,0,0,0,0,0,0,0,0,0,0,0,0,0,0,0,0,0,0,0,0,0,0.792261356265857,0.0819580713378471,0.111192923604336,0.00841670086549194,0.00574973389885015,0.000286945288737342,0.000129937489239551,3.24843723098878e-06,1.08281241032959e-06,0
"29",0,0,0,0,0,0,0,0,0,0,0,0,0,0,0,0,0,0,0,0,0,0,0,0,0,0,0,0,0.792261356265857,0.0819580713378471,0.111192923604336,0.00841670086549194,0.00574973389885015,0.000286945288737342,0.000129937489239551,3.24843723098878e-06,1.08281241032959e-06
"30",0,0,0,0,0,0,0,0,0,0,0,0,0,0,0,0,0,0,0,0,0,0,0,0,0,0,0,0,0,0.792261356265857,0.0819580713378471,0.111192923604336,0.00841670086549194,0.00574973389885015,0.000286945288737342,0.000131020301649881,3.24843723098878e-06
"31",0,0,0,0,0,0,0,0,0,0,0,0,0,0,0,0,0,0,0,0,0,0,0,0,0,0,0,0,0,0,0.792261356265857,0.0819580713378471,0.111192923604336,0.00841670086549194,0.00574973389885015,0.000290193725968331,0.000131020301649881
"32",0,0,0,0,0,0,0,0,0,0,0,0,0,0,0,0,0,0,0,0,0,0,0,0,0,0,0,0,0,0,0,0.792261356265857,0.0819580713378471,0.111192923604336,0.00841670086549194,0.00584718701577981,0.000323760910688549
"33",0,0,0,0,0,0,0,0,0,0,0,0,0,0,0,0,0,0,0,0,0,0,0,0,0,0,0,0,0,0,0,0,0.792261356265857,0.0819580713378471,0.111192923604336,0.00860619303729962,0.00598145575466068
"34",0,0,0,0,0,0,0,0,0,0,0,0,0,0,0,0,0,0,0,0,0,0,0,0,0,0,0,0,0,0,0,0,0,0.792261356265857,0.0819580713378471,0.114019063995296,0.0117615084010001
"35",0,0,0,0,0,0,0,0,0,0,0,0,0,0,0,0,0,0,0,0,0,0,0,0,0,0,0,0,0,0,0,0,0,0,0.792261356265857,0.0846900070491087,0.123048636685035
"36",0,0,0,0,0,0,0,0,0,0,0,0,0,0,0,0,0,0,0,0,0,0,0,0,0,0,0,0,0,0,0,0,0,0,0,0.818670068141385,0.181329931858615
"37",0,0,0,0,0,0,0,0,0,0,0,0,0,0,0,0,0,0,0,0,0,0,0,0,0,0,0,0,0,0,0,0,0,0,0,0,1
