"","X0","X1","X2","X3","X4","X5","X6","X7","X8","X9","X10","X11","X12","X13","X14","X15","X16","X17","X18","X19","X20","X21","X22","X23","X24","X25","X26","X27","X28","X29","X30","X31","X32","X33","X34","X35","X36"
"1",0.294925419314639,0.166040859799257,0.108564117447742,0.0916358763004308,0.0775240557178413,0.0635718851347322,0.0510199400469407,0.0400112454771946,0.0306330778178472,0.0229117869749094,0.0167501304748401,0.0119717158552638,0.00836585145701964,0.00571610986028004,0.00381890135011301,0.00249484829080477,0.00159386745821406,0.000995882434787481,0.000608647515587506,0.00036390281311841,0.000212877453892937,0.000121860386686066,6.82727766311903e-05,3.74409347495559e-05,2.01010826969639e-05,1.05662824127374e-05,5.4388547600074e-06,2.74172160850177e-06,1.35367293226714e-06,6.5466674526992e-07,3.1016413551353e-07,1.4398313166984e-07,6.55325724417564e-08,2.92961188600342e-08,1.29883430506033e-08,5.70799214678877e-09,2.95302090902508e-09
"2",0.288938851791914,0.163125733447785,0.107294157347354,0.0911092832628419,0.077619765556735,0.0641837042960876,0.0519967825517346,0.0412031424282435,0.0319061455651543,0.0241579022478467,0.0178924563019852,0.0129645215923659,0.00919017966871833,0.00637335799085133,0.00432396141938509,0.00286992990092033,0.00186363647815518,0.00118410418929247,0.000736218716288941,0.000447990874659921,0.00026683250460722,0.000155589327410366,8.88295062905114e-05,4.96632525115563e-05,2.71941621641648e-05,1.45860614076918e-05,7.66439172455126e-06,3.94589791511806e-06,1.99062537959589e-06,9.8413456382347e-07,4.76866141960091e-07,2.26524190991418e-07,1.05567136100353e-07,4.83588420566662e-08,2.20001171697556e-08,9.91903500753798e-09,5.27223536137216e-09
"3",0.278222976751256,0.15787627817361,0.104960396445735,0.0900886217214556,0.0777062388551267,0.0651994477339495,0.0536822826065782,0.0432972214996707,0.0341719596478211,0.0264005274589758,0.0199698081379645,0.0147884347168753,0.0107200364675195,0.00760568534718145,0.00528080809928957,0.00358804436676109,0.00238566984636814,0.00155230511556622,0.000988535897984799,0.000616171990234819,0.00037597471298196,0.000224605350142879,0.00013138513067415,7.52657370395962e-05,4.22311235518808e-05,2.32118130371243e-05,1.24991413537517e-05,6.59470959341257e-06,3.40958615459927e-06,1.72760498239988e-06,8.5799450212716e-07,4.17767636974796e-07,1.99599625295936e-07,9.37662385406794e-08,4.37871655001225e-08,2.02481229963678e-08,1.10472661467247e-08
"4",0.262107709980493,0.149911533761951,0.101314859443338,0.0883774842670713,0.0776432412826978,0.0665442653927226,0.0560694034614779,0.0463508847448393,0.0375432788486806,0.0297942786666962,0.0231629162442151,0.0176345895673074,0.0131431794017929,0.00958686230724451,0.00684229036545641,0.00477772122788613,0.00326372613672394,0.00218115384475343,0.00142615080733757,0.000912416900046111,0.000571245350258746,0.000350036394526575,0.000209956112313371,0.000123291704387083,7.08914888126335e-05,3.99183242706872e-05,2.20155001597277e-05,1.18937661451718e-05,6.29503760405801e-06,3.26452955188847e-06,1.6590518920521e-06,8.26517104987861e-07,4.0402918723788e-07,1.94213943927582e-07,9.28692989340418e-08,4.39293327670493e-08,2.45284710198376e-08
"5",0.241572650186777,0.139635109107096,0.0964221624584814,0.0858736779232826,0.0772046923779662,0.0679134354774118,0.0588261396653713,0.0500491167052047,0.0417542781103444,0.0341407573957066,0.0273457118798171,0.0214435660810665,0.0164543708670596,0.0123503926731259,0.00906535274262586,0.00650626968545866,0.00456565722160719,0.00313264152613308,0.00210179538091325,0.0013791004292078,0.000885099839319925,0.000555715144166992,0.000341391460821429,0.000205244667824902,0.000120777961889141,6.95785997409129e-05,3.92471475617197e-05,2.16797052190554e-05,1.17294323716652e-05,6.21652200615816e-06,3.22816783831485e-06,1.6431042788391e-06,8.20630267394494e-07,4.03077941494807e-07,1.97089463232812e-07,9.52261631296351e-08,5.43284607382462e-08
"6",0.217833396993623,0.127567534521942,0.0903989172495663,0.0824940552270622,0.0761523580007719,0.0689612973331986,0.0615569814977753,0.0539991663444739,0.0464564201762279,0.0391626609985039,0.032324064745842,0.0261032082106219,0.020612685522333,0.0159104229529539,0.0120014276243079,0.00884588829488147,0.00637095521458721,0.00448385964968884,0.0030841635590304,0.0020736286568752,0.00136305733787564,0.000876142900865359,0.000550814000149393,0.000338763395173435,0.000203863961791239,0.000120067392417448,6.9220479085561e-05,3.90705132167407e-05,2.15946344510412e-05,1.16897870739553e-05,6.19927340947108e-06,3.22209892001222e-06,1.64336149708654e-06,8.24427748866804e-07,4.12026346608098e-07,2.03236017502435e-07,1.18399685113081e-07
"7",0.192229283321536,0.114308138922312,0.0834216620139676,0.0782051997805203,0.0742809702669346,0.0693519146608323,0.063850144918713,0.0577675691081456,0.0512415269902506,0.0445122566281135,0.0378315674094732,0.0314352386731592,0.0255230446068262,0.0202419721335062,0.0156782499445804,0.0118588370234075,0.00875999288290111,0.00632019497934672,0.0044544293606457,0.00306742150866284,0.00206428372734994,0.00135793954911746,0.000873393214033176,0.000549364882531674,0.000338014472060221,0.000203484539410516,0.000119879107002251,6.91292026087989e-05,3.90277188068495e-05,2.15760840366227e-05,1.16838966634867e-05,6.2006668081124e-06,3.22938257897663e-06,1.6546198777075e-06,8.45193452378989e-07,4.25540228302918e-07,2.53069590784069e-07
"8",0.166039909588332,0.10045702937431,0.0757103630596403,0.0730374328206131,0.0714555748319663,0.0688118445469775,0.0653361947609628,0.0609359307631907,0.055688124372003,0.0498044624349754,0.0435484112843729,0.0372014019606671,0.0310326741079457,0.025271387269643,0.020087809135812,0.0155856494669901,0.0118042804320568,0.00872845595032784,0.00630230359156298,0.00444446552509045,0.00306197322979084,0.00206135820907495,0.00135639689117605,0.00087259445910077,0.000548958902469279,0.00033781207712303,0.000203385835059911,0.000119832548716951,6.91089589112531e-05,3.90216623792203e-05,2.15792307282708e-05,1.16943599087876e-05,6.21997441640411e-06,3.25515503154432e-06,1.69965764535444e-06,8.73430882790867e-07,5.30140136658408e-07
"9",0.140396234940578,0.086576536865143,0.0675199253807035,0.0670929820727748,0.0676341573321543,0.0671639183975206,0.0657278008351191,0.0631408629506116,0.0593961547677716,0.0546422665811331,0.0491154045042642,0.0431060845353328,0.0369241172077158,0.030862677301478,0.0251693133631102,0.020027744854338,0.0155510001809358,0.011784677039914,0.00871757382631101,0.00629637367385181,0.00444129191554871,0.00306030435906901,0.0020604956430138,0.00135595866697565,0.000872375715402595,0.000548851881915468,0.000337761305930648,0.000203363673100546,0.000119826024129822,6.9113342523701e-05,3.90366952280433e-05,2.16057962528128e-05,1.17377787740222e-05,6.27543728845897e-06,3.34991812238464e-06,1.75700256395493e-06,1.08823339030159e-06
"10",0.116224618732488,0.0731622497249631,0.0591265604347485,0.0605421454684939,0.062874852091402,0.0643457788856908,0.06484769478928,0.0641076101147296,0.0620214016617074,0.0586470065737584,0.0541561567091865,0.048808195791496,0.0429165977577905,0.0368099016293347,0.0307953081164457,0.0251304096072171,0.0200057454090441,0.0155388132155797,0.0117780600059941,0.00871405005359283,0.00629453169261602,0.00444034596602963,0.00305982674665025,0.00206025849051796,0.00135584303839648,0.000872320892582351,0.000548827829928746,0.0003377543232377,0.000203368867827322,0.000119844542925151,6.91499820617501e-05,3.9095679141829e-05,2.16988283331193e-05,1.18537093915521e-05,6.47030618645404e-06,3.46360070515505e-06,2.18873051618821e-06
"11",0.0942116984842121,0.0606187833625757,0.0508080411013148,0.0536075618427638,0.0573279167467206,0.0604127791777878,0.0626436487773069,0.0636757314226165,0.0633082099939826,0.0614930471597282,0.0583084305251239,0.0539448828189818,0.0486795811617985,0.0428401420917917,0.0367654703156316,0.0307700619934561,0.0251163851855697,0.0199981274961722,0.0155347654778059,0.0117759547180052,0.00871297713507816,0.00629399528918125,0.00444008261502683,0.0030596998178403,0.00206019888208495,0.00135581698524359,0.000872313142120871,0.000548833614598225,0.000337775232751443,0.000203413011278188,0.00011992447407251,6.92753028171707e-05,3.92897013049544e-05,2.19357568403915e-05,1.22459232466472e-05,6.69044399313558e-06,4.31281916657319e-06
"12",0.0747918959601413,0.0492430634110041,0.0428215064411692,0.0465401291063344,0.0512148006020883,0.0555254642221983,0.0591882316901961,0.0618124592575162,0.0631149000511534,0.0629412362723489,0.0612601674289598,0.0581644947581713,0.0538581063700642,0.0486285208980634,0.0428107961030648,0.0367490012654806,0.0307610422611101,0.025111565544067,0.0199956148424719,0.0155334869197622,0.011775319185044,0.00871266821815417,0.00629384840911464,0.00444001465977239,0.00305967035902733,0.00206018978255635,0.00135582236686721,0.000872335708831067,0.000548882703549692,0.000337870275690103,0.000203580604053467,0.000120183847880092,6.96709626062338e-05,3.97637814448055e-05,2.27085564827876e-05,1.26622041298657e-05,8.32496942114125e-06
"13",0.0581616383997601,0.0392194222185786,0.0353838978833693,0.039591811392496,0.0447985972402023,0.049923842504975,0.0546627212095306,0.0586101727903741,0.0614259544866301,0.062863979988678,0.062783143992382,0.0611630965890205,0.0581063407493745,0.053824108070906,0.0486091169183404,0.0427999934089128,0.0367431412727286,0.0307579473442012,0.0251099749539534,0.0199948194792822,0.0155330998709363,0.011775135906047,0.00871258411479285,0.00629381206952751,0.00444000260711079,0.00305967447611177,0.00206021200753928,0.00135587480344932,0.000872440359335057,0.000549079882501126,0.000338212996836093,0.000204105586707904,0.000120973538213946,7.05998722763049e-05,4.12542556830161e-05,2.34768490062644e-05,1.57399102206954e-05
"14",0.0443145860495162,0.0306260094113263,0.0286581821258383,0.0329903441380611,0.0383516270850281,0.0438936089153812,0.0493284715374688,0.0542685781597901,0.0583486670997297,0.0612572298841352,0.0627582189076771,0.0627184738752223,0.0611244884442213,0.0580838423665149,0.053811310571664,0.0486020204664663,0.0427961634547149,0.0367411320495005,0.0307569238608923,0.0251094691265436,0.0199945771692248,0.0155329877902761,0.0117750869113562,0.00871256647501703,0.00629381351937829,0.00444002351381744,0.00305972659218746,0.00206032313022208,0.00135609024445271,0.000872839790298612,0.00054976564012537,0.000339253002439262,0.000205648352315509,0.000122755596777452,7.34130675173853e-05,4.26371359770078e-05,2.91445389159343e-05
"15",0.0330890765490584,0.0234498985865735,0.0227468680839077,0.0269197243065343,0.0321256862368441,0.037730446786797,0.0434911494569624,0.0490650850982894,0.0540950187556,0.0582372501524328,0.0611876518049893,0.0627157789584395,0.0626931757618117,0.0611097604070521,0.0580754710508869,0.0538066730797298,0.0485995217701612,0.0427948562456896,0.03674046908656,0.0307565984785173,0.0251093151682533,0.0199945080692808,0.0155329609475437,0.0117750841416576,0.00871258500706874,0.00629386426905585,0.004440134475703,0.00305995438483285,0.00206075673496082,0.00135688256633492,0.000874183302018447,0.000551782354369557,0.00034220286730362,0.00020899487264984,0.000127950428224913,7.58382039172252e-05,5.2841549978612e-05
"16",0.0242188801961815,0.0176073571582855,0.0176927713667982,0.0215086830144013,0.026329176922138,0.0317080744182979,0.0374639507429183,0.0433187188037064,0.0489521925017579,0.0540228734864643,0.0581923339552983,0.0611602985252291,0.0626994813214681,0.0626836845577135,0.0611043615500781,0.0580724778372898,0.0538050596269621,0.0485986779713989,0.0427944290910871,0.0367402605934043,0.0307565016312487,0.0251092750018365,0.0199944993170151,0.0155329767096683,0.0117751329114326,0.0087126947775639,0.00629409260725097,0.00444059151503037,0.00306080981390679,0.0020622967076698,0.00135946010000805,0.000878011026455939,0.000557301645540212,0.000348352658156017,0.000218376852733074,0.000132088875877909,9.37942077179109e-05
"17",0.0173804784794831,0.012965930901844,0.0134858247557767,0.0168275461448567,0.021113372007779,0.0260541157087274,0.0315352132283309,0.0373534023017209,0.0432468115072725,0.0489064461703924,0.0539944776059013,0.0581750659956452,0.0611500115733,0.0626934860058431,0.0626802696388683,0.0611024653233356,0.0580714543478196,0.0538045241238435,0.0485984075020098,0.0427942987119865,0.0367402034675267,0.0307564851293797,0.0251092878913146,0.0199945471726582,0.0155330854712708,0.0117753612135096,0.00871315480681561,0.00629499245479253,0.00444224675346594,0.00306374297137548,0.00206713896888168,0.00136657006086113,0.000888113896678168,0.000568357021431333,0.00036491796761158,0.000225237769245806,0.000162954948435142
"18",0.0122325481148254,0.00936557245281535,0.0100739936563329,0.0128923766631907,0.0165680715645453,0.0209358306204737,0.025944276642356,0.0314658265911602,0.0373085823319595,0.0432184387323162,0.0488888948126914,0.0539838237654381,0.0581687221804391,0.0611463122869425,0.0626913762433872,0.0626790963735792,0.0611018313907719,0.0580711230603667,0.0538043584768313,0.0485983314466378,0.0427942733390517,0.0367402135713108,0.0307565339108652,0.0251093991035194,0.0199947774668723,0.0155335497181163,0.0117762713270225,0.00871489438351281,0.0062981342734497,0.00444772155985121,0.00307265006083874,0.00208006150846782,0.00138465719443326,0.000907547820502936,0.00059693879673839,0.000375944380149879,0.000277044178227067
"19",0.00844559609639227,0.00663682148202081,0.00737610080634018,0.00967431994474223,0.0127253056447616,0.0164557427659698,0.0208674551073439,0.0259016486769179,0.0314385031090021,0.03729138498683,0.043207846023117,0.0488824819397186,0.0539800098789388,0.0581664984370902,0.0611450432826372,0.0626906701468393,0.0626787154020981,0.0611016342695261,0.0580710289206622,0.0538043243922622,0.0485983395222687,0.0427943251845146,0.0367403321560093,0.0307567742091447,0.0251098739811813,0.0199957043068954,0.0155353189728337,0.0117795735857187,0.00872074410993874,0.00630814769012281,0.00446376171353669,0.00309562673283392,0.00211172226328306,0.0014180476258946,0.000955713074258374,0.00061406730360954,0.000460796254736198
"20",0.0057215332541723,0.00461490115428011,0.00529455639720501,0.00711171778672347,0.00956875488789672,0.0126556254910821,0.0164140384268012,0.0208418240676908,0.0258853625064929,0.0314283227205566,0.0372851486163973,0.0432040849091013,0.0488802503619883,0.0539787103649307,0.0581657575276208,0.061144632145463,0.0626904508863263,0.0626786073351899,0.061101593513484,0.058071036709411,0.0538043822272677,0.0485984708881291,0.0427945861378528,0.0367408346852514,0.0307577341002282,0.0251116922730957,0.0199990838534889,0.0155414738629728,0.0117902560859298,0.00873868802630237,0.0063364215219578,0.00450371636961964,0.00314979427995737,0.0021677660775962,0.0014972733715257,0.000981324852627175,0.000749592323374384
"21",0.003804277499022,0.00314939605599496,0.00372648715027298,0.00512273263277337,0.0070462390165197,0.00952636549558355,0.0126306983535753,0.0163989551675684,0.0208323344391995,0.025879478872919,0.0314247433792434,0.0372830014121395,0.0432028159301058,0.0488795138906135,0.0539782926416749,0.058165529238282,0.0611445171362761,0.0626904074100309,0.0626786179164863,0.0611016611686045,0.058071187439163,0.05380467541451,0.0485990228038141,0.0427956137931538,0.0367427395053541,0.0307612390833107,0.0251180335536326,0.0200103446243158,0.0155606034488755,0.0118217542528069,0.00878745844904983,0.00640434904277057,0.00459425552221777,0.00324162972049974,0.00229487467797063,0.00153391148086286,0.00119224238079707
"22",0.00248321958324402,0.00210981028311856,0.00257238246051771,0.00361674960293315,0.00508285048827501,0.00702094389018539,0.00951176164973068,0.0126220101422845,0.0163935497914737,0.0208290152599985,0.0258774770489014,0.0314235512853093,0.0372823016252132,0.0432024134488055,0.0488792904159247,0.0539781790242018,0.0581654882875303,0.0611445346942628,0.0626904898393397,0.0626787956494386,0.0611020001154111,0.0580718122375763,0.0538058137539516,0.0486010827186436,0.0427993245443692,0.036749375044701,0.0307729222250465,0.0251382500706827,0.0200439267452592,0.015614749335065,0.0119040518007161,0.00890032112934308,0.00655212200718802,0.00474106676712425,0.00344037394845899,0.00234453339474282,0.00185345969102296
"23",0.001591628446365,0.00138771268045831,0.00174197026437894,0.00250349551264108,0.00359288909203772,0.00506804080692163,0.00701255558409694,0.00950686208497896,0.0126189998932351,0.0163917221501056,0.0208279249515575,0.0258768347395498,0.0314231795193196,0.0372820941887474,0.0432023089307712,0.0488792573505299,0.0539782081131447,0.0581655909771281,0.0611447480461983,0.0626908892871896,0.0626795198140029,0.0611032949267393,0.058074109329025,0.0538098613803947,0.0486081752284396,0.0428116544984054,0.0367704987581769,0.0308085216306694,0.0251960218236489,0.0201350441497629,0.0157505512237483,0.0120872311730467,0.00913569651778639,0.00678089890485645,0.00504361509462643,0.00350308602329583,0.00281530690401004
"24",0.00100194905061215,0.000896359838714725,0.00115749744714016,0.00169945898945255,0.00248946996527161,0.00358438016833975,0.00506331572391041,0.00700984988010907,0.00950522287738283,0.0126180179768463,0.0163911450155553,0.020827591732015,0.0258766498468154,0.0314230893562275,0.0372820731578953,0.0432023533428652,0.0488793851747445,0.053978465237466,0.0581660658231164,0.0611455985392623,0.0626923896704867,0.0626821391910095,0.0611078304352052,0.0580819003569955,0.0538231509829617,0.0486306454577778,0.0428491105684315,0.0368319510861963,0.0309058681047546,0.025346058632054,0.0203540759420987,0.0160408085879475,0.0124528596449811,0.00948286803170325,0.00722878199909989,0.00511498987304293,0.0041766322915022
"25",0.000619601521206944,0.000568688347072756,0.000754877734410238,0.00113170324060458,0.00169135676215855,0.00248467150179303,0.00358176934406508,0.00506185233101826,0.00700897735244018,0.00950470930216366,0.012617723876014,0.0163909845269185,0.0208275178954269,0.0258766427499241,0.0314231510020545,0.0372822288756806,0.0432026597587689,0.0488799471173616,0.0539794658493374,0.058167817188609,0.0611486249972575,0.0626975620552497,0.0626908932596638,0.0611225053093398,0.0581062874896889,0.0538632763346675,0.0486957294486912,0.042953031617512,0.0369925227294418,0.0311474800094588,0.0256911592827453,0.0208028102042751,0.016594274822232,0.0129653142199087,0.0101267287664215,0.00729611362045315,0.00604933955595541
"26",0.000376459393600716,0.000354447292051055,0.000483291663245864,0.000739487466849493,0.00112710250560882,0.00168870044008937,0.00248325630745452,0.00358099452351071,0.00506139954008728,0.00700871872977993,0.0095045713348275,0.0126176655449554,0.0163909907238885,0.0208275960605017,0.0258768256987987,0.0314235071764642,0.0372828822119715,0.0432038239268392,0.0488819817746417,0.0539829668389577,0.0581737591849302,0.0611585829246813,0.0627140568337236,0.0627179066314544,0.0611662806518859,0.0581764218980763,0.0539739955096354,0.0488677548320241,0.0432121262929436,0.0373727838864727,0.0316782850623422,0.026367507681414,0.0216184952337277,0.0173290525298229,0.0138626082683853,0.0101633500342875,0.00855036339005999
"27",0.000224764567420973,0.00021706153451611,0.000303815802467079,0.000474260997170454,0.000736919082011271,0.00112565909604257,0.00168794831630089,0.00248285592124817,0.00358076832339882,0.00506128053479212,0.00700867314537263,0.00950458819408725,0.0126177568301658,0.0163911961439041,0.0208279956477534,0.0258775633821735,0.0314248303050118,0.0372852052473277,0.0432078286826472,0.0488887723251839,0.0539943054936719,0.0581924188970511,0.0611888741240504,0.0627625781720188,0.0627946602631574,0.0612861169546141,0.0583606197001283,0.0542524731537369,0.0492763830050805,0.0437965920832735,0.0381692092686839,0.032671307789608,0.0275367061220199,0.0226402557234628,0.0185387744910853,0.0138203846956325,0.0117885959837197
"28",0.000131884950060415,0.000130625278377139,0.000187570082737751,0.000298604207277526,0.000472851336448968,0.000736149665751981,0.00112526834573409,0.00168774915059206,0.00248275330983401,0.00358073214811264,0.00506130425595028,0.00700877222347197,0.00950480767390056,0.012618186556067,0.0163919982349363,0.0208294502131228,0.0258801413785901,0.0314293067574092,0.0372928316026858,0.0432205900749805,0.0489097647051795,0.0540282758347494,0.0582465351046125,0.0612737681925101,0.0628938163070683,0.06299452943478,0.061585406586721,0.0588009793309671,0.0548817693430919,0.0501529172075387,0.0449612607221633,0.0395880853038357,0.0342994289404424,0.0289120449607209,0.0242139382557917,0.0183390722107566,0.0158468301130204
"29",7.60609584558093e-05,7.72562820792572e-05,0.000113747763251219,0.000184612107120281,0.000297843892417787,0.000472450091023404,0.000735953729914369,0.00112517869918141,0.00168772001499892,0.00248278005100782,0.00358083295354213,0.00506152735263165,0.00700921388262462,0.00950564345318565,0.0126197232046346,0.0163947565358024,0.02083429332178,0.0258884688150277,0.0314433408569186,0.0373160304735126,0.0432582289739362,0.0489697313722012,0.054122144303793,0.0583909350393416,0.0614921946303534,0.0632186459203644,0.0634687471559418,0.0622647126740321,0.0597462197932007,0.0561631366066439,0.0518113192337503,0.0469322143069083,0.0417877909311204,0.0360874091230971,0.030880878114385,0.0237381356525483,0.0207601217292629
"30",4.31178215715986e-05,4.49097950499443e-05,6.77659895197603e-05,0.000112096960061292,0.000184210040727364,0.000297641463464554,0.000472360415586381,0.000735929318506201,0.00112520593011562,0.00168781751345435,0.00248299713127488,0.00358126813675193,0.00506236272785172,0.00701077224678598,0.00950848029142575,0.0126247701569222,0.0164035388441317,0.0208492504401639,0.0259134140272679,0.0314841007644818,0.0373813073490668,0.0433607211549664,0.0491275528598951,0.0543605004167271,0.0587441546857949,0.0620057038706154,0.0639501678863274,0.0644895085116531,0.063647743661849,0.0615700420288775,0.058460064551708,0.0544699979148162,0.0498116804775271,0.0440266774308575,0.0384462874707059,0.0299623276869472,0.0264935520265417
"31",2.40269617937545e-05,2.56612915115412e-05,3.96666402642751e-05,6.68610096209452e-05,0.000111890567902818,0.00018411601169127,0.00029761503813692,0.000472386802494428,0.000736021240609873,0.00112541131346505,0.00168823347697176,0.00248380525846577,0.00358279503406807,0.0050651786569284,0.00701584692196229,0.00951742152057227,0.0126401783448891,0.01642951725652,0.0208921154059395,0.0259826474762545,0.0315935765130719,0.0375507929524026,0.0436176382419417,0.0495088440701333,0.0549146109267889,0.0595324714629762,0.0631024941017252,0.0654419636332139,0.0664579210822401,0.0661721122831321,0.0646608249431831,0.0619384550769637,0.0581162793605963,0.0525029063327035,0.0467173190678272,0.0368664762752722,0.0329239174457565
"32",1.31615197275083e-05,1.4413808258791e-05,2.28162788930564e-05,3.91816452629505e-05,6.67632744006557e-05,0.000111861827633437,0.000184140651774908,0.000297704692183359,0.000472585005376191,0.000736422246034684,0.00112619291668195,0.00168971845987342,0.00248656345668646,0.00358780676443302,0.00507408847471836,0.00703134531459945,0.0095438002911169,0.0126841104303467,0.0165011093372673,0.0210062658183726,0.0261607071598636,0.0318652458413566,0.0379561296479475,0.0442088549177272,0.0503517565927881,0.0560887929179487,0.0611289288601524,0.065220087760934,0.0681634110855924,0.0698510291454905,0.0702073231122113,0.0690680493012227,0.0663962761083476,0.0612068854052378,0.0553983775084002,0.0442083613850824,0.0398297310360465
"33",7.08827063910062e-06,7.96029632348443e-06,1.290020162878e-05,2.25675467447342e-05,3.91509718974677e-05,6.67880626538272e-05,0.000111952125517303,0.000184339128117497,0.000298102277251021,0.000473355919422487,0.000737883838705446,0.0011289082350772,0.0016946626821819,0.00249538548018061,0.00360322771281675,0.0051004890080507,0.00707560075579628,0.0096164218382551,0.0128007349495349,0.0166843401756854,0.0212877950819179,0.0265835348695543,0.0324857027253065,0.0388451484161895,0.0454521591680819,0.0520477260151974,0.0583426733759082,0.0640450847922201,0.0688701786156722,0.0725862365698455,0.0749546969936638,0.0756056305559001,0.074316731246057,0.0697633768241063,0.0641019959384214,0.0516548634956072,0.0468946058398623
"34",3.7584261118412e-06,4.32914345463506e-06,7.18177124777821e-06,1.27996972159067e-05,2.26101371385243e-05,3.92749283647275e-05,6.70439211971806e-05,0.000112444788063721,0.000185262824170299,0.00029980456398556,0.000476443342254823,0.000743393695575189,0.00113857841134752,0.00171134334634942,0.00252364814975019,0.00365023639616502,0.00517719997979409,0.00719834436327489,0.00980888120239783,0.0130962605232872,0.017128417690082,0.0219403101279129,0.0275203172361518,0.0337985233620528,0.0406396487080905,0.0478422490305032,0.0551451588796355,0.0622442368907285,0.0687928131279511,0.074450749011794,0.0788202776787629,0.0813177265072926,0.0815163614273266,0.0777327422874635,0.072348061092741,0.0587797441591549,0.0537038231712019
"35",1.9713095069782e-06,2.33023829340536e-06,3.95830219221626e-06,7.18991762658852e-06,1.29376062726293e-05,2.28934402073016e-05,3.98163641245838e-05,6.80517037664481e-05,0.000114287642320705,0.000188579810521097,0.000305681319000864,0.000486688777772051,0.000760961983841738,0.00116819396633773,0.00176039733695263,0.00260343928455479,0.00377761879158749,0.00537666614408028,0.00750449854440012,0.0102691344821145,0.0137733988189945,0.0181024593487243,0.0233088722496648,0.0293963904213963,0.0363050051081357,0.043899111563255,0.0519609648426882,0.0601948772493863,0.0682153435664388,0.0755950819162166,0.0817941864575909,0.0860277021280187,0.0876676080853622,0.0846853666892319,0.0796458541993813,0.0651367951370524,0.0598156852529798
"36",1.07702431446476e-06,1.30682205016051e-06,2.27287456074089e-06,4.2079447089792e-06,7.71365412464534e-06,1.39054301759065e-05,2.46404242738783e-05,4.2915109101355e-05,7.34591339713315e-05,0.000123573269325895,0.000204269704178942,0.000331763732694045,0.000529336564287961,0.000829533417791038,0.00127657198731056,0.00192871086614415,0.002860170151679,0.00416202326134271,0.00594132069564903,0.00831760944664968,0.0114160373125851,0.0153564383518152,0.0202383012057617,0.026122102379187,0.0330089860608683,0.0408206023048658,0.0493819674442193,0.0584145809306915,0.0675130269723596,0.0761899958705091,0.0837985223206626,0.089395713111174,0.0921906561118144,0.089878946803061,0.0851553712344301,0.0699647274454449,0.0644776426262089
"37",6.46495184370706e-07,8.03945866971217e-07,1.42924391606115e-06,2.69350264131904e-06,5.02343231561699e-06,9.21283855891748e-06,1.66085861511657e-05,2.9430344305898e-05,5.12589303880611e-05,8.77475523860048e-05,0.000147624212283403,0.000244055414859475,0.000396427871396602,0.000632568113060072,0.000991349543919954,0.00152552345277705,0.0023044503266833,0.00341620524836395,0.0049683060826947,0.00708610604040586,0.00990776969914628,0.0135747952713628,0.0182174196040496,0.0239347730519712,0.0307712969055113,0.0386910243671897,0.0475529355841225,0.0570957891595001,0.066905770281017,0.0764582460177033,0.0850342543052245,0.0915811450612009,0.0951921771757701,0.093368133588607,0.0888871242868091,0.0732496934139713,0.0676601810486774
