"","V1","V2","V3","V4","V5","V6","V7","V8","V9","V10","V11","V12","V13","V14","V15","V16","V17","V18","V19","V20","V21","V22","V23","V24","V25","V26","V27","V28","V29","V30","V31","V32","V33","V34","V35","V36","V37","V38","V39","V40"
"1",0.0714285714285714,0,0,0.0714285714285714,0.285714285714286,0,0,0,0,0,0.0714285714285714,0,0,0,0,0,0,0,0.0714285714285714,0,0,0.142857142857143,0,0,0,0.142857142857143,0.0714285714285714,0,0.0714285714285714,0,0,0,0,0,0,0,0,0,0,0
"2",0,0.0476190476190476,0,0,0.0952380952380952,0,0,0,0,0,0.333333333333333,0,0.238095238095238,0,0,0,0,0,0.0952380952380952,0,0,0,0,0,0.0476190476190476,0,0,0.0476190476190476,0,0,0.0952380952380952,0,0,0,0,0,0,0,0,0
"3",0,0,0,0,0,0,0,0,0,0,0,0.5,0,0,0,0,0,0,0,0,0,0,0,0,0,0,0,0,0,0,0,0,0,0,0.5,0,0,0,0,0
"4",0,0,0,0.2,0,0,0,0.2,0,0,0.2,0,0,0,0,0,0,0,0,0.4,0,0,0,0,0,0,0,0,0,0,0,0,0,0,0,0,0,0,0,0
"5",0,0,0,0,0.0555555555555556,0,0.0555555555555556,0,0,0.0555555555555556,0.0555555555555556,0,0,0.166666666666667,0.333333333333333,0,0,0,0,0,0.0555555555555556,0,0,0.0555555555555556,0,0.0555555555555556,0.0555555555555556,0,0,0,0,0,0.0555555555555556,0,0,0,0,0,0,0
"6",0,0,0,0,0,0.2,0.1,0,0,0,0.2,0,0,0,0.2,0,0,0,0,0.2,0,0,0,0,0,0.1,0,0,0,0,0,0,0,0,0,0,0,0,0,0
"7",0,0,0,0,0,0,0,0.333333333333333,0,0,0.166666666666667,0,0,0,0,0,0,0,0.166666666666667,0,0,0,0,0,0.166666666666667,0,0,0,0,0,0,0,0,0,0,0,0,0,0.166666666666667,0
"8",0.0526315789473684,0.0526315789473684,0,0.0526315789473684,0,0,0,0.0526315789473684,0,0,0.210526315789474,0.0526315789473684,0,0.105263157894737,0.0526315789473684,0,0,0,0.157894736842105,0.0526315789473684,0,0,0,0.0526315789473684,0,0,0,0,0,0,0,0,0,0.0526315789473684,0,0,0,0,0.0526315789473684,0
"9",0,0,0,0.0384615384615385,0,0,0,0.0384615384615385,0,0,0.153846153846154,0.0384615384615385,0,0.0384615384615385,0.0769230769230769,0,0,0,0.0769230769230769,0.115384615384615,0,0,0.0384615384615385,0,0.0384615384615385,0.0384615384615385,0,0.0384615384615385,0,0,0,0,0.0384615384615385,0.0384615384615385,0.153846153846154,0,0,0,0,0.0384615384615385
"10",0,0,0,0,0.1,0,0,0,0,0,0.1,0.1,0,0,0.3,0,0,0.1,0,0,0.2,0,0,0,0,0.1,0,0,0,0,0,0,0,0,0,0,0,0,0,0
"11",0.0571428571428571,0,0.0285714285714286,0,0.0857142857142857,0.0285714285714286,0.0285714285714286,0.0857142857142857,0.2,0,0.0571428571428571,0.0857142857142857,0,0,0,0.114285714285714,0,0.0285714285714286,0,0.0285714285714286,0,0,0,0.0285714285714286,0.0285714285714286,0,0,0,0,0,0,0,0,0,0,0.0285714285714286,0,0.0571428571428571,0.0285714285714286,0
"12",0.0769230769230769,0,0,0,0.0769230769230769,0.230769230769231,0,0,0,0,0.153846153846154,0,0,0,0,0,0,0.153846153846154,0,0.0769230769230769,0,0,0,0.0769230769230769,0,0,0,0,0,0,0,0.0769230769230769,0,0.0769230769230769,0,0,0,0,0,0
"13",0,0,0,0,0,0,0,0,0,0,0,0,0,0,0,0,0,0.5,0,0,0,0,0,0,0,0,0,0,0,0,0,0,0,0,0,0,0,0.25,0.25,0
"14",0,0,0,0,0,0.0454545454545455,0,0.272727272727273,0.0454545454545455,0.0909090909090909,0,0.0454545454545455,0,0,0,0,0.0454545454545455,0,0,0.318181818181818,0,0,0,0,0,0,0,0.0909090909090909,0.0454545454545455,0,0,0,0,0,0,0,0,0,0,0
"15",0,0,0,0,0,0,0,0.1,0.1,0,0,0,0,0,0,0.1,0,0,0,0.2,0,0,0,0,0.1,0,0,0,0.2,0,0,0,0.1,0,0,0,0,0,0.1,0
"16",0,0.0869565217391304,0,0,0,0,0,0,0.0434782608695652,0,0.130434782608696,0,0.130434782608696,0.0434782608695652,0.0434782608695652,0,0,0,0.0869565217391304,0.0434782608695652,0,0,0,0.0869565217391304,0,0.0869565217391304,0,0,0,0,0.0869565217391304,0.0434782608695652,0,0,0,0,0.0434782608695652,0.0434782608695652,0,0
"17",0.222222222222222,0,0,0,0,0,0.111111111111111,0,0,0,0,0,0.111111111111111,0.222222222222222,0.111111111111111,0,0,0,0,0,0,0.111111111111111,0,0,0,0,0,0,0,0,0,0,0,0.111111111111111,0,0,0,0,0,0
"18",0,0.0769230769230769,0,0,0,0,0,0.0769230769230769,0,0,0.230769230769231,0,0.230769230769231,0.153846153846154,0,0.0769230769230769,0,0.0769230769230769,0,0,0,0,0,0,0,0,0,0,0,0,0,0,0,0,0,0,0,0,0.0769230769230769,0
"19",0,0,0,0,0,0,0,0.111111111111111,0,0,0.111111111111111,0,0,0,0.111111111111111,0.111111111111111,0,0,0.333333333333333,0.111111111111111,0,0,0,0.111111111111111,0,0,0,0,0,0,0,0,0,0,0,0,0,0,0,0
"20",0.025,0,0.025,0,0.025,0,0.05,0,0,0,0.15,0.025,0.075,0.3,0.175,0,0.05,0,0.025,0.025,0,0,0,0,0,0,0,0,0,0,0,0.025,0,0,0,0,0,0,0.025,0
"21",0,0,0,0,0,0,0,0,0,0,0,0.25,0,0,0,0,0,0,0,0,0,0,0,0,0,0,0,0,0,0.75,0,0,0,0,0,0,0,0,0,0
"22",0,0,0,0,0.0625,0,0,0,0.0625,0,0.125,0,0.0625,0,0.0625,0,0,0.125,0,0.1875,0,0,0,0.0625,0.0625,0,0,0.0625,0.0625,0.0625,0,0,0,0,0,0,0,0,0,0
"23",0,0,0,0,0,0.2,0,0,0,0,0,0,0.2,0,0,0,0,0,0.2,0,0,0,0,0,0,0,0,0,0,0,0,0.4,0,0,0,0,0,0,0,0
"24",0,0,0,0,0,0,0,0,0.117647058823529,0,0.117647058823529,0,0,0.117647058823529,0,0,0,0,0,0.0588235294117647,0,0,0,0.0588235294117647,0.0588235294117647,0.117647058823529,0.0588235294117647,0,0.235294117647059,0,0,0,0,0,0,0,0,0,0.0588235294117647,0
"25",0.185185185185185,0,0.037037037037037,0,0,0,0,0.185185185185185,0,0,0.0740740740740741,0,0,0.037037037037037,0.037037037037037,0.037037037037037,0,0,0,0,0,0.037037037037037,0,0.037037037037037,0.037037037037037,0.037037037037037,0.037037037037037,0,0.0740740740740741,0,0.0740740740740741,0,0,0,0,0,0.037037037037037,0,0.037037037037037,0
"26",0,0,0,0,0.0555555555555556,0,0,0.0555555555555556,0.0555555555555556,0.0555555555555556,0.0555555555555556,0,0,0,0,0,0,0.0555555555555556,0.111111111111111,0.111111111111111,0,0.0555555555555556,0,0,0.0555555555555556,0.0555555555555556,0,0.0555555555555556,0.0555555555555556,0,0,0.0555555555555556,0,0,0.0555555555555556,0.0555555555555556,0,0,0,0
"27",0,0,0,0,0,0,0,0.4,0,0,0,0,0,0,0,0,0,0,0,0,0,0,0,0,0.2,0,0,0.2,0,0,0,0,0,0,0.2,0,0,0,0,0
"28",0,0,0,0,0,0,0,0,0.153846153846154,0,0,0,0.0769230769230769,0.153846153846154,0,0,0,0,0,0.0769230769230769,0,0,0,0.0769230769230769,0,0,0,0.153846153846154,0.0769230769230769,0.0769230769230769,0,0,0,0,0,0.153846153846154,0,0,0,0
"29",0,0,0,0.0434782608695652,0.0869565217391304,0,0,0,0,0,0.0434782608695652,0,0,0.130434782608696,0.304347826086957,0,0,0.0434782608695652,0,0,0,0,0,0,0.0869565217391304,0.173913043478261,0,0,0,0,0,0,0.0869565217391304,0,0,0,0,0,0,0
"30",0,0,0,0,0,0,0,0,0,0,0.5,0,0,0,0,0,0,0,0,0,0,0,0,0.5,0,0,0,0,0,0,0,0,0,0,0,0,0,0,0,0
"31",0,0,0.25,0,0,0,0,0.25,0,0,0,0.25,0,0,0,0,0,0,0,0,0,0,0,0,0,0,0,0,0,0,0,0,0,0.25,0,0,0,0,0,0
"32",0,0,0,0,0,0.1875,0,0,0.0625,0,0,0,0.0625,0,0,0,0,0,0,0,0,0.0625,0,0.0625,0.0625,0,0.0625,0,0.0625,0,0,0.25,0,0,0,0.0625,0.0625,0,0,0
"33",0.111111111111111,0,0.111111111111111,0,0,0,0.111111111111111,0,0.111111111111111,0,0,0,0,0,0,0,0.111111111111111,0,0,0,0,0,0,0.111111111111111,0,0,0.111111111111111,0,0,0,0.111111111111111,0.111111111111111,0,0,0,0,0,0,0,0
"34",0,0,0,0,0,0,0,0.111111111111111,0,0,0,0,0.111111111111111,0,0,0,0,0,0,0,0.222222222222222,0,0,0,0,0,0,0,0.111111111111111,0.111111111111111,0,0,0,0.222222222222222,0,0,0.111111111111111,0,0,0
"35",0,0,0,0,0,0.166666666666667,0,0,0.166666666666667,0,0,0,0,0,0,0,0,0,0,0.166666666666667,0,0,0,0,0,0,0,0,0,0.166666666666667,0,0,0,0,0.166666666666667,0,0,0,0.166666666666667,0
"36",0,0,0,0,0,0,0.2,0.1,0,0,0,0,0,0,0,0,0,0,0.1,0.2,0,0,0,0,0,0,0,0,0,0.1,0,0,0,0,0,0.3,0,0,0,0
"37",0,0,0,0,0,0,0,0,0,0,0.0714285714285714,0,0,0.642857142857143,0.0714285714285714,0,0,0,0,0,0.0714285714285714,0,0,0,0,0.0714285714285714,0,0,0,0,0,0,0,0,0,0,0.0714285714285714,0,0,0
"38",0,0,0,0,0,0,0,0,0,0,0.2,0,0,0,0,0,0,0,0.2,0,0,0,0,0,0,0.4,0,0,0,0,0,0,0,0,0,0,0,0.2,0,0
"39",0,0,0.222222222222222,0,0,0,0,0,0.111111111111111,0.111111111111111,0.111111111111111,0,0,0,0,0,0,0,0,0,0,0,0,0,0,0,0,0.111111111111111,0,0,0,0,0,0,0.111111111111111,0,0,0.222222222222222,0,0
"40",0,0.333333333333333,0,0,0,0,0,0,0,0,0,0,0,0,0,0.333333333333333,0,0,0,0,0,0,0,0,0,0,0,0,0,0.333333333333333,0,0,0,0,0,0,0,0,0,0
