"","V1","V2","V3","V4","V5","V6","V7","V8","V9","V10","V11","V12","V13","V14","V15","V16","V17","V18","V19","V20","V21","V22","V23","V24","V25","V26","V27","V28","V29","V30","V31","V32","V33","V34","V35","V36","V37","V38","V39","V40"
"1",0,0,0,0,0,0,0,0,0,0,0,0,0,0.5,0,0,0,0,0,0,0,0.5,0,0,0,0,0,0,0,0,0,0,0,0,0,0,0,0,0,0
"2",0,0,0,0,0,0,0,0,0,0,0,0,0,0,0,0,0,0,0,0,0,0,0,0,0,0,0,0,0,0,0,0,0,0,0,0,0,0,0,0
"3",0,0,0,0,0,0,0,0.5,0,0,0,0,0,0.5,0,0,0,0,0,0,0,0,0,0,0,0,0,0,0,0,0,0,0,0,0,0,0,0,0,0
"4",0,0,0,0.4,0,0,0,0,0,0,0,0,0,0,0,0,0,0,0,0,0,0,0.2,0,0.2,0,0,0.2,0,0,0,0,0,0,0,0,0,0,0,0
"5",0,0,0,0,0,0,0,0,0,0,0.4,0,0,0.2,0.2,0,0,0,0,0,0,0,0,0,0,0,0,0.2,0,0,0,0,0,0,0,0,0,0,0,0
"6",0,0,0,0,0,0.142857142857143,0,0.142857142857143,0.142857142857143,0.142857142857143,0.285714285714286,0,0,0,0,0,0,0,0,0.142857142857143,0,0,0,0,0,0,0,0,0,0,0,0,0,0,0,0,0,0,0,0
"7",0.0625,0,0,0,0,0,0.0625,0.0625,0,0,0.4375,0,0,0.125,0.0625,0,0,0,0,0.125,0,0,0,0,0,0,0,0,0,0,0,0,0,0.0625,0,0,0,0,0,0
"8",0,0,0,0,0.111111111111111,0,0,0.222222222222222,0,0,0.111111111111111,0,0,0.222222222222222,0,0,0,0.111111111111111,0,0,0,0,0,0,0,0,0,0,0,0,0.111111111111111,0,0,0,0,0,0,0.111111111111111,0,0
"9",0,0,0,0,0,0,0,0.0238095238095238,0.0476190476190476,0,0.404761904761905,0,0.0476190476190476,0.214285714285714,0,0,0,0,0,0.0714285714285714,0.0476190476190476,0.0238095238095238,0,0,0.0238095238095238,0.0238095238095238,0,0,0,0,0.0238095238095238,0,0,0.0238095238095238,0,0,0,0,0.0238095238095238,0
"10",0,0.111111111111111,0,0,0,0,0,0.111111111111111,0,0,0.222222222222222,0,0,0.333333333333333,0.111111111111111,0,0,0,0,0.111111111111111,0,0,0,0,0,0,0,0,0,0,0,0,0,0,0,0,0,0,0,0
"11",0,0.0526315789473684,0,0,0,0.0263157894736842,0,0.0263157894736842,0.0789473684210526,0,0.0526315789473684,0.105263157894737,0,0,0,0.0789473684210526,0,0,0.0526315789473684,0.210526315789474,0,0.0526315789473684,0,0.0263157894736842,0.0263157894736842,0,0,0,0.0263157894736842,0,0,0,0,0,0,0,0,0.0526315789473684,0.131578947368421,0
"12",0,0,0,0.142857142857143,0,0,0,0,0,0,0,0,0.142857142857143,0,0,0.142857142857143,0,0,0,0.142857142857143,0,0,0,0,0,0,0,0.142857142857143,0,0,0,0.142857142857143,0,0.142857142857143,0,0,0,0,0,0
"13",0.1,0,0,0,0,0.1,0,0,0,0,0,0.2,0,0,0,0.1,0,0.1,0,0.2,0,0,0,0,0,0,0,0,0,0,0,0,0,0,0,0,0,0.1,0.1,0
"14",0,0,0,0,0.05,0,0,0.1,0,0.2,0,0.1,0,0,0,0.05,0,0.05,0.05,0.1,0,0.1,0,0,0.05,0,0,0,0,0,0,0,0,0.1,0,0,0,0,0.05,0
"15",0,0,0,0,0,0,0,0,0.0909090909090909,0.0909090909090909,0,0,0,0,0,0.181818181818182,0,0.0909090909090909,0,0.0909090909090909,0,0,0,0,0.0909090909090909,0.0909090909090909,0,0,0.181818181818182,0,0,0,0.0909090909090909,0,0,0,0,0,0,0
"16",0,0,0,0,0,0.0714285714285714,0,0,0,0,0.0714285714285714,0.0714285714285714,0.285714285714286,0.0714285714285714,0.214285714285714,0,0,0,0.0714285714285714,0.0714285714285714,0,0,0,0.0714285714285714,0,0,0,0,0,0,0,0,0,0,0,0,0,0,0,0
"17",0,0,0,0,0,0,0,0,0,0,0.166666666666667,0,0.5,0,0,0,0,0,0,0.166666666666667,0,0,0,0,0,0,0,0,0.166666666666667,0,0,0,0,0,0,0,0,0,0,0
"18",0,0,0,0,0,0,0,0.166666666666667,0,0,0.166666666666667,0,0,0.166666666666667,0,0,0,0.166666666666667,0,0,0,0,0,0,0,0.166666666666667,0,0,0,0,0,0,0,0,0,0,0,0,0.166666666666667,0
"19",0,0,0,0,0,0,0,0.2,0.1,0,0.3,0.2,0,0,0,0,0,0,0,0.1,0,0,0,0,0,0,0,0,0,0,0.1,0,0,0,0,0,0,0,0,0
"20",0,0,0,0,0,0,0,0,0.0476190476190476,0,0.19047619047619,0,0,0.523809523809524,0,0,0,0.0476190476190476,0,0,0.0476190476190476,0,0,0,0.0476190476190476,0,0,0,0,0,0,0.0476190476190476,0,0,0,0,0.0476190476190476,0,0,0
"21",0,0,0,0,0,0,0,0,0,0,0,0,0,0,0,0,0,0,0,0,0,0,0,0,0,0,0,0,1,0,0,0,0,0,0,0,0,0,0,0
"22",0,0,0,0,0,0,0,0,0,0,0.5,0.125,0,0,0,0,0,0,0,0.25,0,0,0.125,0,0,0,0,0,0,0,0,0,0,0,0,0,0,0,0,0
"23",0,0,0,0,0,0,0,0,0,0,0.25,0.25,0,0,0,0,0.25,0,0,0,0,0,0,0,0,0,0,0,0.25,0,0,0,0,0,0,0,0,0,0,0
"24",0,0,0,0,0,0,0,0,0.5,0,0,0,0,0,0,0,0,0,0,0,0,0,0,0.5,0,0,0,0,0,0,0,0,0,0,0,0,0,0,0,0
"25",0,0,0,0,0,0,0,0,0,0,0,0,0,0,0,0,0,0,0,0.2,0,0,0,0,0,0.2,0,0,0,0,0.4,0,0,0,0,0,0,0,0.2,0
"26",0,0,0,0,0,0,0,0,0.111111111111111,0.222222222222222,0.111111111111111,0,0,0,0,0,0,0,0,0.333333333333333,0,0.111111111111111,0,0,0,0,0,0,0.111111111111111,0,0,0,0,0,0,0,0,0,0,0
"27",0,0,0,0,0,0,0,0,0,0,0,0.4,0,0,0,0,0.4,0,0,0,0,0,0,0,0,0,0,0,0.2,0,0,0,0,0,0,0,0,0,0,0
"28",0,0,0,0,0,0,0,0,0,0,0,0,0,0,0,0,0,0,0,0,0,0,0,0,0,0.5,0,0,0,0,0,0,0,0,0.5,0,0,0,0,0
"29",0,0,0,0,0,0,0,0,0,0,0.3,0,0,0.3,0.1,0,0,0,0,0,0,0.1,0.1,0,0,0,0,0,0,0,0,0,0.1,0,0,0,0,0,0,0
"30",0,0,0,0,0,0,0,0,0,0,0,0,0,0,0,0,0,0,0,0,0,0,0,0,0,0,0,0,0,0,0,0,0,0,1,0,0,0,0,0
"31",0,0,0,0,0,0,0,0.2,0.2,0,0,0,0,0,0,0,0.4,0,0,0,0,0,0,0,0,0.2,0,0,0,0,0,0,0,0,0,0,0,0,0,0
"32",0,0,0,0,0,0,0,0,0,0,0.333333333333333,0,0.333333333333333,0,0,0,0,0,0,0.333333333333333,0,0,0,0,0,0,0,0,0,0,0,0,0,0,0,0,0,0,0,0
"33",0,0,0,0,0,0,0,0,0,0,0,0,0,0,0,0,0,0,0,0.666666666666667,0,0,0,0,0,0,0,0,0,0,0,0,0.333333333333333,0,0,0,0,0,0,0
"34",0,0,0,0,0,0,0,0,0,0,0,0,0,0,0,0.333333333333333,0,0,0,0,0,0,0,0,0,0,0,0,0,0,0,0.333333333333333,0,0.333333333333333,0,0,0,0,0,0
"35",0,0,0,0,0.166666666666667,0,0,0,0,0,0.166666666666667,0,0,0,0,0,0,0,0,0,0,0,0,0,0,0,0,0.166666666666667,0,0.166666666666667,0,0,0.166666666666667,0,0,0,0,0,0.166666666666667,0
"36",0,0.25,0,0,0,0,0,0,0,0,0,0,0,0,0.25,0,0,0,0,0,0,0,0,0,0,0,0,0,0,0,0,0,0,0.25,0,0.25,0,0,0,0
"37",0,0,0,0,0,0,0,0,0.25,0,0,0,0,0.25,0.25,0,0,0,0,0,0,0,0,0,0,0,0,0,0,0,0,0,0,0,0,0,0.25,0,0,0
"38",0,0,0,0,0,0,0,0,0,0,0,0,0,0,0,0,0,0,0,0,0,0,0,0,0,0,0,0,0,0,0,0,0,0,0,0,0,0,1,0
"39",0,0,0,0,0,0,0,0,0,0.142857142857143,0,0,0,0,0,0,0,0,0.142857142857143,0.428571428571429,0,0,0,0,0.142857142857143,0,0,0.142857142857143,0,0,0,0,0,0,0,0,0,0,0,0
"40",0,0,0,0,0,0,0,0,1,0,0,0,0,0,0,0,0,0,0,0,0,0,0,0,0,0,0,0,0,0,0,0,0,0,0,0,0,0,0,0
