"","V1","V2","V3","V4","V5","V6","V7","V8","V9","V10","V11","V12","V13","V14","V15","V16","V17","V18","V19","V20","V21","V22","V23","V24","V25","V26","V27","V28","V29","V30","V31","V32","V33","V34","V35","V36","V37","V38","V39","V40"
"1",0,0,0,0,0.125,0,0,0,0,0,0.25,0,0,0,0,0.125,0,0,0,0,0,0.25,0,0,0,0,0,0.125,0,0,0,0,0,0,0,0,0,0,0,0.125
"2",0,0.2,0,0,0,0,0,0,0,0.2,0.2,0,0,0,0,0,0,0,0,0,0,0.2,0,0,0,0,0,0,0,0,0,0,0,0,0,0,0,0,0.2,0
"3",0,0,0.333333333333333,0,0,0,0,0.166666666666667,0,0,0.166666666666667,0,0,0,0,0,0,0,0.166666666666667,0,0,0,0,0,0,0,0,0,0,0,0,0,0,0,0.166666666666667,0,0,0,0,0
"4",0,0,0,0.111111111111111,0,0,0,0,0.111111111111111,0,0.222222222222222,0,0,0,0,0,0,0,0,0,0,0,0,0,0.222222222222222,0,0,0.222222222222222,0.111111111111111,0,0,0,0,0,0,0,0,0,0,0
"5",0,0.2,0,0,0.6,0,0.2,0,0,0,0,0,0,0,0,0,0,0,0,0,0,0,0,0,0,0,0,0,0,0,0,0,0,0,0,0,0,0,0,0
"6",0,0,0,0,0,0,0,0,0,0,0.571428571428571,0.0714285714285714,0,0.0714285714285714,0,0,0,0,0.0714285714285714,0.142857142857143,0,0.0714285714285714,0,0,0,0,0,0,0,0,0,0,0,0,0,0,0,0,0,0
"7",0,0.05,0,0,0,0,0.1,0,0,0,0.05,0.25,0,0,0,0.1,0,0,0,0,0,0,0,0.2,0,0,0,0,0,0,0,0,0,0,0,0.05,0,0,0.1,0.1
"8",0,0,0,0,0,0,0.0606060606060606,0,0,0,0.0606060606060606,0,0.121212121212121,0.0606060606060606,0.0303030303030303,0,0,0,0,0.0303030303030303,0.0303030303030303,0,0,0.0606060606060606,0,0.0909090909090909,0,0,0.0606060606060606,0,0,0,0.121212121212121,0.0303030303030303,0.151515151515152,0,0,0.0303030303030303,0.0303030303030303,0.0303030303030303
"9",0,0,0,0,0,0,0.0357142857142857,0,0.0357142857142857,0,0,0,0.285714285714286,0,0,0,0,0,0,0,0,0,0,0,0,0,0,0,0.142857142857143,0,0.0714285714285714,0,0,0,0.357142857142857,0.0714285714285714,0,0,0,0
"10",0,0,0,0,0,0,0,0,0.0526315789473684,0,0.0526315789473684,0,0,0.157894736842105,0,0,0,0,0,0,0,0.0526315789473684,0,0,0,0.0526315789473684,0,0,0,0,0,0.105263157894737,0,0.210526315789474,0.105263157894737,0,0.210526315789474,0,0,0
"11",0.0703125,0.078125,0.0234375,0.046875,0.015625,0.0234375,0.015625,0,0.09375,0,0,0.2265625,0,0,0,0.015625,0.0078125,0.0078125,0,0.0703125,0,0.0234375,0.0078125,0.015625,0.0078125,0,0.0078125,0,0,0,0.09375,0,0,0,0.0078125,0.0078125,0.0546875,0.078125,0,0
"12",0,0.0888888888888889,0,0.0222222222222222,0.0222222222222222,0.0666666666666667,0,0,0.0222222222222222,0,0.377777777777778,0,0.0222222222222222,0.0444444444444444,0,0,0,0.0222222222222222,0.0444444444444444,0.155555555555556,0,0,0,0,0.0444444444444444,0,0,0,0,0,0,0.0222222222222222,0.0222222222222222,0,0,0,0,0,0.0222222222222222,0
"13",0,0.0363636363636364,0,0,0,0.0363636363636364,0,0,0.0909090909090909,0,0,0.436363636363636,0.0181818181818182,0,0,0.0363636363636364,0.0181818181818182,0.0363636363636364,0,0.0363636363636364,0,0.109090909090909,0.0545454545454545,0,0.0181818181818182,0,0,0,0,0,0,0,0,0.0181818181818182,0,0,0,0.0181818181818182,0.0363636363636364,0
"14",0,0.0392156862745098,0,0,0.0196078431372549,0,0,0.0588235294117647,0,0.0980392156862745,0,0.0490196078431373,0,0.00980392156862745,0,0.00980392156862745,0,0,0,0.372549019607843,0,0.0196078431372549,0.00980392156862745,0,0,0,0,0,0.166666666666667,0,0,0,0,0,0,0,0.107843137254902,0,0.0392156862745098,0
"15",0,0.0721649484536082,0.0103092783505155,0.0206185567010309,0.0515463917525773,0.0103092783505155,0,0.0412371134020619,0.0309278350515464,0.0721649484536082,0,0.0412371134020619,0,0,0,0.0103092783505155,0,0,0,0.268041237113402,0,0,0.0103092783505155,0,0,0,0,0,0.216494845360825,0,0,0,0,0,0,0,0.103092783505155,0,0.0412371134020619,0
"16",0,0,0,0,0,0,0,0,0,0,0.181818181818182,0,0,0.0909090909090909,0,0,0,0,0.181818181818182,0,0,0,0,0,0.272727272727273,0.181818181818182,0,0,0,0,0,0,0,0,0.0909090909090909,0,0,0,0,0
"17",0,0,0,0,0,0,0,0.333333333333333,0,0,0,0,0,0,0,0,0,0,0,0,0,0,0,0,0,0,0,0,0.666666666666667,0,0,0,0,0,0,0,0,0,0,0
"18",0,0,0,0,0,0,0,0,0,0,0,0.111111111111111,0,0,0,0,0,0.111111111111111,0,0.111111111111111,0,0,0,0,0,0,0,0,0,0,0,0.111111111111111,0,0.111111111111111,0.111111111111111,0.222222222222222,0.111111111111111,0,0,0
"19",0,0,0.04,0,0,0,0,0,0.04,0.2,0,0.24,0.04,0,0.04,0,0,0.04,0.08,0.08,0,0.04,0,0,0,0,0,0,0.04,0,0.04,0,0,0,0,0,0,0,0.08,0
"20",0,0.0555555555555556,0,0,0,0.0555555555555556,0,0,0.111111111111111,0,0.166666666666667,0.0555555555555556,0,0.111111111111111,0,0,0,0.0555555555555556,0,0,0,0,0.166666666666667,0,0,0,0,0,0,0,0.111111111111111,0,0.0555555555555556,0.0555555555555556,0,0,0,0,0,0
"21",0,0,0,0,0,0,0,0,0,0,0,0.1,0,0,0,0,0,0,0,0,0,0,0,0,0,0,0,0,0.8,0,0,0,0,0,0,0,0.1,0,0,0
"22",0.2,0,0,0,0,0,0,0,0.2,0,0.0666666666666667,0,0,0,0,0,0.0666666666666667,0.0666666666666667,0,0,0,0.0666666666666667,0,0,0.0666666666666667,0,0.133333333333333,0,0,0,0,0,0,0,0,0,0.133333333333333,0,0,0
"23",0,0,0,0,0,0,0,0,0,0.666666666666667,0,0,0,0,0,0,0,0,0,0,0,0,0,0,0,0,0,0,0,0,0,0,0,0,0.333333333333333,0,0,0,0,0
"24",0,0,0,0,0.3,0,0,0,0,0,0,0,0,0,0,0,0,0,0,0,0,0,0,0.1,0,0,0,0,0,0.6,0,0,0,0,0,0,0,0,0,0
"25",0,0,0,0,0,0,0,0,0.263157894736842,0,0,0.368421052631579,0,0.105263157894737,0,0,0,0,0,0,0,0,0.0526315789473684,0,0,0,0,0,0,0,0,0.157894736842105,0,0,0.0526315789473684,0,0,0,0,0
"26",0,0,0,0,0,0,0,0,0.0454545454545455,0,0,0,0,0,0,0,0,0,0,0,0,0.0454545454545455,0.136363636363636,0.0909090909090909,0.136363636363636,0.227272727272727,0,0,0.0909090909090909,0,0.0454545454545455,0,0.0454545454545455,0,0,0.0909090909090909,0.0454545454545455,0,0,0
"27",0,0,0,0,0,0,0,0,0,0,0,0,0,0,0,0,0,0,0,0.0833333333333333,0,0,0,0,0.166666666666667,0.0833333333333333,0,0,0.5,0,0,0,0,0,0,0,0.166666666666667,0,0,0
"28",0,0,0,0,0.1,0,0,0,0,0,0.4,0,0,0.1,0,0,0,0,0,0,0,0,0,0,0,0,0,0.1,0.2,0,0,0,0,0,0,0,0.1,0,0,0
"29",0,0.222222222222222,0.111111111111111,0,0,0,0,0,0,0,0,0,0,0,0,0,0,0,0,0,0,0.111111111111111,0.111111111111111,0.222222222222222,0.111111111111111,0,0.111111111111111,0,0,0,0,0,0,0,0,0,0,0,0,0
"30",0,0,0.166666666666667,0,0,0,0,0,0,0,0,0,0,0,0,0,0.333333333333333,0,0.166666666666667,0,0,0,0,0,0,0,0,0,0,0.166666666666667,0.166666666666667,0,0,0,0,0,0,0,0,0
"31",0,0.4,0,0,0,0,0,0,0,0,0,0.1,0,0.1,0,0,0,0,0,0,0,0,0.1,0,0.2,0,0,0,0,0,0,0,0,0,0,0,0,0,0.1,0
"32",0,0,0,0,0,0,0,0,0.0909090909090909,0,0,0,0.181818181818182,0,0,0,0,0.0909090909090909,0,0.181818181818182,0,0,0,0,0,0,0,0,0,0,0,0.272727272727273,0,0,0,0,0,0,0.181818181818182,0
"33",0.133333333333333,0.0666666666666667,0,0,0,0,0,0,0.0666666666666667,0,0,0,0,0,0,0,0,0,0,0,0.0666666666666667,0,0.133333333333333,0,0,0,0,0,0.133333333333333,0,0,0.0666666666666667,0,0,0.133333333333333,0.0666666666666667,0.0666666666666667,0,0,0.0666666666666667
"34",0,0,0,0,0,0,0,0,0,0.333333333333333,0,0,0,0,0,0,0,0,0,0,0,0,0.333333333333333,0,0,0,0,0,0,0,0.333333333333333,0,0,0,0,0,0,0,0,0
"35",0,0,0,0,0,0,0,0.428571428571429,0,0,0,0,0,0,0,0,0,0,0,0,0,0,0,0.142857142857143,0.142857142857143,0,0,0,0,0,0,0,0,0,0,0,0.142857142857143,0.142857142857143,0,0
"36",0,0.0857142857142857,0.2,0,0,0,0,0,0.228571428571429,0,0,0,0,0.0857142857142857,0,0,0.0285714285714286,0,0,0,0,0,0,0,0.0857142857142857,0.0857142857142857,0,0.0571428571428571,0,0.114285714285714,0,0,0,0,0,0.0285714285714286,0,0,0,0
"37",0,0,0,0,0,0,0,0.0434782608695652,0,0,0,0.0434782608695652,0,0,0.0434782608695652,0,0,0,0,0.217391304347826,0,0,0,0,0,0,0.304347826086957,0,0,0.217391304347826,0,0,0,0.0434782608695652,0,0.0869565217391304,0,0,0,0
"38",0,0,0,0,0,0,0,0,0,0,0,0,0,0,0,0,0,0,0.5,0,0,0.5,0,0,0,0,0,0,0,0,0,0,0,0,0,0,0,0,0,0
"39",0,0.0952380952380952,0,0,0,0,0,0.0476190476190476,0.0476190476190476,0,0.142857142857143,0,0.0476190476190476,0,0,0,0,0.0476190476190476,0.19047619047619,0.0476190476190476,0,0,0,0.0476190476190476,0,0,0,0.142857142857143,0,0,0.0952380952380952,0,0,0,0,0,0.0476190476190476,0,0,0
"40",0,0,0,0,0,0,0,0,1,0,0,0,0,0,0,0,0,0,0,0,0,0,0,0,0,0,0,0,0,0,0,0,0,0,0,0,0,0,0,0
