"","X0","X1","X2","X3","X4","X5","X6","X7","X8","X9","X10","X11","X12","X13","X14","X15","X16","X17","X18","X19","X20","X21","X22","X23","X24","X25","X26","X27","X28","X29","X30"
"1",0.938605619146722,0.060353798126951,0.00104058272632674,0,0,0,0,0,0,0,0,0,0,0,0,0,0,0,0,0,0,0,0,0,0,0,0,0,0,0,0
"2",0.121748178980229,0.818938605619147,0.0582726326742975,0.00104058272632674,0,0,0,0,0,0,0,0,0,0,0,0,0,0,0,0,0,0,0,0,0,0,0,0,0,0,0
"3",0.0624349635796045,0.060353798126951,0.81789802289282,0.0582726326742975,0.00104058272632674,0,0,0,0,0,0,0,0,0,0,0,0,0,0,0,0,0,0,0,0,0,0,0,0,0,0
"4",0.00312174817898023,0.0593132154006243,0.060353798126951,0.81789802289282,0.0582726326742975,0.00104058272632674,0,0,0,0,0,0,0,0,0,0,0,0,0,0,0,0,0,0,0,0,0,0,0,0,0
"5",0.00104058272632674,0.00208116545265348,0.0593132154006243,0.060353798126951,0.81789802289282,0.0582726326742975,0.00104058272632674,0,0,0,0,0,0,0,0,0,0,0,0,0,0,0,0,0,0,0,0,0,0,0,0
"6",0,0.00104058272632674,0.00208116545265348,0.0593132154006243,0.060353798126951,0.81789802289282,0.0582726326742975,0.00104058272632674,0,0,0,0,0,0,0,0,0,0,0,0,0,0,0,0,0,0,0,0,0,0,0
"7",0,0,0.00104058272632674,0.00208116545265348,0.0593132154006243,0.060353798126951,0.81789802289282,0.0582726326742975,0.00104058272632674,0,0,0,0,0,0,0,0,0,0,0,0,0,0,0,0,0,0,0,0,0,0
"8",0,0,0,0.00104058272632674,0.00208116545265348,0.0593132154006243,0.060353798126951,0.81789802289282,0.0582726326742975,0.00104058272632674,0,0,0,0,0,0,0,0,0,0,0,0,0,0,0,0,0,0,0,0,0
"9",0,0,0,0,0.00104058272632674,0.00208116545265348,0.0593132154006243,0.060353798126951,0.81789802289282,0.0582726326742975,0.00104058272632674,0,0,0,0,0,0,0,0,0,0,0,0,0,0,0,0,0,0,0,0
"10",0,0,0,0,0,0.00104058272632674,0.00208116545265348,0.0593132154006243,0.060353798126951,0.81789802289282,0.0582726326742975,0.00104058272632674,0,0,0,0,0,0,0,0,0,0,0,0,0,0,0,0,0,0,0
"11",0,0,0,0,0,0,0.00104058272632674,0.00208116545265348,0.0593132154006243,0.060353798126951,0.81789802289282,0.0582726326742975,0.00104058272632674,0,0,0,0,0,0,0,0,0,0,0,0,0,0,0,0,0,0
"12",0,0,0,0,0,0,0,0.00104058272632674,0.00208116545265348,0.0593132154006243,0.060353798126951,0.81789802289282,0.0582726326742975,0.00104058272632674,0,0,0,0,0,0,0,0,0,0,0,0,0,0,0,0,0
"13",0,0,0,0,0,0,0,0,0.00104058272632674,0.00208116545265348,0.0593132154006243,0.060353798126951,0.81789802289282,0.0582726326742975,0.00104058272632674,0,0,0,0,0,0,0,0,0,0,0,0,0,0,0,0
"14",0,0,0,0,0,0,0,0,0,0.00104058272632674,0.00208116545265348,0.0593132154006243,0.060353798126951,0.81789802289282,0.0582726326742975,0.00104058272632674,0,0,0,0,0,0,0,0,0,0,0,0,0,0,0
"15",0,0,0,0,0,0,0,0,0,0,0.00104058272632674,0.00208116545265348,0.0593132154006243,0.060353798126951,0.81789802289282,0.0582726326742975,0.00104058272632674,0,0,0,0,0,0,0,0,0,0,0,0,0,0
"16",0,0,0,0,0,0,0,0,0,0,0,0.00104058272632674,0.00208116545265348,0.0593132154006243,0.060353798126951,0.81789802289282,0.0582726326742975,0.00104058272632674,0,0,0,0,0,0,0,0,0,0,0,0,0
"17",0,0,0,0,0,0,0,0,0,0,0,0,0.00104058272632674,0.00208116545265348,0.0593132154006243,0.060353798126951,0.81789802289282,0.0582726326742975,0.00104058272632674,0,0,0,0,0,0,0,0,0,0,0,0
"18",0,0,0,0,0,0,0,0,0,0,0,0,0,0.00104058272632674,0.00208116545265348,0.0593132154006243,0.060353798126951,0.81789802289282,0.0582726326742975,0.00104058272632674,0,0,0,0,0,0,0,0,0,0,0
"19",0,0,0,0,0,0,0,0,0,0,0,0,0,0,0.00104058272632674,0.00208116545265348,0.0593132154006243,0.060353798126951,0.81789802289282,0.0582726326742975,0.00104058272632674,0,0,0,0,0,0,0,0,0,0
"20",0,0,0,0,0,0,0,0,0,0,0,0,0,0,0,0.00104058272632674,0.00208116545265348,0.0593132154006243,0.060353798126951,0.81789802289282,0.0582726326742975,0.00104058272632674,0,0,0,0,0,0,0,0,0
"21",0,0,0,0,0,0,0,0,0,0,0,0,0,0,0,0,0.00104058272632674,0.00208116545265348,0.0593132154006243,0.060353798126951,0.81789802289282,0.0582726326742975,0.00104058272632674,0,0,0,0,0,0,0,0
"22",0,0,0,0,0,0,0,0,0,0,0,0,0,0,0,0,0,0.00104058272632674,0.00208116545265348,0.0593132154006243,0.060353798126951,0.81789802289282,0.0582726326742975,0.00104058272632674,0,0,0,0,0,0,0
"23",0,0,0,0,0,0,0,0,0,0,0,0,0,0,0,0,0,0,0.00104058272632674,0.00208116545265348,0.0593132154006243,0.060353798126951,0.81789802289282,0.0582726326742975,0.00104058272632674,0,0,0,0,0,0
"24",0,0,0,0,0,0,0,0,0,0,0,0,0,0,0,0,0,0,0,0.00104058272632674,0.00208116545265348,0.0593132154006243,0.060353798126951,0.81789802289282,0.0582726326742975,0.00104058272632674,0,0,0,0,0
"25",0,0,0,0,0,0,0,0,0,0,0,0,0,0,0,0,0,0,0,0,0.00104058272632674,0.00208116545265348,0.0593132154006243,0.060353798126951,0.81789802289282,0.0582726326742975,0.00104058272632674,0,0,0,0
"26",0,0,0,0,0,0,0,0,0,0,0,0,0,0,0,0,0,0,0,0,0,0.00104058272632674,0.00208116545265348,0.0593132154006243,0.060353798126951,0.81789802289282,0.0582726326742975,0.00104058272632674,0,0,0
"27",0,0,0,0,0,0,0,0,0,0,0,0,0,0,0,0,0,0,0,0,0,0,0.00104058272632674,0.00208116545265348,0.0593132154006243,0.060353798126951,0.81789802289282,0.0582726326742975,0.00104058272632674,0,0
"28",0,0,0,0,0,0,0,0,0,0,0,0,0,0,0,0,0,0,0,0,0,0,0,0.00104058272632674,0.00208116545265348,0.0593132154006243,0.060353798126951,0.81789802289282,0.0582726326742975,0.00104058272632674,0
"29",0,0,0,0,0,0,0,0,0,0,0,0,0,0,0,0,0,0,0,0,0,0,0,0,0.00104058272632674,0.00208116545265348,0.0593132154006243,0.060353798126951,0.81789802289282,0.0582726326742975,0.00104058272632674
"30",0,0,0,0,0,0,0,0,0,0,0,0,0,0,0,0,0,0,0,0,0,0,0,0,0,0.00104058272632674,0.00208116545265348,0.0593132154006243,0.060353798126951,0.81789802289282,0.0593132154006243
"31",0,0,0,0,0,0,0,0,0,0,0,0,0,0,0,0,0,0,0,0,0,0,0,0,0,0,0.00104058272632674,0.00208116545265348,0.060353798126951,0.060353798126951,0.876170655567118
