"","X0","X1","X2","X3","X4","X5","X6","X7","X8","X9","X10","X11","X12","X13","X14","X15","X16","X17","X18","X19","X20","X21","X22","X23","X24","X25","X26","X27","X28","X29","X30"
"1",0.908361585713806,0.0584069014131784,0.0312510489745225,0.00194689671377261,3.35671847202174e-05,0,0,0,0,0,0,0,0,0,0,0,0,0,0,0,0,0,0,0,0,0,0,0,0,0,0
"2",0.119700580712296,0.792554798429056,0.0584404685978986,0.0273908227316975,0.00187976234433218,3.35671847202174e-05,0,0,0,0,0,0,0,0,0,0,0,0,0,0,0,0,0,0,0,0,0,0,0,0,0
"3",0.0868047396864824,0.0602866637575106,0.767178006780572,0.0564600046994058,0.0273572555469773,0.00187976234433218,3.35671847202174e-05,0,0,0,0,0,0,0,0,0,0,0,0,0,0,0,0,0,0,0,0,0,0,0,0
"4",0.00496794333859218,0.0837836930616628,0.0584404685978986,0.767077305226411,0.0564600046994058,0.0273572555469773,0.00187976234433218,3.35671847202174e-05,0,0,0,0,0,0,0,0,0,0,0,0,0,0,0,0,0,0,0,0,0,0,0
"5",0.00292034507065892,0.00396092779698566,0.0819039307173307,0.0584069014131784,0.767077305226411,0.0564600046994058,0.0273572555469773,0.00187976234433218,3.35671847202174e-05,0,0,0,0,0,0,0,0,0,0,0,0,0,0,0,0,0,0,0,0,0,0
"6",6.71343694404348e-05,0.00292034507065892,0.00389379342754522,0.0819039307173307,0.0584069014131784,0.767077305226411,0.0564600046994058,0.0273572555469773,0.00187976234433218,3.35671847202174e-05,0,0,0,0,0,0,0,0,0,0,0,0,0,0,0,0,0,0,0,0,0
"7",3.35671847202174e-05,6.71343694404348e-05,0.0028867778859387,0.00389379342754522,0.0819039307173307,0.0584069014131784,0.767077305226411,0.0564600046994058,0.0273572555469773,0.00187976234433218,3.35671847202174e-05,0,0,0,0,0,0,0,0,0,0,0,0,0,0,0,0,0,0,0,0
"8",0,3.35671847202174e-05,6.71343694404348e-05,0.0028867778859387,0.00389379342754522,0.0819039307173307,0.0584069014131784,0.767077305226411,0.0564600046994058,0.0273572555469773,0.00187976234433218,3.35671847202174e-05,0,0,0,0,0,0,0,0,0,0,0,0,0,0,0,0,0,0,0
"9",0,0,3.35671847202174e-05,6.71343694404348e-05,0.0028867778859387,0.00389379342754522,0.0819039307173307,0.0584069014131784,0.767077305226411,0.0564600046994058,0.0273572555469773,0.00187976234433218,3.35671847202174e-05,0,0,0,0,0,0,0,0,0,0,0,0,0,0,0,0,0,0
"10",0,0,0,3.35671847202174e-05,6.71343694404348e-05,0.0028867778859387,0.00389379342754522,0.0819039307173307,0.0584069014131784,0.767077305226411,0.0564600046994058,0.0273572555469773,0.00187976234433218,3.35671847202174e-05,0,0,0,0,0,0,0,0,0,0,0,0,0,0,0,0,0
"11",0,0,0,0,3.35671847202174e-05,6.71343694404348e-05,0.0028867778859387,0.00389379342754522,0.0819039307173307,0.0584069014131784,0.767077305226411,0.0564600046994058,0.0273572555469773,0.00187976234433218,3.35671847202174e-05,0,0,0,0,0,0,0,0,0,0,0,0,0,0,0,0
"12",0,0,0,0,0,3.35671847202174e-05,6.71343694404348e-05,0.0028867778859387,0.00389379342754522,0.0819039307173307,0.0584069014131784,0.767077305226411,0.0564600046994058,0.0273572555469773,0.00187976234433218,3.35671847202174e-05,0,0,0,0,0,0,0,0,0,0,0,0,0,0,0
"13",0,0,0,0,0,0,3.35671847202174e-05,6.71343694404348e-05,0.0028867778859387,0.00389379342754522,0.0819039307173307,0.0584069014131784,0.767077305226411,0.0564600046994058,0.0273572555469773,0.00187976234433218,3.35671847202174e-05,0,0,0,0,0,0,0,0,0,0,0,0,0,0
"14",0,0,0,0,0,0,0,3.35671847202174e-05,6.71343694404348e-05,0.0028867778859387,0.00389379342754522,0.0819039307173307,0.0584069014131784,0.767077305226411,0.0564600046994058,0.0273572555469773,0.00187976234433218,3.35671847202174e-05,0,0,0,0,0,0,0,0,0,0,0,0,0
"15",0,0,0,0,0,0,0,0,3.35671847202174e-05,6.71343694404348e-05,0.0028867778859387,0.00389379342754522,0.0819039307173307,0.0584069014131784,0.767077305226411,0.0564600046994058,0.0273572555469773,0.00187976234433218,3.35671847202174e-05,0,0,0,0,0,0,0,0,0,0,0,0
"16",0,0,0,0,0,0,0,0,0,3.35671847202174e-05,6.71343694404348e-05,0.0028867778859387,0.00389379342754522,0.0819039307173307,0.0584069014131784,0.767077305226411,0.0564600046994058,0.0273572555469773,0.00187976234433218,3.35671847202174e-05,0,0,0,0,0,0,0,0,0,0,0
"17",0,0,0,0,0,0,0,0,0,0,3.35671847202174e-05,6.71343694404348e-05,0.0028867778859387,0.00389379342754522,0.0819039307173307,0.0584069014131784,0.767077305226411,0.0564600046994058,0.0273572555469773,0.00187976234433218,3.35671847202174e-05,0,0,0,0,0,0,0,0,0,0
"18",0,0,0,0,0,0,0,0,0,0,0,3.35671847202174e-05,6.71343694404348e-05,0.0028867778859387,0.00389379342754522,0.0819039307173307,0.0584069014131784,0.767077305226411,0.0564600046994058,0.0273572555469773,0.00187976234433218,3.35671847202174e-05,0,0,0,0,0,0,0,0,0
"19",0,0,0,0,0,0,0,0,0,0,0,0,3.35671847202174e-05,6.71343694404348e-05,0.0028867778859387,0.00389379342754522,0.0819039307173307,0.0584069014131784,0.767077305226411,0.0564600046994058,0.0273572555469773,0.00187976234433218,3.35671847202174e-05,0,0,0,0,0,0,0,0
"20",0,0,0,0,0,0,0,0,0,0,0,0,0,3.35671847202174e-05,6.71343694404348e-05,0.0028867778859387,0.00389379342754522,0.0819039307173307,0.0584069014131784,0.767077305226411,0.0564600046994058,0.0273572555469773,0.00187976234433218,3.35671847202174e-05,0,0,0,0,0,0,0
"21",0,0,0,0,0,0,0,0,0,0,0,0,0,0,3.35671847202174e-05,6.71343694404348e-05,0.0028867778859387,0.00389379342754522,0.0819039307173307,0.0584069014131784,0.767077305226411,0.0564600046994058,0.0273572555469773,0.00187976234433218,3.35671847202174e-05,0,0,0,0,0,0
"22",0,0,0,0,0,0,0,0,0,0,0,0,0,0,0,3.35671847202174e-05,6.71343694404348e-05,0.0028867778859387,0.00389379342754522,0.0819039307173307,0.0584069014131784,0.767077305226411,0.0564600046994058,0.0273572555469773,0.00187976234433218,3.35671847202174e-05,0,0,0,0,0
"23",0,0,0,0,0,0,0,0,0,0,0,0,0,0,0,0,3.35671847202174e-05,6.71343694404348e-05,0.0028867778859387,0.00389379342754522,0.0819039307173307,0.0584069014131784,0.767077305226411,0.0564600046994058,0.0273572555469773,0.00187976234433218,3.35671847202174e-05,0,0,0,0
"24",0,0,0,0,0,0,0,0,0,0,0,0,0,0,0,0,0,3.35671847202174e-05,6.71343694404348e-05,0.0028867778859387,0.00389379342754522,0.0819039307173307,0.0584069014131784,0.767077305226411,0.0564600046994058,0.0273572555469773,0.00187976234433218,3.35671847202174e-05,0,0,0
"25",0,0,0,0,0,0,0,0,0,0,0,0,0,0,0,0,0,0,3.35671847202174e-05,6.71343694404348e-05,0.0028867778859387,0.00389379342754522,0.0819039307173307,0.0584069014131784,0.767077305226411,0.0564600046994058,0.0273572555469773,0.00187976234433218,3.35671847202174e-05,0,0
"26",0,0,0,0,0,0,0,0,0,0,0,0,0,0,0,0,0,0,0,3.35671847202174e-05,6.71343694404348e-05,0.0028867778859387,0.00389379342754522,0.0819039307173307,0.0584069014131784,0.767077305226411,0.0564600046994058,0.0273572555469773,0.00187976234433218,3.35671847202174e-05,0
"27",0,0,0,0,0,0,0,0,0,0,0,0,0,0,0,0,0,0,0,0,3.35671847202174e-05,6.71343694404348e-05,0.0028867778859387,0.00389379342754522,0.0819039307173307,0.0584069014131784,0.767077305226411,0.0564600046994058,0.0273572555469773,0.00187976234433218,3.35671847202174e-05
"28",0,0,0,0,0,0,0,0,0,0,0,0,0,0,0,0,0,0,0,0,0,3.35671847202174e-05,6.71343694404348e-05,0.0028867778859387,0.00389379342754522,0.0819039307173307,0.0584069014131784,0.767077305226411,0.0564600046994058,0.0273908227316975,0.00187976234433218
"29",0,0,0,0,0,0,0,0,0,0,0,0,0,0,0,0,0,0,0,0,0,0,3.35671847202174e-05,6.71343694404348e-05,0.0028867778859387,0.00389379342754522,0.0819039307173307,0.0584069014131784,0.767077305226411,0.058339767043738,0.0273908227316975
"30",0,0,0,0,0,0,0,0,0,0,0,0,0,0,0,0,0,0,0,0,0,0,0,3.35671847202174e-05,6.71343694404348e-05,0.0028867778859387,0.00389379342754522,0.0819039307173307,0.0584404685978986,0.793427545231782,0.0593467825853445
"31",0,0,0,0,0,0,0,0,0,0,0,0,0,0,0,0,0,0,0,0,0,0,0,0,3.35671847202174e-05,6.71343694404348e-05,0.00292034507065892,0.00389379342754522,0.0847571414185491,0.0584740357826189,0.849853982746467
