"","V1","V2"
"1",0,156.967113273875
"2",1,149.348018727654
"3",2,133.911189285951
"4",3,115.996818982304
"5",4,97.8248570857982
"6",5,81.5464119069003
"7",6,67.6019365057591
"8",7,55.4600797101928
"9",8,44.8936616381812
"10",9,35.7467909998488
"11",10,27.9705782082459
"12",11,21.5142315108399
"13",12,16.2749987271703
"14",13,12.1440367742392
"15",14,9.00364395438993
"16",15,6.74257402550426
"17",16,5.27591568384708
"18",17,4.56052585090566
"19",18,4.60889281726659
"20",19,5.50031559251637
"21",20,7.40213876331035
"22",21,10.6252829547759
"23",22,15.8017815283172
"24",23,24.8657578635098
"25",24,50.897313857696
