"","V1","V2"
"1",0,238.887850700379
"2",1,229.590748290157
"3",2,216.581189637988
"4",3,197.058415749217
"5",4,174.606656685988
"6",5,152.852918595664
"7",6,133.797345417773
"8",7,117.91617075249
"9",8,104.813564938901
"10",9,93.8139450393152
"11",10,84.3159230338953
"12",11,75.9189419175612
"13",12,68.416609893651
"14",13,61.7450749293289
"15",14,55.9337179947472
"16",15,51.0715168269369
"17",16,47.2869177364497
"18",17,44.7354108703673
"19",18,43.587510302935
"20",19,44.0119030172498
"21",20,46.1551799793879
"22",21,50.1226222525453
"23",22,55.9602210186949
"24",23,63.6454231647377
"25",24,73.1490980479651
"26",25,84.5374972284588
"27",26,98.4226786475324
"28",27,123.938130791959
