"","V1","V2"
"1",0,191.13782541182
"2",1,172.57124875228
"3",2,181.940937523502
"4",3,197.351700701486
"5",4,214.629705784528
"6",5,233.164731120365
"7",6,252.697440893443
"8",7,273.043312866186
"9",8,294.043337272677
"10",9,315.546327784377
"11",10,337.404202876499
"12",11,359.471788367738
"13",12,381.60860328581
"14",13,403.681946365942
"15",14,425.570560302515
"16",15,447.168090474825
"17",16,468.385516338927
"18",17,489.151541798003
"19",18,509.410504525796
"20",19,529.118635032678
"21",20,548.23917597865
"22",21,566.737767875444
"23",22,584.579817709969
"24",23,601.728924242395
"25",24,618.154398604384
"26",25,633.821509673416
"27",26,648.409109700908
"28",27,660.59559703854
"29",28,674.409225768973
"30",29,687.78362269403
"31",30,700.365851540732
"32",31,711.972263209916
"33",32,722.3706839665
"34",33,731.202847963118
"35",34,738.097710271329
"36",35,743.000537464738
"37",36,746.807408688239
