"","V1","V2"
"1",0,110.360133375851
"2",1,92.9340602316055
"3",2,81.2061721489193
"4",3,68.8240869538289
"5",4,56.0386785324573
"6",5,44.9739713484412
"7",6,34.8268767825911
"8",7,25.9513525530302
"9",8,18.6668950803489
"10",9,13.0650192461661
"11",10,9.21452312693638
"12",11,6.54622144215312
"13",12,4.73757386133851
"14",13,3.63759026041698
"15",14,3.16138112234828
"16",15,3.34157148090942
"17",16,4.245954244979
"18",17,6.02307330098722
"19",18,8.89485312604381
"20",19,13.1112846565134
"21",20,18.9223886359934
"22",21,26.5651575143665
"23",22,36.4183734786442
"24",23,51.2255839821277
"25",24,89.0691493015084
