"","V1","V2"
"1",0,232.996709837015
"2",1,199.854603056516
"3",2,149.148542645201
"4",3,106.541499780192
"5",4,77.2804934601166
"6",5,56.8753655781261
"7",6,42.0968085092373
"8",7,31.0528369212108
"9",8,22.6930796895544
"10",9,16.4525976993682
"11",10,11.9948569234676
"12",11,9.08392308091981
"13",12,7.55140566631956
"14",13,7.30214408057368
"15",14,8.32675402870358
"16",15,10.7086948903148
"17",16,14.6217951288453
"18",17,20.3163725958383
"19",18,28.0931765164937
"20",19,38.2559580099179
"21",20,51.106861196703
"22",21,66.4558224531212
"23",22,85.7522340568856
"24",23,100.161030823878
"25",24,130.618913846864
