"","V1","V2"
"1",0,103.750555323919
"2",1,70.1051501211746
"3",2,52.479805036072
"4",3,40.486607949393
"5",4,31.6564962869159
"6",5,24.8842420407618
"7",6,19.4684719209244
"8",7,15.1089822261156
"9",8,11.6066884793535
"10",9,8.81234460331129
"11",10,6.60624689203202
"12",11,4.88613073412334
"13",12,3.56317111919152
"14",13,2.56067419830402
"15",14,1.81335833920038
"16",15,1.26675663076617
"17",16,0.876733692941359
"18",17,0.609243078912058
"19",18,0.440524195512057
"20",19,0.358019092020497
"21",20,0.362377325150651
"22",21,0.470975717878908
"23",22,0.723346775272262
"24",23,1.18869235558601
"25",24,1.97516410732531
"26",25,3.2397167474222
"27",26,5.19611586562154
"28",27,8.11820440712149
"29",28,12.3320777259871
"30",29,18.1891267452542
"31",30,26.0154342556188
"32",31,35.9421574537734
"33",32,45.4047539817981
"34",33,59.0289118426494
"35",34,74.0356082725715
"36",35,90.4607249542764
"37",36,110.352695635956
