"","X0","X1","X2","X3","X4","X5","X6","X7","X8","X9","X10","X11","X12","X13","X14","X15","X16","X17","X18","X19","X20","X21","X22","X23","X24"
"1",0.0675062496578283,0.108573595475234,0.143936936335976,0.158999539082908,0.151999186720909,0.127731819285693,0.0956534982142177,0.0644191135706511,0.0393211704452471,0.0218803096980411,0.0111474730398165,0.00521559715799006,0.0022452316216609,0.000890058302099532,0.000324885667196217,0.000109077741776742,3.36185537856907e-05,9.48402538027461e-06,2.43943537662086e-06,5.69262063819061e-07,1.1977346918909e-07,2.25462947163141e-08,3.76044675233906e-09,5.49037228724806e-10,7.6899209047618e-11
"2",0.0543025112159084,0.0911676550384574,0.127472254109606,0.149378876575425,0.151544647080825,0.135074043197007,0.10715689490973,0.076375985464958,0.0493006957613671,0.0289992671650153,0.0156181338997888,0.00772871268102533,0.00352273984265156,0.0014810902478684,0.00057470055184792,0.000205735571069763,6.78671641917689e-05,2.0587251960962e-05,5.72602991117884e-06,1.45463981110944e-06,3.35884934376745e-07,7.0069379450109e-08,1.31070143677327e-08,2.17870977366588e-09,3.61535508411804e-10
"3",0.0322854723769822,0.0599637232691682,0.094621204553291,0.125837753192106,0.144127891262926,0.144061060280676,0.127247458411421,0.100351178134256,0.0712842223512364,0.0459374335909318,0.0270100220178141,0.0145546232784057,0.00721168267441402,0.00329329074251705,0.00138793761185843,0.000540074530650254,0.000193956794997422,6.42062061219148e-05,1.95504820684386e-05,5.45954892965123e-06,1.39279553986131e-06,3.23011338648943e-07,6.76859015268481e-08,1.2726840807278e-08,2.46960597271319e-09
"4",0.0144676749652138,0.0313400285344396,0.0587903313301297,0.0925207619899022,0.123547096318677,0.141900351013781,0.142158002228204,0.125775913129051,0.0993329827424324,0.070647256553131,0.0455754857314791,0.026822447116619,0.0144657620479129,0.00717314368906349,0.00327797837668759,0.00138236462512785,0.000538218642348497,0.00019339245460123,6.40500063976428e-05,1.95112980572135e-05,5.45068973960249e-06,1.39100321443644e-06,3.22691236269907e-07,6.77049102269826e-08,1.5117643064172e-08
"5",0.00502837611162542,0.0132171972069412,0.0304039914345432,0.0579197420095185,0.0918536976376562,0.123063462925149,0.141572604054906,0.141943744207375,0.125645400018,0.0992586251255781,0.0706077887918666,0.0455560297648973,0.0268135775669451,0.01446203626716,0.00717170505492036,0.00327746882599809,0.0013821994538722,0.000538169781428034,0.000193379313003831,6.40468081122029e-05,1.9510598081912e-05,5.45055338994785e-06,1.39099328753673e-06,3.23195919925076e-07,8.22998230319373e-08
"6",0.00137530576591538,0.00450095268451506,0.0129005673336839,0.0301829767922616,0.0577807489581339,0.091772608404031,0.123019323501366,0.141548989527586,0.141931830569439,0.125639635221887,0.0992559377839734,0.0706065840456092,0.0455555164477499,0.0268133726860539,0.0144619604156833,0.00717167919353646,0.0032774607458153,0.00138219715077935,0.000538169185359505,0.000193379173685976,6.40467790359308e-05,1.95105972535534e-05,5.45066627443241e-06,1.39424831654104e-06,4.02122053332562e-07
"7",0.000297112359676991,0.00123024890245999,0.00442922393252559,0.0128610340596021,0.0301613812446818,0.0577700695548664,0.0917677175679747,0.123017134194015,0.141548091742188,0.141931487414671,0.125639509423069,0.0992558919343053,0.0706065672585919,0.0455555104281053,0.0268133706253948,0.0144619597574903,0.00717167899984874,0.00327746069382577,0.00138219713814037,0.000538169182595216,0.000193379174432509,6.40468249862472e-05,1.95114362905949e-05,5.46918149281841e-06,1.77696876835742e-06
"8",5.06001224628146e-05,0.000268030729986062,0.0012182838446196,0.0044239938154619,0.0128584940995861,0.0301602927686331,0.0577696336931743,0.0917675453855832,0.123017073184633,0.141548072811734,0.141931482254656,0.125639508129083,0.0992558916078081,0.070606567172953,0.0455555104046974,0.0268133706191152,0.0144619597558932,0.00717167899947919,0.00327746069374995,0.00138219713812691,0.000538169192502451,0.000193379529517926,6.40522206530517e-05,1.96057801597965e-05,7.14604573022394e-06
"9",6.75530457845396e-06,4.62193922759525e-05,0.000266526201642068,0.00121776730405195,0.00442376847788549,0.0128584105109182,0.0301602633614009,0.0577696231782244,0.0917675419495843,0.123017072229056,0.141548072593644,0.141931482214537,0.125639508122771,0.0992558916069669,0.0706065671728477,0.0455555104046877,0.0268133706191145,0.0144619597558932,0.00717167899947919,0.00327746069375003,0.00138219719985847,0.000538171408427846,0.000193409666616296,6.44855242791241e-05,2.62861075085437e-05
"10",7.00180415917649e-07,6.25663473112678e-06,4.60770633541128e-05,0.000266488596354107,0.00121775247354954,0.0044237637767898,0.0128584090967435,0.0301602629130411,0.0577696230407231,0.0917675419137065,0.123017072221556,0.141548072592461,0.141931482214389,0.125639508122757,0.0992558916069654,0.0706065671728476,0.0455555104046877,0.0268133706191145,0.0144619597558932,0.00717167899948248,0.00327746101422824,0.00138220873003676,0.000538317966281148,0.000195211420397961,8.88114694929051e-05
"11",5.54958215109681e-08,6.57562077744284e-07,6.24666610781294e-06,4.60751061861152e-05,0.000266487894119576,0.00121775228611934,0.00442376373108105,0.0128584090848111,0.0301602629096675,0.0577696230398955,0.0917675419135456,0.123017072221534,0.141548072592459,0.141931482214389,0.125639508122757,0.0992558916069654,0.0706065671728476,0.0455555104046877,0.0268133706191145,0.0144619597559665,0.00717168041565321,0.00327751208930386,0.00138283274639982,0.000545124262684215,0.00027654008580497
"12",3.28577213596467e-09,5.28087601877557e-08,6.57061025114782e-07,6.24659728503868e-06,4.60750835378372e-05,0.000266487889070073,0.00121775228519463,0.00442376373091812,0.0128584090847718,0.0301602629096587,0.0577696230398939,0.0917675419135454,0.123017072221534,0.141548072592459,0.141931482214389,0.125639508122757,0.0992558916069654,0.0706065671728476,0.045555510404691,0.0268133706201798,0.0144619651752433,0.00717187611860145,0.00327985524775133,0.00140626314197126,0.000795689671176657
"13",1.40085582189921e-10,3.16477267329829e-09,5.27916791747961e-08,6.57059561616128e-07,6.24659683874304e-06,4.60750834539386e-05,0.000266487889059307,0.00121775228519402,0.00442376373091808,0.0128584090847718,0.0301602629096587,0.0577696230398939,0.0917675419135454,0.123017072221534,0.141548072592459,0.141931482214389,0.125639508122757,0.0992558916069658,0.0706065671729305,0.04555551041661,0.0268133888643549,0.0144626217398819,0.00717968983962245,0.00335356007861767,0.00211975944044464
"14",4.04562234023563e-12,1.36412396301742e-10,3.16441923274595e-09,5.27916649780955e-08,6.5705955755355e-07,6.24659683807339e-06,4.60750834538717e-05,0.000266487889059307,0.00121775228519402,0.00442376373091808,0.0128584090847718,0.0301602629096587,0.0577696230398939,0.0917675419135454,0.123017072221534,0.141548072592459,0.141931482214389,0.125639508122771,0.0992558916084565,0.0706065672844836,0.0455555656297169,0.0268153419122459,0.0144859521426156,0.00739217902344293,0.00523549155845288
"15",7.05410962431624e-14,3.97842952243747e-12,1.36409048023297e-10,3.16441923274595e-09,5.27916649780955e-08,6.5705955755355e-07,6.24659683807339e-06,4.60750834538717e-05,0.000266487889059307,0.00121775228519402,0.00442376373091808,0.0128584090847718,0.0301602629096587,0.0577696230398939,0.0917675419135454,0.123017072221534,0.141548072592459,0.141931482214629,0.125639508142157,0.099255892519472,0.0706067228393696,0.0455607902330587,0.0268782486740212,0.0150489519667221,0.0119963829071446
"16",5.58046407499977e-16,6.99830498356624e-14,3.97842952243747e-12,1.36409048023297e-10,3.16441923274595e-09,5.27916649780955e-08,6.5705955755355e-07,6.24659683807339e-06,4.60750834538717e-05,0.000266487889059307,0.00121775228519402,0.00442376373091808,0.0128584090847718,0.0301602629096587,0.0577696230398939,0.0917675419135454,0.123017072221534,0.141548072594862,0.141931482384978,0.125639514302302,0.0992563224938446,0.0706195531091928,0.0457156330101673,0.028253174488316,0.0255022997053703
"17",0,5.58046407499977e-16,6.99830498356624e-14,3.97842952243747e-12,1.36409048023297e-10,3.16441923274595e-09,5.27916649780955e-08,6.5705955755355e-07,6.24659683807339e-06,4.60750834538717e-05,0.000266487889059307,0.00121775228519402,0.00442376373091808,0.0128584090847718,0.0301602629096587,0.0577696230398939,0.0917675419135585,0.123017072238746,0.141548073710403,0.14193151672405,0.125640741749378,0.0992860707464007,0.0709719535076116,0.0488187732145295,0.0502689224194335
"18",0,0,5.58046407499977e-16,6.99830498356624e-14,3.97842952243747e-12,1.36409048023297e-10,3.16441923274595e-09,5.27916649780955e-08,6.5705955755355e-07,6.24659683807339e-06,4.60750834538717e-05,0.000266487889059307,0.00121775228519402,0.00442376373091808,0.0128584090847718,0.0301602629096587,0.0577696230401188,0.0917675420124011,0.123017078042448,0.14154823302504,0.141935171176657,0.125707967370097,0.100038167425796,0.077458835503747,0.0917776716677007
"19",0,0,0,5.58046407499977e-16,6.99830498356624e-14,3.97842952243747e-12,1.36409048023297e-10,3.16441923274595e-09,5.27916649780955e-08,6.5705955755355e-07,6.24659683807339e-06,4.60750834538717e-05,0.000266487889059307,0.00121775228519402,0.00442376373091808,0.0128584090847718,0.0301602629117596,0.0577696235187317,0.0917675670782628,0.123017703599247,0.141559139552714,0.142086603863614,0.127233354081788,0.112617737796098,0.154968559771449
"20",0,0,0,0,5.58046407499977e-16,6.99830498356624e-14,3.97842952243747e-12,1.36409048023297e-10,3.16441923274595e-09,5.27916649780955e-08,6.5705955755355e-07,6.24659683807339e-06,4.60750834538717e-05,0.000266487889059307,0.00121775228519402,0.00442376373091808,0.0128584090981189,0.030160264915913,0.0577697163724077,0.0917696877139273,0.123048763717136,0.141899154450294,0.145050955388545,0.149875362975148,0.241606646626947
"21",0,0,0,0,0,5.58046407499977e-16,6.99830498356624e-14,3.97842952243747e-12,1.36409048023297e-10,3.16441923274595e-09,5.27916649780955e-08,6.5705955755355e-07,6.24659683807339e-06,4.60750834538717e-05,0.000266487889059307,0.00121775228519417,0.00442376379323825,0.0128584162382065,0.0301605591697325,0.0577759065036626,0.0918503227674477,0.123788781119088,0.147406911513263,0.18284327765594,0.347354786228775
"22",0,0,0,0,0,0,5.58046407499977e-16,6.99830498356624e-14,3.97842952243747e-12,1.36409048023297e-10,3.16441923274595e-09,5.27916649780955e-08,6.5705955755355e-07,6.24659683807339e-06,4.60750834538717e-05,0.000266487889071627,0.00121775251088489,0.00442378544150522,0.0128592216478812,0.0301762685165624,0.0579632539628415,0.0933632449923777,0.133472738381433,0.205784336941184,0.460419874879866
"23",0,0,0,0,0,0,0,5.58046407499977e-16,6.99830498356624e-14,3.97842952243747e-12,1.36409048023297e-10,3.16441923274595e-09,5.27916649780955e-08,6.5705955755355e-07,6.2465968386367e-06,4.60750838793544e-05,0.000266488568657272,0.00121780894060556,0.00442569943476758,0.0128939919532512,0.0305615667243071,0.060789304558681,0.109215735039239,0.216673053540721,0.563903316402952
"24",0,0,0,0,0,0,0,0,5.58046407499977e-16,6.99830498356624e-14,3.97842952243747e-12,1.36409048023297e-10,3.16441923274595e-09,5.27916700478782e-08,6.57060007102492e-07,6.24661899189629e-06,4.60772785600433e-05,0.000266620550743885,0.00122176802807469,0.0044923725656401,0.013585741801268,0.0352681786110799,0.0844941202173426,0.21829066589191,0.642327495279834
"25",0,0,0,0,0,0,0,0,0,5.58046407499977e-16,6.99830498356624e-14,3.97842952243747e-12,1.36409048023297e-10,3.16473094871095e-09,5.28177391079399e-08,6.58022398227477e-07,6.2703127938476e-06,4.65812787918392e-05,0.00027580630832778,0.00134514467817898,0.00562560169103592,0.0206430103066401,0.0674861849314452,0.216143533067592,0.688427153279868
