"","X0","X1","X2","X3","X4","X5","X6","X7","X8","X9","X10","X11","X12","X13","X14","X15","X16","X17","X18","X19","X20","X21","X22","X23","X24"
"1",0.0692263526165835,0.105496987360129,0.13855238478021,0.154521165338851,0.149664971942853,0.127973583667072,0.0977841562813654,0.0673673904356807,0.042150492195861,0.02408741003073,0.01262659151049,0.00609052525853507,0.00270904236588932,0.00111246135565736,0.000421894792278172,0.000147691886287691,4.76629580502369e-05,1.41506276043641e-05,3.85386101242047e-06,9.59263229890257e-07,2.17220890631035e-07,4.44975228344685e-08,8.1893251989833e-09,1.34416072082247e-09,2.19729730546144e-10
"2",0.0562812797931507,0.0890797885642625,0.122947197308232,0.144855149960381,0.148430151188417,0.134254253184423,0.108429947043799,0.078896655936208,0.0521026480425277,0.0314144655405654,0.0173737416490763,0.00884490729881495,0.00415572167439801,0.00180503333654851,0.000725411317061262,0.000269761259918211,9.27642880429534e-05,2.94564674038078e-05,8.61899852482051e-06,2.31721299646722e-06,5.70328463267444e-07,1.27930906649607e-07,2.60094472315306e-08,4.76881540460317e-09,8.97615149864348e-10
"3",0.0343647293723634,0.0594971222527418,0.0919011428355726,0.121823416803465,0.140064945505591,0.141385780582753,0.126672152553285,0.101674295401815,0.0737028303613427,0.0485747173152381,0.0292658727470651,0.0161892257054947,0.00825003149434835,0.00388243344793756,0.00168988867175826,0.000680859865561865,0.000253928815865857,8.76009277636586e-05,2.7913972914418e-05,8.19806067400627e-06,2.212671084684e-06,5.46812899186799e-07,1.23171943975453e-07,2.52112860067543e-08,5.43923555754301e-09
"4",0.0161109823615872,0.0320093751866236,0.0580298417950393,0.0899584052347663,0.119591979341514,0.13787442503518,0.13948044646572,0.125176767040795,0.10061617972033,0.0730245986475257,0.0481788797886713,0.0290547031173319,0.0160859832491022,0.00820369469374478,0.00386332390880984,0.00168264524367062,0.000678337662654784,0.000253123105940854,8.73653213035076e-05,2.78511003770317e-05,8.18281195480816e-06,2.20932776482282e-06,5.46179109219475e-07,1.23493936980049e-07,3.01665462357568e-08
"5",0.00597866740871501,0.0141383782708763,0.0309200899625195,0.0571714796689976,0.0892768978354488,0.119092069327453,0.137530047051912,0.139253924602556,0.125036413704446,0.100534730142516,0.0729804345227641,0.0481565692948842,0.0290442391400933,0.0160814419313206,0.00820187557527901,0.00386265267987133,0.00168241753652972,0.000678266799970853,0.000253102932424925,8.73600862117919e-05,2.78498677167737e-05,8.18255517989504e-06,2.2094443215804e-06,5.48831133535183e-07,1.50826858121484e-07
"6",0.00178461102944964,0.00514564363354154,0.0137552463863906,0.0306893798784849,0.0570234561063914,0.0891886819644212,0.119042887766854,0.137503610626781,0.139240335208047,0.125029735066521,0.100531573600568,0.0729789990304576,0.0481559457705966,0.0290439835079686,0.016081344046185,0.00820184083512254,0.00386264131360655,0.00168241412279219,0.000678265862546612,0.000253102698116921,8.73600345408992e-05,2.7849895133983e-05,8.18354636227957e-06,2.22390574567197e-06,6.84163374019141e-07
"7",0.000430944399470634,0.001537387358444,0.00505249473442137,0.0137110459399169,0.0306654160121928,0.0570112344968518,0.0891829047533305,0.119040280008395,0.137502504753764,0.13923989812938,0.125029571126792,0.100531513508495,0.0729789770823313,0.0481559378412657,0.0290439807365617,0.0160813431298561,0.0082018405530961,0.00386264123366961,0.00168241410209464,0.000678265858130258,0.000253102709170629,8.73602901230695e-05,2.78552627469806e-05,8.25445354758182e-06,2.83152595189458e-06
"8",8.42653715010993e-05,0.000375270994538819,0.00152031142855127,0.00504611611235205,0.013708100341429,0.0306641021096821,0.0570106901568393,0.0891826885300818,0.119040199895431,0.137502478148272,0.139239890297393,0.125029569041956,0.100531512978682,0.0729789769463331,0.0481559378051048,0.029043980726818,0.0160813431273031,0.00820184055246963,0.00386264123359175,0.00168241410557285,0.000678265944630535,0.00025310423942567,8.73867061913993e-05,2.8171011032162e-05,1.07421948172977e-05
"9",1.33209570101812e-05,7.45106037660547e-05,0.000372850498265233,0.00151960730208249,0.005045841433863,0.0137079930375062,0.0306640630088466,0.0570106762695596,0.0891826838234158,0.119040198470439,0.137502477780174,0.139239890218077,0.125029569027594,0.100531512976455,0.0729789769460294,0.0481559378050685,0.0290439807268144,0.0160813431273028,0.00820184055285505,0.00386264125545653,0.0016824146232697,0.000678274063883506,0.00025322287792653,8.86705731051842e-05,3.75020412347885e-05
"10",1.69575338900264e-06,1.19797235871799e-05,7.42439691625322e-05,0.00037279123310496,0.00151958813350027,0.00504583493139901,0.0137079909908443,0.0306640623745158,0.0570106760735387,0.0891826837677893,0.119040198457015,0.137502477777549,0.139239890217667,0.125029569027542,0.10053151297645,0.0729789769460289,0.0481559378050684,0.0290439807268144,0.0160813431293041,0.00820184066653139,0.00386264388468386,0.00168245270885005,0.000678760466818577,0.000258009775940793,0.000120858482905251
"11",1.72641461834273e-07,1.55096153507329e-06,1.19569836199469e-05,7.42402196390586e-05,0.000372790257696311,0.00151958784975431,0.00504583485634218,0.0137079909717523,0.0306640623694062,0.0570106760722006,0.089182683767486,0.119040198456961,0.137502477777542,0.139239890217666,0.125029569027542,0.10053151297645,0.0729789769460289,0.0481559378050689,0.0290439807356659,0.0160813436324456,0.00820185215362114,0.00386280197930216,0.00168427264297758,0.00069517952948805,0.000360459168347598
"12",1.39064225836522e-08,1.60439837710439e-07,1.54947592435396e-06,1.19568097975518e-05,7.42401850332356e-05,0.000372790249212733,0.00151958784791182,0.00504583485599655,0.0137079909716836,0.0306640623693909,0.0570106760721974,0.0891826837674854,0.119040198456961,0.137502477777542,0.139239890217666,0.125029569027542,0.10053151297645,0.0729789769460359,0.0481559378390449,0.0290439826631506,0.0160813873437887,0.00820243515316464,0.00386901754207674,0.00173621199686926,0.000996855108814991
"13",8.7209210081121e-10,1.31139043697675e-08,1.6036690134098e-07,1.54947026515437e-06,1.19568090081612e-05,7.42401848761493e-05,0.0003727902491846,0.0015195878479084,0.00504583485599628,0.0137079909716836,0.0306640623693909,0.0570106760721974,0.0891826837674854,0.119040198456961,0.137502477777542,0.139239890217666,0.125029569027543,0.100531512976535,0.0729789770615492,0.0481559443193656,0.0290441290585693,0.0160833064988866,0.00822182477023799,0.00402083746104258,0.00255978542320849
"14",4.15601493603157e-11,8.33269610990073e-10,1.31112983881996e-08,1.60366781080162e-07,1.54947025534994e-06,1.19568090067873e-05,7.42401848759318e-05,0.000372790249184579,0.0015195878479084,0.00504583485599628,0.0137079909716836,0.0306640623693909,0.0570106760721974,0.0891826837674854,0.119040198456961,0.137502477777542,0.139239890217677,0.125029569028442,0.100531513336768,0.0729789965120335,0.0481563809842669,0.029049807215563,0.0161386619949871,0.00863251429150449,0.00610844323336149
"15",1.4499280654697e-12,4.01758249399714e-11,8.33205497919227e-10,1.31112969394352e-08,1.60366781038352e-07,1.54947025534994e-06,1.19568090067873e-05,7.42401848759318e-05,0.000372790249184579,0.0015195878479084,0.00504583485599628,0.0137079909716836,0.0306640623693909,0.0570106760721974,0.0891826837674854,0.119040198456962,0.137502477777694,0.139239890226048,0.125029570131162,0.100531566803115,0.0729801730962587,0.0481716026254246,0.0291948284656987,0.0171679763539944,0.0135501691127497
"16",3.48216316603659e-14,1.41608890131842e-12,4.01748494407838e-11,8.33205490950906e-10,1.31112969394352e-08,1.60366781038352e-07,1.54947025534994e-06,1.19568090067873e-05,7.42401848759318e-05,0.000372790249184579,0.0015195878479084,0.00504583485599628,0.0137079909716836,0.0306640623693909,0.0570106760721974,0.0891826837675005,0.119040198458338,0.13750247783992,0.139239893826276,0.125029710317664,0.100534491250546,0.0730175613220211,0.048521654837507,0.0315871621971699,0.0279353029996485
"17",5.13009758997369e-16,3.43155902227941e-14,1.41608193299699e-12,4.01748494407838e-11,8.33205490950906e-10,1.31112969394352e-08,1.60366781038352e-07,1.54947025534994e-06,1.19568090067873e-05,7.42401848759318e-05,0.000372790249184579,0.0015195878479084,0.00504583485599628,0.0137079909716836,0.0306640623693909,0.0570106760723065,0.089182683776713,0.119040198829355,0.1375024907196,0.139240262396359,0.125036607513454,0.100619831763272,0.073799872604932,0.053680774949716,0.0534884142630817
"18",3.48416071279903e-18,5.0952559828457e-16,3.43155902227941e-14,1.41608193299699e-12,4.01748494407838e-11,8.33205490950906e-10,1.31112969394352e-08,1.60366781038352e-07,1.54947025534994e-06,1.19568090067873e-05,7.42401848759318e-05,0.000372790249184579,0.0015195878479084,0.00504583485599628,0.013707990971685,0.0306640623700373,0.0570106761215492,0.0891826855924734,0.119040246269652,0.137503493442228,0.139256176595524,0.125220583467674,0.102247324106814,0.08412495434478,0.095015672947446
"19",0,3.48416071279903e-18,5.0952559828457e-16,3.43155902227941e-14,1.41608193299699e-12,4.01748494407838e-11,8.33205490950906e-10,1.31112969394352e-08,1.60366781038352e-07,1.54947025534994e-06,1.19568090067873e-05,7.42401848759318e-05,0.000372790249184579,0.0015195878479084,0.00504583485600939,0.0137079909749465,0.0306640625901962,0.0570106836082186,0.0891828519139067,0.119043033509373,0.137540126196301,0.13963644519898,0.128389116137873,0.121420356861215,0.156379199238841
"20",0,0,3.48416071279903e-18,5.0952559828457e-16,3.43155902227941e-14,1.41608193299699e-12,4.01748494407838e-11,8.33205490950906e-10,1.31112969394352e-08,1.60366781038352e-07,1.54947025534994e-06,1.19568090067873e-05,7.42401848759318e-05,0.000372790249184579,0.00151958784799173,0.00504583487025841,0.0137079918242945,0.0306640892515176,0.0570112158620855,0.0891904507133834,0.119126937622417,0.138300257873074,0.145432634505615,0.161401702546877,0.238138586016253
"21",0,0,0,3.48416071279903e-18,5.0952559828457e-16,3.43155902227941e-14,1.41608193299699e-12,4.01748494407838e-11,8.33205490950906e-10,1.31112969394352e-08,1.60366781038352e-07,1.54947025534994e-06,1.19568090067873e-05,7.42401848759327e-05,0.000372790249573693,0.0015195879006771,0.00504583767786067,0.01370807353553,0.0306655960488091,0.0570305200458504,0.089376177936121,0.120589206271607,0.148269951192969,0.19807843851924,0.335255899804715
"22",0,0,0,0,3.48416071279903e-18,5.0952559828457e-16,3.43155902227941e-14,1.41608193299699e-12,4.01748494407838e-11,8.33205490950906e-10,1.31112969394352e-08,1.60366781038352e-07,1.54947025534994e-06,1.19568090068642e-05,7.42401862866345e-05,0.000372790414099046,0.00151959589611177,0.00504605504687419,0.0137118294384277,0.0307100687670514,0.0574159958403912,0.0920468777472645,0.136672902255368,0.225923434359108,0.436492529416846
"23",0,0,0,0,0,3.48416071279903e-18,5.0952559828457e-16,3.43155902227941e-14,1.41608193299699e-12,4.01748494407838e-11,8.33205490950906e-10,1.31112969394352e-08,1.60366781041869e-07,1.54947025807972e-06,1.19568133055754e-05,7.42406272858162e-05,0.000372810158867719,0.00152009982351343,0.00505427425440964,0.013803204580856,0.0314407927875507,0.0619589283169343,0.116231151217169,0.242491501729492,0.527039315867449
"24",0,0,0,0,0,0,3.48416071279903e-18,5.0952559828457e-16,3.43155902227941e-14,1.41608193299699e-12,4.01748494407838e-11,8.33205522604076e-10,1.31113004056334e-08,1.60366981221937e-07,1.54948714381204e-06,1.19579377081598e-05,7.42839856079175e-05,0.000373830110517591,0.00153576419072585,0.0052189710801806,0.0150384447879587,0.0384811250316891,0.0955306739505445,0.249443797327288,0.594289427757522
"25",0,0,0,0,0,0,0,3.48416071279903e-18,5.0952559828457e-16,3.43155902227941e-14,1.41608193299699e-12,4.0176795638276e-11,8.33408830466714e-10,1.31209085353141e-08,1.60657593769538e-07,1.55636446946673e-06,1.20968746700829e-05,7.65906554431853e-05,0.00040319159075489,0.0018114582524363,0.00711890247620816,0.0249809697961241,0.0813966238168595,0.251011495659529,0.633186939859967
