"","V1","V2","V3","V4","V5","V6","V7","V8","V9","V10","V11","V12","V13","V14","V15","V16","V17","V18","V19","V20","V21","V22","V23","V24","V25","V26","V27","V28","V29","V30","V31"
"00:00-00:15",-1,0,0,-1,0,0,0,0,0,0,0,0,0,0,0,0,0,0,-1,0,0,0,0,0,0,0,0,0,0,0,0
"00:15-00:30",0,0,0,0,0,0,0,0,0,0,0,0,0,0,0,0,0,0,0,0,0,0,0,0,0,0,0,0,0,0,0
"00:30-00:45",0,0,0,0,0,0,0,0,0,0,0,0,0,0,0,0,0,0,0,0,0,0,0,0,0,0,0,0,0,0,0
"00:45-01:00",0,0,0,0,0,0,0,0,0,0,0,0,0,0,0,0,0,0,0,0,0,0,0,0,0,0,0,0,0,0,0
"01:00-01:15",0,0,0,0,0,0,0,0,0,0,0,0,0,0,0,0,0,0,0,0,0,0,0,0,0,0,0,0,0,0,0
"01:15-01:30",0,0,0,0,0,0,0,0,0,0,0,0,0,0,0,0,0,0,0,0,0,0,0,0,0,0,0,0,0,0,0
"01:30-01:45",0,0,0,0,0,0,0,0,0,0,0,0,0,0,0,0,0,0,0,0,0,0,0,0,0,0,0,0,0,0,0
"01:45-02:00",0,0,0,0,0,0,0,0,0,0,0,0,0,0,0,0,0,0,0,0,0,0,0,0,0,0,0,0,0,0,0
"02:00-02:15",0,0,0,0,0,0,0,0,0,0,0,0,0,0,0,0,0,0,0,0,0,0,0,0,0,0,0,0,0,0,0
"02:15-02:30",0,0,0,0,0,0,0,0,0,0,0,0,0,0,0,0,0,0,0,0,0,0,0,0,0,0,0,0,0,0,0
"02:30-02:45",0,0,0,0,0,0,0,0,0,0,0,0,0,0,0,0,0,0,0,0,0,0,0,0,0,0,0,0,0,0,0
"02:45-03:00",0,0,0,0,0,0,0,0,0,0,0,0,0,0,0,0,0,0,0,0,0,0,0,0,0,0,0,0,0,0,0
"03:00-03:15",0,0,0,0,0,0,0,0,0,0,0,0,0,0,0,0,0,0,0,0,0,0,0,0,0,0,0,0,0,0,0
"03:15-03:30",0,0,0,0,0,0,0,0,0,0,0,0,0,0,0,0,0,0,0,0,0,0,0,0,0,0,0,0,0,0,0
"03:30-03:45",0,0,0,0,0,0,0,0,0,0,0,0,0,0,0,0,0,0,0,0,0,0,0,0,0,0,0,0,0,0,0
"03:45-04:00",0,0,0,0,0,0,0,1,0,0,0,0,0,0,0,0,0,0,0,0,0,0,0,0,0,0,0,0,0,0,0
"04:00-04:15",0,0,0,0,0,0,0,0,0,0,0,0,0,0,0,0,0,0,0,0,0,0,0,0,0,0,0,0,0,0,0
"04:15-04:30",0,0,0,0,0,0,0,0,0,0,0,0,0,0,0,0,0,0,0,0,0,0,0,0,0,0,0,0,0,0,0
"04:30-04:45",0,0,0,0,0,0,0,0,0,0,0,0,0,0,0,0,0,0,0,0,0,0,0,0,0,0,0,0,0,0,0
"04:45-05:00",0,0,0,0,0,0,0,0,0,0,0,0,0,0,0,0,0,0,0,0,0,0,0,0,0,0,0,0,0,0,0
"05:00-05:15",0,1,0,1,0,0,0,1,0,0,1,0,0,0,1,0,0,1,0,0,0,0,0,0,0,0,0,0,0,0,0
"05:15-05:30",0,0,0,0,0,0,0,-1,0,0,0,0,0,0,0,0,-1,0,0,0,0,0,-1,0,0,0,0,0,0,-1,0
"05:30-05:45",-1,-1,-1,-1,0,0,-1,0,-1,-1,0,0,0,-1,-1,-1,-1,-1,0,0,0,-1,-1,0,0,0,0,0,-1,-1,-1
"05:45-06:00",-1,0,0,0,0,0,-3,0,0,-1,0,0,0,-1,0,-1,0,0,0,0,0,0,0,0,0,0,0,0,0,0,-1
"06:00-06:15",0,-1,0,-1,0,0,0,-1,0,0,-1,0,0,-2,-1,-2,0,-1,0,0,0,-3,-1,0,0,0,0,-1,-2,-1,-1
"06:15-06:30",-1,-2,-1,-1,0,0,0,-2,-1,-2,-1,0,0,-1,-1,0,-3,0,0,0,0,-1,-1,0,0,0,0,-2,-2,-3,-3
"06:30-06:45",-4,-6,0,-1,0,0,-1,-1,-1,-1,0,0,0,-3,-3,-3,-3,1,0,0,0,-2,-2,0,0,0,0,-2,-3,-2,-2
"06:45-07:00",-2,-1,0,-1,0,1,-3,-5,-2,-1,-2,0,1,1,-4,-2,-3,-1,0,0,0,-3,-2,0,0,0,0,-2,-5,-4,-2
"07:00-07:15",-6,0,0,0,-2,0,-2,-4,0,-1,-2,-1,0,-1,0,-4,-2,-2,0,0,0,-6,-1,0,0,0,0,-5,-3,0,0
"07:15-07:30",1,0,0,0,-1,0,-3,-5,0,1,1,-1,0,1,1,0,-9,-1,0,0,0,-1,-2,-2,0,0,0,-3,1,0,0
"07:30-07:45",-1,0,1,-3,-1,0,-9,-1,-1,-9,2,0,-1,0,-4,-3,-1,1,-1,0,-2,-4,1,0,-1,0,0,-9,-6,0,0
"07:45-08:00",-5,0,-10,-12,-2,0,-8,-7,-4,-9,-11,-1,0,-2,-16,1,-7,-5,0,0,-1,-1,-1,0,-1,-1,0,1,-6,0,-1
"08:00-08:15",-5,0,-7,-7,-1,0,-6,-9,-11,-13,-6,0,0,-12,1,-1,-9,-4,-2,0,-1,-6,-11,-3,0,0,0,-7,-1,0,-4
"08:15-08:30",-1,0,-2,-7,2,0,-11,0,0,-2,-1,-3,0,-2,-15,-11,0,-4,-1,1,1,-5,-6,-2,0,0,0,-4,-2,-13,-4
"08:30-08:45",0,-3,-9,0,1,1,-12,-16,-1,0,-12,2,0,-2,-2,-4,0,-6,0,1,-2,-12,-6,-2,0,0,0,-5,-17,-3,-9
"08:45-09:00",0,-9,-8,0,0,-1,-16,-5,0,0,-13,0,2,-12,-2,0,0,-1,1,0,-1,-7,-7,0,0,0,1,0,-5,0,-5
"09:00-09:15",0,-1,0,0,-2,-1,1,0,-14,0,-6,-2,-1,0,-13,-1,-5,-8,-2,-1,-1,0,0,1,1,1,-1,-5,0,0,-3
"09:15-09:30",1,-4,-2,-5,-1,-1,0,-6,0,0,-5,0,-1,0,2,-7,-8,-2,-3,0,0,-1,0,0,0,0,-1,-3,-2,1,-9
"09:30-09:45",-1,-5,-9,-11,-3,1,-7,-3,-3,0,-4,-1,2,-1,-2,0,-3,-3,-1,0,0,-6,-3,0,0,-2,-2,-4,-4,-3,-5
"09:45-10:00",1,-1,-2,-3,0,1,1,-2,-1,0,-6,-2,0,-7,0,-2,2,-1,-1,-1,-1,-3,-8,-2,0,-1,0,-4,-5,-4,0
"10:00-10:15",0,-3,-2,0,0,-2,-2,1,-3,-6,-3,0,0,-6,0,-5,-3,0,0,0,-1,-1,0,-1,0,0,-1,-2,-5,-1,1
"10:15-10:30",-1,-1,-1,0,0,-1,-2,-1,-4,-2,1,0,2,2,0,2,0,0,-1,0,0,0,-2,0,0,2,0,-2,-1,-1,-4
"10:30-10:45",-3,0,0,1,1,1,-1,1,-2,-2,-4,-1,-2,0,-5,0,0,0,0,-1,-1,0,1,-1,-2,-1,1,-3,-3,-3,-4
"10:45-11:00",1,0,3,-6,3,0,-2,-2,-2,-1,0,-1,0,1,0,-2,0,-2,-2,1,0,-2,-2,0,1,0,-1,1,-3,-7,1
"11:00-11:15",0,-2,0,-1,-1,0,0,1,-1,-1,-4,-1,-1,-2,-2,1,0,1,1,-1,-1,-1,-1,0,0,2,0,-1,-2,-3,-3
"11:15-11:30",-1,-3,0,-1,0,1,-4,1,-4,1,-2,-1,0,-2,-2,-3,0,-1,0,0,-3,-1,0,-2,1,-1,0,-4,1,-2,-3
"11:30-11:45",-1,-4,-1,1,1,3,3,-2,0,-3,-3,0,-3,-2,-2,-2,-2,-1,-1,0,-1,0,-2,1,0,0,2,0,-1,0,1
"11:45-12:00",0,-1,-2,1,0,0,1,0,-1,-5,3,-1,0,0,-2,-1,0,-2,0,0,0,-1,0,-1,0,0,-1,-1,1,1,0
"12:00-12:15",0,-3,0,0,0,1,-3,1,-1,1,-2,0,2,-3,0,-5,3,-4,0,2,1,-2,1,1,-1,0,-1,-1,-1,-2,-1
"12:15-12:30",-3,1,0,-1,0,0,1,-2,0,0,-2,0,0,-2,1,3,-1,-1,1,-1,0,-2,1,-1,0,1,0,2,-1,-1,-2
"12:30-12:45",0,-1,1,1,0,-1,0,-1,0,1,0,2,1,0,1,-3,-1,3,1,-2,-1,-4,4,0,1,-1,0,1,0,-1,1
"12:45-13:00",0,0,0,-5,0,0,2,1,1,1,-1,1,-1,1,1,1,0,1,-1,0,0,0,0,0,0,0,0,1,3,0,5
"13:00-13:15",1,2,1,-2,-1,2,0,0,1,-2,-1,-2,-1,-2,2,2,-2,-1,0,1,0,3,-2,0,1,-2,-1,1,0,4,2
"13:15-13:30",1,0,3,0,1,1,-2,3,2,1,-1,-2,-1,2,1,1,5,-1,-1,-4,0,0,-1,-1,-1,0,0,-2,1,1,0
"13:30-13:45",1,0,1,0,3,0,-1,-1,0,0,1,0,1,0,0,2,1,2,0,-1,-1,-1,2,0,0,0,0,0,0,3,-1
"13:45-14:00",1,1,1,2,0,-2,0,0,3,2,-3,-1,-1,2,-1,-1,-1,-2,4,0,0,-1,1,-1,0,0,-1,0,0,1,1
"14:00-14:15",-2,0,-2,2,2,-1,-1,1,4,-2,3,-1,-1,1,0,3,2,3,0,0,-3,0,0,-1,1,-1,-1,1,0,-1,3
"14:15-14:30",-2,-1,-4,1,0,0,0,0,-4,3,1,2,-1,-2,-5,-2,2,2,2,-1,0,-1,-1,1,1,-1,1,1,1,1,3
"14:30-14:45",-1,0,0,-1,-2,-2,-1,-7,-1,-2,0,1,0,4,-5,3,2,-1,2,-1,-1,-4,0,-1,2,0,1,0,-4,2,-3
"14:45-15:00",-1,0,2,2,1,0,-3,2,-4,-1,0,1,0,3,0,1,3,0,2,0,1,1,-1,-1,-2,0,0,0,1,3,3
"15:00-15:15",2,0,0,2,2,0,0,4,-1,1,-1,0,0,3,2,2,2,1,-4,0,0,-1,1,-1,0,0,-1,0,-1,0,-1
"15:15-00:30",1,3,0,2,-1,0,5,1,1,2,-1,0,0,2,-2,-1,0,4,-2,-2,0,2,1,2,1,0,0,-1,1,-1,2
"15:30-15:45",1,1,1,2,0,-1,1,0,-3,0,7,0,-1,-1,-1,0,8,6,-3,-1,1,-1,0,2,0,0,0,1,1,-1,-2
"15:45-16:00",2,-1,2,0,-4,0,0,-2,1,0,3,-2,0,0,3,-1,2,-2,-1,1,1,-2,1,0,0,2,-1,0,2,-2,3
"16:00-16:15",1,2,2,2,-1,1,0,-4,0,0,3,-3,0,-1,7,0,-3,1,0,0,0,2,3,0,-1,-1,0,0,-3,0,-1
"16:15-16:30",0,0,1,0,0,3,3,2,-1,0,0,0,0,-2,-5,3,9,-1,0,0,1,0,3,0,0,0,0,0,1,2,0
"16:30-16:45",2,4,1,1,-1,0,0,0,0,1,0,-2,1,0,0,2,-2,2,0,1,-1,2,0,0,0,0,0,1,1,1,2
"16:45-17:00",1,1,2,1,0,0,5,1,0,-1,0,1,0,4,-2,-1,2,5,0,0,0,-1,-1,1,0,1,1,-1,0,0,-2
"17:00-17:15",-3,2,0,4,0,0,2,2,3,1,-2,2,-1,1,1,2,-1,6,1,-1,1,2,1,0,0,1,0,2,3,1,3
"17:15-17:30",3,0,4,7,0,0,7,-1,2,1,1,-1,0,3,3,1,2,0,2,0,0,1,4,0,1,0,-1,1,6,2,5
"17:30-17:45",-1,5,-1,-1,0,-2,5,5,5,-1,-1,0,0,8,6,2,-1,5,0,0,3,2,1,1,0,-1,-1,3,2,5,3
"17:45-18:00",2,3,6,3,0,0,0,0,2,0,4,1,0,8,-1,2,1,-3,2,1,-1,0,5,0,-1,0,-1,11,6,7,1
"18:00-18:15",1,0,4,1,-1,1,5,11,1,9,-2,0,-1,7,4,4,-1,-2,1,0,0,2,-3,0,3,0,0,4,3,3,-3
"18:15-18:30",-1,0,7,-4,1,-1,3,2,9,2,5,0,2,8,8,6,4,8,0,2,3,-1,3,1,-2,1,0,6,1,-2,2
"18:30-18:45",4,1,3,-1,-1,1,8,6,6,3,-1,1,-1,0,0,0,0,0,0,1,0,1,2,2,0,-1,0,4,6,-1,4
"18:45-19:00",4,6,0,2,1,0,7,5,2,5,0,-1,0,-1,6,3,-1,-1,-1,-1,1,-2,-1,1,0,0,-1,3,0,0,-1
"19:00-19:15",-1,-1,4,1,1,-1,0,1,0,0,0,0,1,-4,2,2,-1,0,0,0,1,3,-1,0,0,0,2,-7,-1,0,1
"19:15-19:30",0,2,2,4,1,1,4,1,-1,2,-1,0,1,3,0,5,5,-1,0,-2,0,1,0,0,0,1,0,-5,-3,0,-2
"19:30-19:45",-2,1,1,3,0,0,-1,-3,1,2,3,1,0,3,-2,-3,8,-2,-1,0,0,1,1,-1,0,0,0,2,1,0,-1
"19:45-20:00",4,-2,-2,0,0,1,-2,3,-3,3,1,-1,-1,5,0,-5,0,2,0,3,0,-2,2,-1,1,0,0,6,3,-1,1
"20:00-20:15",-1,-2,2,0,0,1,2,-5,3,0,-1,-1,1,-1,0,0,1,3,0,-1,2,1,-1,-1,3,0,0,5,-2,0,2
"20:15-20:30",-3,2,-2,-1,2,0,-4,2,0,0,-2,0,4,1,0,-2,1,-3,0,1,0,3,1,0,0,0,-2,3,1,0,1
"20:30-20:45",-1,3,0,1,-1,0,0,5,1,2,-2,-1,0,2,0,1,-2,0,2,0,2,-5,-1,0,0,-1,-2,2,1,2,2
"20:45-21:00",0,1,6,0,0,-1,0,1,-1,6,1,0,0,1,1,3,1,2,0,0,0,1,3,0,3,1,0,1,-4,-2,-2
"21:00-21:15",0,-1,-2,-1,0,0,0,0,-1,-1,-1,0,0,3,1,1,2,1,1,-1,-1,-1,-3,-1,-1,0,0,3,-2,0,1
"21:15-21:30",0,4,1,-1,0,-1,4,-2,0,-2,0,0,0,-2,1,-1,0,-1,1,-1,1,-2,0,0,0,0,1,1,4,0,-1
"21:30-21:45",1,0,1,2,-1,1,4,-3,0,-2,-5,0,1,-1,-2,-1,0,0,1,1,-1,1,1,1,-1,0,0,-1,-1,0,-1
"21:45-22:00",0,1,2,1,-1,0,0,0,1,1,1,0,1,-1,1,-1,2,0,1,-1,0,0,2,1,0,0,1,-1,2,0,2
"22:00-22:15",0,-3,-2,0,0,-1,0,0,0,0,0,0,0,1,4,0,-2,-2,0,0,1,0,0,-2,0,0,0,-1,0,0,0
"22:15-22:30",-1,0,-2,-1,0,1,0,0,0,-1,1,1,0,1,2,0,3,0,0,1,0,0,1,0,0,0,1,0,0,0,-1
"22:30-22:45",0,2,-1,-1,0,0,1,0,-1,0,0,0,1,0,3,1,0,1,-1,0,0,0,0,0,0,0,1,0,0,-1,-1
"22:45-23:00",0,-1,0,-1,0,0,0,0,0,0,0,0,0,1,0,0,0,0,1,0,0,-1,0,0,0,0,0,1,3,0,1
"23:00-23:15",0,-1,-1,0,0,0,0,0,-1,0,0,0,0,0,0,0,0,1,0,0,0,0,0,0,0,0,0,1,0,0,0
"23:15-23:30",0,0,0,3,0,0,0,0,0,1,0,0,0,0,0,0,1,1,0,1,0,0,0,0,0,0,0,1,0,0,0
"23:30-23:45",0,-2,-1,-1,0,0,-1,-1,-1,-1,0,-1,0,0,1,0,0,0,0,0,0,-1,0,0,0,0,0,-1,1,0,0
"23:45-00:00",0,0,0,0,0,0,-1,1,0,0,0,0,0,0,0,-1,-1,0,0,1,0,0,0,0,0,0,0,0,0,0,0
