"","X0","X1","X2","X3","X4","X5","X6","X7","X8","X9","X10","X11","X12","X13","X14","X15","X16","X17","X18","X19","X20","X21","X22","X23","X24","X25","X26","X27","X28","X29","X30","X31","X32","X33","X34","X35","X36"
"1",0.929307508979222,0.0706924910207779,0,0,0,0,0,0,0,0,0,0,0,0,0,0,0,0,0,0,0,0,0,0,0,0,0,0,0,0,0,0,0,0,0,0,0
"2",0.576711548309624,0.361423326874066,0.0618651248163104,0,0,0,0,0,0,0,0,0,0,0,0,0,0,0,0,0,0,0,0,0,0,0,0,0,0,0,0,0,0,0,0,0,0
"3",0.120284810401817,0.456720983447955,0.361129081333917,0.0618651248163104,0,0,0,0,0,0,0,0,0,0,0,0,0,0,0,0,0,0,0,0,0,0,0,0,0,0,0,0,0,0,0,0,0
"4",0.00948431897264436,0.110800491429173,0.456720983447955,0.361129081333917,0.0618651248163104,0,0,0,0,0,0,0,0,0,0,0,0,0,0,0,0,0,0,0,0,0,0,0,0,0,0,0,0,0,0,0,0
"5",0.000251491914657197,0.00923282705798716,0.110800491429173,0.456720983447955,0.361129081333917,0.0618651248163104,0,0,0,0,0,0,0,0,0,0,0,0,0,0,0,0,0,0,0,0,0,0,0,0,0,0,0,0,0,0,0
"6",0,0.000251491914657197,0.00923282705798716,0.110800491429173,0.456720983447955,0.361129081333917,0.0618651248163104,0,0,0,0,0,0,0,0,0,0,0,0,0,0,0,0,0,0,0,0,0,0,0,0,0,0,0,0,0,0
"7",0,0,0.000251491914657197,0.00923282705798716,0.110800491429173,0.456720983447955,0.361129081333917,0.0618651248163104,0,0,0,0,0,0,0,0,0,0,0,0,0,0,0,0,0,0,0,0,0,0,0,0,0,0,0,0,0
"8",0,0,0,0.000251491914657197,0.00923282705798716,0.110800491429173,0.456720983447955,0.361129081333917,0.0618651248163104,0,0,0,0,0,0,0,0,0,0,0,0,0,0,0,0,0,0,0,0,0,0,0,0,0,0,0,0
"9",0,0,0,0,0.000251491914657197,0.00923282705798716,0.110800491429173,0.456720983447955,0.361129081333917,0.0618651248163104,0,0,0,0,0,0,0,0,0,0,0,0,0,0,0,0,0,0,0,0,0,0,0,0,0,0,0
"10",0,0,0,0,0,0.000251491914657197,0.00923282705798716,0.110800491429173,0.456720983447955,0.361129081333917,0.0618651248163104,0,0,0,0,0,0,0,0,0,0,0,0,0,0,0,0,0,0,0,0,0,0,0,0,0,0
"11",0,0,0,0,0,0,0.000251491914657197,0.00923282705798716,0.110800491429173,0.456720983447955,0.361129081333917,0.0618651248163104,0,0,0,0,0,0,0,0,0,0,0,0,0,0,0,0,0,0,0,0,0,0,0,0,0
"12",0,0,0,0,0,0,0,0.000251491914657197,0.00923282705798716,0.110800491429173,0.456720983447955,0.361129081333917,0.0618651248163104,0,0,0,0,0,0,0,0,0,0,0,0,0,0,0,0,0,0,0,0,0,0,0,0
"13",0,0,0,0,0,0,0,0,0.000251491914657197,0.00923282705798716,0.110800491429173,0.456720983447955,0.361129081333917,0.0618651248163104,0,0,0,0,0,0,0,0,0,0,0,0,0,0,0,0,0,0,0,0,0,0,0
"14",0,0,0,0,0,0,0,0,0,0.000251491914657197,0.00923282705798716,0.110800491429173,0.456720983447955,0.361129081333917,0.0618651248163104,0,0,0,0,0,0,0,0,0,0,0,0,0,0,0,0,0,0,0,0,0,0
"15",0,0,0,0,0,0,0,0,0,0,0.000251491914657197,0.00923282705798716,0.110800491429173,0.456720983447955,0.361129081333917,0.0618651248163104,0,0,0,0,0,0,0,0,0,0,0,0,0,0,0,0,0,0,0,0,0
"16",0,0,0,0,0,0,0,0,0,0,0,0.000251491914657197,0.00923282705798716,0.110800491429173,0.456720983447955,0.361129081333917,0.0618651248163104,0,0,0,0,0,0,0,0,0,0,0,0,0,0,0,0,0,0,0,0
"17",0,0,0,0,0,0,0,0,0,0,0,0,0.000251491914657197,0.00923282705798716,0.110800491429173,0.456720983447955,0.361129081333917,0.0618651248163104,0,0,0,0,0,0,0,0,0,0,0,0,0,0,0,0,0,0,0
"18",0,0,0,0,0,0,0,0,0,0,0,0,0,0.000251491914657197,0.00923282705798716,0.110800491429173,0.456720983447955,0.361129081333917,0.0618651248163104,0,0,0,0,0,0,0,0,0,0,0,0,0,0,0,0,0,0
"19",0,0,0,0,0,0,0,0,0,0,0,0,0,0,0.000251491914657197,0.00923282705798716,0.110800491429173,0.456720983447955,0.361129081333917,0.0618651248163104,0,0,0,0,0,0,0,0,0,0,0,0,0,0,0,0,0
"20",0,0,0,0,0,0,0,0,0,0,0,0,0,0,0,0.000251491914657197,0.00923282705798716,0.110800491429173,0.456720983447955,0.361129081333917,0.0618651248163104,0,0,0,0,0,0,0,0,0,0,0,0,0,0,0,0
"21",0,0,0,0,0,0,0,0,0,0,0,0,0,0,0,0,0.000251491914657197,0.00923282705798716,0.110800491429173,0.456720983447955,0.361129081333917,0.0618651248163104,0,0,0,0,0,0,0,0,0,0,0,0,0,0,0
"22",0,0,0,0,0,0,0,0,0,0,0,0,0,0,0,0,0,0.000251491914657197,0.00923282705798716,0.110800491429173,0.456720983447955,0.361129081333917,0.0618651248163104,0,0,0,0,0,0,0,0,0,0,0,0,0,0
"23",0,0,0,0,0,0,0,0,0,0,0,0,0,0,0,0,0,0,0.000251491914657197,0.00923282705798716,0.110800491429173,0.456720983447955,0.361129081333917,0.0618651248163104,0,0,0,0,0,0,0,0,0,0,0,0,0
"24",0,0,0,0,0,0,0,0,0,0,0,0,0,0,0,0,0,0,0,0.000251491914657197,0.00923282705798716,0.110800491429173,0.456720983447955,0.361129081333917,0.0618651248163104,0,0,0,0,0,0,0,0,0,0,0,0
"25",0,0,0,0,0,0,0,0,0,0,0,0,0,0,0,0,0,0,0,0,0.000251491914657197,0.00923282705798716,0.110800491429173,0.456720983447955,0.361129081333917,0.0618651248163104,0,0,0,0,0,0,0,0,0,0,0
"26",0,0,0,0,0,0,0,0,0,0,0,0,0,0,0,0,0,0,0,0,0,0.000251491914657197,0.00923282705798716,0.110800491429173,0.456720983447955,0.361129081333917,0.0618651248163104,0,0,0,0,0,0,0,0,0,0
"27",0,0,0,0,0,0,0,0,0,0,0,0,0,0,0,0,0,0,0,0,0,0,0.000251491914657197,0.00923282705798716,0.110800491429173,0.456720983447955,0.361129081333917,0.0618651248163104,0,0,0,0,0,0,0,0,0
"28",0,0,0,0,0,0,0,0,0,0,0,0,0,0,0,0,0,0,0,0,0,0,0,0.000251491914657197,0.00923282705798716,0.110800491429173,0.456720983447955,0.361129081333917,0.0618651248163104,0,0,0,0,0,0,0,0
"29",0,0,0,0,0,0,0,0,0,0,0,0,0,0,0,0,0,0,0,0,0,0,0,0,0.000251491914657197,0.00923282705798716,0.110800491429173,0.456720983447955,0.361129081333917,0.0618651248163104,0,0,0,0,0,0,0
"30",0,0,0,0,0,0,0,0,0,0,0,0,0,0,0,0,0,0,0,0,0,0,0,0,0,0.000251491914657197,0.00923282705798716,0.110800491429173,0.456720983447955,0.361129081333917,0.0618651248163104,0,0,0,0,0,0
"31",0,0,0,0,0,0,0,0,0,0,0,0,0,0,0,0,0,0,0,0,0,0,0,0,0,0,0.000251491914657197,0.00923282705798716,0.110800491429173,0.456720983447955,0.361129081333917,0.0618651248163104,0,0,0,0,0
"32",0,0,0,0,0,0,0,0,0,0,0,0,0,0,0,0,0,0,0,0,0,0,0,0,0,0,0,0.000251491914657197,0.00923282705798716,0.110800491429173,0.456720983447955,0.361129081333917,0.0618651248163104,0,0,0,0
"33",0,0,0,0,0,0,0,0,0,0,0,0,0,0,0,0,0,0,0,0,0,0,0,0,0,0,0,0,0.000251491914657197,0.00923282705798716,0.110800491429173,0.456720983447955,0.361129081333917,0.0618651248163104,0,0,0
"34",0,0,0,0,0,0,0,0,0,0,0,0,0,0,0,0,0,0,0,0,0,0,0,0,0,0,0,0,0,0.000251491914657197,0.00923282705798716,0.110800491429173,0.456720983447955,0.361129081333917,0.0618651248163104,0,0
"35",0,0,0,0,0,0,0,0,0,0,0,0,0,0,0,0,0,0,0,0,0,0,0,0,0,0,0,0,0,0,0.000251491914657197,0.00923282705798716,0.110800491429173,0.456720983447955,0.361129081333917,0.0618651248163104,0
"36",0,0,0,0,0,0,0,0,0,0,0,0,0,0,0,0,0,0,0,0,0,0,0,0,0,0,0,0,0,0,0,0.000251491914657197,0.00923282705798716,0.110800491429173,0.456720983447955,0.361129081333917,0.0618651248163104
"37",0,0,0,0,0,0,0,0,0,0,0,0,0,0,0,0,0,0,0,0,0,0,0,0,0,0,0,0,0,0,0,0,0.000251491914657197,0.00923282705798716,0.123490773442775,0.538855308702658,0.328169598881923
