"","X0","X1","X2","X3","X4","X5","X6","X7","X8","X9","X10","X11","X12","X13","X14","X15","X16","X17","X18","X19","X20","X21","X22","X23","X24","X25","X26","X27","X28","X29","X30","X31","X32","X33","X34","X35","X36"
"1",0.13748937837112,0.116259370502673,0.0928508812953615,0.110652257126728,0.100817818295372,0.092792889198061,0.0827662353329652,0.0698562538425414,0.0563565884270629,0.0434633721591203,0.0321275800221492,0.0228026961325081,0.0155734210205813,0.0102542106669149,0.00651914024884895,0.00400840589152367,0.00238693134139274,0.00137835199377263,0.000772775246566656,0.000421112414989746,0.000223272071030243,0.000115284902121082,5.80213822333207e-05,2.84855259990085e-05,1.36520357922618e-05,6.3912085531568e-06,2.92433334101203e-06,1.30839707680408e-06,5.72649248123517e-07,2.45254715221146e-07,1.02808510251354e-07,4.21895589960777e-08,1.6951544306165e-08,6.66997235216464e-09,2.57021071967058e-09,1.05535189441034e-09,4.64479252599192e-10
"2",0.137489333975417,0.116259335658907,0.0928508583065865,0.110652232541321,0.100817802634183,0.0927928814692082,0.0827662354144287,0.0698562612911687,0.0563566016569291,0.0434633891589452,0.0321275986996849,0.0228027146672998,0.0155734380580097,0.0102542253824155,0.0065191523014368,0.00400841531114126,0.00238693839871501,0.00137835708040164,0.000772778783375433,0.00042111479271127,0.000223273619424896,0.000115285880354356,5.80219825849389e-05,2.84858842992698e-05,1.36522439392892e-05,6.39132634575359e-06,2.92439832125063e-06,1.30843203957421e-06,5.7266760497196e-07,2.45264123923714e-07,1.02813219382483e-07,4.21918613399679e-08,1.6952644150393e-08,6.67048591433956e-09,2.5704452183175e-09,1.05546783792959e-09,4.64544093865644e-10
"3",0.137489123538625,0.116259170443649,0.0928507492028004,0.110652115804058,0.100817728116959,0.0927928445021197,0.0827662354572127,0.0698562962874542,0.0563566641306543,0.0434634696048409,0.0321276872111601,0.022802802608374,0.0155735189870159,0.0102542953624484,0.00651920968632674,0.0040084602164891,0.00238697208775125,0.00137838139706647,0.000772795717253198,0.000421126195886376,0.000223281058493433,0.00011529058911217,5.80248782891879e-05,2.84876162692191e-05,1.36532524274056e-05,6.39189847095713e-06,2.92471476364833e-06,1.30860277748371e-06,5.72757514632277e-07,2.45310351223062e-07,1.02836433375611e-07,4.22032508268931e-08,1.69581052449921e-08,6.67304598128382e-09,2.57161908344471e-09,1.0560511116476e-09,4.64872637150739e-10
"4",0.137488454481002,0.116258644901818,0.0928504016733972,0.110651743693541,0.100817489853605,0.0927927253876396,0.0827662339541583,0.0698564060676267,0.0563568616216346,0.0434637247216184,0.0321279685099569,0.0228030826010608,0.0155737770961519,0.0102545189367448,0.00651939334988504,0.00400860421096495,0.00238708033422575,0.0013784596984631,0.000772850372443895,0.000421163092346682,0.000223305193110695,0.00011530590966276,5.80343288050108e-05,2.84932873498458e-05,1.36565661408508e-05,6.39378538504425e-06,2.92576255424089e-06,1.30917049762106e-06,5.73057807462049e-07,2.45465477528099e-07,1.02914722909362e-07,4.22418653350986e-08,1.69767240236022e-08,6.68182585527098e-09,2.57567027426653e-09,1.05807904073161e-09,4.66027233837876e-10
"5",0.137486736151179,0.116257294278035,0.0928495069219922,0.110650784749658,0.100816873348374,0.0927924140726013,0.0827662244891093,0.069856682911885,0.0563573649064981,0.04346437764896,0.0321286905128854,0.0228038029861905,0.015574442692751,0.0102550967999087,0.00651986918975595,0.00400897821690409,0.00238736224749221,0.00137866421345636,0.000772993569516023,0.000421260084077717,0.000223368864451952,0.000115346483240491,5.8059459622317e-05,2.85084341417849e-05,1.36654581454719e-05,6.39887397411044e-06,2.92860318889948e-06,1.31071828203452e-06,5.73881377938445e-07,2.45893602154439e-07,1.03132229249848e-07,4.23499004884983e-08,1.7029202768075e-08,6.70676710883092e-09,2.58727457321835e-09,1.06394489988948e-09,4.69414414692835e-10
"6",0.137482903691328,0.11625427945973,0.0928475051768495,0.110648636850651,0.100815485487473,0.0927917045566297,0.0827661875582479,0.0698572858959157,0.0563584761708644,0.0434658272451372,0.0321302993133232,0.0228054130847811,0.015575934624824,0.0102563958327244,0.00652094209933317,0.00400982420597442,0.00238800210101457,0.00137913009688888,0.000773321055082569,0.000421482838451505,0.000223515758467244,0.000115440545117706,5.81180241658054e-05,2.85439285241478e-05,1.36864189297922e-05,6.41094479995332e-06,2.93538669544293e-06,1.31444066170668e-06,5.75876911206623e-07,2.46939183537126e-07,1.03667872010604e-07,4.26182985178886e-08,1.71607895818869e-08,6.7699172299756e-09,2.61696035379777e-09,1.07913309814064e-09,4.78338403484882e-10
"7",0.137475189771124,0.116248205273207,0.092843461128472,0.110644291319802,0.100812660619789,0.0927902392402149,0.0827660742810746,0.0698584637454407,0.0563606848425177,0.0434687280008331,0.0321335330775322,0.022808661547635,0.0155789552700998,0.0102590352220941,0.00652313006342649,0.00401155613363691,0.00238931747706848,0.00138009211626986,0.00077400054255153,0.000421947411609838,0.000223823818244205,0.000115638980588148,5.82423591220556e-05,2.86197957969203e-05,1.37315449614688e-05,6.43713109591106e-06,2.95022230573066e-06,1.32265147357164e-06,5.80318540102025e-07,2.49288632294274e-07,1.04883549628712e-07,4.3233866658074e-08,1.74659223432108e-08,6.91805399466533e-09,2.68744938029555e-09,1.11571333358417e-09,5.00272625985725e-10
"8",0.137460851103355,0.116236901449412,0.0928359113410194,0.110636165066945,0.100807340831931,0.092787433565175,0.0827657775833276,0.0698605733771093,0.056364727193168,0.0434740808883348,0.032139532505088,0.0228147150383148,0.0155846077264221,0.0102639949428458,0.00652725941720043,0.00401483989496455,0.00239182375975914,0.00138193483845678,0.000775309500568199,0.000422847842617037,0.000224424820992736,0.000116028838568047,5.84884709849297e-05,2.87711718683731e-05,1.38223496694199e-05,6.49029925102859e-06,2.98063109650423e-06,1.33965024104069e-06,5.89611063008171e-07,2.54258452047643e-07,1.07484907255549e-07,4.45670664656785e-08,1.81351611554783e-08,7.2472595743739e-09,2.84627522310728e-09,1.1994674473291e-09,5.51650283121531e-10
"9",0.137435882224844,0.116217191117415,0.0928226988426139,0.110621916272554,0.100797938263447,0.0927823821206676,0.0827650858128346,0.069864083707159,0.0563716356306587,0.0434833193692871,0.0321499522437962,0.0228252832718674,0.0155945237793129,0.0102727380995539,0.00653457560031022,0.00402068907111579,0.00239631363228552,0.00138525628228609,0.000777684450248556,0.000424493167408798,0.000225531369059188,0.000116752474056487,5.89492549699459e-05,2.90571997214796e-05,1.39956032351471e-05,6.59279004209632e-06,3.03988647048948e-06,1.37315261146931e-06,6.08144377468898e-07,2.64294219120283e-07,1.12806313115505e-07,4.73312606500801e-08,1.95422918449157e-08,7.94957559731613e-09,3.1902924041327e-09,1.38408664660777e-09,6.67738608288057e-10
"10",0.137394703079991,0.11618463568745,0.0928007864532175,0.110598233852205,0.100782171281283,0.0927737394899554,0.0827636137697979,0.0698695617254274,0.0563827767513439,0.0434983916150171,0.0321670760809504,0.022842754694441,0.0156110080345581,0.0102873532342156,0.00654687585056268,0.00403058290125842,0.00240395770985886,0.00139095064122461,0.00078178670107329,0.000427358036556607,0.00022747472711468,0.000118035044566771,5.97739432244577e-05,2.95744305626296e-05,1.43123360076632e-05,6.78232016974841e-06,3.15079041812539e-06,1.43665034550379e-06,6.43734580065589e-07,2.83830737997986e-07,1.23312851583099e-07,5.28693334405682e-08,2.2404500921435e-08,9.40065485187901e-09,3.91273048834587e-09,1.779094497011e-09,9.22705269223727e-10
"11",0.137329843554629,0.11613327397259,0.0927660599832794,0.110560612089994,0.100756880418868,0.0927595767576345,0.082760707216895,0.0698776324940831,0.0563998665896575,0.0435218256440191,0.0321939224266688,0.0228703304640427,0.0156371879777738,0.0103107089756233,0.00656665891795627,0.00404660402540738,0.00241642586493591,0.00140031109677668,0.000788586467943699,0.000432149331101354,0.00023075598903898,0.00012022268643965,6.11958084386115e-05,3.04763970703017e-05,1.48713140613406e-05,7.12102924520343e-06,3.35160011094079e-06,1.55320170779145e-06,7.09991775469701e-07,3.20737401171377e-07,1.43462762889317e-07,6.36570760321653e-08,2.80699220938249e-08,1.23205859434776e-08,5.3914556081843e-09,2.60352520601269e-09,1.46949127106673e-09
"12",0.137231674390762,0.116055394460808,0.0927131471191727,0.110503137953968,0.10071784142522,0.0927372216562429,0.082755319346084,0.069888902372573,0.0564249449674785,0.0435567543439684,0.0322343148577868,0.0229121318379272,0.0156771474166705,0.0103466021558748,0.00659727720414288,0.00407158568513203,0.00243602277260434,0.00141514938985832,0.000799464378752579,0.000439889361103731,0.000236112078372912,0.000123833286724268,6.35700961895936e-05,3.20011715161201e-05,1.58285284380314e-05,7.70890827359918e-06,3.70504923791288e-06,1.76134444986611e-06,8.30103465002523e-07,3.88682541963275e-07,1.81151178057851e-07,8.41652983224741e-08,3.90213596102344e-08,1.80620150120204e-08,8.35071190547399e-09,4.28678971075252e-09,2.61729403367215e-09
"13",0.137088203876904,0.115941356555426,0.0926352634559516,0.110418303759836,0.100659584694049,0.0927030880809103,0.0827458608195609,0.0699038425726508,0.0564603018154066,0.0436068898114242,0.0322929048999572,0.0229732672483425,0.0157360300103609,0.0103998876126737,0.00664308180588359,0.00410926147919892,0.0024658333914993,0.00143793020351441,0.000816330306474636,0.000452016930732619,0.000244598698111033,0.000129622353092668,6.74247337402795e-05,3.45092708491556e-05,1.74247435049752e-05,8.70328678841444e-06,4.31177718670356e-06,2.12411851109181e-06,1.04274884271503e-06,5.10917925394918e-07,2.50075324098852e-07,1.2230498319245e-07,5.97401238939388e-08,2.91155235843398e-08,1.41513664415869e-08,7.65431080997666e-09,4.97904517176232e-09
"14",0.136884985177925,0.115779497196069,0.0925241118505671,0.110296874267113,0.100575242652377,0.0926525091730862,0.0827300293023418,0.0699226299987368,0.0565083440903069,0.0436764287882122,0.0323751240913258,0.0230598337368116,0.0158200874601375,0.0104765660726212,0.00670954006224306,0.00416440126928142,0.00250986620190918,0.00147191217936536,0.000841754805508529,0.000470504291877662,0.000257690236119721,0.000138665268987747,7.35257954842272e-05,3.85341361835717e-05,2.00232752634521e-05,1.03463127740932e-05,5.32978007564155e-06,2.74247658895141e-06,1.41111229251639e-06,7.26188866129101e-07,3.73517373179395e-07,1.91793628130417e-07,9.81538080172378e-08,4.99763444568752e-08,2.53003752740186e-08,1.42618398044245e-08,9.74616431120073e-09
"15",0.136605151167355,0.115556137800916,0.0923698480637551,0.110127823806631,0.10045643979811,0.092579587072452,0.0827046287221723,0.0699449513495022,0.0565714041157757,0.0437698845938295,0.0324870557128414,0.0231788391422583,0.0159366562149934,0.0105838130451278,0.00680330914603813,0.00424291863276941,0.0025731822868002,0.00152128672605881,0.000879107361341065,0.000497986914209439,0.000277395749571949,0.000152456653863107,8.29594611566232e-05,4.48474414899079e-05,2.4160390564628e-05,1.30026910838235e-05,7.00187145853277e-06,3.77472624486685e-06,2.03629033327471e-06,1.09774693430759e-06,5.90255081964638e-07,3.15942182913154e-07,1.68008709684179e-07,8.8598180810157e-08,4.63257689205591e-08,2.69847653711245e-08,1.91896586344728e-08
"16",0.13622959669037,0.115255709253001,0.0921611282352752,0.109898362345494,0.10029324363207,0.0924770762581715,0.0826653924375946,0.0699697802483807,0.0566514934851938,0.0438918434382641,0.0326352179164518,0.0233380314340674,0.0160940451264076,0.0107299289263179,0.00693224545455034,0.0043519307848976,0.00266199359119656,0.00159130114926213,0.000932691481974868,0.0005378994897283,0.000306387421105653,0.000173025601312748,9.72309639932668e-05,5.45408302994904e-05,3.06104997392516e-05,1.72100233336713e-05,9.69339119603854e-06,5.46397636154295e-06,3.07672779167664e-06,1.72675571187773e-06,9.63575617995803e-07,5.3357358670108e-07,2.92668519359761e-07,1.58777174247847e-07,8.52464290564687e-08,5.10345606657812e-08,3.7554582763687e-08
"17",0.135737321180112,0.114861007316258,0.0918852505723291,0.109594066368278,0.100074193709152,0.0923363183418275,0.0826068274222874,0.0699951419217407,0.05675001274112,0.0440466496915302,0.0328262564960223,0.0235456271715024,0.0163013205812558,0.0109241927904364,0.00710532997422636,0.00449975066111991,0.00278371120191528,0.00168834935860011,0.00100786309024613,0.000594608143425447,0.000348134861839214,0.000203063157109721,0.000118379280685104,6.91245638759101e-05,4.04677327830264e-05,2.37439165033372e-05,1.39425023973192e-05,8.17582476729935e-06,4.77565545926817e-06,2.77172573665778e-06,1.59468391546292e-06,9.08051676588208e-07,5.11055151740261e-07,2.83972241002941e-07,1.55986178550942e-07,9.56739070073278e-08,7.26223727335031e-08
"18",0.135105917245864,0.11435356929687,0.0915283892035768,0.109199115067361,0.0997864162827222,0.0921472417460106,0.0825220976744671,0.0700178865000826,0.0568674381180068,0.044238038858898,0.0330665611473416,0.0238099464626532,0.0165679894433797,0.0111766135892731,0.00733249798327882,0.00469579594100584,0.0029469268010155,0.00182001350179517,0.00111111722846913,0.000673526499907369,0.000407036016263962,0.000246055913103603,0.000149104236626766,9.06420213594609e-05,5.52444939310644e-05,3.36995145505713e-05,2.05252798076297e-05,1.24486469388311e-05,7.49877746073716e-06,4.47595807230708e-06,2.64214665950892e-06,1.54071942695792e-06,8.86719874104766e-07,5.03286061610739e-07,2.82249890456789e-07,1.77047343403236e-07,1.38380634975709e-07
"19",0.134312190927728,0.113714162443059,0.091075917287545,0.108696631167422,0.0994158305520614,0.09189843835429,0.0824029642813147,0.0700334922494996,0.0570030081877121,0.044468739947219,0.0333618231605966,0.0241389665753836,0.0169035849603096,0.0114975766925683,0.00762436450227622,0.00495040132826192,0.00316131037220602,0.00199503834146889,0.00125012542312492,0.000781199897554359,0.000488531821619766,0.000306416140573058,0.000192899688736914,0.000121796591872412,7.69858541528983e-05,4.85900001848066e-05,3.05372167415107e-05,1.90586742655182e-05,1.17845613300611e-05,7.20524314875637e-06,4.34935277168414e-06,2.59039705471586e-06,1.52135795735238e-06,8.80608314326346e-07,5.03605012462639e-07,3.2274926780461e-07,2.59485378947705e-07
"20",0.133332883105319,0.11292336123419,0.0905128065493792,0.108069114544672,0.0989474438510641,0.0915773231650917,0.0822397966808474,0.0700359208227028,0.0571544377105001,0.0447400766638759,0.033716562780424,0.0245398181656759,0.0173171729945714,0.0118973952021752,0.00799184678483095,0.00527452803290682,0.00343741232189261,0.00222322275560264,0.00143370641481483,0.000925340688833893,0.000599189295173667,0.000389595856023409,0.00025418335700619,0.000166084709259017,0.000108396373283295,7.04609559991828e-05,4.54917145614933e-05,2.91014987475524e-05,1.84093265579236e-05,1.1498175260321e-05,7.08224474913833e-06,4.30093918449325e-06,2.57444240239271e-06,1.51825723989509e-06,8.8480196593058e-07,5.79029726701858e-07,4.78553472749254e-07
"21",0.132145458073569,0.111962187227542,0.0898240867367485,0.107298952073679,0.0983657279563946,0.091170377786647,0.0820216650496669,0.0700175433323161,0.057317684696395,0.0450515980184394,0.0341336581269318,0.0250182540043313,0.0178168035001289,0.0123857838336296,0.00844569336939839,0.00567937163780169,0.00378636376252649,0.00251521630722107,0.00167171443940557,0.001114797174161,0.000746735869766208,0.00050216940938723,0.000338410641714787,0.000227925564576522,0.000152973080203645,0.000102017163570972,6.7434436818035e-05,4.40905651400857e-05,2.84687702782673e-05,1.81312853567841e-05,1.13796913588569e-05,7.03913379936867e-06,4.29101577649522e-06,2.57683163845369e-06,1.52972054587442e-06,1.02190132892662e-06,8.67811789971198e-07
"22",0.130728921129722,0.11081278106911,0.0889953443267341,0.106368981767724,0.0976550628042495,0.0906634724961435,0.0817365179633132,0.0699691513437048,0.0574867937796811,0.0454007683843219,0.0346139097649038,0.0255781249516375,0.0184089393104606,0.0129712818722274,0.00899593858447239,0.00617587859842221,0.00421947660349671,0.00288221491449647,0.00197483317341922,0.00135944045086168,0.000940027577881088,0.000651867443329852,0.000452157031037113,0.000312774840785608,0.000215135149995328,0.0001467555711413,9.90701085939174e-05,6.60715353406912e-05,4.34764980927713e-05,2.82006440421005e-05,1.80187218991152e-05,1.13453587982282e-05,7.03998584509835e-06,4.30336979055559e-06,2.60173407078092e-06,1.7738609280433e-06,1.54727930975864e-06
"23",0.129064624319111,0.109459073423647,0.0880132365296979,0.105263084819749,0.0968002285518485,0.090042255536373,0.0813714431603107,0.0698800609650678,0.0576538342430248,0.0457827441993588,0.0351556745935191,0.0262209002752677,0.0190978993550253,0.0136606590455103,0.00965131029142399,0.00677419115284948,0.00474775429122061,0.00333555765199558,0.00235426961892403,0.00166995744114566,0.00118893545704293,0.00084754487804404,0.00060315197929476,0.000427207092514359,0.000300337632949108,0.000209094975211621,0.000143895496632086,9.77491110768963e-05,6.54784566082777e-05,4.32205240294203e-05,2.80963020135714e-05,1.79992859899706e-05,1.13654370754368e-05,7.07024858135112e-06,4.35270819607242e-06,3.02846670912514e-06,2.71248294507898e-06
"24",0.127137024153813,0.10788742464424,0.0868659974865214,0.103966779200275,0.0957869246871846,0.0892925940103801,0.0809130031160726,0.0697383108261151,0.0578089432643636,0.0461902573783316,0.0357545972971282,0.0269452664667123,0.0198853534484532,0.0144583412012545,0.0104186243401715,0.00748304802180779,0.00538133259782032,0.00388623520666511,0.00282134971005991,0.00205754419129268,0.00150413831225569,0.00109906720843018,0.00080024685494056,0.000578949616935029,0.000415153838099777,0.000294489760225551,0.000206329111912422,0.000142620053045024,9.71798687484641e-05,6.52380495389076e-05,4.31282827378187e-05,2.81024157238292e-05,1.80533902197386e-05,1.14274642659747e-05,7.1632437501619e-06,5.08558313535417e-06,4.67569735594733e-06
"25",0.12493435623596,0.106087203461911,0.0855439130102194,0.102467787188319,0.094602292260173,0.088401046723667,0.0803476318046436,0.0695309483775723,0.0579404781142735,0.0466136189164307,0.0364034620904851,0.0277468350913231,0.0207699046876708,0.0153658944101214,0.011302203741438,0.00830917518844152,0.00612887841573582,0.00454432978623984,0.00338702643247936,0.00253350139975553,0.00189681604019936,0.00141710331991962,0.00105330128855761,0.000776850441204094,0.000567309233539997,0.000409512310168926,0.000291824989062497,0.000205102951158635,0.000142078437468675,9.69604823500896e-05,6.51645151652793e-05,4.31782233625876e-05,2.82159975344228e-05,1.81709121776069e-05,1.15970535211957e-05,8.40066246772109e-06,7.92580526374599e-06
"26",0.122449197239205,0.104051279083531,0.0840397424375256,0.100756551090961,0.0932354152515776,0.0873553472765169,0.0796620748904478,0.0692443928173875,0.0580352733658625,0.047040847685224,0.0370921791297111,0.0286179829574411,0.0217467902746786,0.0163816036231005,0.0123033611563078,0.00925670468658513,0.00699698075505764,0.00531841434897563,0.0040613201798147,0.00310874290953667,0.00237824543325738,0.00181281900127055,0.00137297611070894,0.00103076474754949,0.000765649485126575,0.000561886955534049,0.000406955163718794,0.000290652116109296,0.000204594411253392,0.000141888979972384,9.69168745641161e-05,6.52891184130498e-05,4.33942372954084e-05,2.84289079136928e-05,1.84724269379751e-05,1.36518770976456e-05,1.32129938111381e-05
"27",0.119678891212809,0.101776406149141,0.0823490693405267,0.0988266745481448,0.0916777784367686,0.0861448751387773,0.0788438528826393,0.0688648580052636,0.058078992237545,0.0474579210088523,0.0378079108546133,0.0295478390394007,0.0228077239803885,0.017500176560028,0.0134199806685328,0.0103266598411316,0.00798957173918914,0.00621494524779706,0.00485271914064128,0.00379323683731695,0.0029593091655078,0.00229747305261634,0.00177042704767149,0.00135134792233715,0.00102002695650683,0.00076045808493192,0.00055944372695574,0.00040584024093422,0.000290184940197747,0.000204449519783233,0.000141894163389955,9.71672409130134e-05,6.56786835742341e-05,4.37683501059714e-05,2.89534597715659e-05,2.18291186095628e-05,2.16654566683048e-05
"28",0.116625823014858,0.0992634866887724,0.0804705660818733,0.0966752702265333,0.089923661173785,0.0847610930159526,0.077881725552506,0.0683788154304,0.0580565558253,0.0478491364265717,0.0385353350431462,0.0305224235462176,0.0239408947662368,0.0187125961006626,0.0146462295584273,0.0115165429614212,0.00910741607371422,0.00723768611236933,0.00576757383367642,0.00459540715435613,0.00364993765207278,0.00288192670798487,0.00225690108966295,0.00174974941402683,0.00134109387586105,0.00101507676856397,0.000758135119947832,0.000558392761239996,0.000405427460675182,0.00029010856034992,0.00020453477256631,0.000142353427237616,9.78458499867499e-05,6.63205202041574e-05,4.46629750367837e-05,3.4348666122785e-05,3.49457916614092e-05
"29",0.11329752825294,0.0965176985953802,0.0784061611151866,0.0943031990290704,0.0879704496789965,0.0831979306177831,0.0767661360419259,0.067773475407169,0.0579526299372846,0.048197567921966,0.0392570334645476,0.031524935419367,0.0251311265216586,0.0200061353448891,0.0159724230858526,0.012820056019871,0.0103477048661431,0.00838720136911884,0.00680952357499226,0.00552152982187207,0.00445851159909892,0.0035760860784186,0.00284324627524239,0.00223720934760594,0.00173999639583487,0.00133639415138211,0.00101288108356874,0.000757156666180746,0.000558055174376633,0.000405458376935005,0.000290324920576691,0.00020533566791087,0.000143504998010964,9.89244970277117e-05,6.7817705547676e-05,5.31964887662165e-05,5.54544874824603e-05
"30",0.109706636618056,0.0935484863242986,0.0761611025614583,0.091715191177959,0.0858188544501244,0.0814520978066464,0.0754896143906517,0.0670372640317643,0.0577521464589555,0.0484855949284112,0.0399539880145509,0.0325361758741293,0.0263601941223145,0.0213645394403159,0.017385055800757,0.014226976860857,0.0117037840178003,0.00966045508321185,0.00797899317102612,0.00657516122219273,0.00539125935093417,0.00438830547109561,0.00353935466244928,0.00282456872492341,0.00222797159845107,0.00173555596498576,0.00133433466370547,0.0010119883425077,0.000756927590650436,0.000558255412520909,0.000405887724809266,0.000291675373360304,0.000207247315510554,0.000145283538047441,0.000101384225268034,8.11014315416996e-05,8.65862537379348e-05
"31",0.105870653361569,0.0903694160638658,0.0737439165738216,0.0889198452521049,0.0834730242071859,0.0795233137485254,0.0740471224806992,0.0661602739533067,0.0574408347117878,0.0486954788445483,0.0406061605475699,0.0335350880222859,0.0276072819037681,0.022768368204707,0.0188670026198766,0.0157232038703829,0.0131650393638667,0.0110505451440545,0.00927279544949184,0.00775663720337968,0.00645168687227686,0.00532478584365653,0.00435356653921579,0.00352171321435753,0.00281585853585811,0.00222380049466037,0.00173364592466096,0.00133354917125471,0.00101192106093733,0.000757394983866492,0.000559026816591731,0.000408107164488971,0.000294786235843953,0.000210126590131433,0.00014925117375076,0.000121736615536576,0.000133041236094588
"32",0.101811590073129,0.0869979030601867,0.0711662633605262,0.0859295064064317,0.0809405523026674,0.0774144426536844,0.0724363254647668,0.065134668815556,0.0570057385106101,0.0488099602380273,0.0411931291232475,0.0344993871534611,0.0288495633628191,0.024195484801326,0.0203978831952393,0.0172909721144972,0.0147169514725551,0.0125465951125011,0.0106838699166038,0.009062678714597,0.00764007912773683,0.0063890067412758,0.00529207069374268,0.00433697918134899,0.00351354393047706,0.00281197171521225,0.00222206231166534,0.00173300409373145,0.0013337285301522,0.00101280768596933,0.000758708126956128,0.000562596050793566,0.000413074534439339,0.000299363285166933,0.000216409238691744,0.000179942709970425,0.000201186190216082
"33",0.0975554660147101,0.0834548274608295,0.0684427009154447,0.0827600336665629,0.0782323797115803,0.0751315343716715,0.0706577816272607,0.0639550268554712,0.0564356986524779,0.0488128520480421,0.0416947534075499,0.0354062540457903,0.0300628764654644,0.0256216692256186,0.0219545748837796,0.0189092345759141,0.0163413232165158,0.0141338167053442,0.0122011798526001,0.010486134223618,0.00895310863521518,0.00758123016446495,0.00635833865459624,0.00527655620723885,0.00432937046148822,0.00350996732263439,0.0028104442824772,0.00222162476884681,0.00173356212606618,0.00133526479262184,0.00101496290827523,0.000764332785986085,0.00057037862488125,0.000420214170807764,0.000309122828298821,0.000261957486458112,0.000299445853376626
"34",0.0931317908569762,0.0797641317667373,0.0655904295321796,0.0794305423507908,0.0753626705888578,0.0726838367374111,0.0687151063753334,0.0626186654735673,0.0557218281485272,0.0486896421986873,0.0420918704178343,0.036233082642556,0.0312224788030707,0.0270213366289859,0.0235118529178031,0.0205541881859519,0.0180166629940355,0.0157937304490333,0.0138097607460127,0.0120158570381388,0.0103835535098676,0.00889808106797427,0.00755259759919783,0.00634388814553291,0.0052695044941817,0.00432611124521761,0.00350867719531151,0.00281026932142032,0.00222272204633318,0.00173604885402561,0.00133866299461461,0.00102361458104608,0.000776255540002258,0.000581263050603653,0.000435042817764092,0.000375597117463615,0.000438645566931879
"35",0.0885737619646542,0.0759530248962371,0.0626295253347815,0.0759637324968772,0.0723492293663791,0.070084315171792,0.0666155994091305,0.0611263699673911,0.0548583289398464,0.0484283769847929,0.0423672166741228,0.0369584079249352,0.0323039447658178,0.02836836592876,0.0250431131907559,0.0221998562356752,0.0197185970296339,0.0175043849645212,0.0154907322852434,0.0136365057614146,0.0119198930018752,0.0103319555256277,0.00887107880095759,0.00753879789020993,0.00633697905080638,0.00526615941906461,0.00432468382177708,0.00350844159446442,0.00281173598554749,0.00222619810796455,0.00174088523552142,0.00135133565356331,0.0010411668905601,0.000792182883888361,0.000603028693926173,0.000530141651309975,0.000631946500152767
"36",0.0839231235562785,0.0720561545939285,0.059586390255184,0.0723900773330581,0.0692174989008636,0.067353529056382,0.0643739239397598,0.0594857499952712,0.0538454624010921,0.0480222109706921,0.0425075474913,0.037563596953473,0.0332844346783708,0.029636951666161,0.0265208077287877,0.0238181056016897,0.0214194662803494,0.0192395346370214,0.017220064392653,0.0153269156543244,0.013544312504969,0.0118686999903831,0.0103034237884112,0.00885468367833799,0.00752875151730331,0.0063302945359178,0.00526143194606231,0.00432138318122301,0.00350759626097179,0.00281393742048282,0.00223057449226674,0.00175688419612156,0.00137461349801699,0.00106212378105931,0.000821762978079314,0.000734966970961165,0.000893013172770282
"37",0.0800299892836338,0.0687885527692006,0.0570244386523531,0.0693745588715873,0.0665582601730616,0.0650156889855433,0.0624313800735944,0.0580337674678007,0.0529093297855686,0.0475881699212446,0.0425295689585125,0.037977764433973,0.0340198926280701,0.0306242352728386,0.0276965895873912,0.0251269762278002,0.02281408181456,0.0206797982262944,0.0186720606382022,0.0167619530065485,0.0149382226986673,0.0132014015268304,0.0115586846270505,0.0100199949179443,0.0085952318382854,0.00729257967795168,0.00611748492554039,0.00507221397788968,0.0041572486501753,0.00336870453805983,0.00269796789940772,0.00214860074229167,0.00170067248586138,0.00132923791205309,0.0010408581267861,0.000942668605147416,0.00116117007225703
