"","X0","X1","X2","X3","X4","X5","X6","X7","X8","X9","X10","X11","X12","X13","X14","X15","X16","X17","X18","X19","X20","X21","X22","X23","X24","X25","X26","X27","X28","X29","X30","X31","X32","X33","X34","X35","X36"
"1",0.000119162931451477,0.00014957878179155,0.000252003388350012,0.000412734331665284,0.000641379393898253,0.00096756156099267,0.00142089295450638,0.00202960452841438,0.0028227235684942,0.00382807165744075,0.00506942154306045,0.00656445914831294,0.00832234591040997,0.0103418299519822,0.0126097773696196,0.0151003687594358,0.0177751017802959,0.0205836355082451,0.0234654616737437,0.0263523088110251,0.0291711244910934,0.03184743179192,0.0343088444395394,0.0364885232209079,0.0383284209527783,0.0397828535568596,0.0408229454586427,0.0414506742730614,0.0416333237893272,0.0414778750732761,0.0413357863355144,0.0416475448678194,0.0410332012895829,0.0417606911657167,0.0500683796171706,0.0743957923738791,0.175618163749749
"2",0.000119162902243956,0.000149578745383428,0.000252003327460079,0.000412734232793843,0.000641379241894206,0.000967561334497084,0.00142089262650819,0.00202960406725001,0.00282272293844538,0.00382807081991488,0.00506942045850213,0.00656445777856812,0.00832234422154181,0.0103418279172942,0.0126097749726745,0.0151003659968097,0.0177750986638027,0.0205836320663901,0.0234654579522208,0.0263523048721419,0.0291711204120975,0.0318474276622941,0.0343088403574241,0.0364885192888992,0.038328417273399,0.0397828502283227,0.0408229425714611,0.0414506719111496,0.0416333220141069,0.0414778739559695,0.0413357860180306,0.0416475455818951,0.0410332029025633,0.04176069409767,0.0500683857890296,0.07439580558335,0.175618199215975
"3",0.000119162763659427,0.000149578572629835,0.00025200303853617,0.000412733763635422,0.000641378520592402,0.000967560259674804,0.00142089106995051,0.00202960187864016,0.00282271994819375,0.00382806684475203,0.00506941531054261,0.00656445127652412,0.00832233620408412,0.0103418182574018,0.0126097635919681,0.0151003528786403,0.0177750838638249,0.0205836157194909,0.0234654402749082,0.0263522861598485,0.0291711010312709,0.0318474080375876,0.0343088209547412,0.0364885005954621,0.0383283997762598,0.0397828343942526,0.0408229288308517,0.0414506606632691,0.0416333135514927,0.0414778686180324,0.0413357844806595,0.0416475489484678,0.0410332105434409,0.041760708012415,0.0500684151158911,0.0743958683860691,0.175618367862312
"4",0.000119162322380146,0.000149578022533177,0.000252002118491003,0.000412732269598994,0.000641376223499765,0.00096755683656582,0.00142088611231523,0.00202959490746576,0.00282271042293584,0.00382805418110826,0.00506939890928362,0.00656443055918217,0.00832231065549702,0.0103417874714292,0.0126097273171843,0.015100311060092,0.0177750366768106,0.0205835635917565,0.0234653838944022,0.0263522264662909,0.029171039191111,0.03184734540334,0.0343087590110833,0.036488440895811,0.038328343874341,0.0397827837800235,0.04082288487918,0.0414506246508134,0.0416332864150296,0.0414778514453865,0.0413357794362747,0.0416475595641068,0.0410332348132043,0.0417607523341347,0.0500685087016835,0.074396068967137,0.17561890661849
"5",0.000119161186777618,0.000149576606839581,0.000251999750621936,0.000412728424292217,0.000641370310951957,0.000967548025125687,0.001420873349856,0.00202957695999288,0.00282268589754827,0.00382802157161452,0.0050693566702936,0.00656437719788697,0.00832224484115289,0.0103417081530865,0.0126096338414535,0.015100203278883,0.0177749150346408,0.0205834291833282,0.0234652384850734,0.0263520724709066,0.0291708796100572,0.0318471837183206,0.034308599046709,0.0364882866565372,0.0383281993683417,0.0397826528541671,0.0408227710867519,0.041450531295465,0.0416332159256631,0.0414778066458363,0.0413357659389886,0.0416475865213741,0.0410332970595934,0.0417608664406077,0.0500687502378307,0.0743965872346594,0.175620299118743
"6",0.000119158647613772,0.000149573441242247,0.000251994455607322,0.00041271982490838,0.000641357087516989,0.000967528316587025,0.0014208448012848,0.00202953680858476,0.00282263102360679,0.0038279486001974,0.0050692621365854,0.00656425775223577,0.00832209749386762,0.0103415305379005,0.0126094244793422,0.0150999618197541,0.0177746424536168,0.0205831279107869,0.0234649124538737,0.0263517270705546,0.0291705215451482,0.0318468207767075,0.0343082397908946,0.0364879400595212,0.0383278744197691,0.0397823581909911,0.040822514696912,0.0414503206176287,0.0416330564424227,0.0414777047406904,0.0413357342821845,0.041647645758573,0.0410334356317892,0.0417611217044787,0.0500692922894661,0.0743977520025485,0.175623429934579
"7",0.000119153521190221,0.000149567049690767,0.000251983763928079,0.000412702459745823,0.00064133038228273,0.000967488510198249,0.00142078713332744,0.00202945569214141,0.00282252014730512,0.00382780113256021,0.00506907105917593,0.00656401627316189,0.00832179954198947,0.0103411712952924,0.01260900091514,0.015099473180046,0.017774090660351,0.0205825178275199,0.0234642519847099,0.0263510270713299,0.0291697955411663,0.0318460844977055,0.0343075105501845,0.0364872360199439,0.0383272137984799,0.0397817585129899,0.0408219921954713,0.0414498904394196,0.0416327297847115,0.0414774946644426,0.0413356666697851,0.0416477627455003,0.0410337138589565,0.0417616373540006,0.0500703915831364,0.0744001183859174,0.175629793797073
"8",0.000119143957807186,0.000149555125327324,0.000251963815521897,0.000412670057136132,0.000641280545996185,0.000967414215652532,0.00142067948674924,0.0020293042511937,0.00282231310949021,0.00382752571449796,0.00506871411644503,0.00656356507066394,0.00832124267581278,0.0103404996871951,0.0126082088111066,0.0150985590684383,0.0177730580218731,0.0205813756380796,0.0234630149079802,0.0263497153013559,0.0291684342837088,0.0318447031095152,0.0343061413857885,0.0364859130649766,0.0383259711862341,0.0397806291302441,0.040821006561214,0.0414490770961521,0.0416321099074021,0.0414770930062393,0.0413355321926065,0.0416479750721603,0.0410342293659656,0.0417625998728006,0.0500724533017262,0.0744045660110037,0.17564176187391
"9",0.000119127235055781,0.000149534272333532,0.000251928927189501,0.000412613381398045,0.000641193365594009,0.000967284230437501,0.00142049111801088,0.00202903919866736,0.00282195067676811,0.00382704346825995,0.00506808896692875,0.00656277461657744,0.00832026681607977,0.010339322362237,0.0126068197542809,0.0150969554201471,0.0177712456527484,0.0205793700427788,0.0234608415582384,0.0263474093877818,0.0291660398251492,0.0318422714620585,0.0343037292367141,0.0364835800487872,0.0383237772910471,0.0397786322569454,0.040819260557481,0.0414476324590492,0.041631004252518,0.0414763704176953,0.0413352796893461,0.0416483339946149,0.0410351233424955,0.0417642839628487,0.0500760809931719,0.0744124115369822,0.175662888221553
"10",0.00011909952529888,0.000149499715363527,0.000251871105371279,0.000412519439288634,0.000641048839609724,0.000967068707285502,0.00142017873272301,0.00202859955062093,0.00282134936119739,0.00382624316097967,0.00506705120813545,0.00656146203514423,0.00831864579960405,0.0103373659465579,0.0126045105355826,0.0150942882457301,0.0177682298358098,0.0205760308708977,0.0234572209094747,0.0263435653353403,0.0291620451928758,0.0318382113810744,0.0342996978418673,0.0364796765401237,0.0383201016376188,0.0397752811474553,0.0408163241333847,0.0414451955152353,0.0416291302450071,0.0414751339330816,0.0413348276252621,0.041648904629363,0.0410365899667726,0.0417670760835205,0.0500821351502021,0.0744255429555765,0.175698277161532
"11",0.00011905565132883,0.000149444993954537,0.000251779533299187,0.000412370643894912,0.00064081988633035,0.000966727218306953,0.00141968366439988,0.00202790263142417,0.00282039591947442,0.0038249738287087,0.00506540473342023,0.00655937879621137,0.00831607203095238,0.0103342583211669,0.0126008407931402,0.015090047481557,0.0177634320470534,0.0205707153938684,0.0234514534507188,0.0263374374040692,0.0291556718703007,0.0318317275012411,0.0342932527987557,0.0364734280738948,0.03831420903629,0.0397698988283326,0.0408115964555584,0.0414412587490473,0.0416260868904329,0.0414731048697097,0.0413340503553337,0.0416497638391116,0.041038884768483,0.0417714990443273,0.050091798249667,0.0744465719329594,0.175755002313245
"12",0.000118988862527912,0.000149361682187696,0.000251640099836697,0.000412144045187729,0.000640471152464642,0.000966206965510579,0.00141892925965854,0.00202684036039036,0.00281894222309242,0.00382303787337705,0.00506289267200278,0.006556199103655,0.0083121419346559,0.010329510787762,0.0125952316026405,0.0150835618038818,0.017756089906541,0.0205625754620451,0.0234426147100371,0.0263280383832676,0.0291458873453722,0.0318217627670015,0.034283335829752,0.0364638001054974,0.038305114225196,0.0397615744727616,0.0408042650763342,0.0414351312096837,0.0416213226849756,0.0414698927893162,0.0413327604136827,0.0416509944316085,0.0410423296845035,0.0417782342055533,0.0501066399376629,0.0744789916352921,0.175842544295054
"13",0.000118890645333108,0.00014923915081055,0.000251434998803324,0.000411810674016521,0.000639957994271984,0.000965441244962201,0.00141781862522758,0.00202527603834144,0.00281680079795602,0.00382018502933648,0.00505918942544836,0.00655150962661314,0.00830634300507285,0.0103225020810617,0.0125869461396224,0.0150739756973898,0.0177452305031927,0.0205505270522664,0.0234295211267961,0.0263141020389955,0.0291313645385225,0.0318069553988328,0.0342685799867508,0.0364494522776597,0.0382915361213735,0.0397491186299996,0.0407932631847669,0.0414258989092155,0.0416141001559645,0.0414649654929296,0.0413306864209639,0.0416526748264439,0.0410473135969924,0.041788139611829,0.0501286796343561,0.0745273350311358,0.175973234286715
"14",0.000118750600223197,0.000149064412033102,0.000251142466123386,0.000411335109053537,0.000639225799817383,0.000964348416415365,0.00141623310226403,0.00202304214922644,0.00281374173901908,0.00381610813994643,0.00505389502192903,0.00654480212053651,0.00829804436708238,0.0103124665395884,0.0125750751455043,0.0150602319360487,0.0177296496657756,0.0205332261816464,0.0234107025587013,0.0262940522802419,0.0291104478226131,0.0317856020980333,0.0342472705092472,0.0364286975316372,0.038271855903321,0.0397310211013077,0.0407772281883238,0.0414123851515832,0.0416034589100616,0.0414576161201971,0.0413274467211194,0.0416548630975208,0.0410542862167688,0.0418022604450968,0.0501604394126595,0.0745973188817093,0.176162664137592
"15",0.000118556400552408,0.000148822066195144,0.000250736687072336,0.000410675319404818,0.000638209733991095,0.000962831501054996,0.00141403164717662,0.00201993943122025,0.00280949135125409,0.00381044121655816,0.00504653240744899,0.00653546973023842,0.0082864918377613,0.0102984876449595,0.0125585286441916,0.0150410611697131,0.0177078991209904,0.0205090533662632,0.0233843838187331,0.0262659816219193,0.0290811283507973,0.0317556302875821,0.0342173141498483,0.03639946882141,0.0382440815528168,0.0397054138832944,0.0407544637655961,0.0413931125812759,0.0415881785692961,0.0414469282625668,0.0413225190799466,0.0416575749857,0.0410637442536575,0.0418218298139799,0.0502049829881443,0.0746959645814909,0.176430039355866
"16",0.000118293851882726,0.000148494373694289,0.000250187912980726,0.000409782847258112,0.000636835006126009,0.000960778557585388,0.00141105133889383,0.00201573753025931,0.00280373295014533,0.00380276036396567,0.00503654844202708,0.00652280796090011,0.00827080872611707,0.0102794984479235,0.0125360357331407,0.0150149807623512,0.017678284012303,0.0204761094192616,0.0233484783361433,0.0262276423020528,0.0290410322611428,0.0317145831032441,0.0341762207479314,0.0363592971894018,0.0382058224969961,0.0396700426038617,0.0407229085015058,0.0413662696515688,0.0415667438017676,0.0414317407098547,0.0413152073146217,0.0416607557524674,0.0410762088480656,0.041848257537555,0.050265935322592,0.0748316835887116,0.176798441693668
"17",0.000117947066695073,0.000148061470897437,0.000249462819013493,0.000408603382485199,0.000635017741131202,0.000958063959107118,0.00140710919293352,0.00201017749437507,0.00279611018195173,0.0037925880618998,0.00502331925009388,0.00650602115819917,0.00825000343660749,0.0102542902026806,0.0125061540539274,0.0149803047922555,0.017638873008716,0.0204322251393541,0.0233005968047271,0.0261764532050856,0.0289874251603728,0.0316596207347223,0.0341211007819048,0.0363053049859928,0.0381542780964968,0.0396222500652902,0.0406801144898062,0.0413296845643305,0.0415373140758158,0.0414106139268069,0.0413046062314923,0.0416642462509965,0.0410921937230674,0.0418831049936121,0.0503474775495,0.0750143149727264,0.177294966974897
"18",0.000117498751477079,0.000147501726485354,0.000248525097424653,0.000407077720746716,0.000632666442373812,0.000954550555340319,0.00140200526332638,0.00200297608758299,0.00278623284297618,0.00377940078720012,0.00500615992279499,0.00648423451922339,0.00822298393658964,0.0102215293262898,0.0124672891373415,0.0149351655117261,0.0175875214292147,0.020374985469448,0.0232380715758887,0.0261095235463092,0.0289172340526407,0.0315875394987536,0.034048680492961,0.0362342160204796,0.0380862419340743,0.039558973975855,0.040623238060302,0.0412808088515693,0.041497700254784,0.0413818002383875,0.0412895665750943,0.0416677444450555,0.0411121648140082,0.0419280460027191,0.0504543152736381,0.0752551091033591,0.177950720756527
"19",0.000116930602637451,0.000146792233997946,0.000247336279548998,0.000405143094805219,0.000629684031725219,0.000950092700592767,0.00139552700750116,0.00199383189388427,0.0027736851661677,0.00376263994731455,0.00498433855266533,0.00645651163551028,0.00818857912503242,0.0101797827758862,0.0124177237946593,0.0148775465438828,0.0175219077960929,0.0203017687045831,0.0231579975709684,0.0260236943130183,0.0288270879499679,0.03149481013332,0.0339553363229834,0.0361423846283181,0.0379981241060746,0.0394767612514862,0.0405490451392284,0.0412167131660317,0.0414453505857965,0.0413432201645336,0.0412686621518064,0.0416707640220007,0.0411364924950164,0.0419848139526441,0.0505916181596551,0.0755666505758394,0.17880065142479
"20",0.00011622379569064,0.000145909421360558,0.000245856754691395,0.000402734827928104,0.000625970389303706,0.000944540033974283,0.00138745475296304,0.00198243298989158,0.00275803628039077,0.00374172574536363,0.0049570941263419,0.00642187699395511,0.00814556642880998,0.0101275510785536,0.0123556567151249,0.0148053269279328,0.0174395829153439,0.0202097998784307,0.0230572889243046,0.0259155968116692,0.0287133767082026,0.0313776351056447,0.033837148755865,0.036025844077971,0.0378859922979429,0.0393718000337908,0.0404539327430321,0.0411340971026948,0.0413773481776803,0.0412924471971838,0.0412401614956183,0.0416725923685265,0.0411653984993367,0.0420551368180376,0.0507649312735087,0.0759627183944229,0.179883213158484
"21",0.000115359547997143,0.000144829752948428,0.000244046945270209,0.000399788243838071,0.000621425293029848,0.00093774186455646,0.00137756805500869,0.0019684658938962,0.00273885244967776,0.00371607346467273,0.00492365762682956,0.00637934263770434,0.00809270467248143,0.0100633079051068,0.0122792490181026,0.0147163346421105,0.0173380300299951,0.0200962168389024,0.0229327498910631,0.0257817269458238,0.0285723268764431,0.0312320239585538,0.0336899748933941,0.0358803740167662,0.0377456317603056,0.0392399699901182,0.0403339676323175,0.0410293145274352,0.0412904218610268,0.0412267032671228,0.0412020065733663,0.0416722505078613,0.0411989001313517,0.0421406624398124,0.0509800597928333,0.0764580835307542,0.181239856521488
"22",0.000114319730429801,0.00014353049356573,0.000241868587140323,0.000396240750553754,0.000615951631462266,0.000929551973902804,0.00136565267548959,0.00195162541450062,0.00271571058195291,0.00368511150097982,0.00488327548573912,0.00632793791671949,0.00802877092389196,0.009985544655331,0.0121866769970783,0.0146084076296013,0.0172147338938984,0.0199581467326867,0.0227811576774018,0.0256185328990168,0.0284000923396045,0.0310538846752403,0.0335095380416268,0.0357015856181435,0.0375726233143826,0.0390769105546592,0.0401849423583793,0.0408984152372832,0.0411809718385055,0.0411428668552283,0.041151800963484,0.041668457817188,0.041236754838557,0.0422428772340904,0.0512429302599835,0.0770682471278039,0.182914352774464
"23",0.000113087499330838,0.000141990498659429,0.000239286055454594,0.000392034001344102,0.000609458741277373,0.000919833614783362,0.00135150786286805,0.00193162495025385,0.00268821239617808,0.00364830033307209,0.00483523434251169,0.00626674101861539,0.00795259971317957,0.00989281814209811,0.0120761888284386,0.014479459797376,0.0170672559624907,0.0197927898707892,0.0225993540089872,0.0254225129688797,0.0281928565322972,0.0308391279848369,0.0332915314922695,0.035485021994065,0.0373624374395231,0.0388781057482264,0.0400024480009671,0.0407372029639578,0.0410451108710006,0.0410374952221723,0.0410868096925257,0.0416596043942335,0.0412784085337931,0.0423630222029783,0.0515594331223082,0.0778091260272217,0.184951967171001
"24",0.000111647921157174,0.000140190996310555,0.000236267678352567,0.000387116038936663,0.000601865724824994,0.000908464490240341,0.00133495362040312,0.00190820679916476,0.00265599864423224,0.00360515162824703,0.00477888606900216,0.0061949109638022,0.00786312300342699,0.00978379942363596,0.0119461629539287,0.0143275493600751,0.0168933127572753,0.0195975077574467,0.0223843420072164,0.0251903199899568,0.0279469426282694,0.0305837810927098,0.0330317331847397,0.0352262708854489,0.0371105419051183,0.0386389836005556,0.0397819622786322,0.0405413091345682,0.0408787211900328,0.040906861745004,0.0410039725349697,0.0416437337191012,0.0413229509879671,0.0425020102710668,0.0519352519457086,0.0786966939439416,0.187398501124496
"25",0.000109988561280603,0.000138116325324077,0.000232786978614707,0.00038144332542242,0.000593104597112081,0.000895341487433311,0.0013158376340853,0.00188115201379318,0.00261876274943042,0.00355524662915639,0.00471367194731079,0.00611171865156106,0.00775940915960655,0.00965732165931228,0.0117951656207385,0.0141509466162236,0.0166908541075264,0.0193699116357016,0.022133384431932,0.0249188681875274,0.0276589274302548,0.0302841065599165,0.0327261271037272,0.0349210857546403,0.0368125194803151,0.0383550272525265,0.0395189507752003,0.0403062809045393,0.0406775264970065,0.0407470086246499,0.0408999320200124,0.0416185379387019,0.0413690815290743,0.0426603492460495,0.0523756858062606,0.0797465895002316,0.190299231257766
"26",0.000108100010849027,0.000135754596727494,0.000228823788326807,0.000374982568089262,0.000583123123199277,0.000880384957432145,0.0012940415551958,0.00185028936873459,0.0025762632636323,0.00349825301809869,0.00463914494739808,0.0060165756099556,0.00764069923334573,0.00951242493500796,0.0116220051270438,0.0139481982925406,0.0164581379955677,0.0191079478886496,0.0218440992859091,0.0246054381800837,0.0273257544884731,0.0299367217791687,0.03237102690407,0.0345655109537101,0.0364641917209984,0.0380218942067313,0.0392089783560973,0.0400276812672345,0.0404371776816868,0.0405538145135694,0.0407710767348377,0.0415813675723727,0.0414150878903813,0.0428380745415429,0.0528854717607995,0.080973703872671,0.193697778009833
"27",0.000105976329215842,0.000133098250437166,0.00022436518896854,0.000367712263244937,0.000571887224912789,0.000863542358356517,0.0012694863695674,0.0018155030583425,0.00252833461259167,0.00343393954173656,0.00455498915897511,0.00590905923218335,0.00750643903158969,0.00934839617262533,0.0114257805019347,0.0137181857780056,0.016193798912275,0.0188099767973624,0.0215145489055393,0.0242477759288267,0.0269448419926344,0.0295387144324936,0.0319631971015,0.0341560063891074,0.036061744475868,0.0376355397338733,0.0388478272911205,0.0397011984054699,0.0401533501898114,0.0403230758749543,0.040613599784779,0.0415292567783417,0.0414588404815896,0.0430346954137289,0.0534686143705158,0.0823917618196016,0.197634939847884
"28",0.000103615383098201,0.000130144483380214,0.000219406236867946,0.000359623892223106,0.000559382854247899,0.000844791106469769,0.0012421366244834,0.00177673879626734,0.00247489567116121,0.00336218777261168,0.00446103554966577,0.00578893342528725,0.00735630560661226,0.00916480243202715,0.0112059225627483,0.0134601747970603,0.0158969068613014,0.0184748413802584,0.0211433188632672,0.0238441815947103,0.0265141810882922,0.029087749348601,0.0314999671118509,0.0336895669455523,0.0356018504851795,0.0371923400597279,0.0384316181051611,0.0393227608520622,0.0398218502837304,0.0400506001358764,0.0404235715012794,0.0414589645917162,0.0414978036922197,0.043249157959327,0.0541282291806086,0.0840129106797356,0.202147532085294
"29",0.000101019068188519,0.000126895531037275,0.000213950443437778,0.000350722719107183,0.000545617254338155,0.000824140514685856,0.00121200333433069,0.00173400805844268,0.00241595580483167,0.00328300050856452,0.00435727338079915,0.00565616379509159,0.00719022704392428,0.0089615161945288,0.0109622256133807,0.0131738544265498,0.0155670145319446,0.0181019234343262,0.0207295834018117,0.0233935846386108,0.0260324206035818,0.028582162451765,0.0309793336123628,0.033163832020582,0.0350817844150403,0.0366892107953799,0.0379569288787096,0.0388886545902163,0.0394387268747853,0.0397323080206468,0.0401970247344665,0.0413670317614458,0.0415290650553898,0.0434798274225226,0.0548664066247233,0.0858473320429844,0.20726727039743
"30",9.81934044795379e-05,0.000123358791274658,0.000208009991157767,0.000341028158461375,0.000530619557698408,0.000801632740901945,0.00117914544828601,0.00168739029844524,0.00235161813311746,0.00319650646893654,0.0042438568156456,0.0055109267466988,0.00700839473716299,0.00873873158969551,0.0106948684801583,0.0128593638512403,0.0152041907009392,0.0176911844777109,0.0202731547223509,0.0228956021056318,0.0254989347579315,0.0280210380340793,0.0304000471665069,0.032577180890286,0.0344995259162345,0.0361237161758658,0.0374209086634543,0.0383956380007846,0.0390003852145701,0.0393643419001588,0.039930050377757,0.0412498520164996,0.0415493822332283,0.0437244914746478,0.055684101987329,0.0879028900484484,0.213019737922188
"31",9.51485026247102e-05,0.000119546786904964,0.000201605678953168,0.000330573702003402,0.000514440703271793,0.000777342716116394,0.00114366983236322,0.00163703306150747,0.00228207990365716,0.00310296112412159,0.00412110648544287,0.00535361217138002,0.0068112676985255,0.00849697095978432,0.0104044240899531,0.0125173058352797,0.0148090385751221,0.0172431900040162,0.0197745142039871,0.0223505778143041,0.024913871204648,0.0274042663362654,0.0297616797501682,0.0319288102355212,0.0338538467877781,0.0354941650188711,0.0368213808574017,0.0378410505585675,0.0385036985348888,0.0389431766028136,0.0396189001950107,0.0411037558398343,0.0415552469004627,0.0439803851366958,0.0565810559013991,0.0901848287583976,0.21942347153192
"32",9.1898403999056e-05,0.00011547697010211,0.000194766601848305,0.000319406411469654,0.000497152682127399,0.00075137706474633,0.00110572978004029,0.00158315001110376,0.00220762998654072,0.0030027436566671,0.00398950598955046,0.00518481965930728,0.00659956878709787,0.00823708156126273,0.0100918572755655,0.0121487464435288,0.0143826984170214,0.0167591161553798,0.0192348243835813,0.0217596009620085,0.0242781775678647,0.0267325792240805,0.0290646705843981,0.0312187908612002,0.0331443789347166,0.0347996898019236,0.0361569327227327,0.0372229113496344,0.0379461137132734,0.038465728929125,0.0392600936211945,0.040925104228768,0.0415429638407189,0.0442442370897161,0.0575557486370486,0.092695529206548,0.226489198484071
"33",8.84608061823792e-05,0.000111171383162083,0.000187529588915397,0.000307586016259579,0.000478847170318772,0.000723872102905448,0.001065522173269,0.00152601703546417,0.00212864371133277,0.00289635034017543,0.00384969368625714,0.00500534866781575,0.00637427335569142,0.00796022296612424,0.0097585114166278,0.0117552016414796,0.0139268350688586,0.0162407393749661,0.0186559221537229,0.0211245044495204,0.0235936065691932,0.0260075637986357,0.0283103498141073,0.0304481028191544,0.0323716619880221,0.0340403073892316,0.0354269892691838,0.0365400053775799,0.037325748750156,0.0379294635765922,0.0388505263124735,0.0407103904812707,0.0415087436324496,0.0445123363478082,0.0586053885029406,0.0954343290967954,0.234219233165319
"34",8.48567665403788e-05,0.000106656291797821,0.00017993859501358,0.000295183935552791,0.000459634044744919,0.00069499166098285,0.00102328438709414,0.00146596799102772,0.00204557720504987,0.00278438725191484,0.00370245361923727,0.00481618760018847,0.00613659656411707,0.00766785288001092,0.0094060932616468,0.0113386218807162,0.0134436233393758,0.0156904239114841,0.0180403099580684,0.0204478615520438,0.0228627201023858,0.0252316758551761,0.0275009632754059,0.0296186732304761,0.0315371956221397,0.0332169868368308,0.0346318969464048,0.0357919826651296,0.0366415062237997,0.0373325181185203,0.0383876000174469,0.0404563638985621,0.0414488174498503,0.0447806175278324,0.0597259039942621,0.0983973123053591,0.242606763233773
"35",8.11110356725644e-05,0.000101962609451569,0.000172045425872133,0.00028228448549005,0.000439643297055518,0.000664930036732558,0.000979298735799601,0.00140340122985198,0.00195897674636288,0.00266758337736943,0.00354873348897126,0.00461853796306183,0.00588802524502396,0.00736176843265183,0.00903672553076601,0.0109014580369765,0.0129358293840087,0.0151112207653602,0.0173912743630621,0.019733126017374,0.0220890524957395,0.0244084275736399,0.0266398853912867,0.0287336145632814,0.030643702683379,0.0323319359846595,0.0337732312715303,0.0349796827479927,0.035893410077488,0.0366740430056162,0.0378695449941653,0.0401602997971437,0.0413596534765735,0.045044758405792,0.0609116971918773,0.101576311846541,0.251632812286341
"36",7.72565154316341e-05,9.71315006943739e-05,0.000163919191651473,0.000269000387516153,0.000419049181562999,0.000633948506782945,0.000933946227096621,0.00133885659819419,0.00186958618551238,0.00254693678341499,0.00338983893936748,0.00441406694875046,0.00563063948178682,0.00704450758211439,0.0086534386503654,0.010447253143933,0.0124075107392219,0.0145076824305538,0.0167138195286298,0.0189856854754133,0.0212782819238076,0.0235436716247307,0.0257330071888657,0.0277987043091531,0.0296966849128338,0.031390214212201,0.0328554439440911,0.0341067869333727,0.0350842348733279,0.0359557600692418,0.0372968034395119,0.0398210352903769,0.0412386561846001,0.0453002229836679,0.0621538685507753,0.104953179020749,0.261249370540661
"37",7.40081977747191e-05,9.3059449564452e-05,0.00015706843906691,0.00025779884457387,0.000401678790348202,0.000607808350753527,0.000895666921609407,0.00128435603420383,0.00179407115588871,0.00244496445340759,0.00325546078677327,0.00424103234776392,0.00541266835569031,0.00677561506465301,0.00832829766220573,0.0100615736755128,0.0119584105540214,0.0139940229235478,0.0161364811398905,0.0183477601665017,0.0205851653541563,0.0228030445207242,0.0249547042269025,0.026994481657151,0.0288799022438928,0.0305755513363084,0.0320587138482188,0.0333459079417023,0.0343753845915764,0.0353225208579733,0.0367868495860775,0.0395112106732686,0.0411163663001683,0.0455039706393774,0.0632153708543892,0.107870982712765,0.269578069341558
