"","X0","X1","X2","X3","X4","X5","X6","X7","X8","X9","X10","X11","X12","X13","X14","X15","X16","X17","X18","X19","X20","X21","X22","X23","X24","X25","X26","X27","X28","X29","X30","X31","X32","X33","X34","X35","X36"
"1",0.672491092637672,0.173014626456995,0.0971488245126689,0.0349257742513541,0.0151304790848939,0.00472273938148651,0.00171788540453567,0.00058551046577457,0.000185202857130684,5.66836041069439e-05,1.55636231144276e-05,4.26774130978102e-06,1.06167955640516e-06,2.3424375142521e-07,4.57998786697347e-08,7.15834984315603e-09,9.89423740366514e-10,9.96434891111441e-11,7.76625546680038e-12,5.46586568465038e-13,3.76598455583255e-14,2.66455018435559e-15,1.17620398138878e-16,2.30435796101606e-18,1.46267072865093e-20,0,0,0,0,0,0,0,0,0,0,0,0
"2",0.672489764452761,0.173014561118316,0.0971490350035292,0.0349261277296115,0.0151307888479287,0.00472296808259141,0.00171802699971854,0.000585589042434478,0.000185242616284162,5.67020393758168e-05,1.55715220033937e-05,4.27086669579402e-06,1.06282436593006e-06,2.34631489056663e-07,4.59208453472186e-08,7.19296957382406e-09,9.98435060482481e-10,1.01756846274425e-10,8.20640296372136e-12,6.26552206907321e-13,5.00334420796025e-14,4.24446267578278e-15,2.76612875159306e-16,1.40323759020723e-17,5.7352284901995e-19,1.28002714130638e-20,0,0,0,0,0,0,0,0,0,0,0
"3",0.672483559921935,0.173014239223162,0.0971499989604815,0.0349277665249261,0.0151322357541773,0.00472404466891539,0.00171870006631351,0.000585966799106457,0.000185436213995387,5.67931282809126e-05,1.56111969954416e-05,4.28686343422331e-06,1.06881092441221e-06,2.36709526824614e-07,4.65879686175532e-08,7.39042718479204e-09,1.05196567526224e-09,1.14955175979416e-10,1.11342374326131e-11,1.20326892149174e-12,1.49166358067244e-13,1.87840449320224e-14,2.04086159334318e-15,1.83463734258504e-16,1.2609905664432e-17,5.73461967824168e-19,1.28002714130638e-20,0,0,0,0,0,0,0,0,0,0
"4",0.672464250442229,0.173013162582827,0.0971529113598671,0.0349328088842244,0.0151367357635597,0.00472743062787925,0.00172084682631276,0.00058719150480322,0.00018607558614702,5.71003840981549e-05,1.57482303703523e-05,4.34361965680304e-06,1.09070479084167e-06,2.44574374204096e-07,4.92139061436843e-08,8.20357054592034e-09,1.28440631086628e-09,1.75983234118737e-10,2.57382833391003e-11,4.35801993587015e-12,7.56490592410692e-13,1.21241944923369e-13,1.68504151571063e-14,1.96179515517868e-15,1.82388779935544e-16,1.2609905664432e-17,5.73461967824168e-19,1.28002714130638e-20,0,0,0,0,0,0,0,0,0
"5",0.67241600623021,0.173010236590906,0.0971599083886018,0.034945216571423,0.015147959163965,0.00473599548545528,0.0017263738594772,0.000590410374402055,0.000187795894370494,5.79494677966997e-05,1.61383486012983e-05,4.51069025381858e-06,1.15759582983204e-06,2.69619923438775e-07,5.79737440025859e-08,1.10614097100379e-08,2.15123734699548e-09,4.19530976067993e-10,8.87651133541891e-11,1.92715602659873e-11,3.95125175107684e-12,7.32750870773913e-13,1.19634557733192e-13,1.67871945331709e-14,1.96105412516215e-15,1.82387865630443e-16,1.2609905664432e-17,5.73461967824168e-19,1.28002714130638e-20,0,0,0,0,0,0,0,0
"6",0.672311962983795,0.173003320454737,0.0971742701196041,0.0349714608178233,0.0151720808269608,0.00475471436581806,0.00173870859156048,0.000597771964525814,0.000191841340926663,6.0010195532596e-05,1.71188292876256e-05,4.94717645506089e-06,1.3399370221538e-06,3.41138557494462e-07,8.42945351562893e-08,2.01412022752801e-08,5.08014280510767e-09,1.30043788632439e-09,3.34713520362333e-10,8.26497845392333e-11,1.89075389560666e-11,3.93173227727663e-12,7.31448417277797e-13,1.19583756052449e-13,1.67865614441214e-14,1.96104757466279e-15,1.82387865630443e-16,1.2609905664432e-17,5.73461967824168e-19,1.28002714130638e-20,0,0,0,0,0,0,0
"7",0.67211065695076,0.172988597586141,0.0972004196653095,0.0350210380070784,0.0152184875007525,0.00479142117560647,0.00176347608351019,0.000612969363310362,0.000200460360188431,6.45594989830163e-05,1.93694997156007e-05,5.99283107312456e-06,1.79735926686747e-06,5.29654546641074e-07,1.57460296540311e-07,4.68608177779068e-08,1.42443150754165e-08,4.24521478700528e-09,1.21815035457626e-09,3.28942785234339e-10,8.23243891524335e-11,1.88915269792434e-11,3.93064373955179e-12,7.31401358546144e-13,1.19582701791253e-13,1.67865339199518e-14,1.96104757466279e-15,1.82387865630443e-16,1.2609905664432e-17,5.73461967824168e-19,1.28002714130638e-20,0,0,0,0,0,0
"8",0.671752932935182,0.17295979471627,0.0972436064793409,0.0351066364153995,0.01530025012649,0.00485746957395756,0.00180921031227598,0.000641894363188522,0.000217437968016873,7.38719670504116e-05,2.41738616319626e-05,8.32838451788748e-06,2.86954564572224e-06,9.94663066851967e-07,3.47921670982744e-07,1.2047651146419e-07,4.10527066746894e-08,1.34247472462193e-08,4.16507025642044e-09,1.21262006134269e-09,3.28635752968229e-10,8.23087538086293e-11,1.88902263321377e-11,3.93055427846388e-12,7.31396429194349e-13,1.19582521304232e-13,1.67865339199518e-14,1.96104757466279e-15,1.82387865630443e-16,1.2609905664432e-17,5.73461967824168e-19,1.28002714130638e-20,0,0,0,0,0
"9",0.671160481125211,0.172907356321409,0.0973091357088829,0.0352436510151393,0.0154340423278451,0.00496802621682757,0.00188790483325359,0.000693290790734825,0.00024872176087189,9.17395877854417e-05,3.38043054772262e-05,1.3234566044508e-05,5.23577131373299e-06,2.075227685165e-06,8.14943692455767e-07,3.11364359223512e-07,1.1473970819263e-07,4.02423923029399e-08,1.33450759549606e-08,4.15941598480965e-09,1.21226380605092e-09,3.28609696369409e-10,8.23057354590029e-11,1.88899289875878e-11,3.9305329452905e-12,7.31395613160282e-13,1.19582521304232e-13,1.67865339199518e-14,1.96104757466279e-15,1.82387865630443e-16,1.2609905664432e-17,5.73461967824168e-19,1.28002714130638e-20,0,0,0,0
"10",0.670235499581004,0.172817640701953,0.0974013259400547,0.0354492366638421,0.0156395963841414,0.00514199464863152,0.00201534439520274,0.00077934078255193,0.000303099374429062,0.000124111743734893,5.20489085113145e-05,2.29805571610225e-05,1.01752718512046e-05,4.45003585638717e-06,1.8973856129841e-06,7.78727351804913e-07,3.05664376535084e-07,1.13928526546861e-07,4.01606887882454e-08,1.33387824483426e-08,4.1589186935886e-09,1.21221297609e-09,3.28602972267754e-10,8.23050121984257e-11,1.88898747709323e-11,3.93053085980571e-12,7.31395613160282e-13,1.19582521304232e-13,1.67865339199518e-14,1.96104757466279e-15,1.82387865630443e-16,1.2609905664432e-17,5.73461967824168e-19,1.28002714130638e-20,0,0,0
"11",0.668861665461938,0.172672273268208,0.0975223249391561,0.0357409688640745,0.0159386727460157,0.00540146298251252,0.00221106307495633,0.000916027734514329,0.000392805321240749,0.00017978419636353,8.48570204133114e-05,4.13532653879546e-05,1.99566867374776e-05,9.39813220859797e-06,4.2738807836899e-06,1.86141422873965e-06,7.73028816078365e-07,3.04842754230483e-07,1.1384261461517e-07,4.01533555582956e-08,1.3338081550075e-08,4.15883444945029e-09,1.2122014061009e-09,3.28601700102311e-10,8.23049158761186e-11,1.88898710622111e-11,3.93053085980571e-12,7.31395613160282e-13,1.19582521304232e-13,1.67865339199518e-14,1.96104757466279e-15,1.82387865630443e-16,1.2609905664432e-17,5.73461967824168e-19,1.28002714130638e-20,0,0
"12",0.666906948385425,0.172447824895659,0.0976708908106182,0.0361351388747776,0.0163534935558242,0.00577055021292924,0.00249774917456076,0.00112307618813612,0.000533875546964278,0.000271001932137437,0.000141026195760489,7.43019053669737e-05,3.83668560344636e-05,1.91881535066431e-05,9.22348648412114e-06,4.23806872360351e-06,1.85568678205861e-06,7.72189179861218e-07,3.04751103230507e-07,1.13834015790433e-07,4.01524278031734e-08,1.33379624827295e-08,4.15881794867583e-09,1.21219957961965e-09,3.28601561383024e-10,8.23049105340563e-11,1.88898710622111e-11,3.93053085980571e-12,7.31395613160282e-13,1.19582521304232e-13,1.67865339199518e-14,1.96104757466279e-15,1.82387865630443e-16,1.2609905664432e-17,5.73461967824168e-19,1.28002714130638e-20,0
"13",0.664227689099685,0.172115890197284,0.0978413887965871,0.0366450078824589,0.0169048998197696,0.00627379278342578,0.00290010543628565,0.00142337245634299,0.000746097715907145,0.000413819337384714,0.000232807597254796,0.000130625992955804,7.13557925428602e-05,3.76072577920964e-05,1.90149601173373e-05,9.18779111697385e-06,4.23229597738301e-06,1.85482572834863e-06,7.72091373220074e-07,3.04741276490373e-07,1.1383289234813e-07,4.01522820418794e-08,1.33379423392462e-08,4.15881571516436e-09,1.2121994097953e-09,3.28601554842951e-10,8.23049105340563e-11,1.88898710622111e-11,3.93053085980571e-12,7.31395613160282e-13,1.19582521304232e-13,1.67865339199518e-14,1.96104757466279e-15,1.82387865630443e-16,1.2609905664432e-17,5.73461967824168e-19,1.28002714130638e-20
"14",0.660673954434344,0.171643630635493,0.0980231184810358,0.0372791711258677,0.0176103825116385,0.0069341775612891,0.00344319173377669,0.00184180282151823,0.00105242043726946,0.000628044649833608,0.000376263250729172,0.000222579388216068,0.000127724078658746,7.06058546050456e-05,3.74355978464703e-05,1.89793832495687e-05,9.18196974160961e-06,4.23141359251706e-06,1.85472218629509e-06,7.72080533951141e-07,3.04740021998148e-07,1.13832733504213e-07,4.01522603122319e-08,1.33379399310783e-08,4.15881553197269e-09,1.21219940274042e-09,3.28601554842951e-10,8.23049105340563e-11,1.88898710622111e-11,3.93053085980571e-12,7.31395613160282e-13,1.19582521304232e-13,1.67865339199518e-14,1.96104757466279e-15,1.82387865630443e-16,1.2609905664432e-17,5.86262239237232e-19
"15",0.656095450644959,0.170994745389106,0.0982001178935969,0.0380403149830149,0.0184823025677386,0.00777110624114253,0.00415045015752122,0.00240359495778955,0.00147779145201317,0.000936649211781856,0.000591210443469598,0.000366227500562937,0.000219726875194724,0.000126984985397315,7.04359581828724e-05,3.74001848947283e-05,1.89735213817847e-05,9.18106874615955e-06,4.23130525512597e-06,1.8547106340689e-06,7.72079224216807e-07,3.04739864894463e-07,1.13832712376898e-07,4.01522579754328e-08,1.33379397532765e-08,4.15881552512538e-09,1.21219940274042e-09,3.28601554842951e-10,8.23049105340563e-11,1.88898710622111e-11,3.93053085980571e-12,7.31395613160282e-13,1.19582521304232e-13,1.67865339199518e-14,1.96104757466279e-15,1.82387865630443e-16,1.31961679036692e-17
"16",0.650347631650857,0.170130792792495,0.0983514532724888,0.0389244793301901,0.0195264939741427,0.00879853000989167,0.00504164182026964,0.00313232893453287,0.00204749212038894,0.00136460238618483,0.000900629554349396,0.00058139112609516,0.000363430926565372,0.000219000269521198,0.000126817225262338,7.04007935868157e-05,3.73942999863789e-05,1.8972606293204e-05,9.18095680472558e-06,4.23129330083716e-06,1.8547093395741e-06,7.72079081830899e-07,3.04739846241599e-07,1.13832710320863e-07,4.01522578189771e-08,1.33379397472512e-08,4.15881552512538e-09,1.21219940274042e-09,3.28601554842951e-10,8.23049105340563e-11,1.88898710622111e-11,3.93053086620584e-12,7.31395613160282e-13,1.19582521304232e-13,1.67865787209017e-14,1.96104117452709e-15,1.95539232584166e-16
"17",0.643297804199916,0.169012755191444,0.0984519142201897,0.0399208194597202,0.0207413441674336,0.0100234377289503,0.00613092862961318,0.00404784435802471,0.0027851330319516,0.001937198606898,0.0013294956699079,0.0008910529300749,0.000578657892235542,0.000362718735175675,0.000218835099781074,0.000126782412097627,7.03949061421013e-05,3.73933753307368e-05,1.89724917275181e-05,9.18094466347316e-06,4.23129206499232e-06,1.85470921927521e-06,7.72079066672053e-07,3.04739844579354e-07,1.13832710194367e-07,4.01522578141056e-08,1.33379397472512e-08,4.15881552512538e-09,1.21219940274042e-09,3.28601554842951e-10,8.23049105340563e-11,1.88898713393419e-11,3.93053086620584e-12,7.31395613160282e-13,1.19584461219694e-13,1.67863015901213e-14,2.15464049164879e-15
"18",0.634830700330942,0.167602699388665,0.0984730404726517,0.0410118855230365,0.0221174538005987,0.0114448830512998,0.0074253484294565,0.00516431726532061,0.00371055984121492,0.00267805292332536,0.00190310589171424,0.00132018930372727,0.000888390980634763,0.000577962228798677,0.00036255666459641,0.00021880075306762,0.000126776544239058,7.03939761958849e-05,3.73932588782107e-05,1.89724795190813e-05,9.18094350405738e-06,4.23129196898581e-06,1.85470920785806e-06,7.72079065429573e-07,3.04739844484799e-07,1.13832710190726e-07,4.01522578141056e-08,1.33379397472555e-08,4.15881552512965e-09,1.21219940274682e-09,3.28601554885618e-10,8.23049164457134e-11,1.88898713756093e-11,3.93053094087409e-12,7.31436779289003e-13,1.19578534628908e-13,1.8899622349792e-14
"19",0.624853412465034,0.16586541369713,0.0983843349108831,0.0421742930443673,0.0236378171192709,0.0130535869041133,0.00892382107951113,0.00648872474315004,0.0048379253210328,0.00360700476808086,0.00264507408515872,0.00189409739842161,0.00131760672426764,0.000887714028720175,0.000577803790516169,0.000362522904537529,0.000218794927385975,0.00012677561292894,7.0393858377829e-05,3.73932466437306e-05,1.89724784334029e-05,9.18094343051969e-06,4.23129196096804e-06,1.85470920699509e-06,7.72079065363898e-07,3.0473984448227e-07,1.13832710190726e-07,4.01522578142875e-08,1.33379397474374e-08,4.15881552540251e-09,1.21219940456592e-09,3.28601638187357e-10,8.23049179919429e-11,1.88898745590229e-11,3.93110486661999e-12,7.31352840867995e-13,1.37897682496242e-13
"20",0.613299476417123,0.163769918149568,0.098154552394501,0.0433796816123341,0.0252784481090338,0.0148320994923287,0.01061675225045,0.00801985318938059,0.00617415567477993,0.00473819102235958,0.00357523517551381,0.00263639012407753,0.00189160212093281,0.0013169506623553,0.000887559765119876,0.000577770740758185,0.000362517144456813,0.000218793998603876,0.000126775494179064,7.03938461187601e-05,3.73932456180287e-05,1.89724783783073e-05,9.18094342524511e-06,4.23129196040948e-06,1.85470920695273e-06,7.72079065362624e-07,3.04739844482882e-07,1.13832710195395e-07,4.01522578196398e-08,1.33379397554435e-08,4.15881556539785e-09,1.21220028249425e-09,3.28601672218272e-10,8.23049855885274e-11,1.88958140967056e-11,3.93021235356342e-12,8.63164714215647e-13
"21",0.600132037324446,0.161290782867642,0.0977529669685848,0.044595839430029,0.0270093272945927,0.0167554265790816,0.0124862035711954,0.00974790707742353,0.00771796141631638,0.00607851354354737,0.00470771872612781,0.00356690064350617,0.00263398970207804,0.0018909690699963,0.00131680111653761,0.000887527552733127,0.000577765071291146,0.000362516222448185,0.000218793879406668,0.000126775481896409,7.03938451372987e-05,3.7393245576862e-05,1.89724783750612e-05,9.18094342491142e-06,4.23129196038971e-06,1.85470920696575e-06,7.72079065386279e-07,3.04739844568506e-07,1.13832710307394e-07,4.01522579867721e-08,1.33379403527957e-08,4.15882299418729e-09,1.21220079159124e-09,3.28602625046335e-10,8.23538165601804e-11,1.88881535805223e-11,4.74230722312518e-12
"22",0.585346038391907,0.158409219873875,0.0971505608986499,0.0457879061556355,0.0287955532660449,0.0187919983619375,0.0145065351723852,0.0116546872148068,0.0094594497372485,0.0076266514436467,0.0060494169451043,0.00469975608764608,0.00356460205652402,0.00263338167527361,0.00189082477505253,0.00131676987041448,0.000887522000516417,0.000577764160782863,0.000362516103397745,0.000218793867119321,0.000126775480945888,7.0393845105901e-05,3.73932455750069e-05,1.89724783749087e-05,9.18094342500391e-06,4.23129196064837e-06,1.85470920740352e-06,7.72079066534447e-07,3.04739846204482e-07,1.13832712746179e-07,4.01522646787616e-08,1.33379931753216e-08,4.15882870683716e-09,1.21221078937313e-09,3.28935740662615e-10,8.22982328067663e-11,2.32716195072849e-11
"23",0.568969328291846,0.155113930401821,0.0963211180174529,0.0469196158650571,0.0305986220624679,0.0209048719710922,0.0166454026620686,0.0137142467513487,0.0113803086790004,0.0093726757922245,0.00759899781798822,0.00604184584200554,0.00469756562901818,0.00356402093071913,0.00263324314830031,0.00189079462505162,0.00131676446376039,0.000887521106803337,0.000577764042621998,0.000362516091154726,0.000218793866191809,0.000126775480921051,7.0393845105105e-05,3.73932455753144e-05,1.89724783761719e-05,9.18094342809192e-06,4.23129196586639e-06,1.8547092190207e-06,7.7207908395079e-07,3.04739872164865e-07,1.13832771859583e-07,4.0152589946658e-08,1.33380436905229e-08,4.15891172752228e-09,1.21415528372408e-09,3.28584791644127e-10,1.03393124665715e-10
"24",0.551062686412595,0.151401702193727,0.0952422057128412,0.0479545447349041,0.0323777692771981,0.0230530685377104,0.0188649840672512,0.015893897964924,0.0134544666563335,0.0112982348111463,0.00934652005122127,0.00759183469806948,0.00603976899085162,0.00469701310366663,0.00356388866056878,0.00263321422194246,0.00189078939317194,0.00131676359255099,0.000887520990400712,0.000577764030500742,0.000362516090247863,0.000218793866171754,0.000126775480922475,7.03938451086326e-05,3.7393245586428e-05,1.89724784031384e-05,9.18094347365114e-06,4.23129205825981e-06,1.85470936170327e-06,7.72079296683779e-07,3.04740298359956e-07,1.13834541382026e-07,4.01529540726806e-08,1.33386112571199e-08,4.1688525737237e-09,1.21219302436357e-09,4.20334269132374e-10
"25",0.531718720507232,0.147277747624613,0.0938960417585553,0.0488573573428238,0.0340913514583367,0.0251929906521924,0.0211233459655527,0.0181554507262197,0.0156491034370484,0.013377214704699,0.0112736186455685,0.0093397778795119,0.00758987600517008,0.00603924654672558,0.00469688753721568,0.00356386107895,0.00263320919386746,0.00189078855034178,0.00131676347885406,0.000887520978500066,0.000577764029617298,0.000362516090235081,0.000218793866185986,0.000126775480948815,7.03938451870262e-05,3.73932457741571e-05,1.89724787192455e-05,9.18094407678413e-06,4.23129300410555e-06,1.85471077085615e-06,7.72081879366685e-07,3.04748921797898e-07,1.13836741873871e-07,4.01562423592751e-08,1.33839357071576e-08,4.15902191242356e-09,1.57675116427236e-09
"26",0.511059659128911,0.142755771903825,0.0922702280601425,0.049595032567766,0.0356982470585384,0.0272798874957108,0.0233758893528282,0.0204565891875877,0.017925892205734,0.0155767516702663,0.0133541660081483,0.011267306669894,0.00933794086201962,0.00758938486309381,0.00603912807431589,0.00469686141051029,0.00356385628229072,0.00263320838516944,0.00189078844032095,0.00131676346729007,0.000887520977656593,0.000577764029644933,0.000362516090339826,0.000218793866369816,0.00012677548143768,7.03938463092642e-05,3.73932476388276e-05,1.89724820994243e-05,9.18094938786107e-06,4.23130087854532e-06,1.85472428287158e-06,7.72119927765361e-07,3.04760340537137e-07,1.13853243188438e-07,4.0343144036045e-08,1.33393420567399e-08,5.49358457574998e-09
"27",0.48923414367257,0.137857762736926,0.0903583172565862,0.05013802699778,0.0371592445073998,0.0292693402141983,0.0255768393714223,0.0227523259469429,0.0202423787482948,0.0178584745360455,0.0155552840810001,0.0133482895270927,0.0112655937012013,0.00933748193868795,0.00758927380277943,0.00603910349691943,0.00469685687012672,0.00356385551306399,0.00263320827979732,0.00189078842929316,0.00131676346664719,0.000887520978040275,0.000577764030439607,0.000362516091650469,0.000218793869297403,0.000126775487603925,7.03938562414851e-05,3.73932646463756e-05,1.89725084328301e-05,9.18098790181544e-06,4.23136339807702e-06,1.85487763080334e-06,7.72171787727903e-07,3.04833160889653e-07,1.14557365326358e-07,4.01578834166917e-08,1.78697343234354e-08
"28",0.466413166338388,0.13261350012757,0.0881601757082962,0.0504613228525463,0.0384383732359723,0.031118736472352,0.0276807544998647,0.0249964999353662,0.0225534381978784,0.0201798846465787,0.0178385871819303,0.0155498442595451,0.0133467017418713,0.0112651675698287,0.00933737852200646,0.00758925084897292,0.00603909923382174,0.00469685614523745,0.00356385541365551,0.00263320827027051,0.0018907884303124,0.00131676346996603,0.000887520983894668,0.000577764039575149,0.000362516108861714,0.000218793901673043,0.000126775537315041,7.03939357920383e-05,3.73933838061269e-05,1.8972678189257e-05,9.18124889307676e-06,4.23193214373761e-06,1.85508666803682e-06,7.72457005965275e-07,3.07272560581184e-07,1.13844140488215e-07,5.44872398456073e-08
"29",0.442785341612664,0.127059798725686,0.0856821124621142,0.0505453025247639,0.0395041202475315,0.0327886888662835,0.0296440251080217,0.0271432943677562,0.0248127759948627,0.0224958136212823,0.0201615622477941,0.0178335809830167,0.0155483814999784,0.0133463086066161,0.0112650719319781,0.00933735724316546,0.00758924688018332,0.00603909855890504,0.00469685605599661,0.00356385541180897,0.00263320828309349,0.00189078845348774,0.00131676350795207,0.000887521041016253,0.000577764134900146,0.00036251627029595,0.000218794136820322,0.000126775887829053,7.03944368346419e-05,3.73940707618705e-05,1.89736753702302e-05,9.18320132216779e-06,4.23268740634142e-06,1.85608346235074e-06,7.80259420810029e-07,3.04703498406055e-07,1.56216108914089e-07
"30",0.418551744404877,0.121239512819454,0.0829367556642511,0.050376393235781,0.040330465109344,0.0342443344485311,0.0314263140167459,0.029148743609283,0.0269744488770426,0.0247599253912325,0.0224790269957783,0.0201569825037086,0.0178322417957932,0.0155480211877686,0.0133462207827825,0.0112650523570053,0.00933735358528019,0.00758924626910476,0.00603909850022733,0.00469685609577163,0.00356385549205564,0.00263320841604524,0.00189078866286571,0.00131676381532324,0.000887521516277872,0.000577764877958753,0.000362517303516041,0.000218795581829295,0.000126777850452222,7.03970087991231e-05,3.73975868280139e-05,1.89799046404964e-05,9.1856650079709e-06,4.23580675387985e-06,1.87918295534407e-06,7.71555457109846e-07,4.221234606604e-07
"31",0.393920581041016,0.115200351686704,0.0799426746005731,0.0499474359243992,0.040897666833424,0.0354564421230927,0.032991873668364,0.030972180176569,0.0289943740377646,0.0269262379928554,0.0247446322608864,0.0224748625850185,0.0201557641772376,0.0178319137647334,0.0155479411197877,0.013346202930282,0.0112650490479312,0.00933735309762257,0.00758924633980836,0.00603909874394867,0.00469685650292706,0.00356385614152502,0.00263320940920101,0.00189079009217878,0.00131676591673912,0.000887524615872801,0.000577769027956806,0.000362522810154223,0.000218802706951006,0.000126786763936721,7.04084867587031e-05,3.74160978132892e-05,1.89871861266086e-05,9.19441201544107e-06,4.29922602685781e-06,1.85140320210741e-06,1.0770485860198e-06
"32",0.369101932921192,0.108993565134619,0.0767237701218405,0.0492577610899133,0.0411927573453448,0.0364022631151502,0.034310668885311,0.0325775577972996,0.030831778364614,0.0289506335906953,0.0269123841478617,0.0247408684415826,0.0224737612770319,0.0201554675994682,0.0178318413897778,0.0155479251134539,0.0133462001883127,0.0112650490146499,0.00933735379850395,0.00758924754496787,0.00603910061363058,0.00469685935556833,0.00356386035216235,0.0026332153188718,0.00189079842775032,0.00131677764232589,0.000887539801607108,0.000577788302775413,0.000362546660012649,0.000218831214734586,0.000126821395759069,7.04596330444541e-05,3.74354474220238e-05,1.90089193209412e-05,9.35592984837917e-06,4.2156021512853e-06,2.59850141407807e-06
"33",0.344302782097432,0.102672569075948,0.0733084807546321,0.0483129873212293,0.0412097274595511,0.0370660824308242,0.0353592436169197,0.0339345821051985,0.0324505259157542,0.0307923106208491,0.0289381562447804,0.0269090046720282,0.0247398808041295,0.0224734963740047,0.0201554039571742,0.0178318283648394,0.0155479240769929,0.0133462018440574,0.0112650518653178,0.0093373580589248,0.00758925394643372,0.00603911026731225,0.00469687352068616,0.00356388015963841,0.00263324283391257,0.00189083624389231,0.00131682564950573,0.000887598887771455,0.000577858885880275,0.000362627738682821,0.000218924701539621,0.000126949565085372,7.05025234019596e-05,3.74796985003521e-05,1.93880365190413e-05,9.11696840969443e-06,5.93271223016331e-06
"34",0.319722765572249,0.0962916660913198,0.0697289282922845,0.0471246276014587,0.0409494607141237,0.0374394945870461,0.0361213262949896,0.0350196227513374,0.0338202885286211,0.0324151465839253,0.030781172373094,0.0289351708999362,0.0269081491593472,0.0247396635576849,0.0224734513019232,0.020155396421923,0.0178318239906657,0.0155479151139312,0.0133461879954139,0.0112650350130599,0.00933734123377858,0.0075892413504327,0.00603910658053046,0.00469688303712871,0.00356390921919332,0.00263329869836277,0.00189091860640174,0.00131693540100741,0.000887735476294099,0.000578017495780666,0.000362809282859977,0.000219174059626314,0.000126988244244424,7.05380843886185e-05,3.82730765272351e-05,1.87264435761618e-05,1.281086552143e-05
"35",0.295553120205227,0.0899056478548203,0.0660206111948855,0.0457099482491803,0.0404198017928777,0.0375217386892581,0.0365884645494895,0.035816652608685,0.0349177632570694,0.0337891398848244,0.0324056002200269,0.0307788287287872,0.0289346408372011,0.0269081002554483,0.0247396760304818,0.0224734018055424,0.0201552531878257,0.0178315820620752,0.0155475796680427,0.0133457700984101,0.0112645505921685,0.00933681109214551,0.00758868872416273,0.00603855426539829,0.00469635812844101,0.00356343988350794,0.00263289367995076,0.0018905864984997,0.00131668064506318,0.000887550885904557,0.000577905765885487,0.000362861586934317,0.000218792426650591,0.000126642588495128,7.18519481341968e-05,3.64407551416606e-05,2.60693533472643e-05
"36",0.271992795884817,0.0835745560717492,0.0622257952102748,0.0440942465550564,0.0396376202198499,0.0373217323520956,0.0367621736861148,0.0363195296757146,0.0357290624752127,0.0348928477732223,0.03378294944141,0.0324052563847181,0.0307794844249444,0.0289350707298249,0.0269078980781597,0.0247387129311106,0.0224716481148912,0.0201527235403329,0.0178283218913579,0.0155436619993594,0.0133412928115887,0.0112596340288996,0.00933158861351394,0.0075832964948293,0.00603313759309037,0.00469106170317418,0.00355836202263724,0.00262812462136783,0.00188620209639879,0.00131272277748972,0.000884068229924263,0.00057510156111575,0.000359563068235249,0.000215987244635932,0.000127516029897598,6.66975319809064e-05,4.95561309931568e-05
"37",0.252964196021007,0.0783936546794342,0.0590458181535687,0.0426371882372065,0.0388337229046042,0.0369771359232077,0.0367164694248467,0.0365424468957383,0.0362089781157874,0.0356216755228873,0.0347500879914651,0.0335950212648942,0.03217068927939,0.0305012445147768,0.0286179918259372,0.0265580634052057,0.0243631086033373,0.0220778901296985,0.0197487984440803,0.0174223253928447,0.0151435322848189,0.0129545470035352,0.0108930985625383,0.00899114347827968,0.0072736723736593,0.00575772433144727,0.00445171917548177,0.0033554607728822,0.00246060463503818,0.00175170709264366,0.00120793292083242,0.000805258981217912,0.000516016883234951,0.000317735624743551,0.000192535957475021,0.000102690495478955,7.81126967634303e-05
