"","X0","X1","X2","X3","X4","X5","X6","X7","X8","X9","X10","X11","X12","X13","X14","X15","X16","X17","X18","X19","X20","X21","X22","X23","X24","X25","X26","X27","X28","X29","X30","X31","X32","X33","X34","X35","X36"
"1",0.100562695802332,0.125489158983646,0.152600390349721,0.147257852279021,0.134416317105037,0.10905429567894,0.0815750798570318,0.0568873348658729,0.0376326830626633,0.0235161984849012,0.0140222649315442,0.00800764485164162,0.00438744672030445,0.00231709010015374,0.00118077696710908,0.000581943212870562,0.000278648099194495,0.000129362031616007,5.8448198944434e-05,2.57105776449074e-05,1.10054601412488e-05,4.59210381636246e-06,1.86642712190192e-06,7.39513595089841e-07,2.85651902810243e-07,1.07585416033162e-07,3.95136112772417e-08,1.41493036644859e-08,4.93921981798082e-09,1.67975505257057e-09,5.56297986617484e-10,1.79287649776579e-10,5.61825151766626e-11,1.71051481514412e-11,5.05492777333769e-12,1.51838109407935e-12,4.75437248644687e-13
"2",0.100562652748357,0.125489108898044,0.152600336410355,0.147257812203172,0.134416294678243,0.109054294333912,0.081575096141438,0.05688736259138,0.0376327154962796,0.0235162304705683,0.0140222931037693,0.00800766766874951,0.00438746399690197,0.00231710245252725,0.00118078536675709,0.000581948672666705,0.000278651503860507,0.000129364074753665,5.84493813799804e-05,2.57112387933501e-05,1.10058178114862e-05,4.59229122915098e-06,1.86652232153749e-06,7.39560506848638e-07,2.85674339720521e-07,1.07595835405661e-07,3.95183105084737e-08,1.41513623045886e-08,4.94009584904353e-09,1.68011714616584e-09,5.56443338358033e-10,1.79344301780461e-10,5.62039472793073e-11,1.7113014791638e-11,5.05772851577991e-12,1.51940313060796e-12,4.75853711370372e-13
"3",0.100562448953425,0.125488871720445,0.152600080795666,0.147257621956388,0.134416187778067,0.109054287162695,0.0815751725303873,0.0568874933853753,0.0376328688893792,0.0235163820410098,0.0140224268489874,0.00800777619476996,0.00438754633396203,0.00231716144765934,0.00118082557635984,0.000581974874364625,0.000278667887101436,0.000129373934975097,5.84551057407189e-05,2.57144503082312e-05,1.10075614663807e-05,4.59320840886156e-06,1.86699014718906e-06,7.39792057686523e-07,2.85785608370487e-07,1.076477672083e-07,3.95418580838892e-08,1.41617371672181e-08,4.9445377575786e-09,1.68196512313458e-09,5.5719032403682e-10,1.79637613376706e-10,5.63157939332952e-11,1.71544179319533e-11,5.07260410643946e-12,1.5248869694994e-12,4.78125168441851e-13
"4",0.100561802345389,0.125488118730134,0.152599268385978,0.147257015743985,0.134415845083623,0.1090542605908,0.0815754115942636,0.0568879062326282,0.0376333549179839,0.0235168637000979,0.0140228530317717,0.00800812298867514,0.0043878102253561,0.00231735113420234,0.00118095531018134,0.000582059729699311,0.000278721160299422,0.000129406137715091,5.84738892151575e-05,2.57250417026222e-05,1.10133431659845e-05,4.59626731494171e-06,1.86856009271643e-06,7.40574255178057e-07,2.86164140036322e-07,1.0782576810135e-07,3.96232170944482e-08,1.41978894908144e-08,4.96015683482194e-09,1.68852607520156e-09,5.59869718907804e-10,1.80701257056327e-10,5.67261318920611e-11,1.73082110317858e-11,5.1285972520107e-12,1.54583466105462e-12,4.87009910551878e-13
"5",0.100560146166071,0.125486188510486,0.152597182873544,0.147255454305769,0.134414955444208,0.109054179573156,0.081576012621042,0.0568889562547869,0.0376345973532689,0.0235180997407957,0.0140239506868787,0.0080090194991158,0.00438849511471863,0.00231784553035932,0.00118129500313966,0.000582283021416456,0.00027886210224979,0.00012949183095042,5.85241865891168e-05,2.57535938381616e-05,1.10290418892438e-05,4.60463709368665e-06,1.87289116111685e-06,7.427510747531e-07,2.87227417466594e-07,1.08330730028296e-07,3.98564553264743e-08,1.43026907335114e-08,5.00597254635109e-09,1.70801387958998e-09,5.67934544162068e-10,1.83948094105029e-10,5.79975155355675e-11,1.77923056468469e-11,5.30783006096346e-12,1.61413901877871e-12,5.16855558333189e-13
"6",0.100556464793376,0.125481893690797,0.15259253428795,0.147251959336688,0.134412944881086,0.10905396324635,0.0815773167344019,0.0568912689886228,0.0376373515331521,0.0235208531203211,0.014026406970042,0.00801103504729585,0.00439004253176965,0.00231896852867327,0.00118207107138421,0.000582796361010279,0.000279188325944221,0.000129691631155084,5.86423845561524e-05,2.58212592246683e-05,1.10665832427125e-05,4.62484583807902e-06,1.88345615304816e-06,7.48119197937976e-07,2.89879933606436e-07,1.09605923479769e-07,4.04531161549089e-08,1.45744719530733e-08,5.1265091623607e-09,1.76006830119942e-09,5.89823848603181e-10,1.92910128382901e-10,6.15695429507527e-11,1.91779825519569e-11,5.8310528574129e-12,1.81785884822054e-12,6.08995958719413e-13
"7",0.100549085073047,0.125473273910557,0.152583184701301,0.147244894976863,0.134408834450282,0.109053441340455,0.08157985265177,0.0568958518510188,0.0376428523494382,0.0235263849705807,0.0140313692276233,0.00801512995988837,0.00439320524696275,0.00232127866585964,0.001183678747422,0.00058386787326784,0.000279874875206778,0.000130115852256585,5.88957411054835e-05,2.59677820191464e-05,1.11487620400904e-05,4.66959657911655e-06,1.90713957834553e-06,7.60309659677655e-07,2.95986403906927e-07,1.12584163573959e-07,4.18678815863582e-08,1.52292240838759e-08,5.42177305121479e-09,1.88982287560469e-09,6.45390991494009e-10,2.1609845888687e-10,7.09975459553204e-11,2.29120848623135e-11,7.2719996630978e-12,2.39222492292331e-12,8.78774527284036e-13
"8",0.10053543268789,0.125457305214578,0.15256582137829,0.147231700069658,0.134401056527451,0.109052282990517,0.0815843710885719,0.0569042100058708,0.0376529796909006,0.0235366409108293,0.0140406290678695,0.00802282210607343,0.00439918823748697,0.00232568210661488,0.00118676850065562,0.000585945605748996,0.000281219014285755,0.000130955045310711,5.94025249936182e-05,2.62643622662163e-05,1.13172109199164e-05,4.76255849034195e-06,1.95703596375683e-06,7.86376386007042e-07,3.09248695210395e-07,1.19158752401029e-07,4.50446901849669e-08,1.67257950449867e-08,6.10925310576648e-09,2.19779935398093e-09,7.79938284309637e-10,2.73418643820584e-10,9.48076796808171e-11,3.25539666550771e-11,1.10793854806205e-11,3.94773147514515e-12,1.63902019866003e-12
"9",0.100511787848554,0.125429604965397,0.152535617853362,0.147208598207122,0.134387240125671,0.109049890152407,0.0815918457059871,0.0569184366240176,0.0376704100002253,0.0235544362578823,0.0140568167058419,0.00803637206123672,0.00440981301103467,0.0023335703418645,0.00119235591830926,0.000589741485175306,0.00028370188065278,0.000132523634005874,6.03618421450848e-05,2.68333773387147e-05,1.16450306479567e-05,4.94620984620051e-06,2.05717608532508e-06,8.39562073178238e-07,3.36778711566859e-07,1.33053091626728e-07,5.18843635829274e-08,2.00105493531318e-08,7.64849503471191e-09,2.90164970769336e-09,1.09400722560095e-09,4.10164503664347e-10,1.52896746795012e-10,5.66249429573814e-11,2.08130189469201e-11,8.02592931274744e-12,3.71532117970314e-12
"10",0.100473029504501,0.125384119158241,0.152485867641716,0.14717027184719,0.134363953830033,0.109045247621585,0.0816034359945228,0.0569412759625196,0.0376987549674149,0.023583643452559,0.0140836108864854,0.00805899380880537,0.00442771331440015,0.00234699116479291,0.00120196355796694,0.000596343768229374,0.000288074014207743,0.000135322521662207,6.20978401647316e-05,2.78785412578306e-05,1.22567019298023e-05,5.29457435086215e-06,2.25042736357485e-06,9.4405463546522e-07,3.91879699797276e-07,1.61401208585996e-07,6.61178891550225e-08,2.69867043908743e-08,1.09865334395029e-08,4.46106888170869e-09,1.80526432790123e-09,7.2686765327814e-10,2.90549760828148e-10,1.1501766535775e-10,4.50001085716893e-11,1.84200191070463e-11,9.23061490010547e-12
"11",0.100412391324843,0.125312819184162,0.152407619571584,0.147109521461046,0.134326416585264,0.109036726708154,0.0816203976054826,0.056976136963445,0.0377426618414626,0.023629357008173,0.0141259435198689,0.00809507557962431,0.00445655265965352,0.00236884860841925,0.0012177945621175,0.000607360547237311,0.000295468842280393,0.00014012526563682,6.5122710727536e-05,2.9729346358921e-05,1.33583831772954e-05,5.93321129733168e-06,2.61127312892919e-06,1.14291035947242e-06,4.98814365175489e-07,2.17534847692718e-07,9.48897219444837e-08,4.13889019722169e-08,1.80278074632598e-08,7.82347907990352e-09,3.37352021704395e-09,1.44122686056612e-09,6.08306902011385e-10,2.53021367956774e-10,1.03556197862368e-10,4.42272049860081e-11,2.35050919603217e-11
"12",0.100321275925566,0.125205462889155,0.152289375171307,0.147016956709161,0.134268204720913,0.10902184693151,0.0816439224744242,0.0570270234774156,0.0378078327613798,0.0236979915603487,0.0141901582743537,0.00815037721406544,0.0045012386971025,0.00240311543814823,0.00124292903761305,0.000625091022400385,0.000307544729907855,0.000148090704170883,7.02223786424767e-05,3.29038015915489e-05,1.52822132756774e-05,7.06944241807743e-06,3.2657675504839e-06,1.51081608924176e-06,7.0071992946485e-07,3.25747827963901e-07,1.51543165913747e-07,7.03657469482923e-08,3.25083981319632e-08,1.48938019091861e-08,6.74635356274289e-09,3.01310255906339e-09,1.32388353968056e-09,5.71187946725762e-10,2.41832539199408e-10,1.06714521585975e-10,5.95349641564429e-11
"13",0.100189142387182,0.125049438937185,0.152116871384189,0.146880741683559,0.134180973360592,0.108997006208189,0.0816749096237813,0.0570983722940319,0.037900946232607,0.0237972908980998,0.0142840991399599,0.00823218136768861,0.00456811547707344,0.00245504432781161,0.00128153472752454,0.000652720939342036,0.000326655817341118,0.000160904837824358,7.85690821885235e-05,3.81941230240673e-05,1.85490646725273e-05,9.03666922546493e-06,4.4217730932438e-06,2.17405082491404e-06,1.0723741328981e-06,5.29213135871195e-07,2.60385754966645e-07,1.27265677967027e-07,6.15787906777387e-08,2.94087937690229e-08,1.38289245977638e-08,6.39015830366492e-09,2.89717316105216e-09,1.28726272839216e-09,5.60542641498715e-10,2.54356881251987e-10,1.48276200340957e-10
"14",0.100003504089498,0.124829739849942,0.151873001878507,0.146686441570461,0.13405422897295,0.108957199363574,0.081713667946489,0.057194783193209,0.0380294516418593,0.0239362102910186,0.0144170878161755,0.00834935857278882,0.00466509833870714,0.00253134941689685,0.00133907150301356,0.000694529262387529,0.000356045156388771,0.000180950387686153,9.18625649656802e-05,4.67789527935136e-05,2.39540492526906e-05,1.23570339494301e-05,6.41323284802086e-06,3.34070163728395e-06,1.74014672106879e-06,9.02744270642141e-07,4.64604241683897e-07,2.36401415982918e-07,1.18589340208865e-07,5.8519635883581e-08,2.8358239034307e-08,1.34776472084565e-08,6.27588224533854e-09,2.86120459450024e-09,1.27783727929372e-09,5.94908265893439e-10,3.61645604987607e-10
"15",0.0997500447510491,0.12452907566659,0.151537895231495,0.146416994162413,0.133875179778531,0.108895750774916,0.0817595711615312,0.0573206516672107,0.0382012358202585,0.0241246596426712,0.014599768204576,0.00851231876401067,0.00480172237363542,0.00264033114106617,0.00142246712876896,0.000756089485165791,0.000400049714116866,0.000211499090678958,0.00011249922739229,6.03643616970698e-05,3.26786524091458e-05,1.78268887073033e-05,9.76281613336459e-06,5.34492980116771e-06,2.91221293267946e-06,1.5727458074939e-06,8.39025599608415e-07,4.40964828062707e-07,2.27854675334673e-07,1.15577384095189e-07,5.74857330992161e-08,2.80126792232964e-08,1.3365328895269e-08,6.24087557840833e-09,2.85467213269873e-09,1.36200599976463e-09,8.62641677404823e-10
"16",0.0994128623627297,0.124128142411801,0.151089171095601,0.146052832789727,0.133628694543999,0.108804091677399,0.0818106908467122,0.0574797213052844,0.0384241668137902,0.0243730998673283,0.0148437988649962,0.0087328215486727,0.00498907212443317,0.0027919114796511,0.00154023443881068,0.000844441138426474,0.000464299403843765,0.00025691552061437,0.000143763827503403,8.13527099258799e-05,4.64315969576865e-05,2.66288650136493e-05,1.52673582560753e-05,8.7096032818562e-06,4.92281390072323e-06,2.747424429555e-06,1.51006655518883e-06,8.15787505458008e-07,4.32568391329924e-07,2.24897305874994e-07,1.1456269963314e-07,5.71468102062806e-08,2.7902739140558e-08,1.33319735647243e-08,6.24130240305952e-09,3.04986147223234e-09,2.01175641926429e-09
"17",0.098974843876915,0.123606051380364,0.150502386304872,0.145572180120292,0.133297396520292,0.108671613710039,0.0818634395389146,0.0576745831385464,0.0387055328687959,0.0246919982043818,0.0151613860156803,0.00902362601932536,0.00523956461588086,0.00299754706470189,0.0017024968690655,0.000968201474336972,0.000555885588519424,0.000322854516905173,0.000190032469577419,0.000113033924883308,6.7617493339699e-05,4.04726350441863e-05,2.41098809278411e-05,1.42317134785542e-05,8.29487856082672e-06,4.76104456700948e-06,2.68594252152323e-06,1.48728939174337e-06,8.0756324834613e-07,4.29673419026412e-07,2.23904568288118e-07,1.14231477220099e-07,5.70399062512538e-08,2.7872648220796e-08,1.33490300386418e-08,6.67846979462122e-09,4.5871016346236e-09
"18",0.0984181484321803,0.12294089539522,0.14975164951319,0.144951505523113,0.132861902161274,0.108485626230214,0.0819122645516289,0.0579061681141133,0.0390514199401912,0.0250911759910885,0.015564676339566,0.0093979836415973,0.00556657483965372,0.00326999824836929,0.00192089391917452,0.00113758699792946,0.00068347076548633,0.000416428725606126,0.000256969589786107,0.000159788294074418,9.95280346707532e-05,6.17635286150946e-05,3.80003409631735e-05,2.30943912629968e-05,1.38254390503498e-05,8.13654998795148e-06,4.70092321915e-06,2.66368775954421e-06,1.47925983977031e-06,8.04738719027024e-07,4.28705472390664e-07,2.23582365500983e-07,1.14128818036842e-07,5.70169105628353e-08,2.79288036045617e-08,1.43020042603513e-08,1.02280713970937e-08
"19",0.0977247793461414,0.122110430138929,0.148810383319981,0.144166135953546,0.132301208898844,0.108231438304549,0.0819494275679596,0.0581732764474839,0.0394660730585378,0.0255790888817502,0.016065038588038,0.00986898880212483,0.00598390305794523,0.00362293988314641,0.00220834212001361,0.00136431464347266,0.000857307917167348,0.000546317205148122,0.000351694980439906,0.000227283209472407,0.000146544679561274,9.37936792017681e-05,5.93442258477226e-05,3.70076465185723e-05,2.26976429043021e-05,1.36709776168868e-05,8.07795363072436e-06,4.67925258269246e-06,2.65587547841041e-06,1.47651382591237e-06,8.03798503321293e-07,4.28394159488842e-07,2.23486461003532e-07,1.14121947421915e-07,5.71631332685022e-08,2.99574278046844e-08,2.23064974469354e-08
"20",0.0968772126385207,0.121092833069367,0.147652193926314,0.143190992400031,0.13159322090527,0.107892576012776,0.0819649011969611,0.0584721906463249,0.0399512965113615,0.0261620946444588,0.0166722818713655,0.0104488220209521,0.00650510287185117,0.00407041620882185,0.0025786392860201,0.00166135947848607,0.00108914014013171,0.000722784073718897,0.000482892093636012,0.000322640068890522,0.00021433534959936,0.000140944690421268,9.143369476001e-05,5.83769625556854e-05,3.6621492547058e-05,2.2547469900168e-05,1.36140679702186e-05,8.05692759050297e-06,4.67167963642944e-06,2.65321593631603e-06,1.47560447325856e-06,8.03501237035343e-07,4.28310567622089e-07,2.23516624395285e-07,1.14471084112691e-07,6.13869265518533e-08,4.75928996396834e-08
"21",0.0958590500083701,0.119867501567192,0.146251805310182,0.14200141764737,0.130715392403759,0.107451134381937,0.0819464025307579,0.0587964104335642,0.0405059438998783,0.026843765635606,0.0173938663919264,0.0111479334845688,0.00714270445841458,0.00462615812031171,0.00304591385717384,0.00204255626053634,0.00139195711454988,0.000957577599366722,0.000660826469287376,0.000454542496620192,0.00031002130221674,0.000208884325268075,0.000138650243442415,9.04944373167724e-05,5.80024401518692e-05,3.64760146342109e-05,2.24924022551935e-05,1.35937443663198e-05,8.04961510723772e-06,4.66911440455266e-06,2.6523411480845e-06,1.47532742280992e-06,8.03442515625365e-07,4.28425118249967e-07,2.24312548201226e-07,1.23080370308197e-07,9.93603279265323e-08
"22",0.0946556634907712,0.118415850267316,0.144586011242533,0.140574054765435,0.129645458950743,0.106888252027243,0.0818795719120667,0.059136537387352,0.0411255422065788,0.0276243012454271,0.0182341664968777,0.0119742243711069,0.00790738163965732,0.00530279778143798,0.00362393790492216,0.00252204680574782,0.00177959581509203,0.00126368633125294,0.000897244705423858,0.000633254735849915,0.000442285344476016,0.000304733380199035,0.000206661395769893,0.000137741449987747,9.01325298707848e-05,5.78620403728055e-05,3.64229344354734e-05,2.2472835129595e-05,1.35867123336932e-05,8.04715225872284e-06,4.66827953105765e-06,2.65209743157106e-06,1.47532186524724e-06,8.03746183508679e-07,4.30182325844635e-07,2.41501282732296e-07,2.03013699676292e-07
"23",0.0932547992039517,0.116722067108526,0.142634596635103,0.138887731520973,0.128362220063439,0.106184686765214,0.0817482934433541,0.0594803251314184,0.0418020836983301,0.0285000889483312,0.0191938444642206,0.0129322879100312,0.00880712157331095,0.00611103006083859,0.00432533925678356,0.00311359203200291,0.00226618758908171,0.00165493976834473,0.0012051306225822,0.000870520660229481,0.000621390256293494,0.000437173918130183,0.000302587588572171,0.000205785358158501,0.000137393067222618,8.99975600272157e-05,5.78110805499212e-05,3.64041734229138e-05,2.24661028302675e-05,1.35843614910285e-05,8.04636715167265e-06,4.66809803694295e-06,2.65220798318763e-06,1.47604078446489e-06,8.07524443729353e-07,4.63811841577263e-07,4.06026980143054e-07
"24",0.0916471141026428,0.114773794861848,0.140381186685982,0.136924309272443,0.126846335135559,0.105321463333543,0.0815351415966023,0.0598128954197449,0.0425240031297334,0.0294634479893451,0.0202693829972251,0.0140227675826547,0.00984645798199895,0.00705877870068493,0.00516076154140636,0.00382978365325065,0.00286547014615247,0.00214545549027373,0.00159830599735421,0.00117931998633321,0.000859077831501997,0.000616467707965103,0.000435110412962307,0.00030174638670916,0.000205451318244039,0.000137263841375404,8.9948839231344e-05,5.77931713469366e-05,3.63977614589171e-05,2.24638789794437e-05,1.3583647739115e-05,8.04631202809086e-06,4.6684624679695e-06,2.65381892102589e-06,1.48397170944864e-06,8.72023590745478e-07,7.95008976739631e-07
"25",0.0898266218251319,0.11256270735328,0.137813984673486,0.134669455901662,0.125081093347218,0.104280559997444,0.081221930499373,0.0601171096005938,0.0432763448655599,0.0305025766031782,0.0214528130401489,0.0152418823080046,0.0110258266380422,0.00815042902447189,0.00613803065185042,0.00468120470306903,0.00358999967013855,0.00274895143658491,0.00209087787331691,0.00157346910981916,0.00116832514503428,0.000854355293422233,0.000614491067421221,0.000434305875728447,0.000301427401847025,0.00020532810856703,0.000137217464547552,8.99318270837193e-05,5.77871080549799e-05,3.63956953521595e-05,2.24632878897204e-05,1.35838609538197e-05,8.0472266788553e-06,4.67194722650243e-06,2.67008958909114e-06,1.6052774833806e-06,1.52420073195512e-06
"26",0.0877910293462801,0.110084956278311,0.134926366630567,0.132113307933932,0.123053121016828,0.103045599405743,0.0807903364486397,0.0603740745463082,0.0440411106999827,0.0316017078866263,0.022731657806049,0.0165811549847742,0.0123410926425094,0.00938618561935778,0.00726138921211266,0.00567559722770974,0.00445031212705053,0.00347795848027682,0.00269655109722926,0.00206706855190861,0.0015629454574559,0.0011638122936521,0.000852469442886559,0.000613724742081965,0.000434002543253706,0.000301310439549592,0.000205284173636674,0.000137201406083255,8.99261668129168e-05,5.77852735915031e-05,3.63953517742417e-05,2.24640810781539e-05,1.35859520828652e-05,8.05456052595938e-06,4.70458959664318e-06,2.8938712976613e-06,2.86171243073912e-06
"27",0.0855419520615829,0.10734147166518,0.131717309346775,0.129250993890647,0.120752994453964,0.101602510080265,0.0802225610100878,0.0605637545893553,0.0447977676412675,0.0327414648634957,0.024089097701138,0.0180273648222088,0.013783285478524,0.0107616042354884,0.00853085727724986,0.00681709860096078,0.00545409202839709,0.00434298232277804,0.00342784120082255,0.00267381565097232,0.00205703573750561,0.00155865034497964,0.00116202044291125,0.000851742577184373,0.000613437546932716,0.000433892032657936,0.000301269061250272,0.000205269171745409,0.000137196278876742,8.99247511004082e-05,5.77854804552883e-05,3.63974017323489e-05,2.24686485157687e-05,1.36010176175967e-05,8.11861925302357e-06,5.10961945141435e-06,5.26234665570691e-06
"28",0.0830849996907388,0.104338104951792,0.128191635213845,0.126082997415794,0.118175731598236,0.0999401277702109,0.0795020017981118,0.0606656571318962,0.0455238872563222,0.0338993939943515,0.0255043466591887,0.0195627281452296,0.0153385623009802,0.0122673339278614,0.00994176855927419,0.00810560473620853,0.00660541013852674,0.00535167299690048,0.00429523667498124,0.00340621763381291,0.00266428944852031,0.00205296467423479,0.00155695495824231,0.00116133399542881,0.000851471925278944,0.000613333717558559,0.000433853414999032,0.000301255362692655,0.000205264914059158,0.000137195756420383,8.99262323595871e-05,5.7790237607544e-05,3.64070920801788e-05,2.24988984728808e-05,1.37239991318509e-05,8.83798378030571e-06,9.47879485553264e-06
"29",0.0804297305310284,0.101085610030079,0.124360065123315,0.122615345937715,0.115321141884655,0.0980507100091112,0.0786138994887471,0.0606595579479642,0.0461958830981791,0.0350506477347647,0.0269532183756351,0.0211652976568943,0.0169884038093189,0.0138890897031402,0.0114845180961429,0.00953630943504379,0.00790408838010867,0.00650806346250425,0.00530636892860276,0.00427475412537576,0.00339720975026686,0.00266044697147516,0.00205136751373484,0.00155630968630974,0.00116108033810476,0.000851375194903733,0.000613298362495263,0.000433841674445752,0.000301252850770561,0.000205266465941497,0.000137200203478611,8.99367520621042e-05,5.78103235518197e-05,3.64664785049253e-05,2.27298534470082e-05,1.49778811639142e-05,1.67259410027536e-05
"30",0.0775894774279063,0.0975994648299043,0.120239079265444,0.118859618695255,0.112194020715472,0.0959303421156556,0.0775459320832751,0.060526231968565,0.0467898095984672,0.0361687804407455,0.0284088513374002,0.0228095574310648,0.0187100318715632,0.0156078595025373,0.013144541317989,0.0110994556175445,0.00934524109139359,0.00781193551767597,0.00646525142085367,0.00528704741796862,0.00426627222335633,0.00339359877958491,0.00265894933823149,0.00205076428766732,0.00155607391182301,0.0011609917909871,0.000851344479582759,0.000613290332392876,0.00043384314499027,0.000301259335355639,0.000205277717579579,0.000137222776523837,8.99774658246562e-05,5.79242547333166e-05,3.68906024442847e-05,2.48747502232486e-05,2.89151420028149e-05
"31",0.0745810548596719,0.093899543476572,0.11585059462714,0.114832776355932,0.10880418224541,0.0935792182930346,0.0762887306669294,0.0602481562834228,0.0472821843795814,0.0372266178923071,0.0298425546370326,0.0244671809298569,0.0204770251269076,0.0174003340470376,0.0149025279752568,0.0127803182033971,0.0109190283139881,0.00925836219213834,0.00777164626022736,0.00644710210560704,0.0052790955955294,0.00426289470544329,0.00339220231044117,0.00265839010215682,0.00205054885915979,0.00155599662512438,0.00116096949098719,0.000851344734563294,0.000613301314905516,0.000433861241182135,0.000301285796913063,0.000205324907051023,0.000137303328550129,9.01907601483796e-05,5.868535181251e-05,4.04907799372643e-05,4.89752246282533e-05
"32",0.0714243610203054,0.0900096547491485,0.111221475081368,0.110556821575716,0.105166330966358,0.0910017872287707,0.0748362952884134,0.0598101548990587,0.0476507969802975,0.0381971596765528,0.0312247330740266,0.0261079129938576,0.0222600993261773,0.0192395355663862,0.0167348594542299,0.0145594222375849,0.0126106410994979,0.0108374625934931,0.00922060779734685,0.00775467280666968,0.00643968257690464,0.00527595450502602,0.00426160372565461,0.00339169280674355,0.00265820215765304,0.00205049136192888,0.00155599269711448,0.00116098948081658,0.000851378316608461,0.000613345929714975,0.000433920461953823,0.000301381625146877,0.000205479772770319,0.000137691969776536,9.15238264867607e-05,6.46123273410201e-05,8.12720430840455e-05
"33",0.0681418955423007,0.0859569712275171,0.106382900924392,0.106058311162863,0.101299783748777,0.0882067616322627,0.0731862980200074,0.0591999614069023,0.0478754716894312,0.0390544763015355,0.0325258503536467,0.0277005343717044,0.0240280137050125,0.0210956126304784,0.0186142459503641,0.0164129851513938,0.0144005226741555,0.0125343893087247,0.01080223916917,0.00920480937316982,0.00774778929539646,0.00643678582268813,0.0052747805147609,0.00426115857570463,0.00339154978822996,0.00265818450280198,0.00205052830065073,0.00155605718652822,0.00116107261496028,0.000851478528486246,0.000613470115913159,0.000434106035476427,0.000301666941199569,0.000206164314212988,0.00013996503021033,0.000101085880291452,0.000132122208663667
"34",0.064758275475143,0.081771451973662,0.101369722330324,0.101367838630612,0.0972281484932356,0.0852070740549742,0.0713403291700584,0.0584087307904997,0.047938795021412,0.0397745949797749,0.0337174117563899,0.0292138811224183,0.0257485698620119,0.0229367648109774,0.0205105277226123,0.0183135512554346,0.0162648007125521,0.0143295334973369,0.0125016584380665,0.0107875877362325,0.00919844107000208,0.00774512113217311,0.0064357170920071,0.00527439164076716,0.00426105601243098,0.00339157110839916,0.00265826495833105,0.00205064322375016,0.00155619889183588,0.00116124026919074,0.000851683777078614,0.00061377451744733,0.000434573295372862,0.000302797559190219,0.00020990284831842,0.000155042188922799,0.000210332581036572
"35",0.0613002665235953,0.0774859101240061,0.0962206010092175,0.0965202848328671,0.0929797142560256,0.0820204246146104,0.0693046050267607,0.0574318959784503,0.0478270977177793,0.0403365744566091,0.034773092242011,0.0306179816767215,0.0273897105748799,0.0247302549102473,0.0223915530742635,0.0202306905440023,0.0181757671820315,0.0161987539372023,0.0142989559744707,0.0124877886469097,0.0107813416909885,0.00919558394260891,0.00774372138184828,0.0064349368285844,0.00527387826166464,0.00426066895308821,0.00339125851011207,0.00265801047784072,0.00205044558871689,0.00155606217271234,0.00116118665262815,0.000851814456352778,0.00061419407467905,0.000436096569352468,0.000308524402112423,0.00023292753468188,0.000327425199349851
"36",0.0578001240797508,0.0731402429622889,0.0909832769081127,0.0915601263751508,0.0885925973581185,0.0786738603851159,0.0670938761548509,0.0562724337315822,0.0475331759964887,0.0407247635740098,0.0356705980629274,0.0318855548937364,0.0289206595149346,0.0264431763153526,0.0242235483129217,0.0221309431672362,0.0201013723363419,0.0181124034825617,0.0161677483352133,0.0142829892065966,0.0124785306550948,0.0107749590987206,0.00919037484386958,0.007738993366229,0.006430442178675,0.0052695597189446,0.0042565443708383,0.0033873702773549,0.0026544067449387,0.00204716955846603,0.0015531751592992,0.0011588628976899,0.000850224275557545,0.000614617933212504,0.000443315156449096,0.00034167491596417,0.000496307695386416
"37",0.0548883902585349,0.0695199817289213,0.0866098172020389,0.087398891179921,0.0848861421228796,0.075810397526973,0.0651557368519618,0.0551946399465375,0.0471678155295169,0.0409258968370741,0.0363005807780529,0.0328337184704292,0.0301023624395366,0.0277937625743855,0.0256927587755979,0.023677644342293,0.0216901571612455,0.0197117332386131,0.0177490355223688,0.0158204821395665,0.0139495372297038,0.0121602181444466,0.010474423183909,0.00891043043843019,0.00748204058216138,0.00619819564177008,0.00506294502609634,0.00407569313649819,0.00323168230988982,0.00252264706003424,0.00193763390604969,0.00146396131855233,0.00108784243430251,0.000796741275981266,0.00058277060767741,0.000455835399203911,0.00067745767882695
