"","X0","X1","X2","X3","X4","X5","X6","X7","X8","X9","X10","X11","X12","X13","X14","X15","X16","X17","X18","X19","X20","X21","X22","X23","X24","X25","X26","X27","X28","X29","X30","X31","X32","X33","X34","X35","X36"
"1",0.602561715540698,0.211764920505281,0.0889081565303075,0.0368606462431052,0.0387025862221569,0.0117968822631469,0.00567238684232381,0.00222171069105457,0.000925084860162105,0.000370929466279039,0.000137565267812022,5.11587754831548e-05,1.75262667861351e-05,5.96724950029386e-06,1.91288233453569e-06,6.00745330066028e-07,1.79279281002835e-07,5.14730529796485e-08,1.41044047714272e-08,3.64174352833179e-09,8.93046644209312e-10,2.03506756341642e-10,4.31420566926889e-11,8.35800236026926e-12,1.444182168897e-12,2.2362675180509e-13,2.92513352531227e-14,3.34774709448423e-15,3.05235758893397e-16,2.30164722710215e-17,1.60080318679767e-18,1.05981701543128e-19,6.66907490128862e-21,2.70532190962671e-22,5.08540267709252e-24,3.16759603441811e-26,0
"2",0.602561212678238,0.211764845250422,0.0889082401086358,0.0368607725973599,0.0387026826216546,0.0117969771363694,0.00567245508380186,0.00222175676752711,0.000925113345394617,0.000370945929081654,0.000137574237141509,5.11633866949989e-05,1.75285166794527e-05,5.96829138659976e-06,1.91334148259583e-06,6.00937876544319e-07,1.79356171881456e-07,5.15022819647815e-08,1.41149740015575e-08,3.64537558000725e-09,8.94230704199823e-10,2.03872239579178e-10,4.32485827957886e-11,8.38722304194196e-12,1.45169543468629e-12,2.25428072065577e-13,2.965158450451e-14,3.4295131562782e-15,3.20446577509402e-16,2.5561163776744e-17,1.97761996247179e-18,1.54332558282578e-19,1.18903255288159e-20,7.25088390269151e-22,3.48495630128136e-23,1.32519707350269e-24,2.77205854833052e-26
"3",0.602558843246268,0.211764486603484,0.0889086286833183,0.0368613646441679,0.0387031363107548,0.0117974252677546,0.00567277891852643,0.00222197643977778,0.00092524987237042,0.000371025300062766,0.000137617760427073,5.118592395129e-05,1.75395999613363e-05,5.97346885780114e-06,1.9156450942666e-06,6.01914178413627e-07,1.79750610355975e-07,5.16541612281258e-08,1.4170680529702e-08,3.66482316756032e-09,9.0068324383611e-10,2.05903590589974e-10,4.38539595452778e-11,8.5575272623842e-12,1.49676811422407e-12,2.36601758222467e-13,3.22331926502039e-14,3.98183137971846e-15,4.29030733101222e-16,4.49872281333448e-17,5.10212948767085e-18,5.99105493927427e-19,6.67770719347869e-20,6.43133046751385e-21,5.14117194236986e-22,3.1796351207528e-23,1.325065227674e-24
"4",0.602551376020093,0.211763337568444,0.088909828901002,0.0368632147876816,0.0387045632427272,0.0117988423507985,0.00567380995857043,0.00222268066997595,0.000925691000164502,0.000371284000109071,0.000137760982329646,5.12608806394396e-05,1.75768933109679e-05,5.99111560991427e-06,1.92360786660503e-06,6.05341482525945e-07,1.81158933818223e-07,5.22066077298769e-08,1.4377487996322e-08,3.73866124080588e-09,9.25797550264611e-10,2.14030204032445e-10,4.63510258978956e-11,9.28444365623069e-12,1.6966959016028e-12,2.88371355525938e-13,4.48029386994818e-14,6.8289440232228e-15,1.02698628361121e-15,1.60547188288785e-16,2.54599567427278e-17,3.82937212904112e-18,5.21366309140264e-19,6.20141799616363e-20,6.25311838325506e-21,5.13114311701781e-22,3.1796351207528e-23
"5",0.602532417464836,0.211760358706387,0.0889127955985472,0.0368678592638666,0.0387081749498097,0.0118024546413675,0.00567646150322755,0.00222450805172473,0.000926847432264802,0.00037196995473002,0.00013814551125567,5.14649367823772e-05,1.7679965088288e-05,6.04070627264248e-06,1.94639387381891e-06,6.1534494917638e-07,1.85358923453146e-07,5.38931837415225e-08,1.50251539636588e-08,3.97640498909465e-09,1.00914409275932e-09,2.41905689778958e-10,5.52318707460899e-11,1.19745503730604e-11,2.46969798729106e-12,4.98482125498898e-13,9.86446297371666e-14,1.97823020218229e-14,3.93821638139558e-15,7.68008353712168e-16,1.42250638328638e-16,2.43223950002997e-17,3.7637751361202e-18,5.17431907490309e-19,6.18724009591659e-20,6.2832485601695e-21,5.13167772830927e-22
"6",0.602490730988959,0.211753643209713,0.0889191005182547,0.0368779250477779,0.0387160808069541,0.0118104318445187,0.00568238067813407,0.00222863264145868,0.000929490682426852,0.000373559957023807,0.00013905061775451,5.19534762052946e-05,1.79313349202321e-05,6.16411459219618e-06,2.00435005958525e-06,6.41397736544744e-07,1.96579622348986e-07,5.8524345793994e-08,1.6856815131195e-08,4.67040718026423e-09,1.26087108862997e-09,3.29236300078713e-10,8.41733890022761e-11,2.1122189527758e-11,5.22196314540248e-12,1.284842583388e-12,3.11393227059518e-13,7.40956358401683e-14,1.69675271113819e-14,3.69002946912895e-15,7.51047323080718e-16,1.41252534484701e-16,2.42686444691989e-17,3.76058711877439e-18,5.17317401082498e-19,6.23812832457265e-20,6.28610626938473e-21
"7",0.602408236219961,0.211739968337635,0.0889310643801274,0.0368974911971189,0.0387316274175786,0.0118262858117737,0.00569429500791393,0.00223704370859476,0.000934961670201713,0.000376905788679729,0.000140989988331447,5.30213275507084e-05,1.84927464618907e-05,6.44625217140563e-06,2.14021332407508e-06,7.04134637678581e-07,2.24384619172329e-07,7.03551999898505e-08,2.16897166598526e-08,6.56535281980781e-09,1.97360357958524e-09,5.86192558699766e-10,1.72872193019963e-10,5.0397754459433e-11,1.44453235682375e-11,4.05286513419269e-12,1.10075665972248e-12,2.8735857024162e-13,7.13598902069397e-14,1.672994856546e-14,3.67430132262752e-15,7.50168216446815e-16,1.41207906919144e-16,2.42659166350565e-17,3.76047686139005e-18,5.23526769010601e-19,6.24554168629379e-20
"8",0.602257872331673,0.211714242183122,0.0889517933080197,0.0369323919380008,0.038759722368064,0.0118552924270027,0.00571641138967625,0.00225289153589177,0.00094544634301869,0.0003834396830939,0.000144855929693613,5.51984315530594e-05,1.96653705368595e-05,7.0510878512102e-06,2.43963940991837e-06,8.46513901323808e-07,2.89468107750816e-07,9.89622688657002e-08,3.37806624306928e-08,1.1478206310875e-08,3.89168296199851e-09,1.3052281773291e-09,4.31431939382472e-10,1.39475497868023e-10,4.38035408888633e-11,1.32925994058807e-11,3.87171703601544e-12,1.07718444748823e-12,2.84686292728194e-13,7.11294088566107e-14,1.67148164810576e-14,3.67344312046245e-15,7.5011990396659e-16,1.41204198345607e-16,2.42656845709016e-17,3.8216364419885e-18,5.24806308322357e-19
"9",0.60200177891597,0.211668905718583,0.088985028316654,0.0369903262618316,0.0388070338292052,0.0119048343234445,0.00575479783816603,0.00228085919266811,0.000964301979812151,0.000395438360862161,0.000152118472987529,5.93907482609115e-05,2.19838757078726e-05,8.28111339939074e-06,3.06689919618871e-06,1.15421085924497e-06,4.34762612115074e-07,1.65018827862634e-07,6.26951841145301e-08,2.36609934742357e-08,8.83021827606161e-09,3.2300322103334e-09,1.15209439452094e-09,3.98395333485678e-10,1.32953086214915e-10,4.26631937775382e-11,1.31132192325116e-11,3.84831054177951e-12,1.07451034547523e-12,2.84450135314146e-13,7.11126695744896e-14,1.67136423732893e-14,3.67334624072163e-15,7.5011008611256e-16,1.41203470394067e-16,2.47737005864206e-17,3.83827016567511e-18
"10",0.601589685752043,0.211593280872483,0.0890348292109119,0.037080791515824,0.0388820648710187,0.0119846598208583,0.0058177409020377,0.00232755731475942,0.000996437959343684,0.000416355839997734,0.000165093690409168,6.70819502499148e-05,2.63587941951248e-05,1.06721810023226e-05,4.32472268772056e-06,1.79149020261191e-06,7.45909913433786e-07,3.11434775325767e-07,1.29095551689828e-07,5.26747080222427e-08,2.10395486957101e-08,8.1751452089207e-09,3.07837141905556e-09,1.11934801761044e-09,3.91920295399824e-10,1.3181777120241e-10,4.24836547441353e-11,1.30895243386941e-11,3.84553958744104e-12,1.07425061245627e-12,2.84428784114091e-13,7.11107287900939e-14,1.67134375356133e-14,3.67332356336956e-15,7.50109777111331e-16,1.44865719419536e-16,2.49477687961055e-17
"11",0.600957739449156,0.211472926962904,0.0891050875089255,0.0372147952177894,0.0389950433286599,0.0121069845584379,0.00591601033700849,0.00240188804374491,0.00104871631888459,0.000451208932325723,0.000187279771881106,8.06037701599916e-05,3.42793629479835e-05,1.51364713614224e-05,6.7494300960294e-06,3.06118465083406e-06,1.38719143628064e-06,6.23851262296696e-07,2.75889797150931e-07,1.1918066975728e-07,5.0080311372122e-08,2.03908032270192e-08,8.02477980827579e-09,3.04584202751932e-09,1.11289622332156e-09,3.90783106540679e-10,1.31636353059427e-10,4.24592874781746e-11,1.30865812789782e-11,3.84524310263098e-12,1.0742226125868e-12,2.84425795057803e-13,7.11103821005706e-14,1.6713398516135e-14,3.67334251049056e-15,7.73503416057062e-16,1.46394894030572e-16
"12",0.600028191144371,0.211289119283838,0.0891988628749264,0.0374042776331018,0.0391575448110058,0.012286326698204,0.00606292408600774,0.00251528585873366,0.00113030283032404,0.000506971309100519,0.000223739325262688,0.000103470579720576,4.80831700597904e-05,2.31650151184415e-05,1.1253753869395e-05,5.49976070411379e-06,2.66147812894914e-06,1.26655876458376e-06,5.88721258561408e-07,2.66087531354289e-07,1.16614036855193e-07,4.94377311081676e-08,2.02415917106231e-08,7.99240827290486e-09,3.03939439524662e-09,1.11175189072578e-09,3.90598573349434e-10,1.31611058966473e-10,4.24561284043821e-11,1.30862416474606e-11,3.84520771796244e-12,1.07421851942167e-12,2.84425317097727e-13,7.1110333022089e-14,1.67136317751871e-14,3.80785531078378e-15,7.85109504040836e-16
"13",0.598709946961945,0.211018510964075,0.0893176268954101,0.0376613064725414,0.0393818674506324,0.0125390587696027,0.00627416508732551,0.00268177176022787,0.00125290533880363,0.000592924774051634,0.000281494204313447,0.000140762403744659,7.12911860334732e-05,3.70975935516532e-05,1.93294850549643e-05,1.00201976826765e-05,5.10532017243181e-06,2.54245641026884e-06,1.2318901497518e-06,5.79042041132148e-07,2.63550556994344e-07,1.15977862218333e-07,4.92896642577251e-08,2.02093605060085e-08,7.98595809724433e-09,3.03824110562453e-09,1.11156390914193e-09,3.90572316314896e-10,1.31607688594428e-10,4.24557490976983e-11,1.30861999631777e-11,3.84520286128911e-12,1.07421812292195e-12,2.84425350945348e-13,7.11124497143822e-14,1.74184232846563e-14,3.88555951243427e-15
"14",0.596900188748204,0.210633076307047,0.089460477818894,0.0379970741946243,0.0396801609242243,0.0128826403441214,0.0065672844106632,0.00291773740911565,0.00143081221325344,0.000720889758602062,0.000369872894908538,0.000199517922610634,0.000108989904029547,6.0457367664829e-05,3.33171891574966e-05,1.8114551953135e-05,9.63179041935097e-06,4.98812684901345e-06,2.50830694663759e-06,1.22234833808697e-06,5.76537937942286e-07,2.62921458388692e-07,1.15831064555021e-07,4.92575954634558e-08,2.02029121341652e-08,7.98479692995941e-09,3.03805004880031e-09,1.1115368130708e-09,3.90568772779047e-10,1.3160727955768e-10,4.24557035656847e-11,1.30861958759271e-11,3.84520433353681e-12,1.07421920552711e-12,2.84441669328116e-13,7.45102837351494e-14,1.78846069672701e-14
"15",0.594486922802833,0.210100372302045,0.0896234408994697,0.0384208222661544,0.0400633994916809,0.0133345881182119,0.006960898300873,0.00324142488231345,0.00168066794428676,0.000905260400911269,0.000500739708897228,0.000289081451927005,0.000168224201860811,9.83329794986676e-05,5.67408222329373e-05,3.21236685808423e-05,1.77330468887311e-05,9.51667895642882e-06,4.95456693646158e-06,2.49892120520236e-06,1.21988172378096e-06,5.75917024385641e-07,2.62776183465405e-07,1.15799215959364e-07,4.92511624335005e-08,2.02017463564973e-08,7.98460364769531e-09,3.03802233189765e-09,1.1115331515094e-09,3.90568347606513e-10,1.31607235386165e-10,4.2455710025625e-11,1.30862134576477e-11,3.84521500499632e-12,1.07432971040798e-12,2.99632336691245e-13,7.70474375606198e-14
"16",0.591352358447561,0.209384143394507,0.089798940370073,0.0389387982894179,0.0405402925381561,0.013911257154905,0.00747361364601645,0.00367209414087293,0.00202094081144981,0.00116277457321385,0.000688527291985212,0.00042133104635802,0.000258343835809757,0.000157771212255491,9.46897474087352e-05,5.55717635715175e-05,3.17500312780588e-05,1.7620305506416e-05,9.48379124725645e-06,4.94536007543025e-06,2.49649802700388e-06,1.21927050714462e-06,5.75773639401133e-07,2.62744642540162e-07,1.15792818857632e-07,4.92499968098568e-08,2.02015519717952e-08,7.98457556848688e-09,3.03801861378492e-09,1.11153273194428e-09,3.90568327819454e-10,1.31607318492386e-10,4.24558436271934e-11,1.30862978061608e-11,3.84588364467512e-12,1.13770813078117e-12,3.12281789106928e-13
"17",0.587376992228613,0.208445266744437,0.0899755014376691,0.0395533380414413,0.0411162314522403,0.0146265301573338,0.00812275304296683,0.00422891130721059,0.00247107355443631,0.00151197305243806,0.000950002382970436,0.00061070899090943,0.00039123058203653,0.000248123050321679,0.000154211203468343,9.35483597889126e-05,5.52070186037339e-05,3.16399691360855e-05,1.75881799212586e-05,9.4747884620321e-06,4.94298700792868e-06,2.49589822247599e-06,1.2191294295834e-06,5.75742504083795e-07,2.62738303469104e-07,1.15791658148565e-07,4.92498023369438e-08,2.02015237411535e-08,7.9845718583886e-09,3.03801827418307e-09,1.11153287487397e-09,3.90568892397422e-10,1.31608184268879e-10,4.24564173413792e-11,1.30899585344088e-11,4.09394526363626e-12,1.19594507630005e-12
"18",0.582444063475899,0.207242975911285,0.0901377354391413,0.0402621850017766,0.0417923990388522,0.0154905580025531,0.00892300616548588,0.00492965032816289,0.00305036394126758,0.00197234718584656,0.00130372386069612,0.000873987248110946,0.00058132864705063,0.000381270821196444,0.000244656377853365,0.000153100766828892,9.31935599602622e-05,5.50999555932898e-05,3.1608699592585e-05,1.75794077829943e-05,9.47247261149845e-06,4.94240045137971e-06,2.4957598985012e-06,1.21909880301957e-06,5.75736245496176e-07,2.62737152205385e-07,1.15791464460527e-07,4.92497741334469e-08,2.02015202053832e-08,7.98457200422825e-09,3.03801937829904e-09,1.11153613924257e-09,3.90573876695113e-10,1.31611622499353e-10,4.24747356653783e-11,1.40047136870883e-11,4.3431635064542e-12
"19",0.57644416213712,0.205736295630702,0.0902666065343779,0.0410580962294268,0.042565122029228,0.0165086649780897,0.00988513060394772,0.00578932019114882,0.00377665761647406,0.00256321552688296,0.00176918864579296,0.00122972478757777,0.000845409803448789,0.000571658482571007,0.000377907499362673,0.000243580135596879,0.000152756955766322,9.30898142774105e-05,5.50696360461879e-05,3.1600184845928e-05,1.75771563449681e-05,9.47190116809404e-06,4.94226533357022e-06,2.49572988420979e-06,1.2190926468524e-06,5.75735107895082e-07,2.62736960083455e-07,1.1579143657138e-07,4.92497715755395e-08,2.02015230053456e-08,7.98457824541174e-09,3.03803632934157e-09,1.11156205214602e-09,3.90592327352476e-10,1.31696092940308e-10,4.56643391797775e-11,1.50014343593785e-11
"20",0.56927970886721,0.203885594326609,0.090339959069688,0.0419287650136241,0.0434255288001768,0.017680523138858,0.0110148297882217,0.00681885077083698,0.004664971678934,0.00330241563467001,0.00236570811130406,0.00169741354357466,0.00120203078306547,0.000836056806820956,0.000568408151715044,0.000376868564208734,0.000243248316298506,0.00015265683401802,9.30605357714197e-05,5.50614047905489e-05,3.15980049003656e-05,1.75766018644746e-05,9.47176970817099e-06,4.94223603517598e-06,2.49572385240098e-06,1.21909152724538e-06,5.75734918461189e-07,2.62736933757925e-07,1.15791439096268e-07,4.92497876767837e-08,2.02015543124299e-08,7.98465863944369e-09,3.03815939607939e-09,1.11165185041035e-09,3.9095366103423e-10,1.42243770435523e-10,4.94065669640429e-11
"21",0.560869095642999,0.201654163287368,0.0903332560938725,0.0428570475321895,0.0443595305685694,0.0189996582482966,0.0123119068596673,0.00802396062014354,0.00572617894036591,0.00420492751716571,0.00311110004300961,0.00229635502062423,0.00167067934535054,0.00119302083436965,0.000832928485606065,0.000567409423447319,0.000376549672322618,0.000243152105387262,0.000152628682369163,9.30526128517128e-05,5.50593031626662e-05,3.15974691917935e-05,1.75764745114227e-05,9.47174123075155e-06,4.94223015111232e-06,2.49572275680425e-06,1.21909134425932e-06,5.75734900594542e-07,2.62736961174054e-07,1.15791516760522e-07,4.92499318045616e-08,2.02019061895443e-08,7.98519744517675e-09,3.03855979253978e-09,1.11309335711525e-09,4.24116464970971e-10,1.55482949435274e-10
"22",0.551150308541916,0.199009736853733,0.0902204691935331,0.0438214570823539,0.0453481119830856,0.020453311959336,0.0137697585931276,0.00940430632199564,0.00696587647239498,0.00528155879639016,0.00402031268073747,0.00304435260602313,0.00227065104668066,0.00166203601502613,0.0011900227008097,0.000831972579281702,0.000567104303957889,0.000376457632308,0.000243125159089334,0.000152621090795833,9.30505959651405e-05,5.50587879609058e-05,3.15973463864333e-05,1.75764469628798e-05,9.47173552380103e-06,4.94222909484398e-06,2.49572259923831e-06,1.21909137145892e-06,5.75735042870591e-07,2.62737304430036e-07,1.15792133423333e-07,4.92513643865799e-08,2.02040965813313e-08,7.98684589567628e-09,3.04394583523597e-09,1.21243258358739e-09,4.68384559597107e-10
"23",0.540083873647861,0.195925876902391,0.0899750615370814,0.0447968800818722,0.0463678959668994,0.0220226535279121,0.0153752370608825,0.0109529792863618,0.00838353907992383,0.00653781579955087,0.00510411125870084,0.00395633630675953,0.00301974186873468,0.00226239511382901,0.00165917524252025,0.00118911189587589,0.000831681970670617,0.000567016663431389,0.000376431961229155,0.000243117919690116,0.000152619164589259,9.30501029156202e-05,5.50586701394836e-05,3.15973198905711e-05,1.7576441493582e-05,9.47173457222601e-06,4.94222906190699e-06,2.4957228524782e-06,1.21909201483515e-06,5.75736462332538e-07,2.627397751541e-07,1.15797591875302e-07,4.92596791551528e-08,2.0210400296412e-08,8.0057561774144e-09,3.32793594898608e-09,1.35268196563354e-09
"24",0.527655038559354,0.192383164770555,0.089571005584448,0.0457554548369115,0.0473919267061142,0.0236833013537454,0.0171088664015463,0.0126563732855305,0.0099720206431679,0.00797305943442933,0.00636795024602297,0.00504304979651258,0.00393287315708881,0.00301189091303851,0.00225967773146001,0.00165831143881417,0.00118883641582222,0.000831598922281629,0.000566992327417823,0.000376425092225011,0.000243116089502493,0.000152618695234276,9.30499905413189e-05,5.50586449072192e-05,3.15973148784241e-05,1.75764409623466e-05,9.47173515072808e-06,4.94223037118631e-06,2.49572556662726e-06,1.21909755215706e-06,5.75745781175816e-07,2.6275933201938e-07,1.15827193036344e-07,4.92821689302952e-08,2.02729448696782e-08,8.78162616717318e-09,3.74979194450325e-09
"25",0.513875108279541,0.18837015419602,0.0889837896912406,0.0466675631561075,0.0483906153487257,0.0254061041632134,0.0189453789891782,0.0144944128024479,0.0117174284014105,0.0095800098909863,0.0078111307855731,0.00630992332463043,0.00502077893772818,0.00392544125093513,0.00300932170116471,0.00225886241658783,0.00165805157330432,0.0011887581127237,0.000831575969986743,0.000566985844067879,0.000376423362741087,0.000243115645366988,0.000152618589000031,9.30499672278944e-05,5.50586413233913e-05,3.15973162294368e-05,1.75764443520729e-05,9.47174104447155e-06,4.94224118869363e-06,2.49574602855557e-06,1.2191307623765e-06,5.75811910578065e-07,2.62858500519435e-07,1.15902304557096e-07,4.94774031941564e-08,2.23007776331664e-08,9.98825597224008e-09
"26",0.49878189368367,0.183884052736607,0.08819137424268,0.0475028879251258,0.049332793697752,0.0271581244664619,0.0208545185235772,0.0164411048721585,0.0135993592370744,0.0113446246644155,0.00942630706530205,0.00775623183015877,0.00628887908942678,0.005013776431503,0.00392302366851175,0.00300855592769744,0.00225861851190777,0.00165797812639877,0.0011887365807074,0.000831569884439672,0.000566984219559602,0.000376422945898137,0.000243115547175939,0.000152618570293685,9.30499692958916e-05,5.50586508254819e-05,3.15973315764127e-05,1.75764687442201e-05,9.47178184957065e-06,4.94231295954044e-06,2.49585813113768e-06,1.21934237051398e-06,5.76125363653344e-07,2.63093909737849e-07,1.16478221942307e-07,5.45514715400168e-08,2.5586766870465e-08
"27",0.482439271266807,0.178931111413702,0.0871750620694226,0.0482314921814331,0.050186824703012,0.0289037662733817,0.0228020505825454,0.0184653605955408,0.0155914599125278,0.013246338591721,0.0111993659423844,0.00937460191709375,0.00773643768169007,0.00628231246946303,0.00501151256631628,0.00392230803752551,0.00300832818418803,0.00225854998774198,0.0016579580388175,0.00118873090274019,0.000831568370405322,0.000566983835367516,0.000376422863171955,0.000243115544375515,0.000152618595327297,9.30500119140747e-05,5.50587133620982e-05,3.15974255430872e-05,1.75766143852562e-05,9.472020952818e-06,4.94267180481529e-06,2.49649996790206e-06,1.22027870331738e-06,5.76818600008303e-07,2.64700356887687e-07,1.2863862987885e-07,6.30790672955196e-08
"28",0.464935879816785,0.17352671160374,0.0859202525842234,0.048824879562936,0.0509217247824088,0.0306059940518183,0.0247509228405923,0.020532027141236,0.0176622578007762,0.015258628139979,0.0131096686984554,0.0111508921213166,0.00935607019278336,0.00773030950932096,0.00628020301591046,0.00501084721997204,0.00392209650709726,0.00300826460551901,0.00225853135923648,0.0016579527811505,0.0011887295142299,0.000831568039943598,0.000566983799267938,0.000376422922342405,0.000243115659705928,0.000152618764552688,9.30502486586162e-05,5.50590523779933e-05,3.15979173148156e-05,1.7577370678123e-05,9.47311001903298e-06,4.94451760029186e-06,2.49914439295169e-06,1.22219583449615e-06,5.81054141631863e-07,2.92614992099704e-07,1.49738679915577e-07
"29",0.446383011484778,0.167695148145012,0.0844170522436486,0.0492569975528768,0.0515082567085769,0.0322275939723706,0.0266625211521481,0.0226030719871467,0.0197762028383583,0.0173498464993283,0.0151306171925237,0.0130644353725396,0.0111336240532927,0.00935037914155684,0.00772835378350316,0.00627958764594231,0.00501065181414531,0.00392203786464763,0.00300824745910175,0.00225852656399781,0.00165795158069768,0.00118872932752755,0.000831568178884971,0.000566984100748544,0.000376423377764103,0.000243116287394705,0.000152619607140389,9.30513994271167e-05,5.50606233949047e-05,3.16001859697765e-05,1.75804997101424e-05,9.47813656122421e-06,4.95157161209848e-06,2.50410916228653e-06,1.23273352860191e-06,6.42405870204455e-07,3.42399098739173e-07
"30",0.426911794053124,0.161469119508792,0.082660716445748,0.0495051439459086,0.0519199522038492,0.0337324292883476,0.0284979703372399,0.0246388641545467,0.0218948617687389,0.0194842698720054,0.0172304908008587,0.0150886058442953,0.0130484213867351,0.0111283650509575,0.00934857514433013,0.00772778767115796,0.00627940817704555,0.00501059812222189,0.00392202231089144,0.00300824330947026,0.0022585258153152,0.0016579519037437,0.00118873014048878,0.000831569389811563,0.000566985773991738,0.000376425577889584,0.000243119119072993,0.000152623291913851,9.30561467936459e-05,5.50670672887656e-05,3.1608677597923e-05,1.75934303703329e-05,9.49586831299836e-06,4.96354613319718e-06,2.52876741968717e-06,1.36170658345137e-06,7.5438099618391e-07
"31",0.406669800549123,0.154888949071183,0.0806519020393653,0.0495507364805815,0.0521340227204512,0.035086640347559,0.0302194289051191,0.0265994995512765,0.0239782086140349,0.0216232956163152,0.0193734943349838,0.0171916564936527,0.0150738261083119,0.0130435858684955,0.0111267096104199,0.00934805728667229,0.00772762400916286,0.00627935969061043,0.00501058466218845,0.0039220195461599,0.00300824403198427,0.00225852801313217,0.00165795518108564,0.00118873455647866,0.000831575167262152,0.000566993054357716,0.000376434559030713,0.000243130249509816,0.000152636846327074,9.30734417108231e-05,5.50887711022957e-05,3.1639990567837e-05,1.76352869765248e-05,9.52252845644555e-06,5.0175357887013e-06,2.78765284298473e-06,1.60162770828525e-06
"32",0.385817240758492,0.14800157268423,0.0783967188202198,0.0493799116429895,0.052132120367425,0.0362597410949423,0.0317913278313062,0.0284461194795542,0.0259859586841933,0.0237267363842408,0.021520957760442,0.0193377676205631,0.0171780818116666,0.0150694025256083,0.0130420750565108,0.0111262391910058,0.00934790997123531,0.00772758204539393,0.00627935031319564,0.00501058601884971,0.00392202536613129,0.00300825279201016,0.00225853968260762,0.00165797011548573,0.00118875325721172,0.0008315978065864,0.000567019833417364,0.000376466171024707,0.000243166664557608,0.000152680494396484,9.31253887302756e-05,5.51597042853515e-05,3.17322047929738e-05,1.7689162839231e-05,9.63216580256036e-06,5.5123812610267e-06,3.27674678280901e-06
"33",0.364522912899907,0.14085934371334,0.0759065834506109,0.0489839308499448,0.0519009200793205,0.0372255694621055,0.0331815065493758,0.0301421737822234,0.0278788967493091,0.0257541589892469,0.0236326330749843,0.0214882482636665,0.0193253615314174,0.0171740570655439,0.0150680328444334,0.0130416526154439,0.0111261107588231,0.00934787855885186,0.007727582371136,0.00627936333888398,0.00501060681530493,0.00392205330912618,0.00300828857253622,0.00225858414126497,0.00165802406544042,0.00118881647724275,0.000831669886447698,0.00056710124756756,0.00037655516400761,0.000243267105936949,0.000152793677389538,9.32722087965758e-05,5.53456943475609e-05,3.18263132627432e-05,1.78914265695266e-05,1.05283394684914e-05,6.45860670900636e-06
"34",0.342960403747058,0.133518836191637,0.073197959443555,0.0483594302482257,0.0514325520143857,0.0379630911641023,0.0343622334460115,0.0316546077843854,0.029620173075886,0.027666236326398,0.0256680497071378,0.0236028428949508,0.021476972434536,0.019321719161872,0.0171728169321206,0.0150676455080488,0.0130415271500924,0.0111260712522031,0.00934786842710512,0.00772758701117797,0.00627938089879781,0.00501063925707444,0.00392210349228289,0.00300835872610185,0.00225867574815273,0.00165813572158636,0.0011889457830972,0.000831815869842256,0.000567257083993324,0.000376726414865903,0.000243454987425534,0.000153037679242486,9.35856519863745e-05,5.54555456797223e-05,3.21408213002999e-05,1.9409079678875e-05,1.22533179893689e-05
"35",0.321307293939781,0.126040727844394,0.0702925799336809,0.0475088998314912,0.0507252759380735,0.0384573191143624,0.0353113198063055,0.0329551354106798,0.0311766880174197,0.0294261906382516,0.0275879612474145,0.0256411264644236,0.0235926447839388,0.0214736144267006,0.0193204454301484,0.0171722316547894,0.0150672222656246,0.0130411175568055,0.0111256365732015,0.00934740945256104,0.00772711694945915,0.0062789166557752,0.00501019785386739,0.00392169925315543,0.00300800297250776,0.00225837222840143,0.00165788444284749,0.00118874803588269,0.000831658348372593,0.000567151305954129,0.000376675980735225,0.000243533305533526,0.000153275000770405,9.34420080209416e-05,5.57248231049324e-05,3.44494376878177e-05,2.23110678635381e-05
"36",0.299762449026792,0.118496605978271,0.0672212990938495,0.0464433789739555,0.0497864319068807,0.0387016820016291,0.036014377315273,0.0340223908943863,0.032521118667271,0.031001637492542,0.0293559395111755,0.0275637816872455,0.0256314308261415,0.0235884911390573,0.0214707090726689,0.0193175614244735,0.0171689415105116,0.01506345502992,0.0130369146896987,0.0111210862027819,0.00934261827839246,0.00772219864095447,0.00627398431451464,0.0050053564134504,0.00391704278762586,0.00300360387912926,0.0022542868909888,0.0016541613409478,0.00118539435784966,0.000828717779408761,0.000564642188632496,0.000374725428325071,0.00024218965741356,0.000151510945413012,9.26931076732624e-05,5.84828915504675e-05,3.87086531906993e-05
"37",0.282078247746946,0.112237805780926,0.0645838755092814,0.0454263738840107,0.0488618578755592,0.0387388431618041,0.0364302862257903,0.0347449248822986,0.0334841160689069,0.0321714099926794,0.0307043177321594,0.0290623688822405,0.0272504743227838,0.0252961881502683,0.023233852603231,0.0211023892876866,0.018942188445012,0.0167934355144528,0.0146945780784907,0.0126809864225017,0.010783748338266,0.00902864019887744,0.00743532239010335,0.0060168154886733,0.00477931933489874,0.00372238462655898,0.00283949017711897,0.0021189590147048,0.00154507401964842,0.001099571080361,0.000762880053920154,0.000515634506031235,0.000339423610815224,0.000216089509002427,0.000134468058582481,8.59672724403717e-05,5.76917529534018e-05
