"","X0","X1","X2","X3","X4","X5","X6","X7","X8","X9","X10","X11","X12","X13","X14","X15","X16","X17","X18","X19","X20","X21","X22","X23","X24","X25","X26","X27","X28","X29","X30","X31","X32","X33","X34","X35","X36"
"1",7.95022969476369e-05,0.000115748624914967,0.000189916794187864,0.000307986710543406,0.000483695498809251,0.000735509879272086,0.00108335832957413,0.0015554072801514,0.00217784020161841,0.00297661341298214,0.00397632019312678,0.00519785413545464,0.00665634192732986,0.00835918917682653,0.0103044799383514,0.0124797329753446,0.0148612038836145,0.0174138810836687,0.0200921927655479,0.0228414167380987,0.0255997244884974,0.0283007396478439,0.0308764585391793,0.0332603853659057,0.0353908398810237,0.0372143773579966,0.0386899303716308,0.039791575856547,0.0405193220710146,0.0409314827401067,0.0411667911350755,0.041353921260914,0.0418193306478477,0.0450052862516436,0.056009681890244,0.0879996569885871,0.204182303659552
"2",7.95022775426195e-05,0.000115748596809986,0.000189916748408795,0.000307986636931793,0.00048369538434091,0.000735509707190731,0.00108335807942945,0.00155540692629277,0.00217783971430896,0.0029766127591797,0.00397631933760491,0.00519785304250558,0.00665634056291107,0.00835918751103785,0.0103044779480641,0.0124797306468049,0.0148612012148106,0.0174138780862362,0.020092189466017,0.0228414131783267,0.0255997207251903,0.0283007357511405,0.0308764545903548,0.0332603814543343,0.0353908361006526,0.0372143738036675,0.0386899271358458,0.0397915730267731,0.0405193197300951,0.0409314809760113,0.0411667900575396,0.0413539209961534,0.0418193313798154,0.0450052886751494,0.056009687734357,0.0879996705271377,0.204182339511002
"3",7.95021854681297e-05,0.000115748463453208,0.000189916531184809,0.000307986287632565,0.000483694841154641,0.000735508890587559,0.00108335689233762,0.00155540524694602,0.00217783740152638,0.00297660965606463,0.00397631527685818,0.005197847854501,0.00665633408587826,0.00835917960281723,0.010304468498587,0.0124797195904577,0.0148611885416817,0.0174138638511773,0.020092173794586,0.0228413962688679,0.0255997028465895,0.0283007172361353,0.0308764358246589,0.0332603628622429,0.0353908181283191,0.037214356901653,0.0386899117437739,0.0397915595605339,0.04051930858382,0.0409314725684578,0.041166784911239,0.0413539197122585,0.0418193348342904,0.0450053001735829,0.0560097155007552,0.0879997348856874,0.204182509964208
"4",7.95018922802904e-05,0.000115748038802871,0.000189915839453051,0.000307985175277957,0.000483693111288209,0.000735506289855395,0.00108335311146026,0.00155539989791681,0.0021778300343937,0.00297659977067885,0.00397630233976119,0.00519783132461811,0.00665631344693178,0.0083591544007627,0.0103044383813792,0.012479684347472,0.0148611481396009,0.0174138184629465,0.020092123818452,0.0228413423351331,0.0255996458105974,0.0283006581570924,0.0308763759311105,0.0332603035063125,0.0353907607325046,0.0372143029032701,0.0386898625460927,0.0397915164920147,0.0405192729045055,0.0409314456182622,0.041166768362911,0.0413539154909507,0.0418193457443313,0.0450053367830718,0.0560098040919855,0.0879999403937996,0.204183054372696
"5",7.95011377630114e-05,0.000115746945934981,0.000189914059158243,0.00030798231229781,0.000483688658707654,0.000735499595288754,0.00108334337836536,0.00155538612682621,0.0021778110659999,0.00297657431595771,0.00397626902333716,0.00519778875080414,0.00665626028310666,0.00835908947373068,0.0103043607797967,0.0124795935234701,0.0148610440013974,0.0174137014496981,0.0200919949496569,0.0228412032284577,0.0255994986642812,0.0283005056958746,0.0308762213177482,0.0332601502240852,0.0353906124484503,0.0372141633252583,0.0386897352970776,0.0397914050050672,0.0405191804396296,0.0409313756460558,0.0411667252188041,0.0413539041670498,0.0418193735095103,0.0450054309802237,0.0560100326862822,0.0880004712468921,0.204184461067926
"6",7.94994506400858e-05,0.000115744502158035,0.000189910078007933,0.000307975909624542,0.000483678700406063,0.000735484621529102,0.00108332160632255,0.00155535531901915,0.00217776862633742,0.00297651735679045,0.00397619446213896,0.00519769345761626,0.00665614126685881,0.00835894409775035,0.0103041869910872,0.0124793900804224,0.0148608106815988,0.0174134392182581,0.0200917060708165,0.0228408913067149,0.0255991686063419,0.0283001635909685,0.0308758742408251,0.0332598059738658,0.0353902792420771,0.0372138494788563,0.0386894489446073,0.0397911538634625,0.0405189718474647,0.0409312174272659,0.0411666271548527,0.041353877528172,0.0418194346975418,0.0450056415513161,0.0560105455479579,0.0880016638855568,0.204187622614742
"7",7.94960443115191e-05,0.000115739567906053,0.000189902039117979,0.000307962980146482,0.000483658589014693,0.000735454378152304,0.00108327762713425,0.00155529307999158,0.00217768287643219,0.00297640225258122,0.00397604376230559,0.00519750082007893,0.00665590062467539,0.0083586500943364,0.0103038354437343,0.0124789784412293,0.0148603384588207,0.0174129083185097,0.020091121027235,0.0228402593651206,0.025598499651632,0.0282994699085172,0.0308751701217454,0.0332591071880831,0.035389602423002,0.0372132114788516,0.0386888662674703,0.0397906421899217,0.0405185461159733,0.0409308935925148,0.0411664251832854,0.0413538204433605,0.0418195559856456,0.0450060665345215,0.0560115852810285,0.0880040858582358,0.204194045985348
"8",7.94896895005696e-05,0.000115730362115644,0.000189887039895351,0.000307938853787264,0.000483621057418692,0.000735397931821209,0.00108319553333883,0.00155517688430552,0.00217752276152896,0.00297618728769833,0.00397576226450839,0.00519714090733426,0.00665545091645869,0.00835810052377479,0.0103031781236474,0.0124782085266202,0.0148594549368653,0.0174119146521691,0.0200900255871749,0.0228390755974117,0.025597245947604,0.0282981691664481,0.0308738490163264,0.0332577951918235,0.0353883306610155,0.0372120115274865,0.0386877690959779,0.0397896772746922,0.0405177415975578,0.0409302795893662,0.0411660394324162,0.0413537065011672,0.0418197771569576,0.0450068589538679,0.0560135344840135,0.0880086356408705,0.204206119325004
"9",7.94785767657895e-05,0.000115714262818725,0.000189860806599984,0.000307896653030918,0.000483555401058753,0.000735299173369583,0.0010830518799015,0.00155497352207987,0.00217724247992307,0.00297581091211202,0.00397526928481967,0.00519651044245895,0.00665466293810198,0.00835713727698,0.010302025643845,0.0124768581530746,0.0148579047020895,0.0174101704179926,0.0200881018128194,0.0228369956469926,0.0255950418772706,0.0282958809719645,0.0308715233677771,0.0332554837316234,0.0353860880071203,0.0372098931750255,0.0386858295677582,0.0397879685715361,0.0405163134863325,0.0409291854666254,0.0411653462968199,0.0413534917699325,0.0418201532586113,0.0450082436509767,0.0560169625341075,0.0880166565658521,0.204227417713802
"10",7.94601617881818e-05,0.000115687582650429,0.00018981732773509,0.000307826701661265,0.000483446555326441,0.000735135425360118,0.00108281365097846,0.0015546362083587,0.0021767774801884,0.00297518633836823,0.00397445099750379,0.00519546364377425,0.0066533541971095,0.00835553688410945,0.0103001101295739,0.0124746128055903,0.0148553258846634,0.0174072674715671,0.0200848983530355,0.0228335301008821,0.0255913671586866,0.0282920632617564,0.0308676400406565,0.0332516205539531,0.035382335839758,0.0372063445014995,0.0386825754325607,0.0397850960116382,0.0405139060353264,0.0409273330051868,0.0411641617883682,0.0413531059141153,0.0418207556972584,0.0450105359826437,0.0560226803285204,0.0880300722926875,0.204263068255128
"11",7.94310027124828e-05,0.000115645332684969,0.000189748468053224,0.000307715901635754,0.00048327412214865,0.000734875971078344,0.00108243610883628,0.00155410152001186,0.00217604021204297,0.00297419579481638,0.00397315284883368,0.00519380243994116,0.00665127656912882,0.00835299527291752,0.0102970667824076,0.012471043779592,0.0148512247427494,0.0174026483305757,0.0200797979807191,0.0228280088142837,0.0255855083608208,0.0282859715588861,0.0308614380025368,0.0332454443101436,0.0353763298809215,0.0372006561929594,0.0386773501733961,0.0397804731683948,0.0405100197908954,0.0409243282013107,0.0411622208093765,0.0413524400939832,0.0418216713899465,0.0450141610585738,0.0560318008230231,0.088051539758818,0.204320164430814
"12",7.93866110121482e-05,0.000115581005681379,0.000189643613775719,0.000307547159394973,0.000483011472078781,0.000734480694663853,0.00108186080035199,0.00155328654924356,0.0021749161657928,0.00297268515145214,0.00397117243728469,0.00519126725078901,0.00664810461911762,0.00834911328228069,0.0102924162722015,0.0124655871949702,0.0148449511237186,0.017395578012169,0.0200719858584346,0.0228195457941155,0.0255765207401525,0.02827661824386,0.0308519056500033,0.0332359406820142,0.0353670759694528,0.0371918778894066,0.0386692709133577,0.0397733077458845,0.0405039757414345,0.0409196303462984,0.0411591528490437,0.0413513313103332,0.041822998651329,0.0450196706183612,0.0560457993363214,0.0880846065228769,0.20440819572131
"13",7.93213250498385e-05,0.000115486392026838,0.000189489370677336,0.000307298896436815,0.000482624976074879,0.000733898913855533,0.00108101383956244,0.00155208644131952,0.00217326043116523,0.00297045922795912,0.00396825326496934,0.00518752885059605,0.00664342523126422,0.00834338371565979,0.0102855488919161,0.0124575249721041,0.0148356760454948,0.0173851180899838,0.0200604200477648,0.0228070062602549,0.0255631920879403,0.0282627335621243,0.0308377394892361,0.0332217993785913,0.0353532861327128,0.0371787741878041,0.0386571852880677,0.039762560326686,0.0404948770367152,0.0409125180481465,0.0411544541058456,0.0413495428235677,0.0418248390308701,0.0450277561335588,0.0560665710072121,0.0881338671907251,0.20453947898603
"14",7.92282277547204e-05,0.00011535145943174,0.000189269365683883,0.00030694472571463,0.000482073494002345,0.000733068596682155,0.00107980474496426,0.0015503727116423,0.00217089532096459,0.00296727851756412,0.00396408032278513,0.00518218254673615,0.00663673009108359,0.00833518182412195,0.010275712739357,0.0124459704259825,0.0148223744503242,0.0173701064074418,0.0200438080537981,0.0227889799826921,0.0255440129268927,0.0282427328642421,0.0308173087277261,0.0332013765128253,0.0353333393034982,0.0371597843687505,0.0386396309601827,0.039746904555695,0.0404815708538588,0.040902054067014,0.0411474570805204,0.0413467407289126,0.0418272840264241,0.045039255158543,0.0560964786441072,0.0882051036748163,0.204729551537232
"15",7.90991186281401e-05,0.000115164311220787,0.00018896417628501,0.000306453333164279,0.000481308181387921,0.000731916055284969,0.00107812596816222,0.00154799253717405,0.00216760933073981,0.00296285769440655,0.00395827799586298,0.00517474530276408,0.00662741181491746,0.00832376020261897,0.0102620071173138,0.0124298598922442,0.0148038147751598,0.0173491443217563,0.0200205914997795,0.0227637631901296,0.0255171555223591,0.028214692671911,0.0307886284470395,0.0331726650454835,0.0353052493209887,0.0371329883678178,0.0386148001084561,0.0397246908342236,0.0404626121579074,0.0408870503143465,0.0411372985062448,0.0413424669776084,0.0418303962594304,0.045055149349054,0.0561383870761272,0.088305400249136,0.204997501972834
"16",7.89245525140317e-05,0.000114911241311666,0.000188551417410688,0.000305788612368574,0.000480272689679516,0.000730356231032358,0.00107585328151494,0.00154476926202467,0.00216315776875278,0.00295686635884237,0.00395041089238111,0.00516465658806705,0.00661476471901225,0.0083082493315878,0.0102433826507748,0.0124079521718437,0.0147785574272695,0.0173205938733628,0.0199889416254358,0.0227293520221205,0.0254804649248175,0.0281763389836443,0.030749344906884,0.0331332769108281,0.0352666438133956,0.0370960824844497,0.0385805121878052,0.0396939165315193,0.0404362319809121,0.0408660351531052,0.0411228871399052,0.0413361096102398,0.04183418492179,0.0450765523246663,0.0561956789026293,0.0884432209953513,0.205366205510719
"17",7.86939550757051e-05,0.000114576900379996,0.000188006009614086,0.00030491009111956,0.00047890382104539,0.000728293663987643,0.001072847162229,0.00154050431506239,0.00215726533392857,0.00294893240093843,0.00393998810438728,0.00515128361934577,0.00659799107971787,0.00828766483143022,0.0102186494329366,0.0123788373748602,0.0147449640334394,0.0172825870483567,0.0199467680774482,0.0226834502844076,0.0254314650721841,0.028125051081883,0.0306967364265958,0.0330804403931701,0.0352147575819416,0.0370463684171025,0.0385341984296235,0.039652205970139,0.0404003131646166,0.0408372255199103,0.041102873368168,0.0413268714231443,0.0418385757557062,0.0451046859465733,0.0562722467857863,0.0886284371769078,0.205862429946805
"18",7.83958130455841e-05,0.000114144570520813,0.000187300624430559,0.000303773643706435,0.000477132628962339,0.000725624135041292,0.00106895515835462,0.00153498052283088,0.00214963062468602,0.00293864796802118,0.00392647089486859,0.0051339310044873,0.00657621292256821,0.00826092150886045,0.0101864933373863,0.0123409553791843,0.0147012177789403,0.0172330475736799,0.0198917415781922,0.0226234922607415,0.0253673808892904,0.0280578819741185,0.030627731175528,0.0330110142793695,0.035146442189488,0.0369807574801926,0.0384729000532309,0.0395968022237416,0.0403523756138154,0.0407985058487829,0.0410756224395631,0.0413137385890283,0.0418433766363147,0.0451408451991765,0.0563724606421081,0.0888722988926445,0.206516795945066
"19",7.8017936950878e-05,0.000113596545190872,0.000186406301927904,0.000302332481388192,0.000474885953727117,0.00072223696586735,0.00106401521761493,0.0015279667947768,0.00213993255311113,0.0029255780112016,0.00390928379162547,0.00511185478294431,0.00654848935909188,0.00822685425348044,0.0101455006128124,0.0122926241004072,0.0146453551374206,0.017169725677797,0.0198213310642449,0.0225466813573024,0.0252851773677813,0.0279715966754002,0.0305389433132208,0.0329215204615804,0.0350581936504261,0.0368957920985881,0.0383932824472365,0.0395245730997816,0.0402895734824724,0.0407474161822846,0.0410391935536141,0.0412954511618543,0.041848240189147,0.0451863520903542,0.0565011079933496,0.0891873445507489,0.207363572783244
"20",7.75477860347367e-05,0.000112914599641676,0.000185293216583723,0.000300538383105401,0.000472088334663196,0.000718017890529265,0.00105785985609366,0.00151922401049183,0.00212783843564793,0.00290927111246878,0.00388782871009856,0.00508428039796401,0.00651383891647604,0.00818424514147718,0.010094190037616,0.01223207678718,0.014575308167539,0.0170902449870322,0.0197328544993799,0.0224500438650325,0.0251816150420135,0.0278627279286118,0.0304267273047182,0.0328081950870065,0.0349461986233441,0.0367876853071167,0.0382916663806465,0.0394320326888294,0.0402087059666975,0.0406811513834332,0.0409913268770787,0.0412704775831344,0.0418526254609828,0.0452425001977315,0.0566633081666397,0.0895872468665534,0.208440304000373
"21",7.69728423171107e-05,0.000112080533010963,0.000183931560991245,0.000298343117724436,0.000468664223896438,0.000712852386877985,0.0010503210060208,0.00150851188452819,0.00211301345589186,0.00288927219106532,0.00386150159065603,0.00505042395875192,0.00647126608044341,0.00813185582459398,0.0100310515735323,0.0121575071544946,0.0144889560848579,0.0169921601956903,0.0196235419738013,0.0223304964785929,0.0250533205871923,0.0277276482411934,0.0302872495078732,0.0326670576322669,0.034806398820146,0.0366523783488741,0.0381640767466614,0.0393153794035525,0.0401062430375833,0.0405965731560925,0.0409294405046107,0.0412369954226276,0.0418557609661322,0.0453104920665671,0.0568644021203728,0.0900865963008032,0.209787263019678
"22",7.62810174569368e-05,0.000111076758455263,0.000182292509030817,0.000295699996333021,0.000464540406477598,0.000706629325280851,0.00104123533675928,0.00149559651948875,0.00209513110423809,0.00286513656378544,0.00382971087038382,0.0050095159350111,0.00641979099683564,0.00806846393963731,0.00995459003850105,0.0120671206660622,0.0143841842296493,0.0168730234723949,0.0194906089402195,0.0221849253705052,0.0248968703576888,0.027562656155879,0.0301165751351732,0.0324939962758152,0.0346345723576614,0.0364856155233932,0.038006308473615,0.0391705506652434,0.0399783668133908,0.040490236108395,0.0408506391003119,0.0411928805307632,0.0418566116420012,0.0453913722998155,0.0571098211213636,0.0907006261052488,0.211446747337701
"23",7.54610733959113e-05,0.000109886913786464,0.000180349213677897,0.000292565482555642,0.000459648514949424,0.000699244766672799,0.00103044980517828,0.00148025830322918,0.00207388412172336,0.00283644472723402,0.00379189696601255,0.00496082623765392,0.00635848103455668,0.007992901967652,0.00986337194089463,0.0119591898191025,0.0142589480076201,0.0167304569319848,0.0193313367142554,0.0220102738090198,0.0247088837938692,0.0273640737155986,0.0299107676836677,0.0322848669019485,0.0344264297312633,0.0362830344099539,0.0378140082619984,0.0389932935012506,0.0398210284884276,0.0403584284578244,0.0407517355063935,0.0411357065581784,0.0418538523093662,0.0454859597093549,0.0574049389395548,0.0914448865949525,0.213462229085208
"24",7.45030384295539e-05,0.000108496466001689,0.000178077796042242,0.000288900790987946,0.000453927529481761,0.00069060574597289,0.00101782719665921,0.00146229981185848,0.00204899548144893,0.00280281723521835,0.00374755194702825,0.00490368963652398,0.00628648290057637,0.00790409694629983,0.00975607357231797,0.0118321112141635,0.0141113392769777,0.0165622283585621,0.0191431571758201,0.021803635064355,0.0244861233244624,0.0271283517219145,0.0296659975071386,0.0320356025959777,0.0341777215692664,0.0360402690352156,0.0375827702299992,0.038779249737819,0.0396300201757638,0.0401972274595862,0.0406292861608489,0.0410627564586322,0.0418458500385253,0.0455947819533975,0.0577549127703198,0.0923348778597273,0.215877384216645
"25",7.3398599713269e-05,0.000106893282136529,0.00017545828059023,0.000284673401056907,0.000447326150082009,0.000680633869493119,0.0010032514063996,0.00144155336256856,0.00202022891469042,0.00276392900623228,0.00369623852370871,0.00483753039048569,0.0062030538950303,0.00780110930225899,0.00963152827786067,0.0116844619646557,0.0139396523697122,0.0163663270145826,0.0189237381857826,0.0215623468492359,0.0242255968140551,0.0268521787309122,0.0293786554755041,0.0317423296955916,0.0338843544794781,0.0357530626708212,0.0373082426511408,0.0385240535832627,0.0394010601689605,0.040002568859701,0.0404796405009289,0.0409710470916062,0.0418306575529142,0.0457180162307591,0.0581645190776417,0.0933856529432766,0.218735030427135
"26",7.21414548152875e-05,0.00010506814116484,0.000172475435168379,0.00027985841937805,0.000439804936113669,0.000669268567665405,0.000986632228433047,0.00141788788430084,0.00198739852005112,0.00271952243523713,0.00363760752222885,0.0047618850201259,0.00610759095503865,0.00768316913359809,0.00948877088366124,0.0115150530532576,0.013742446970978,0.0161410363811007,0.0186710662063482,0.0212840834669108,0.0239246584752414,0.0265325895337656,0.0290454673957826,0.0314014861143683,0.0335425108709706,0.0354173864425812,0.0369862423960452,0.0382234387704987,0.0391298894662973,0.0397703290020895,0.040299003880799,0.0408573674576962,0.0418060193370318,0.0458554393830652,0.0586379908435933,0.0946114049116742,0.222076008102889
"27",7.07276073079886e-05,0.000103015165091598,0.000169119479968804,0.000274439732459856,0.000431338121820035,0.00065646986432307,0.000967909448160465,0.00139121481348381,0.00195037704658603,0.00266941875225431,0.00357141310504632,0.00467642225843771,0.00599965626025464,0.00754970841444636,0.00932707741887715,0.01132297740924,0.013518605249582,0.0158850008359997,0.018383522756317,0.0209669419505357,0.0235811042297426,0.0261670688742027,0.0286636048013276,0.0310099375023754,0.0331487683920703,0.0350295595960806,0.036612873260165,0.037873351911182,0.0388123768105656,0.0394964175755567,0.0400835128658839,0.0407183304504098,0.0417693915332576,0.0460063903500839,0.059178862695106,0.0960250520538431,0.225938041407919
"28",6.91555938082784e-05,0.000100732150873951,0.000165386635224887,0.000268410900619104,0.000421915030440589,0.000642220544428496,0.000947056063820823,0.00136149276334424,0.00190910249761242,0.00261352714349968,0.00349752508809579,0.00458095933038132,0.00587899831202715,0.00740038775627191,0.00914599845225307,0.0111076506808372,0.0132673808431618,0.0155972834892085,0.0180599515349073,0.0206095186574464,0.0231932576448826,0.0257536462442663,0.028230787737239,0.0305650867482744,0.0327002144720212,0.0345863670092964,0.0361846440012491,0.0374700682541717,0.0384446289454536,0.039176878359238,0.0398293210916081,0.040550437323386,0.0417179760685803,0.0461697474270959,0.0597898302332307,0.0976378360631038,0.230354618908604
"29",6.7426632906033e-05,9.82207891848325e-05,0.000161279484542262,0.000261775755382211,0.0004115410271897,0.000626527628603165,0.000924080500587619,0.00132873076905186,0.00186358277534464,0.00255185124830693,0.00341593783236095,0.00447547387082983,0.00574556759246728,0.00723511659215487,0.00894538463323994,0.0108688429819085,0.0129884376370251,0.0152774127514612,0.0176997134163868,0.0202109731472977,0.0227600429175826,0.0252909779074541,0.027745375420163,0.0300649725012191,0.032194551533651,0.0340851695138878,0.0356985817619089,0.037010305767838,0.0380231023926862,0.0388079948139925,0.0395326932685353,0.0403501534012747,0.0416487687576818,0.0463439221271796,0.0604726294105886,0.0994589479192479,0.235353933518841
"30",6.55446900983232e-05,9.54867613625075e-05,0.000156807139452141,0.000254548676609153,0.000400237973076246,0.00060942309544076,0.000899027728368833,0.0012929899779169,0.00181389817853095,0.00248449276823805,0.0033267753479245,0.00436011099442496,0.00559952616263392,0.00705406595642436,0.00872540338889573,0.010606700308405,0.012681876743481,0.0149254157256591,0.0173027270641463,0.0197710767387957,0.0222810419450574,0.0247784128455927,0.0272064411551008,0.0295083528282949,0.0316301887911698,0.0335240028211113,0.0351523366559315,0.0364913334243083,0.0375447128605336,0.03838639702166,0.039190104427248,0.0401139929490564,0.0415586204177704,0.0465268706695161,0.0612279409578596,0.101495195192378,0.24095791961749
"31",6.35164568788959e-05,9.25397117370171e-05,0.000151985200316992,0.000246754540953847,0.000388044165510029,0.000590963828702827,0.000871979247026404,0.00125438372851206,0.00176020166832244,0.00241165206333547,0.00323029243021675,0.00423518526315299,0.00544125084911839,0.00685767338586523,0.00848654614958176,0.0103217548115272,0.0123482506478851,0.0145418371319521,0.0168694935880466,0.0192902438541783,0.0217565332569297,0.0242160400604697,0.0266138286006135,0.0288947707790632,0.0310063171223323,0.0329016613157283,0.0345442736321274,0.0359110697460461,0.0370069384085888,0.0379091663116239,0.0387983411551702,0.0398386106009959,0.0414443093563422,0.0467161232615456,0.0620553237299829,0.103750722738652,0.247181421200932
"32",6.1351245690743e-05,8.93930976929297e-05,0.000146835517170451,0.00023842834692606,0.000375013772976228,0.000571230798750667,0.000843051949908883,0.00121307602976987,0.00170271691076366,0.00233362573636355,0.00312687181413582,0.00410117751102872,0.00527132993686412,0.00664663979882147,0.00822962587334462,0.0100149235812124,0.0119885640246293,0.0141277430819596,0.016401104333667,0.0187695449749809,0.0211875113323159,0.0236047154254425,0.0259681872307899,0.0282245993532941,0.0303229641694469,0.0322177635601798,0.0338735481961798,0.0352681680064071,0.0364079126703674,0.0373739339215444,0.0383546014055868,0.0395208963950484,0.0413026230526074,0.0469088305676629,0.0629531796705871,0.10622679670609,0.254031519999755
"33",5.90608084909509e-05,8.60639286214914e-05,0.000141385768496487,0.000229614545198363,0.000361215807751069,0.000550327543312172,0.000812395958603992,0.00116927856867762,0.00164173426859633,0.00225080142989873,0.00301701763003404,0.00395872687373725,0.00509055378114385,0.00642191882661715,0.00795576539535289,0.00968749650181081,0.0116042617965352,0.0136847102558997,0.0158992322995534,0.0182107016042846,0.0205756865499262,0.0229460681415129,0.025270986811802,0.027499065417011,0.0295810289165237,0.0314727984479062,0.0331401646281205,0.0345620864478085,0.0357465062727663,0.036778971681837,0.0378565908238688,0.0391580724418989,0.0411304473047395,0.0471018261949022,0.0639187503868282,0.108921654258702,0.261507031681193
"34",5.66591407127254e-05,8.25724836326251e-05,0.00013566900521358,0.000220366312615009,0.000346733010488324,0.000528378514848336,0.000780192262434014,0.00112324743999593,0.00157760640818597,0.00216365210506016,0.00290134818036959,0.00380862195191702,0.0048999043447776,0.00618470484922106,0.00766638426166014,0.00934112239245549,0.0111972153246891,0.0132148131322427,0.0153661216417239,0.0176160795042213,0.0199234837979363,0.0222425064778367,0.0245245320688684,0.0267202750314547,0.0287823192434181,0.0306681762488495,0.0323450413444509,0.0337931681890246,0.035022420682671,0.0361232978498736,0.0373026365670234,0.0387478086407311,0.0409248745396364,0.0472917046169953,0.064948117498992,0.111830329750329,0.269597915185406
"35",5.41627055794607e-05,7.8942641484953e-05,0.00012972419967304,0.000210746456980987,0.000331663297708209,0.00050553132815282,0.000746656107944847,0.00107528813977469,0.00151075549028492,0.00207274617259509,0.00278060992214111,0.00365181973687687,0.00470058034683541,0.00593646583327733,0.00736324089876313,0.00897786230386288,0.0107697887464061,0.0127207053499579,0.0148046860496795,0.0169888060056399,0.0192341804801338,0.0214973779834584,0.0237321462557416,0.0258914210674197,0.0279297836895628,0.0298064839079556,0.0314902882004039,0.0329629378361269,0.0342364996984811,0.0354069957273998,0.0366919996266936,0.0382885096898426,0.0406834365725527,0.0474749186334132,0.0660359866972187,0.114943733518349,0.27828251868159
"36",5.15934107725043e-05,7.5206218692548e-05,0.000123603373348306,0.00020083899448192,0.000316137977782224,0.000481984517969332,0.000712077981748752,0.00102581456064827,0.00144175601251608,0.00197886107674549,0.00265582971623537,0.00348964536137894,0.00449425406336436,0.00567926716408272,0.00704883354012692,0.00860067727228355,0.0103254225018838,0.0122063066867256,0.0142193051131165,0.0163336795123673,0.0185129303275939,0.0207161058821506,0.0228994152896609,0.0250181269838324,0.0270289434413349,0.0288929903579361,0.0305807664201398,0.0320756928853138,0.0333923224610025,0.0346327640749148,0.0360263125820382,0.0377805453254588,0.0404049849551168,0.0476478906415001,0.0671740846176843,0.118243196247449,0.287511832450564
"37",4.94279551937138e-05,7.20566569231034e-05,0.000118442939756216,0.000192484229048402,0.000303042419958042,0.000462116957843836,0.00068289278190336,0.000984040970816045,0.00138347035123406,0.00189951560465837,0.00255031702868371,0.00335243066914586,0.00431956713119621,0.00546134942870243,0.00678222885456351,0.00828055418124734,0.00994791045039088,0.0117688243428552,0.0137208585410303,0.0157751084262104,0.0178970831466907,0.0200479287660942,0.0221859472144971,0.0242684029523036,0.0262538291924645,0.0281049903589447,0.0297939223390898,0.0313055631944778,0.0326567100626977,0.0339548790038768,0.0354397060099566,0.0373281491383826,0.0401495853747562,0.0477827512647441,0.0681456658353351,0.121088912879961,0.295489333344328
