"","X0","X1","X2","X3","X4","X5","X6","X7","X8","X9","X10","X11","X12","X13","X14","X15","X16","X17","X18","X19","X20","X21","X22","X23","X24","X25","X26","X27","X28","X29","X30","X31","X32","X33","X34","X35","X36"
"1",0.798944589873115,0.126775576688519,0.0276025605140473,0.0373549723627601,0.00588329165914184,0.00249908121009188,0.000679921579477548,0.000183855354746901,6.31525119827814e-05,1.04332548328542e-05,2.25501807194666e-06,2.84363182985906e-07,2.38008733099327e-08,1.68853006700436e-09,1.10382407866279e-10,9.71850188127507e-12,5.13995529550301e-13,1.09936730927555e-14,7.26240394620664e-17,0,0,0,0,0,0,0,0,0,0,0,0,0,0,0,0,0,0
"2",0.798939846840848,0.126776273555569,0.0276040683819976,0.0373559026191583,0.00588406841153731,0.0024995175546689,0.000680147111476881,0.000183959009164042,6.31947418394971e-05,1.04491974613568e-05,2.26038633429436e-06,2.86002322800112e-07,2.4246747320683e-08,1.79474216220136e-09,1.31843526269874e-10,1.32650252825802e-11,9.68540486905816e-13,5.2591091336308e-14,2.45571106670157e-15,6.35554809444306e-17,0,0,0,0,0,0,0,0,0,0,0,0,0,0,0,0,0
"3",0.798918086607229,0.126779305637535,0.0276108757185745,0.0373601865688987,0.00588769249312599,0.0025015916040654,0.000681237720203149,0.000184469977447618,6.34080759098031e-05,1.05317997201386e-05,2.28909692594729e-06,2.95094021291624e-07,2.68344899817434e-08,2.44964556633825e-09,2.76182502681528e-10,4.0304954073452e-11,5.12268517886978e-12,5.49591146424327e-13,4.55301536206351e-14,2.45540878141765e-15,6.35554809444306e-17,0,0,0,0,0,0,0,0,0,0,0,0,0,0,0,0
"4",0.798852071900039,0.126787818151885,0.0276310402132664,0.0373732163903154,0.00589892740376978,0.00250819311204115,0.000684797315925643,0.000186184911694507,6.41490916839924e-05,1.08291322239215e-05,2.39705019522829e-06,3.31011642605081e-07,3.76823054074438e-08,5.40643156372064e-09,9.94635475132799e-10,1.93503498636045e-10,3.30848796882063e-11,4.76302065444077e-12,5.44253819051773e-13,4.55301536206351e-14,2.45540878141765e-15,6.35554809444306e-17,0,0,0,0,0,0,0,0,0,0,0,0,0,0,0
"5",0.798692234852517,0.126806465666832,0.027678368791908,0.0374047309241639,0.00592676326156558,0.00252508778449004,0.000694202878606903,0.000190879800405589,6.62649434298234e-05,1.1716059719048e-05,2.73620426770279e-06,4.5056759442641e-07,7.62872870964153e-08,1.67903008213675e-08,4.03790954057462e-09,9.2342507968432e-10,1.87430340978272e-10,3.27936338280606e-11,4.7593693115798e-12,5.44249279374563e-13,4.55301536206351e-14,2.45540878141765e-15,6.35554809444306e-17,0,0,0,0,0,0,0,0,0,0,0,0,0,0
"6",0.79835986809916,0.126840701445833,0.0277730817154436,0.0374698370642112,0.00598592344301886,0.00256235200795871,0.000715748834478013,0.000202096545141044,7.15710046139287e-05,1.40545853653914e-05,3.68321168898901e-06,8.05970665891623e-07,1.99375474513939e-07,5.60549822754202e-08,1.55193185399221e-08,3.97881490762438e-09,9.18488288956644e-10,1.87197241585223e-10,3.27906910020615e-11,4.75933678725876e-12,5.44249279374563e-13,4.55301536206351e-14,2.45540878141765e-15,6.35554809444306e-17,0,0,0,0,0,0,0,0,0,0,0,0,0
"7",0.797742467233467,0.126895260234469,0.0279411606209328,0.037589180175174,0.00609786622568644,0.00263576879805194,0.000760036755398444,0.000226269423627917,8.36325386642086e-05,1.96705034563661e-05,6.0997096959373e-06,1.7735461360902e-06,5.58913786640005e-07,1.79854076496933e-07,5.4877806181916e-08,1.54711419474275e-08,3.97480444935571e-09,9.18285885674737e-10,1.87192849752228e-10,3.27905543399717e-11,4.75933678725876e-12,5.44249279374563e-13,4.55301536206351e-14,2.45540878141765e-15,6.35554809444306e-17,0,0,0,0,0,0,0,0,0,0,0,0
"8",0.796692757299703,0.126972029437166,0.0282121800206049,0.037787860720986,0.00629072186234407,0.00276769306701594,0.000843306835967649,0.000274089279705046,0.000108882909716689,3.2131874622145e-05,1.18080346018875e-05,4.2137235877379e-06,1.53074463333206e-06,5.40026765892976e-07,1.78741714925182e-07,5.48355632343196e-08,1.54671920475458e-08,3.9745044436349e-09,9.18266936868379e-10,1.87191953604088e-10,3.27905543399717e-11,4.75933678725876e-12,5.44249279374563e-13,4.55301536206351e-14,2.45540878141765e-15,6.35554809444306e-17,0,0,0,0,0,0,0,0,0,0,0
"9",0.795034044289173,0.1270674951271,0.0286153033564727,0.0380926623161889,0.00659748540401059,0.00298668830730971,0.000988145187963779,0.000361767251331104,0.000157961573735384,5.78563209280545e-05,2.43660265863711e-05,9.94551428030988e-06,3.97420575113498e-06,1.51212888528814e-06,5.38888290972209e-07,1.78688958338489e-07,5.48286714921452e-08,1.5466338372023e-08,3.97442350663527e-09,9.18262885123234e-10,1.87191953604088e-10,3.27905543399717e-11,4.75933678725876e-12,5.44249279374563e-13,4.55301536206351e-14,2.45540878141765e-15,6.35554809444306e-17,0,0,0,0,0,0,0,0,0,0
"10",0.792568256390169,0.127170754033156,0.0291751463488734,0.0385286046002445,0.00705305619614887,0.00332594500143306,0.00122325327932548,0.000511825169867753,0.000247020682728153,0.000107466456137093,5.01815610147203e-05,2.25238430493951e-05,9.7074272417692e-06,3.95528737195391e-06,1.51083441239534e-06,5.38802866626438e-07,1.78675148936858e-07,5.48266624685302e-08,1.54661330317661e-08,3.97441315185569e-09,9.18262885123234e-10,1.87191953604088e-10,3.27905543399717e-11,4.75933678725876e-12,5.44249279374563e-13,4.55301536206351e-14,2.45540878141765e-15,6.35554809444306e-17,0,0,0,0,0,0,0,0,0
"11",0.789085396707084,0.12726254714776,0.0299083673461169,0.0391155099766309,0.00769059764357572,0.0038205433815724,0.00158198506387223,0.000752934966362352,0.000398549269846169,0.000197109435699746,9.98731471957408e-05,4.83557899443862e-05,2.22851927247641e-05,9.68764201503296e-06,3.95372601604116e-06,1.51070170538154e-06,5.38779807725301e-07,1.7867164305099e-07,5.4826297767804e-08,1.54661146173474e-08,3.97441315185569e-09,9.18262885123234e-10,1.87191953604088e-10,3.27905543399717e-11,4.75933678725876e-12,5.44249279374563e-13,4.55301536206351e-14,2.45540878141765e-15,6.35554809444306e-17,0,0,0,0,0,0,0,0
"12",0.784374626240675,0.127315356279827,0.0308211766082728,0.0398649658689632,0.0085376207666848,0.00450379160655395,0.00209957639789822,0.00111843965758388,0.000641203096580563,0.000349275039762161,0.000189586808485772,9.80600180443444e-05,4.8114744701591e-05,2.22640619614691e-05,9.6857372092938e-06,3.95354136242792e-06,1.51066912760907e-06,5.38774786653373e-07,1.78671117852691e-07,5.48262712435743e-08,1.54661146173474e-08,3.97441315185569e-09,9.18262885123234e-10,1.87191953604088e-10,3.27905543399717e-11,4.75933678725876e-12,5.44249279374563e-13,4.55301536206351e-14,2.45540878141765e-15,6.35554809444306e-17,0,0,0,0,0,0,0
"13",0.77823437461468,0.127294634022628,0.0319084600207191,0.0407784750410194,0.00961275151957208,0.00540345284538056,0.00280955008212102,0.00164361846996268,0.00100834068405836,0.000592630759745349,0.000341816062947816,0.000187784205816674,9.78153606888487e-05,4.8091986850564e-05,2.2261793984915e-05,9.68550951445037e-06,3.95350168679361e-06,1.51066299317796e-06,5.38774143694557e-07,1.78671085380137e-07,5.48262712435743e-08,1.54661146173474e-08,3.97441315185569e-09,9.18262885123234e-10,1.87191953604088e-10,3.27905543399717e-11,4.75933678725876e-12,5.44249279374563e-13,4.55301536206351e-14,2.45540878141765e-15,6.35554809444306e-17,0,0,0,0,0,0
"14",0.770481667584581,0.127160773915132,0.033154143837224,0.0418467965245191,0.0109235183075923,0.00653844680235195,0.00373989105712767,0.00236206246257912,0.0015352722666292,0.00096055012464768,0.000585233739468153,0.000340023764969159,0.000187535346705855,9.77908680982062e-05,4.80893782880854e-05,2.22615404387083e-05,9.68546667758841e-06,3.95349507520977e-06,1.51066229961073e-06,5.38774108665917e-07,1.78671085380137e-07,5.48262712435743e-08,1.54661146173474e-08,3.97441315185569e-09,9.18262885123234e-10,1.87191953604088e-10,3.27905543399717e-11,4.75933678725876e-12,5.44249279374563e-13,4.55301536206351e-14,2.45540878141765e-15,6.35554809444306e-17,0,0,0,0,0
"15",0.760959202990998,0.126871575431071,0.0345327835179836,0.0430505898185665,0.0124655528499567,0.00791665942012218,0.00490975453402499,0.00330185110547413,0.00225563454197679,0.00148836127079734,0.000953220031337242,0.000583453558487057,0.000339770718836379,0.000187509153089614,9.77879672995771e-05,4.80891187895974e-05,2.22614986627057e-05,9.68546026309104e-06,3.95349440204872e-06,1.5106622656127e-06,5.38774108665917e-07,1.78671085380137e-07,5.48262712435743e-08,1.54661146173474e-08,3.97441315185569e-09,9.18262885123234e-10,1.87191953604088e-10,3.27905543399717e-11,4.75933678725876e-12,5.44249279374563e-13,4.55301536206351e-14,2.45540878141765e-15,6.35554809444306e-17,0,0,0,0
"16",0.749540500039951,0.126384743858443,0.0360117813398338,0.0443619860367342,0.0142230638092394,0.00953407388933185,0.00632723973316013,0.00448224149266805,0.00319755847565364,0.00220971889774146,0.00148111007984071,0.00095145572182263,0.000583196874526834,0.0003397429640341,0.000187506020091674,9.7787720289252e-05,4.80890817144877e-05,2.22614930193909e-05,9.6854596707468e-06,3.95349437213235e-06,1.5106622656127e-06,5.38774108665917e-07,1.78671085380137e-07,5.48262712435743e-08,1.54661146173474e-08,3.97441315185569e-09,9.18262885123234e-10,1.87191953604088e-10,3.27905543399717e-11,4.75933678725876e-12,5.44249279374563e-13,4.55301536206351e-14,2.45540878141765e-15,6.35554809444306e-17,0,0,0
"17",0.73613409962673,0.12566002757298,0.037553545907752,0.0457465356211235,0.0161701487028132,0.0113750816079071,0.00798843664633722,0.00591139946218478,0.00438033962139429,0.00315276520370351,0.00220256342551499,0.00147936649903404,0.000951196206436074,0.000583167720464837,0.000339739647070793,0.000187505797055021,9.77876899247972e-05,4.80890771522247e-05,2.22614925404726e-05,9.685459646559e-06,3.95349437213235e-06,1.5106622656127e-06,5.38774108665917e-07,1.78671085380137e-07,5.48262712435743e-08,1.54661146173474e-08,3.97441315185569e-09,9.18262885123234e-10,1.87191953604088e-10,3.27905543399717e-11,4.75933678725876e-12,5.44249279374563e-13,4.55301536206351e-14,2.45540878141765e-15,6.35554809444306e-17,0,0
"18",0.720686522261834,0.124660895550019,0.0391174277572934,0.0471652669814527,0.0182726536276174,0.0134137558045646,0.00987772750952246,0.00758544477385496,0.0058121704901213,0.00433680197783739,0.00314572590699811,0.00220084618936103,0.00147910513760959,0.000951165823302679,0.000583164254188463,0.000339739452779996,0.000187505773929609,9.77876865147067e-05,4.80890767942376e-05,2.22614925223924e-05,9.685459646559e-06,3.95349437213235e-06,1.5106622656127e-06,5.38774108665917e-07,1.78671085380137e-07,5.48262712435743e-08,1.54661146173474e-08,3.97441315185569e-09,9.18262885123234e-10,1.87191953604088e-10,3.27905543399717e-11,4.75933678725876e-12,5.44249279374563e-13,4.55301536206351e-14,2.45540878141765e-15,6.35554809444306e-17,0
"19",0.703184664288416,0.123355706211177,0.0406611516026363,0.0485764823232872,0.0204901170555565,0.0156156492191522,0.0119690330168382,0.00948874057142347,0.00748918142071126,0.00577002182374415,0.00432990143252732,0.00314404101043072,0.0022005840739744,0.00147907369675605,0.000951162230180651,0.000583164087894257,0.000339739436281468,0.000187505771561142,9.77876862660625e-05,4.80890767816798e-05,2.22614925223924e-05,9.685459646559e-06,3.95349437213235e-06,1.5106622656127e-06,5.38774108665917e-07,1.78671085380137e-07,5.48262712435743e-08,1.54661146173474e-08,3.97441315185569e-09,9.18262885123234e-10,1.87191953604088e-10,3.27905543399717e-11,4.75933678725876e-12,5.44249279374563e-13,4.55301536206351e-14,2.45540878141765e-15,6.35554809444306e-17
"20",0.683657418189815,0.12171853636188,0.0421418852781047,0.0499372142035255,0.0227775552383278,0.0179397500463568,0.0142276196535089,0.0115951453723574,0.00939573311231737,0.00744855049291787,0.00576328377436167,0.00432825508548935,0.00314377933803189,0.00220055176092901,0.00147906999377124,0.000951162087919012,0.000583164076794605,0.000339739434748325,0.000187505771400189,9.77876862579335e-05,4.80890767816798e-05,2.22614925223924e-05,9.685459646559e-06,3.95349437213235e-06,1.5106622656127e-06,5.38774108665917e-07,1.78671085380137e-07,5.48262712435743e-08,1.54661146173474e-08,3.97441315185569e-09,9.18262885123234e-10,1.87191953604088e-10,3.27905543399717e-11,4.75933678725876e-12,5.44249279374563e-13,4.55937091015795e-14,2.45540878141765e-15
"21",0.66217639889885,0.119729835933045,0.0435171295136901,0.0512043757926916,0.0250869586872138,0.0203402978206181,0.0166120711763803,0.013869827402439,0.0115056713288843,0.00935674043072005,0.00744199921397149,0.00576168232678657,0.00432799517774718,0.00314374636922928,0.00220054796685754,0.00147906987065024,0.000951162080859663,0.00058316407587379,0.000339739434651656,0.000187505771395307,9.77876862579335e-05,4.80890767816798e-05,2.22614925223924e-05,9.685459646559e-06,3.95349437213235e-06,1.5106622656127e-06,5.38774108665917e-07,1.78671085380137e-07,5.48262712435743e-08,1.54661146173474e-08,3.97441315185569e-09,9.18262885123234e-10,1.87191953604088e-10,3.27905543399717e-11,4.75933678725876e-12,5.4670468815598e-13,4.55937091015795e-14
"22",0.638855433608309,0.117377044320034,0.0447456756067935,0.0523357759174398,0.0273685543727008,0.0227683279190772,0.0190761260835066,0.0162712438964731,0.0137841433484211,0.0114684260182171,0.0093504001178444,0.00744044904132148,0.005761425622545,0.00432796180511576,0.00314374250793597,0.00220054785823286,0.00147906986637483,0.000951162080348965,0.000583164075820175,0.000339739434648948,0.000187505771395307,9.77876862579335e-05,4.80890767816798e-05,2.22614925223924e-05,9.685459646559e-06,3.95349437213235e-06,1.5106622656127e-06,5.38774108665917e-07,1.78671085380137e-07,5.48262712435743e-08,1.54661146173474e-08,3.97441315185569e-09,9.18262885123234e-10,1.87191953604088e-10,3.27905543399717e-11,4.80467627443656e-12,5.46958910079758e-13
"23",0.613848336453557,0.114655214038487,0.0457888333082826,0.0532912225118303,0.0295720327131668,0.0251730046932424,0.0215702557259694,0.0187529909153715,0.016189580987371,0.0137487412785704,0.0114623204579316,0.00934890755861855,0.00744019709211331,0.00576139213602842,0.00432795790773825,0.00314374241023673,0.00220054785574015,0.00147906986611602,0.000951162080321794,0.000583164075818803,0.000339739434648948,0.000187505771395307,9.77876862579335e-05,4.80890767816798e-05,2.22614925223924e-05,9.685459646559e-06,3.95349437213235e-06,1.5106622656127e-06,5.38774108665917e-07,1.78671085380137e-07,5.48262713071298e-08,1.54661146173474e-08,3.97441315185569e-09,9.18262948678715e-10,1.87191890048607e-10,3.3327437393002e-11,4.81468857600507e-12
"24",0.587345014001087,0.111567529771283,0.0466118608032558,0.0540337875466888,0.0316478935277894,0.0275028900758855,0.0240430163958231,0.0212653855903291,0.0186755504339162,0.0161561028254284,0.0137428933018905,0.0114608916526945,0.00934866198492989,0.00744016381024093,0.00576138824000006,0.00432795781859769,0.00314374240880582,0.00220054785562172,0.00147906986610359,0.000951162080321166,0.000583164075818803,0.000339739434648948,0.000187505771395307,9.77876862579335e-05,4.80890767816798e-05,2.22614925223924e-05,9.685459646559e-06,3.95349437213235e-06,1.5106622656127e-06,5.38774108665917e-07,1.78671087899102e-07,5.48262713071298e-08,1.54661146173474e-08,3.97441567081995e-09,9.18260429714452e-10,1.91815144818851e-10,3.35163522345003e-11
"25",0.559565946801766,0.10812559920396,0.0471854660539214,0.0545312169007437,0.033549012670889,0.0297073313479094,0.0264423392987852,0.0237568233161365,0.0211923351763869,0.0186440600387686,0.0161505337090642,0.0137415340029771,0.0114606540847977,0.00934862924083622,0.00744015995708514,0.00576138815810598,0.00432795781776075,0.00314374240875739,0.00220054785561664,0.00147906986610333,0.000951162080321166,0.000583164075818803,0.000339739434649011,0.000187505771395434,9.77876862580606e-05,4.80890767819976e-05,2.22614925228373e-05,9.68545964776656e-06,3.95349437422968e-06,1.51066226726514e-06,5.387741580497e-07,1.78671090441321e-07,5.48262746120148e-08,1.546616527224e-08,3.97437029103227e-09,9.49432795048076e-10,1.9409258795689e-10
"26",0.530755408996779,0.104349389472718,0.0474871505353743,0.054757332279093,0.0352323747787182,0.0317380565958998,0.0287169350731549,0.0261750708786545,0.0236882934142314,0.0211628782738094,0.0186387888528514,0.0161492490744777,0.0137413060133555,0.0114606222101257,0.00934862547342551,0.00744015988189248,0.00576138815759193,0.00432795781774333,0.00314374240875556,0.00220054785561654,0.00147906986610333,0.000951162080321166,0.000583164075821131,0.000339739434653668,0.000187505771400091,9.77876862697021e-05,4.80890767982957e-05,2.22614925670749e-05,9.68545972460038e-06,3.95349443476542e-06,1.51066290642402e-06,5.38774251181613e-07,1.78671211512807e-07,5.48269603368473e-08,1.54656727961266e-08,4.14746017790259e-09,9.69167696847292e-10
"27",0.50117401079763,0.100266730136001,0.0475021585982044,0.0546932053712701,0.0366607843886975,0.0335509195074736,0.0308178988187899,0.0284686714720619,0.0261111507215722,0.0236608963466712,0.0211579211409242,0.0186375832233994,0.0161490321046199,0.0137412753211227,0.0114606185697544,0.0093486254048158,0.00744015988155761,0.00576138815758651,0.00432795781774276,0.00314374240875554,0.00220054785561654,0.00147906986610333,0.000951162080361341,0.000583164075901607,0.000339739434734144,0.00018750577160109,9.77876865514317e-05,4.80890775619915e-05,2.22614938948655e-05,9.68546077129691e-06,3.95350055034693e-06,1.51066451619837e-06,5.3877634254089e-07,1.78678133761042e-07,5.48233790504305e-08,1.62866331102263e-08,4.27868784539827e-09
"28",0.471091082303908,0.0959124023888141,0.047223912109115,0.0543279282439989,0.037804333452878,0.0351076221196773,0.032700464545955,0.0305885511828857,0.0284094053450459,0.0260858195118784,0.0236562657316339,0.0211567978388893,0.018637378517034,0.0161490028739486,0.0137412718449963,0.0114606185077635,0.00934862540458849,0.00744015988155626,0.00576138815758649,0.0043279578177432,0.00314374240875604,0.0022005478556182,0.00147906986654194,0.000951162081242067,0.000583164076785257,0.00033973943692834,0.000187505774686024,9.77876948700146e-05,4.80890920581546e-05,2.22615053382751e-05,9.68550659732879e-06,3.95351812588531e-06,1.51068730131036e-06,5.38831003675203e-07,1.786599290297e-07,5.82381871093513e-08,1.69861266831665e-08
"29",0.440777301026141,0.0913269080398211,0.0466539309329011,0.0536588943598063,0.0386414446807399,0.0363772006889676,0.034325740415394,0.0324897770541693,0.0305339360599717,0.0283861253972588,0.0260815236814793,0.0236552269178705,0.0211566063915907,0.018637350981698,0.0161489995933725,0.0137412717896332,0.0114606185076092,0.00934862540459059,0.00744015988156102,0.00576138815760323,0.00432795781776233,0.00314374240881823,0.00220054785907144,0.00147906987348572,0.000951162088295876,0.000583164094000273,0.000339739461274147,0.00018750583945041,9.77878081417552e-05,4.80891817206919e-05,2.2261784010596e-05,9.68564381588085e-06,3.95369514166439e-06,1.51103503568102e-06,5.38767006905813e-07,1.91350832765561e-07,6.13299478477618e-08
"30",0.410497894172152,0.0865550367782898,0.0458013096263712,0.0526915909680587,0.0391593906918199,0.0373370893889532,0.0356622072057215,0.0341332967193373,0.0324397620427651,0.0305126725882089,0.0283821681105116,0.0260805702836845,0.0236550494467357,0.0211565807330845,0.0186373479210872,0.0161489995445597,0.0137412717896011,0.0114606185077034,0.00934862540475574,0.00744015988196366,0.00576138815807507,0.00432795781904663,0.00314374243036805,0.00220054790211901,0.0014790699185235,0.000951162193811126,0.000583164244518441,0.000339739850185841,0.000187506522559859,9.7788351396038e-05,4.80905951876304e-05,2.22626088569485e-05,9.68669749394677e-06,3.95552061798868e-06,1.5108992064404e-06,5.81468795617547e-07,2.03013863994708e-07
"31",0.380506700698906,0.0816443425195742,0.0446818437734708,0.0514389631764061,0.0393542746826168,0.0379736543626541,0.0366867908543989,0.0354874401187235,0.0340877839096894,0.0324204610165879,0.0305090529703304,0.0283812998037946,0.0260804072125293,0.0236550257912585,0.0211565779104462,0.0186373478799437,0.0161489995468906,0.013741271792824,0.011460618512517,0.00934862541294745,0.00744015989164346,0.0057613881780293,0.00432795793824903,0.00314374265982027,0.00220054815430701,0.0014790704622143,0.000951162975437581,0.000583166155669747,0.000339743213773228,0.000187509216642074,9.77944845579561e-05,4.80946214905445e-05,2.22676624308348e-05,9.6947804259059e-06,3.9554982629063e-06,1.64223037651546e-06,6.19930151000562e-07
"32",0.351041203186206,0.0766436387487199,0.0433169360453848,0.0499204627322839,0.0392305446224498,0.0382821914052616,0.037385405646724,0.0365289959097199,0.0354462871395461,0.0340703735813609,0.032417173662591,0.0305082682325353,0.0283811512864808,0.0260803856582968,0.0236550232529963,0.0211565779228503,0.0186373479449765,0.0161489996284737,0.0137412718986936,0.0114606186551683,0.00934862557519497,0.0074401601460867,0.0057613888492023,0.00432795910047534,0.0031437440011438,0.00220055068149372,0.00147907408813119,0.000951171076407361,0.000583180319800658,0.000339754661303283,0.000187532535262624,9.78110959978115e-05,4.81148761446765e-05,2.22983761123016e-05,9.69568956721279e-06,4.3269530951478e-06,1.75481385204407e-06
"33",0.32231850878385,0.0716016112201575,0.0417324230358263,0.0481609171864784,0.0388001661124349,0.0382664636300138,0.0377529649320446,0.0372437618472632,0.0364920228975144,0.0354306825390317,0.0340674111310916,0.0324164720114448,0.0305081361776059,0.0283811337476981,0.0260803851350626,0.0236550248555505,0.0211565793851948,0.018637349215362,0.0161490007322524,0.0137412728698012,0.0114606193531548,0.00934862645265363,0.00744016215563202,0.00576139243968187,0.00432796344916862,0.00314375233650439,0.00220056337656385,0.00147910197340475,0.000951220817908975,0.000583220284452008,0.000339830825685307,0.000187589115238159,9.78778386717462e-05,4.82135346604e-05,2.22979069547729e-05,1.06620079756759e-05,4.6186860007586e-06
"34",0.294532465004078,0.066565665739325,0.0399574677434143,0.0461893847041294,0.038081626942723,0.0379379386895854,0.0377929745797251,0.037626606556432,0.0372108064018135,0.0364781756279597,0.0354280809084595,0.0340668347115701,0.0324163974288543,0.0305081586718004,0.0283811651162607,0.0260804112243544,0.0236550428775559,0.0211565886196458,0.0186373492904373,0.0161489913584705,0.013741253201532,0.0114605919336839,0.00934859413090139,0.00744012811929198,0.00576135638470139,0.00432793556005654,0.00314373731093409,0.00220059210750393,0.00147919901930496,0.000951286325022274,0.000583385427366334,0.000339944715608485,0.000187727955703947,9.81071831325044e-05,4.81487537102379e-05,2.45771709191066e-05,1.13025040232201e-05
"35",0.267853884489018,0.0615815207579294,0.0380239047202711,0.0440384650250179,0.0370992270509427,0.0373151959513167,0.0375171701863865,0.0376814582723835,0.0375979637065667,0.0371991226780451,0.0364764040274595,0.035428070024245,0.0340672107885781,0.0324167923649362,0.0305084837367258,0.0283813979640558,0.0260805405501882,0.0236550608073288,0.0211564897353888,0.0186371298884307,0.0161486486708263,0.0137408018617312,0.011460046383666,0.00934797799722732,0.0074394571387027,0.00576066897774647,0.00432726327866919,0.00314316619424149,0.00220020666851496,0.00147872966646068,0.000951081540253606,0.000583084236609419,0.000339732528460734,0.000187794503612421,9.74456440657273e-05,5.28122253038156e-05,2.55897586836303e-05
"36",0.242446271396157,0.0566964729717721,0.0359679318847727,0.0417462715108638,0.0358845638864682,0.0364254214319783,0.0369470926832287,0.0374230499131932,0.0376603292782761,0.0375915916597903,0.037201162910337,0.0364796210114681,0.0354311626996399,0.0340697775815939,0.0324186833697977,0.0305096146852902,0.0283817045544967,0.0260799757560604,0.0236535956616222,0.021154113711757,0.0186338559656242,0.0161445680571639,0.0137360167140523,0.0114547095683392,0.00934222705702164,0.00743346821317795,0.00575461541727088,0.0043214129169535,0.0031378136886241,0.00219477187449692,0.00147410643503848,0.000946547360627525,0.000579106981786411,0.000336839902219063,0.000183672424965337,0.000104835243332629,5.30236207321544e-05
"37",0.222300779754987,0.0527360399548836,0.0342019789845206,0.0397733437595845,0.0347421866130871,0.0355276609384285,0.0362939793817104,0.0370127529147003,0.0375046998788872,0.0377029963452611,0.0375866762070823,0.0371403853439299,0.0363611847126279,0.0352555377766427,0.0338392148832686,0.0321370466331658,0.0301822488458184,0.0280152504523829,0.0256821089940012,0.0232327299749305,0.0207191199707706,0.018193903891186,0.0157087223449192,0.0133131216608666,0.0110529973208297,0.00896913795036328,0.007095291145877,0.00545626736008703,0.00406606762024827,0.00292499555641377,0.00202474923009221,0.00134220838812635,0.000848821279697435,0.000510737665219803,0.000287567672043012,0.000169526094064431,8.79624992843018e-05
