"","X0","X1","X2","X3","X4","X5","X6","X7","X8","X9","X10","X11","X12","X13","X14","X15","X16","X17","X18","X19","X20","X21","X22","X23","X24","X25","X26","X27"
"1",0.881373569198751,0.114464099895942,0.00416233090530698,0,0,0,0,0,0,0,0,0,0,0,0,0,0,0,0,0,0,0,0,0,0,0,0,0
"2",0.142224161659562,0.744855828941627,0.108891947232386,0.00402806216642611,0,0,0,0,0,0,0,0,0,0,0,0,0,0,0,0,0,0,0,0,0,0,0,0
"3",0.00681413849820415,0.135477157530798,0.744788694572186,0.108891947232386,0.00402806216642611,0,0,0,0,0,0,0,0,0,0,0,0,0,0,0,0,0,0,0,0,0,0,0
"4",0.000100701554160652,0.0067134369440435,0.135477157530798,0.744788694572186,0.108891947232386,0.00402806216642611,0,0,0,0,0,0,0,0,0,0,0,0,0,0,0,0,0,0,0,0,0,0
"5",0,0.000100701554160652,0.0067134369440435,0.135477157530798,0.744788694572186,0.108891947232386,0.00402806216642611,0,0,0,0,0,0,0,0,0,0,0,0,0,0,0,0,0,0,0,0,0
"6",0,0,0.000100701554160652,0.0067134369440435,0.135477157530798,0.744788694572186,0.108891947232386,0.00402806216642611,0,0,0,0,0,0,0,0,0,0,0,0,0,0,0,0,0,0,0,0
"7",0,0,0,0.000100701554160652,0.0067134369440435,0.135477157530798,0.744788694572186,0.108891947232386,0.00402806216642611,0,0,0,0,0,0,0,0,0,0,0,0,0,0,0,0,0,0,0
"8",0,0,0,0,0.000100701554160652,0.0067134369440435,0.135477157530798,0.744788694572186,0.108891947232386,0.00402806216642611,0,0,0,0,0,0,0,0,0,0,0,0,0,0,0,0,0,0
"9",0,0,0,0,0,0.000100701554160652,0.0067134369440435,0.135477157530798,0.744788694572186,0.108891947232386,0.00402806216642611,0,0,0,0,0,0,0,0,0,0,0,0,0,0,0,0,0
"10",0,0,0,0,0,0,0.000100701554160652,0.0067134369440435,0.135477157530798,0.744788694572186,0.108891947232386,0.00402806216642611,0,0,0,0,0,0,0,0,0,0,0,0,0,0,0,0
"11",0,0,0,0,0,0,0,0.000100701554160652,0.0067134369440435,0.135477157530798,0.744788694572186,0.108891947232386,0.00402806216642611,0,0,0,0,0,0,0,0,0,0,0,0,0,0,0
"12",0,0,0,0,0,0,0,0,0.000100701554160652,0.0067134369440435,0.135477157530798,0.744788694572186,0.108891947232386,0.00402806216642611,0,0,0,0,0,0,0,0,0,0,0,0,0,0
"13",0,0,0,0,0,0,0,0,0,0.000100701554160652,0.0067134369440435,0.135477157530798,0.744788694572186,0.108891947232386,0.00402806216642611,0,0,0,0,0,0,0,0,0,0,0,0,0
"14",0,0,0,0,0,0,0,0,0,0,0.000100701554160652,0.0067134369440435,0.135477157530798,0.744788694572186,0.108891947232386,0.00402806216642611,0,0,0,0,0,0,0,0,0,0,0,0
"15",0,0,0,0,0,0,0,0,0,0,0,0.000100701554160652,0.0067134369440435,0.135477157530798,0.744788694572186,0.108891947232386,0.00402806216642611,0,0,0,0,0,0,0,0,0,0,0
"16",0,0,0,0,0,0,0,0,0,0,0,0,0.000100701554160652,0.0067134369440435,0.135477157530798,0.744788694572186,0.108891947232386,0.00402806216642611,0,0,0,0,0,0,0,0,0,0
"17",0,0,0,0,0,0,0,0,0,0,0,0,0,0.000100701554160652,0.0067134369440435,0.135477157530798,0.744788694572186,0.108891947232386,0.00402806216642611,0,0,0,0,0,0,0,0,0
"18",0,0,0,0,0,0,0,0,0,0,0,0,0,0,0.000100701554160652,0.0067134369440435,0.135477157530798,0.744788694572186,0.108891947232386,0.00402806216642611,0,0,0,0,0,0,0,0
"19",0,0,0,0,0,0,0,0,0,0,0,0,0,0,0,0.000100701554160652,0.0067134369440435,0.135477157530798,0.744788694572186,0.108891947232386,0.00402806216642611,0,0,0,0,0,0,0
"20",0,0,0,0,0,0,0,0,0,0,0,0,0,0,0,0,0.000100701554160652,0.0067134369440435,0.135477157530798,0.744788694572186,0.108891947232386,0.00402806216642611,0,0,0,0,0,0
"21",0,0,0,0,0,0,0,0,0,0,0,0,0,0,0,0,0,0.000100701554160652,0.0067134369440435,0.135477157530798,0.744788694572186,0.108891947232386,0.00402806216642611,0,0,0,0,0
"22",0,0,0,0,0,0,0,0,0,0,0,0,0,0,0,0,0,0,0.000100701554160652,0.0067134369440435,0.135477157530798,0.744788694572186,0.108891947232386,0.00402806216642611,0,0,0,0
"23",0,0,0,0,0,0,0,0,0,0,0,0,0,0,0,0,0,0,0,0.000100701554160652,0.0067134369440435,0.135477157530798,0.744788694572186,0.108891947232386,0.00402806216642611,0,0,0
"24",0,0,0,0,0,0,0,0,0,0,0,0,0,0,0,0,0,0,0,0,0.000100701554160652,0.0067134369440435,0.135477157530798,0.744788694572186,0.108891947232386,0.00402806216642611,0,0
"25",0,0,0,0,0,0,0,0,0,0,0,0,0,0,0,0,0,0,0,0,0,0.000100701554160652,0.0067134369440435,0.135477157530798,0.744788694572186,0.108891947232386,0.00402806216642611,0
"26",0,0,0,0,0,0,0,0,0,0,0,0,0,0,0,0,0,0,0,0,0,0,0.000100701554160652,0.0067134369440435,0.135477157530798,0.744788694572186,0.108891947232386,0.00402806216642611
"27",0,0,0,0,0,0,0,0,0,0,0,0,0,0,0,0,0,0,0,0,0,0,0,0.000100701554160652,0.0067134369440435,0.135477157530798,0.744788694572186,0.112920009398812
"28",0,0,0,0,0,0,0,0,0,0,0,0,0,0,0,0,0,0,0,0,0,0,0,0,0.000100701554160652,0.0067134369440435,0.141519250780437,0.851666610721359
