"id","estacion","name","coordenadas","longitud","latitud","capacity","s0","inv_optimo","inv_final","estado_final","estado_inicial","total_rank","total"
1,196,"196 LAGO TANGANICA-AV. EJERCITO NACIONAL","19.438349,-99.192904",-99.192904,19.438349,27,3,8,0,0.296296296296296,0.185185185185185,5,51749
2,198,"198 SÓCRATES-EJERCITO NACIONAL ","19.438168,-99.203888",-99.203888,19.438168,27,3,27,6,0.777777777777778,0.888888888888889,7,55066
3,199,"199 ANATOLE FRANCE-AV. EJERCITO NACIONAL","19.437934,-99.197241",-99.197241,19.437934,23,3,21,21,0,0.782608695652174,1,38021
4,200,"200 EMERSON-AV. EJERCITO NACIONAL","19.437596,-99.188785",-99.188785,19.437596,27,17,21,19,0.0740740740740741,0.148148148148148,8,55561
5,201,"201 LOPE DE VEGA-EJERCITO NACIONAL ","19.437431,-99.187215",-99.187215,19.437431,18,15,18,4,0.777777777777778,0.166666666666667,11,66202
6,202,"202 CALDERON DE LA BARCA-AV. HOMERO","19.43617,-99.198943",-99.198943,19.43617,21,5,21,7,0.666666666666667,0.761904761904762,3,46132
7,203,"203 TENNYSON-AV. HOMERO","19.435985,-99.194832",-99.194832,19.435985,24,20,24,3,0.875,0.166666666666667,2,39891
8,205,"205 TAINE-HOMERO","19.435525,-99.184713",-99.184713,19.435525,21,20,8,8,0,0.571428571428571,16,123049
9,206,"206 MOLIERE-HOMERO ","19.435798,-99.201419",-99.201419,19.435798,24,5,24,24,0,0.791666666666667,17,133779
10,207,"207 TASSO-HOMERO ","19.434861,-99.183322",-99.183322,19.434861,24,3,11,3,0.333333333333333,0.333333333333333,13,99034
11,208,"208 HESIODO-LAMARTINE ","19.434182,-99.189835",-99.189835,19.434182,27,22,23,24,0.037037037037037,0.037037037037037,19,191734
12,209,"209 SOLON-HORACIO ","19.435478,-99.206359",-99.206359,19.435478,24,6,5,3,0.0833333333333333,0.0416666666666667,15,112147
13,210,"210 EUGENIO SUE-HORACIO ","19.434076,-99.194091",-99.194091,19.434076,27,14,0,0,0,0.518518518518518,12,79366
14,211,"211 NEWTON-HORACIO","19.433607,-99.188528",-99.188528,19.433607,36,23,31,29.0000000000006,0.0555555555555395,0.222222222222222,18,173043
15,212,"212 HEGEL-HORACIO ","19.433567,-99.188096",-99.188096,19.433567,36,14,6,0,0.166666666666667,0.222222222222222,14,101751
16,213,"213 HORACIO-FC CUERNAVACA","19.435197,-99.206967",-99.206967,19.435197,27,0,27,3,0.888888888888889,1,6,52248
17,214,"214 PLATÓN-HORACIO","19.434353,-99.20322",-99.20322,19.434353,24,5,12,9.99999999999988,0.0833333333333383,0.291666666666667,4,48859
18,215,"215 EDGAR ALAN POE-HORACIO","19.43384,-99.19968",-99.19968,19.43384,24,5,16,2,0.583333333333333,0.458333333333333,9,58227
19,216,"216 ALEJANDRO DUMAS-HORACIO ","19.433419,-99.195746",-99.195746,19.433419,24,17,24,24,0,0.291666666666667,10,60052
20,217,"217 EULER-AV. HORACIO ","19.432888,-99.183605",-99.183605,19.432888,36,0,13,9.99999999999954,0.0833333333333461,0.361111111111111,20,235397
