"id","estacion","name","coordenadas","longitud","latitud","capacity","s0","inv_optimo","inv_final","estado_final","estado_inicial","total_rank","total"
1,196,"196 LAGO TANGANICA-AV. EJERCITO NACIONAL","19.438349,-99.192904",-99.192904,19.438349,27,3,8,0,0.296296296296296,0.185185185185185,3,51749
2,198,"198 SÓCRATES-EJERCITO NACIONAL ","19.438168,-99.203888",-99.203888,19.438168,27,3,27,5,0.814814814814815,0.888888888888889,4,55066
3,199,"199 ANATOLE FRANCE-AV. EJERCITO NACIONAL","19.437934,-99.197241",-99.197241,19.437934,23,3,21,14,0.304347826086957,0.782608695652174,1,38021
4,200,"200 EMERSON-AV. EJERCITO NACIONAL","19.437596,-99.188785",-99.188785,19.437596,27,17,21,18,0.111111111111111,0.148148148148148,5,55561
5,201,"201 LOPE DE VEGA-EJERCITO NACIONAL ","19.437431,-99.187215",-99.187215,19.437431,18,15,18,3,0.833333333333333,0.166666666666667,6,66202
6,202,"202 CALDERON DE LA BARCA-AV. HOMERO","19.43617,-99.198943",-99.198943,19.43617,21,5,21,6,0.714285714285714,0.761904761904762,2,46132
