"","X0","X1","X2","X3","X4","X5","X6","X7","X8","X9","X10","X11","X12","X13","X14","X15","X16","X17","X18","X19","X20","X21","X22","X23","X24"
"1",0.244941872331418,0.20209989956314,0.16566060450982,0.130139144312063,0.0991978818021216,0.0711273783586955,0.0406309881009183,0.0230401350188788,0.0124874917323561,0.00624078727934484,0.00271940509959145,0.00110166070906744,0.000423208458313158,0.000141501172606207,3.81694122505715e-05,8.33334204479447e-06,1.33905616293805e-06,1.80753717695287e-07,1.7957215769378e-08,1.01120960948412e-09,1.90622996401854e-11,0,0,0,0
"2",0.217381695533678,0.190285955100787,0.16651781219042,0.136596263758063,0.106590906515238,0.0779927414559555,0.0471551018240643,0.0277418530679825,0.0154404795908746,0.00799884233749598,0.00372205694277142,0.00160214477935811,0.000643256538735392,0.000232676805169147,7.32455402771672e-05,1.97721263166418e-05,4.32209665058759e-06,7.59777870968515e-07,1.03411978606147e-07,1.00416358710726e-08,5.53988799497653e-10,1.06883506156107e-11,0,0,0
"3",0.160542173139721,0.158779859288742,0.161438468757599,0.148111728540756,0.123436239003041,0.0948128240963563,0.0634494338969698,0.040336846843285,0.0238287327621193,0.0131315369273969,0.00671031571033754,0.00318642135310648,0.00138959344998194,0.000554068185145792,0.000202164320697652,6.61265639456991e-05,1.84237651994342e-05,4.18707905724457e-06,7.43940299202081e-07,1.01858240743716e-07,9.95472370331629e-09,5.52586849294181e-10,1.06883506156107e-11,0,0
"4",0.0994249949795795,0.114124582221923,0.140148633744839,0.151924111753357,0.142248299370608,0.118184565701145,0.0874222211765788,0.0605457063135545,0.0387129838219207,0.0228690949840621,0.0125965365558833,0.00650381909891282,0.00310671325000994,0.00135548634217899,0.000542996065462185,0.000200022978397825,6.57811832007698e-05,1.84084909843848e-05,4.1857716667658e-06,7.4382549964336e-07,1.01852298505367e-07,9.95466099627843e-09,5.52586849294181e-10,1.06883506156107e-11,0
"5",0.0526762257097892,0.0705508762114616,0.104229056035004,0.135954627718882,0.149737675338908,0.140277978440925,0.114903219093825,0.0863685695714655,0.0599689686783136,0.0383715500978992,0.0226776162821862,0.0125274190882101,0.00647751972096925,0.00309522048076121,0.00135190282970265,0.000542407804218944,0.000199936270079662,6.57802141185994e-05,1.84084487671204e-05,4.18576890168404e-06,7.43825374229285e-07,1.01852298505367e-07,9.95466099627843e-09,5.52586849294181e-10,1.06883506156107e-11
"6",0.0241835143358074,0.0378192718257455,0.0660975331669127,0.102626159120808,0.135272130268865,0.149116986040813,0.138998260845488,0.114580458452682,0.0861957696185355,0.0598666102827346,0.0383134408306027,0.0226580568272572,0.0125200361336613,0.0064742272593619,0.00309422756562235,0.00135176286007134,0.000542387704080791,0.000199936233927561,6.57802137423572e-05,1.84084487671204e-05,4.18576890168404e-06,7.43825374229285e-07,1.01852298505367e-07,9.95466099627843e-09,5.63275199909791e-10
"7",0.00970202055044385,0.0176971874920388,0.0360931480260405,0.0655605317154588,0.10244925738988,0.135109275076664,0.148676114004514,0.138916148518897,0.114537742033368,0.0861704819861053,0.0598519738031767,0.0383089536430993,0.0226563769006254,0.0125192677998866,0.00647400472960863,0.00309420248981175,0.00135175927597627,0.000542387703453721,0.000199936233927561,6.57802137423572e-05,1.84084487671204e-05,4.18576890168404e-06,7.43825374229285e-07,1.01852298505367e-07,1.05179361961882e-08
"8",0.00341868414720598,0.00726553091288994,0.01711743577725,0.03593412047955,0.0655227682716826,0.102413928209093,0.134974216295417,0.148658888109782,0.138907531869014,0.114532660109602,0.0861674463690502,0.0598511579264272,0.0383086511499963,0.0226562342915245,0.0125192284766949,0.00647400170650093,0.00309420205793922,0.00135175927597627,0.000542387703453721,0.000199936233927561,6.57802137423572e-05,1.84084487671204e-05,4.18576890168404e-06,7.43825374229285e-07,1.12370234701555e-07
"9",0.00105934795254844,0.00262559707382978,0.00709652534813983,0.0170756440258887,0.0359275927525594,0.06551652610347,0.10237708660378,0.13497126918445,0.148657492332634,0.138906718023464,0.114532146943207,0.0861673321367071,0.059851115955263,0.0383086308067701,0.0226562289327167,0.0125192282518703,0.00647400167438314,0.00309420205793922,0.00135175927597627,0.000542387703453721,0.000199936233927561,6.57802137423572e-05,1.84084487671204e-05,4.18576890168404e-06,8.5619560893084e-07
"10",0.000288235350748378,0.000835089131302367,0.00258285717109648,0.00708676903202243,0.0170747452695632,0.0359267075205069,0.0655076026966483,0.102376681009566,0.134971091300712,0.148657391103429,0.138906648268005,0.114532135355309,0.0861673279052618,0.0598511138657984,0.0383086302732443,0.0226562289235264,0.0125192282505574,0.00647400167438314,0.00309420205793922,0.00135175927597627,0.000542387703453721,0.000199936233927561,6.57802137423572e-05,1.84084487671204e-05,5.04196451061488e-06
"11",6.85145632053707e-05,0.000233213786020303,0.000825779474902754,0.00258084941129956,0.00708667124830408,0.0170746455911113,0.0359248099885039,0.0655075582687507,0.102376663317094,0.134971081614135,0.148657383556871,0.138906647492157,0.114532135072881,0.0861673277644958,0.0598511138304165,0.0383086302730875,0.022656228923504,0.0125192282505574,0.00647400167438314,0.00309420205793922,0.00135175927597627,0.000542387703453721,0.000199936233927561,6.57802671841103e-05,2.34503598359822e-05
"12",1.4075678993294e-05,5.68897171342008e-05,0.000231491240018898,0.000825421638118943,0.00258084120640698,0.00708666263012337,0.0170742984810373,0.0359248062298286,0.0655075569045281,0.102376662602398,0.134971080982258,0.148657383527002,0.138906647481296,0.114532135067451,0.0861673277631381,0.0598511138304165,0.0383086302730875,0.022656228923504,0.0125192282505574,0.00647400167438314,0.00309420205793922,0.00135175927597627,0.000542387703453721,0.000199938996861808,8.92278640858461e-05
"13",2.45946618999463e-06,1.19902850726121e-05,5.6624219842432e-05,0.000231437302681335,0.000825421147269,0.00258084068139294,0.00708660938931456,0.0170742982549563,0.0359248061526318,0.0655075568653923,0.102376662564628,0.134971080981765,0.148657383526822,0.138906647481206,0.114532135067428,0.0861673277631381,0.0598511138304165,0.0383086302730875,0.022656228923504,0.0125192282505574,0.00647400167438314,0.00309420205793922,0.00135175927597627,0.000542437476758702,0.000289117087642673
"14",3.5698630983495e-07,2.14853273078127e-06,1.19574524804289e-05,5.66176221340053e-05,0.00023143728474019,0.000825421127947767,0.00258083410990619,0.00708660938103403,0.0170742982521961,0.0359248061512518,0.0655075568640122,0.102376662564628,0.134971080981765,0.148657383526822,0.138906647481206,0.114532135067428,0.0861673277631381,0.0598511138304165,0.0383086302730875,0.022656228923504,0.0125192282505574,0.00647400167438314,0.00309420205793922,0.00135226848402704,0.000831045356350602
"15",4.13287693109274e-08,3.1991542130375e-07,2.1454923983582e-06,1.19568439078089e-05,5.66176218428654e-05,0.000231437284426655,0.000825420519800659,0.00258083410977182,0.00708660938098924,0.0170742982521737,0.0359248061512294,0.0655075568640122,0.102376662564628,0.134971080981765,0.148657383526822,0.138906647481206,0.114532135067428,0.0861673277631381,0.0598511138304165,0.0383086302730875,0.0226562289769457,0.0125192284001943,0.00647400201641036,0.00309791860357808,0.0021795967496329
"16",3.57405228473473e-09,3.80217113292476e-08,3.19724711087282e-07,2.14545425631491e-06,1.19568439078089e-05,5.66176218428654e-05,0.000231437246284611,0.000825420519800659,0.00258083410977182,0.00708660938098924,0.0170742982521737,0.0359248061512294,0.0655075568640122,0.102376662564628,0.134971080981765,0.148657383526822,0.138906647481206,0.114532135067428,0.0861673277631381,0.0598511138304165,0.03830863298258,0.0226562365635247,0.0125192457409463,0.00649488933793672,0.00525660039486119
"17",2.10344984440038e-10,3.37352468428078e-09,3.80146989121147e-08,3.19723308603856e-07,2.14545425631491e-06,1.19568439078089e-05,5.6617620440382e-05,0.000231437246284611,0.000825420519800659,0.00258083410977182,0.00708660938098924,0.0170742982521737,0.0359248061512294,0.0655075568640122,0.102376662564628,0.134971080981765,0.148657383526822,0.138906647481206,0.114532135067428,0.0861673277631381,0.0598511607873455,0.0383087644619812,0.0226565370878702,0.012610889178449,0.0116593673346196
"18",7.32595232219203e-12,2.03175799712483e-10,3.37341270742746e-09,3.80146765167441e-08,3.19723308603856e-07,2.14545425631491e-06,1.19568438854136e-05,5.6617620440382e-05,0.000231437246284611,0.000825420519800659,0.00258083410977182,0.00708660938098924,0.0170742982521737,0.0359248061512294,0.0655075568640122,0.102376662564628,0.134971080981765,0.148657383526822,0.138906647481206,0.114532135067428,0.0861677843280661,0.059852439169144,0.0383116864775206,0.0229824033809695,0.0239397332577033
"19",1.11976853312492e-13,7.21397546887954e-12,2.03175799712483e-10,3.37341270742746e-09,3.80146765167441e-08,3.19723308603856e-07,2.14545425631491e-06,1.19568438854136e-05,5.6617620440382e-05,0.000231437246284611,0.000825420519800659,0.00258083410977182,0.00708660938098924,0.0170742982521737,0.0359248061512294,0.0655075568640122,0.102376662564628,0.134971080981765,0.148657383580264,0.138906647684285,0.114535286881388,0.0861766095696149,0.0598726099298282,0.0392925015862977,0.0459091734571831
"20",0,1.11976853312492e-13,7.21397546887954e-12,2.03175799712483e-10,3.37341270742746e-09,3.80146765167441e-08,3.19723308603856e-07,2.14545425631491e-06,1.19568438854136e-05,5.6617620440382e-05,0.000231437246284611,0.000825420519800659,0.00258083410977182,0.00708660938098924,0.0170742982521737,0.0359248061512294,0.0655075568640122,0.102376662564628,0.134971083530932,0.1486573932671,0.13892319847528,0.114581636845643,0.0862824941512085,0.0624871919017801,0.0824182954986824
"21",0,0,1.11976853312492e-13,7.21397546887954e-12,2.03175799712483e-10,3.37341270742746e-09,3.80146765167441e-08,3.19723308603856e-07,2.14545425631491e-06,1.19568438854136e-05,5.6617620440382e-05,0.000231437246284611,0.000825420519800659,0.00258083411231666,0.00708660939829419,0.0170742983898499,0.0359248068363017,0.0655075597676807,0.102376711712428,0.134971260743038,0.148723291772197,0.1391077677586,0.115002516052048,0.0925997331637063,0.13791667128697
"22",0,0,0,1.11976853312492e-13,7.21397546887954e-12,2.03175799712483e-10,3.37341270742746e-09,3.80146765167441e-08,3.19723308603856e-07,2.14545425631491e-06,1.19568438854136e-05,5.6617620440382e-05,0.000231437248193245,0.000825420645564286,0.00258083498251119,0.00708661601376237,0.0170743309293004,0.0359249434113197,0.0655083565156122,0.102379287409004,0.135178476902545,0.149301455371867,0.140417120488784,0.128750186966046,0.214670451875007
"23",0,0,0,0,1.11976853312492e-13,7.21397546887954e-12,2.03175799712483e-10,3.37341270742746e-09,3.80146765167441e-08,3.19723308603856e-07,2.14545425631491e-06,1.19568470664703e-05,5.66177406569035e-05,0.000231439547021827,0.000825436738572701,0.0025809439399736,0.00708713369560981,0.0170764382747849,0.0359339496430802,0.0655354635544464,0.102934255571741,0.136693131362864,0.152649968765283,0.16703663070227,0.311344126840471
"24",0,0,0,0,0,1.11976853312492e-13,7.21397546887954e-12,2.03175799712483e-10,3.37341270742746e-09,3.80146765167441e-08,3.19723308603856e-07,2.14555176301648e-06,1.19589404281524e-05,5.66423727432168e-05,0.000231608665532081,0.000826454062405636,0.00258557149497575,0.00710520547291933,0.0171433226150421,0.0361252916438803,0.0669621090817918,0.106586129950262,0.144292965553694,0.198766794549215,0.419303438723446
"25",0,0,0,0,0,0,1.11976853312492e-13,7.21397546887954e-12,2.03175799712483e-10,3.37341270742746e-09,3.80242196869366e-08,3.20244665558192e-07,2.15544970459054e-06,1.20760978662824e-05,5.74367616870836e-05,0.000236412695201963,0.000848325667823857,0.00267115558758922,0.00740784848067582,0.0179963262020238,0.039752176941128,0.0754430001494629,0.122758218977893,0.216331403565493,0.516483101570649
