"","X0","X1","X2","X3","X4","X5","X6","X7","X8","X9","X10","X11","X12","X13","X14","X15","X16","X17","X18","X19","X20","X21","X22","X23","X24"
"1",0.563975869105899,0.314648708010163,0.0983783138551472,0.0201457488969079,0.00262716139065419,0.000213210345622311,1.06695158987416e-05,3.13864886176171e-07,4.98191688215322e-09,3.29051600931772e-11,0,0,0,0,0,0,0,0,0,0,0,0,0,0,0
"2",0.138335393497438,0.460668803667461,0.285579939019082,0.0931544744537866,0.0194500089998619,0.00258718162114098,0.000213210345622311,1.06695158987416e-05,3.13864886176171e-07,4.98191688215322e-09,3.29051600931772e-11,0,0,0,0,0,0,0,0,0,0,0,0,0,0
"3",0.0140492067603198,0.125786411504286,0.45924853843932,0.285499979480056,0.0931544744537866,0.0194500089998619,0.00258718162114098,0.000213210345622311,1.06695158987416e-05,3.13864886176171e-07,4.98191688215322e-09,3.29051600931772e-11,0,0,0,0,0,0,0,0,0,0,0,0,0
"4",0.00063210313288289,0.0134330955352422,0.125770419596481,0.45924853843932,0.285499979480056,0.0931544744537866,0.0194500089998619,0.00258718162114098,0.000213210345622311,1.06695158987416e-05,3.13864886176171e-07,4.98191688215322e-09,3.29051600931772e-11,0,0,0,0,0,0,0,0,0,0,0,0
"5",1.02936418057002e-05,0.000621809491077189,0.0134330955352422,0.125770419596481,0.45924853843932,0.285499979480056,0.0931544744537866,0.0194500089998619,0.00258718162114098,0.000213210345622311,1.06695158987416e-05,3.13864886176171e-07,4.98191688215322e-09,3.29051600931772e-11,0,0,0,0,0,0,0,0,0,0,0
"6",0,1.02936418057002e-05,0.000621809491077189,0.0134330955352422,0.125770419596481,0.45924853843932,0.285499979480056,0.0931544744537866,0.0194500089998619,0.00258718162114098,0.000213210345622311,1.06695158987416e-05,3.13864886176171e-07,4.98191688215322e-09,3.29051600931772e-11,0,0,0,0,0,0,0,0,0,0
"7",0,0,1.02936418057002e-05,0.000621809491077189,0.0134330955352422,0.125770419596481,0.45924853843932,0.285499979480056,0.0931544744537866,0.0194500089998619,0.00258718162114098,0.000213210345622311,1.06695158987416e-05,3.13864886176171e-07,4.98191688215322e-09,3.29051600931772e-11,0,0,0,0,0,0,0,0,0
"8",0,0,0,1.02936418057002e-05,0.000621809491077189,0.0134330955352422,0.125770419596481,0.45924853843932,0.285499979480056,0.0931544744537866,0.0194500089998619,0.00258718162114098,0.000213210345622311,1.06695158987416e-05,3.13864886176171e-07,4.98191688215322e-09,3.29051600931772e-11,0,0,0,0,0,0,0,0
"9",0,0,0,0,1.02936418057002e-05,0.000621809491077189,0.0134330955352422,0.125770419596481,0.45924853843932,0.285499979480056,0.0931544744537866,0.0194500089998619,0.00258718162114098,0.000213210345622311,1.06695158987416e-05,3.13864886176171e-07,4.98191688215322e-09,3.29051600931772e-11,0,0,0,0,0,0,0
"10",0,0,0,0,0,1.02936418057002e-05,0.000621809491077189,0.0134330955352422,0.125770419596481,0.45924853843932,0.285499979480056,0.0931544744537866,0.0194500089998619,0.00258718162114098,0.000213210345622311,1.06695158987416e-05,3.13864886176171e-07,4.98191688215322e-09,3.29051600931772e-11,0,0,0,0,0,0
"11",0,0,0,0,0,0,1.02936418057002e-05,0.000621809491077189,0.0134330955352422,0.125770419596481,0.45924853843932,0.285499979480056,0.0931544744537866,0.0194500089998619,0.00258718162114098,0.000213210345622311,1.06695158987416e-05,3.13864886176171e-07,4.98191688215322e-09,3.29051600931772e-11,0,0,0,0,0
"12",0,0,0,0,0,0,0,1.02936418057002e-05,0.000621809491077189,0.0134330955352422,0.125770419596481,0.45924853843932,0.285499979480056,0.0931544744537866,0.0194500089998619,0.00258718162114098,0.000213210345622311,1.06695158987416e-05,3.13864886176171e-07,4.98191688215322e-09,3.29051600931772e-11,0,0,0,0
"13",0,0,0,0,0,0,0,0,1.02936418057002e-05,0.000621809491077189,0.0134330955352422,0.125770419596481,0.45924853843932,0.285499979480056,0.0931544744537866,0.0194500089998619,0.00258718162114098,0.000213210345622311,1.06695158987416e-05,3.13864886176171e-07,4.98191688215322e-09,3.29051600931772e-11,0,0,0
"14",0,0,0,0,0,0,0,0,0,1.02936418057002e-05,0.000621809491077189,0.0134330955352422,0.125770419596481,0.45924853843932,0.285499979480056,0.0931544744537866,0.0194500089998619,0.00258718162114098,0.000213210345622311,1.06695158987416e-05,3.13864886176171e-07,4.98191688215322e-09,3.29051600931772e-11,0,0
"15",0,0,0,0,0,0,0,0,0,0,1.02936418057002e-05,0.000621809491077189,0.0134330955352422,0.125770419596481,0.45924853843932,0.285499979480056,0.0931544744537866,0.0194500089998619,0.00258718162114098,0.000213210345622311,1.06695158987416e-05,3.13864886176171e-07,4.98191688215322e-09,3.29051600931772e-11,0
"16",0,0,0,0,0,0,0,0,0,0,0,1.02936418057002e-05,0.000621809491077189,0.0134330955352422,0.125770419596481,0.45924853843932,0.285499979480056,0.0931544744537866,0.0194500089998619,0.00258718162114098,0.000213210345622311,1.06695158987416e-05,3.13864886176171e-07,4.98191688215322e-09,3.29051600931772e-11
"17",0,0,0,0,0,0,0,0,0,0,0,0,1.02936418057002e-05,0.000621809491077189,0.0134330955352422,0.125770419596481,0.45924853843932,0.285499979480056,0.0931544744537866,0.0194500089998619,0.00258718162114098,0.000213210345622311,1.06695158987416e-05,3.13867155497556e-07,5.01255272086066e-09
"18",0,0,0,0,0,0,0,0,0,0,0,0,0,1.02936418057002e-05,0.000621809491077189,0.0134330955352422,0.125770419596481,0.45924853843932,0.285499979480056,0.0931544744537866,0.0194500089998619,0.00258718162114098,0.000213210345622311,1.06698615920327e-05,3.18534014927323e-07
"19",0,0,0,0,0,0,0,0,0,0,0,0,0,0,1.02936418057002e-05,0.000621809491077189,0.0134330955352422,0.125770419596481,0.45924853843932,0.285499979480056,0.0931544744537866,0.0194500089998619,0.00258718162537705,0.000213232370672309,1.0966366320896e-05
"20",0,0,0,0,0,0,0,0,0,0,0,0,0,0,0,1.02936418057002e-05,0.000621809491077189,0.0134330955352422,0.125770419596481,0.45924853843932,0.285499979480056,0.0931544744537866,0.0194500095844391,0.00258794581829468,0.000223433959498386
"21",0,0,0,0,0,0,0,0,0,0,0,0,0,0,0,0,1.02936418057002e-05,0.000621809491077189,0.0134330955352422,0.125770419596481,0.45924853843932,0.285499979488528,0.0931545072100792,0.0194658593660832,0.00279549723138419
"22",0,0,0,0,0,0,0,0,0,0,0,0,0,0,0,0,0,1.02936418057002e-05,0.000621809491077189,0.0134330955352422,0.125770419609189,0.459248540217711,0.285500952963937,0.0933601283842762,0.0220547601567616
"23",0,0,0,0,0,0,0,0,0,0,0,0,0,0,0,0,0,0,1.02936418057002e-05,0.000621809491077189,0.0134330970729344,0.125770557528709,0.459266146266662,0.287236902206898,0.113661193791913
"24",0,0,0,0,0,0,0,0,0,0,0,0,0,0,0,0,0,0,0,1.02936418057002e-05,0.000621879653048065,0.0134382176052618,0.126002095273265,0.469423237273563,0.390504276553057
"25",0,0,0,0,0,0,0,0,0,0,0,0,0,0,0,0,0,0,0,0,1.17362893506692e-05,0.000715215061738995,0.015897013502077,0.17187767810509,0.811498357041744
