"","X0","X1","X2","X3","X4","X5","X6","X7","X8","X9","X10","X11","X12","X13","X14","X15","X16","X17","X18","X19","X20","X21","X22","X23","X24"
"1",0.609887390520587,0.203281150834137,0.121462492998371,0.0485172537505221,0.0128445333209845,0.00322126236653191,0.000668133944053734,0.000104655121533242,1.20707972794785e-05,9.96830590307423e-07,5.72576904729497e-08,2.20354040385074e-09,5.34390806463958e-11,7.34693520404399e-13,4.35158277949285e-15,0,0,0,0,0,0,0,0,0,0
"2",0.51424466643226,0.212365205659445,0.150996521460573,0.0766979995469745,0.0309475699037731,0.0109556131127467,0.00303645908046307,0.000641210000284646,0.000101817118808932,1.18866258445164e-05,9.91543417230339e-07,5.72576904729497e-08,2.20354040385074e-09,5.34390806463958e-11,7.34693520404399e-13,4.35158277949285e-15,0,0,0,0,0,0,0,0,0
"3",0.383962063034963,0.203128497223553,0.179425466986728,0.122062064501978,0.0663666226070665,0.03032113229728,0.0109421121881845,0.00303608693082853,0.000641199425938491,0.000101817118808932,1.18866258445164e-05,9.91543417230339e-07,5.72576904729497e-08,2.20354040385074e-09,5.34390806463958e-11,7.34693520404399e-13,4.35158277949285e-15,0,0,0,0,0,0,0,0
"4",0.262546608932827,0.16976827560783,0.17968622744867,0.161310159535683,0.115632505574254,0.0660221143854446,0.0302999572817286,0.0109421100733153,0.00303608693082853,0.000641199425938491,0.000101817118808932,1.18866258445164e-05,9.91543417230339e-07,5.72576904729497e-08,2.20354040385074e-09,5.34390806463958e-11,7.34693520404399e-13,4.35158277949285e-15,0,0,0,0,0,0,0
"5",0.171155675591931,0.126287113556817,0.150902495757783,0.168311488676116,0.156996905811753,0.115323198821674,0.0659890132686357,0.0302999572817286,0.0109421100733153,0.00303608693082853,0.000641199425938491,0.000101817118808932,1.18866258445164e-05,9.91543417230339e-07,5.72576904729497e-08,2.20354040385074e-09,5.34390806463958e-11,7.34693520404399e-13,4.35158277949285e-15,0,0,0,0,0,0
"6",0.104566144155263,0.0884223112772773,0.113314842866293,0.144619990180149,0.165904174160583,0.156844148163278,0.115305267413229,0.0659890132686357,0.0302999572817286,0.0109421100733153,0.00303608693082853,0.000641199425938491,0.000101817118808932,1.18866258445164e-05,9.91543417230339e-07,5.72576904729497e-08,2.20354040385074e-09,5.34390806463958e-11,7.34693520404399e-13,4.35158277949285e-15,0,0,0,0,0
"7",0.0583499658050438,0.0582093066805975,0.0805969569673955,0.110331760626928,0.143483211615056,0.165861404026145,0.156839005081677,0.115305267413229,0.0659890132686357,0.0302999572817286,0.0109421100733153,0.00303608693082853,0.000641199425938491,0.000101817118808932,1.18866258445164e-05,9.91543417230339e-07,5.72576904729497e-08,2.20354040385074e-09,5.34390806463958e-11,7.34693520404399e-13,4.35158277949285e-15,0,0,0,0
"8",0.0298146402478866,0.0350662539911641,0.0534864966136661,0.0793230448338152,0.109805524470488,0.143476102915285,0.165860542648861,0.156839005081677,0.115305267413229,0.0659890132686357,0.0302999572817286,0.0109421100733153,0.00303608693082853,0.000641199425938491,0.000101817118808932,1.18866258445164e-05,9.91543417230339e-07,5.72576904729497e-08,2.20354040385074e-09,5.34390806463958e-11,7.34693520404399e-13,4.35158277949285e-15,0,0,0
"9",0.0144744297882055,0.0191522690819334,0.0320533813242974,0.0529593345373559,0.079051811966995,0.109804819146698,0.143476017226821,0.165860542648861,0.156839005081677,0.115305267413229,0.0659890132686357,0.0302999572817286,0.0109421100733153,0.00303608693082853,0.000641199425938491,0.000101817118808932,1.18866258445164e-05,9.91543417230339e-07,5.72576904729497e-08,2.20354040385074e-09,5.34390806463958e-11,7.34693520404399e-13,4.35158277949285e-15,0,0
"10",0.006684913501858,0.00984522731450024,0.0174279484852463,0.0318487321031817,0.0528326388854537,0.0790517713476011,0.109804814207644,0.143476017226821,0.165860542648861,0.156839005081677,0.115305267413229,0.0659890132686357,0.0302999572817286,0.0109421100733153,0.00303608693082853,0.000641199425938491,0.000101817118808932,1.18866258445164e-05,9.91543417230339e-07,5.72576904729497e-08,2.20354040385074e-09,5.34390806463958e-11,7.34693520404399e-13,4.35158277949285e-15,0
"11",0.00286191976337759,0.00479057534598772,0.00899814603260381,0.0173576305297882,0.0317985511263273,0.052832637643236,0.0790517711965206,0.109804814207644,0.143476017226821,0.165860542648861,0.156839005081677,0.115305267413229,0.0659890132686357,0.0302999572817286,0.0109421100733153,0.00303608693082853,0.000641199425938491,0.000101817118808932,1.18866258445164e-05,9.91543417230339e-07,5.72576904729497e-08,2.20354040385074e-09,5.34390806463958e-11,7.34693520404399e-13,4.35158277949285e-15
"12",0.00111671688258334,0.00216249692906979,0.00441177878282687,0.0089773359811186,0.0173399431134868,0.0317985511108782,0.052832637641357,0.0790517711965206,0.109804814207644,0.143476017226821,0.165860542648861,0.156839005081677,0.115305267413229,0.0659890132686357,0.0302999572817286,0.0109421100733153,0.00303608693082853,0.000641199425938491,0.000101817118808932,1.18866258445164e-05,9.91543417230339e-07,5.72576904729497e-08,2.20354040385074e-09,5.34390806463958e-11,7.39045103183892e-13
"13",0.00041458824711235,0.000886285390692618,0.00199086612317611,0.00440579376386848,0.00897079505074905,0.0173399431134868,0.0317985511108782,0.052832637641357,0.0790517711965206,0.109804814207644,0.143476017226821,0.165860542648861,0.156839005081677,0.115305267413229,0.0659890132686357,0.0302999572817286,0.0109421100733153,0.00303608693082853,0.000641199425938491,0.000101817118808932,1.18866258445164e-05,9.91543417230339e-07,5.72576904729497e-08,2.20354040385074e-09,5.41781257495797e-11
"14",0.000146411585750366,0.000343499323541258,0.000814643741316785,0.00198927189035006,0.00440370698389109,0.00897079505074905,0.0173399431134868,0.0317985511108782,0.052832637641357,0.0790517711965206,0.109804814207644,0.143476017226821,0.165860542648861,0.156839005081677,0.115305267413229,0.0659890132686357,0.0302999572817286,0.0109421100733153,0.00303608693082853,0.000641199425938491,0.000101817118810383,1.18866258430659e-05,9.91543421581922e-07,5.72576977255876e-08,2.25770692537957e-09
"15",4.71863469113916e-05,0.000125612966959226,0.000317925074574439,0.000814308329228954,0.00198879382328446,0.00440370698389109,0.00897079505074905,0.0173399431134868,0.0317985511108782,0.052832637641357,0.0790517711965206,0.109804814207644,0.143476017226821,0.165860542648861,0.156839005081677,0.115305267413229,0.0659890132686359,0.0302999572817284,0.0109421100733159,0.00303608693083015,0.000641199426184356,0.000101817118566774,1.18866265851732e-05,9.91544651873233e-07,5.95134277395756e-08
"16",1.32062531918403e-05,4.2029181749282e-05,0.000117684617512007,0.00031787627046225,0.000814236394758631,0.00198879382328446,0.00440370698389109,0.00897079505074905,0.0173399431134868,0.0317985511108782,0.0528326376413571,0.0790517711965208,0.109804814207644,0.143476017226822,0.165860542648865,0.156839005081686,0.115305267413271,0.0659890132686382,0.0302999572818882,0.0109421100736541,0.00303608694886179,0.000641199408692413,0.000101817173269671,1.1886716502667e-05,1.05091236248954e-06
"17",3.49414941463988e-06,1.22429388286577e-05,3.9509645655753e-05,0.000117680083664368,0.000317869505351961,0.000814236394758631,0.0019887938232845,0.00440370698389135,0.00897079505075017,0.0173399431134895,0.0317985511108925,0.052832637641397,0.0790517711966248,0.109804814207887,0.143476017227505,0.165860542650255,0.156839005086026,0.115305267416114,0.0659890132848554,0.0302999573124142,0.0109421108289997,0.00303608624706049,0.000641201704973661,0.000101820895994935,1.29314999091718e-05
"18",8.60668090988357e-07,3.36922609048772e-06,1.1507823795707e-05,3.95093935951815e-05,0.000117679705991056,0.000317869505352014,0.000814236394761428,0.00198879382330307,0.00440370698396981,0.00897079505094861,0.0173399431144959,0.031798551113691,0.0528326376486785,0.0790517712136964,0.109804814255517,0.14347601732432,0.165860542896203,0.15683900534065,0.115305268317621,0.065989014841824,0.0302999775029864,0.0109420935690558,0.00303614735011465,0.000641298575688893,0.000114588359557726
"19",1.73031326340018e-07,8.50082148899074e-07,3.20679959012416e-06,1.15078162421522e-05,3.95093822649489e-05,0.000117679705994479,0.000317869505467087,0.000814236395502561,0.00198879382637729,0.00440370699197338,0.00897079509045039,0.0173399432240884,0.0317985513980429,0.0528326383186541,0.0790517730660012,0.109804818012143,0.143476025816003,0.165860553840719,0.156839035991219,0.1153053179436,0.0659893814873345,0.0302997093868594,0.0109431847370462,0.00303781662112207,0.00075292152982805
"20",2.46772180705262e-08,1.72481791080498e-07,8.25954698056499e-07,3.20679949733943e-06,1.15078161064707e-05,3.9509382383636e-05,0.000117679708918757,0.000317869523705925,0.000814236469615863,0.00198879402555761,0.0044037079461862,0.00897079773088704,0.0173399500532067,0.0317985675786138,0.0528326825923846,0.0790518626230856,0.109805006370151,0.14347630116773,0.165861224807536,0.156840070746217,0.115310043530909,0.0659867948858801,0.0303132844072685,0.0109628401362815,0.00375303858416884
"21",2.27475573657056e-09,2.46615542365521e-08,1.7022269917794e-07,8.25954698204934e-07,3.20679957188056e-06,1.1507818563335e-05,3.95094302988559e-05,0.000117679998166673,0.000317870673943836,0.000814239664978742,0.00198880886308513,0.00440374888684172,0.00897090325492418,0.0173402015771916,0.0317992480639189,0.0528340551228918,0.0790546196677382,0.109809361915928,0.143486007197103,0.165875658464389,0.156884649729692,0.115296211745549,0.0661077042926742,0.030474870606083,0.0143689131127582
"22",1.26123073103917e-10,2.27457016188329e-09,2.45356167474108e-08,1.70222703741984e-07,8.25955718271384e-07,3.20683133856404e-06,1.15083363060176e-05,3.95124584137372e-05,0.000117691790622729,0.000317904500094689,0.000814391977534728,0.00198922789496659,0.00440482525130814,0.00897348402239177,0.0173471031816447,0.0318131270069208,0.0528611232581982,0.0790995317218925,0.109903641122381,0.143622491355634,0.16618818530459,0.156869341111419,0.11608161866533,0.0670492490006426,0.0424918120936368
"23",3.77677743512093e-12,1.26123080034332e-10,2.2707941515934e-09,2.4535710150005e-08,1.70232287913931e-07,8.26223347587965e-07,3.2105993086168e-06,1.15297056186799e-05,3.9594122652543e-05,0.000117932996388577,0.000318958986964954,0.000817284211753223,0.00199663361589638,0.00442267686501387,0.00902067582680879,0.017441721235533,0.0319941522097519,0.053171147455953,0.0797237890574887,0.110789496284675,0.145249255040222,0.166521826335685,0.16061522936206,0.119986219678123,0.0977576430180617
"24",4.63936861381881e-14,3.77709365677669e-12,1.26106405362805e-10,2.27236787913827e-09,2.46069236301823e-08,1.71824380114565e-07,8.45417992387023e-07,3.31546639493677e-06,1.19232821417045e-05,4.07909390726215e-05,0.000122991908870106,0.000332781383655785,0.000852564288013756,0.00208209302893903,0.00464555898526587,0.00946598966412938,0.0182822766311278,0.0334656067973149,0.0560367259819266,0.083723546775918,0.117004199550551,0.147999931641117,0.179509887523334,0.171867316820853,0.174551455079779
"25",0,5.28957326123773e-14,4.3343015187023e-12,1.46958513696991e-10,2.77648535516829e-09,3.23622715109045e-08,2.45523297891291e-07,1.22134600773299e-06,4.69362110728778e-06,1.62852659758817e-05,5.81759781091463e-05,0.000170132680648821,0.00045254583581584,0.00114423959831704,0.00282419977620533,0.00611887728199446,0.0122162331337902,0.0231782391947449,0.0426420919370728,0.0686059751187112,0.100820969811155,0.128446734608108,0.179709438690899,0.200232897568024,0.233356767739912
