"","X0","X1","X2","X3","X4","X5","X6","X7","X8","X9","X10","X11","X12","X13","X14","X15","X16","X17","X18","X19","X20","X21","X22","X23","X24","X25","X26","X27","X28","X29","X30","X31","X32","X33","X34","X35","X36"
"1",0.365366150069684,0.328808378173869,0.193438809738579,0.0794165230206982,0.0250498193315448,0.00634336635834739,0.00131504748369114,0.000225634773696059,3.21167821672166e-05,3.76622948138591e-06,3.58972808026859e-07,2.73515139033964e-08,1.63600860615575e-09,7.52528981740236e-11,2.59305192878883e-12,6.4461813544634e-14,1.08796432571372e-15,1.11258349538489e-17,5.19101810817451e-20,0,0,0,0,0,0,0,0,0,0,0,0,0,0,0,0,0,0
"2",0.109571797059617,0.287765770624715,0.307636728399926,0.185316557341631,0.0772560702329052,0.0246150703418639,0.00627140356243879,0.00130571205553086,0.000224697584203607,3.2043130430472e-05,3.76182175979732e-06,3.5878488477167e-07,2.73462605621277e-08,1.6359230424001e-09,7.52522869835516e-11,2.59305192878883e-12,6.4461813544634e-14,1.08796432571372e-15,1.11258349538489e-17,5.19101810817451e-20,0,0,0,0,0,0,0,0,0,0,0,0,0,0,0,0,0
"3",0.0241010445914335,0.0908586437629088,0.284020605712368,0.30634429386808,0.18502154935264,0.0772079758757917,0.0246085275372893,0.0062707905899104,0.00130567925348962,0.000224696673755002,3.2043115855045e-05,3.76182150190987e-06,3.5878488267616e-07,2.73462605621277e-08,1.6359230424001e-09,7.52522869835516e-11,2.59305192878883e-12,6.4461813544634e-14,1.08796432571372e-15,1.11258349538489e-17,5.19101810817451e-20,0,0,0,0,0,0,0,0,0,0,0,0,0,0,0,0
"4",0.0038170938987559,0.0209562791413988,0.0903813497229098,0.283864907322176,0.306310896647782,0.185016359301698,0.0772072904166654,0.0246084671140688,0.00627078777732416,0.00130567920116294,0.000224696673724617,3.2043115855045e-05,3.76182150190987e-06,3.5878488267616e-07,2.73462605621277e-08,1.6359230424001e-09,7.52522869835516e-11,2.59305192878883e-12,6.4461813544634e-14,1.08796432571372e-15,1.11258349538489e-17,5.19101810817451e-20,0,0,0,0,0,0,0,0,0,0,0,0,0,0,0
"5",0.00039264998797281,0.00347139012152716,0.0209215033042411,0.0903714108535435,0.283862991158761,0.30631061973887,0.185016323949639,0.0772072874657797,0.0246084669872516,0.006270787775193,0.00130567920116294,0.000224696673724617,3.2043115855045e-05,3.76182150190987e-06,3.5878488267616e-07,2.73462605621277e-08,1.6359230424001e-09,7.52522869835516e-11,2.59305192878883e-12,6.4461813544634e-14,1.08796432571372e-15,1.11258349538489e-17,5.19101810817451e-20,0,0,0,0,0,0,0,0,0,0,0,0,0,0
"6",2.5505025543802e-05,0.000369055480553446,0.00346987933996723,0.0209211661747367,0.0903713559782383,0.283862984306708,0.306310618923518,0.185016323887597,0.0772072874635025,0.0246084669872212,0.006270787775193,0.00130567920116294,0.000224696673724617,3.2043115855045e-05,3.76182150190987e-06,3.5878488267616e-07,2.73462605621277e-08,1.6359230424001e-09,7.52522869835516e-11,2.59305192878883e-12,6.4461813544634e-14,1.08796432571372e-15,1.11258349538489e-17,5.19101810817451e-20,0,0,0,0,0,0,0,0,0,0,0,0,0
"7",1.03723945516988e-06,2.45146996084294e-05,0.00036901541845149,0.00346987331973417,0.0209211654191408,0.0903713559098116,0.283862984299987,0.306310618923087,0.185016323887587,0.0772072874635025,0.0246084669872212,0.006270787775193,0.00130567920116294,0.000224696673724617,3.2043115855045e-05,3.76182150190987e-06,3.5878488267616e-07,2.73462605621277e-08,1.6359230424001e-09,7.52522869835516e-11,2.59305192878883e-12,6.4461813544634e-14,1.08796432571372e-15,1.11258349538489e-17,5.19101810817451e-20,0,0,0,0,0,0,0,0,0,0,0,0
"8",2.56191768457752e-08,1.01227730773901e-06,2.45140980458743e-05,0.000369015367248475,0.00346987331561718,0.020921165418994,0.0903713559098116,0.283862984299987,0.306310618923087,0.185016323887587,0.0772072874635025,0.0246084669872212,0.006270787775193,0.00130567920116294,0.000224696673724617,3.2043115855045e-05,3.76182150190987e-06,3.5878488267616e-07,2.73462605621277e-08,1.6359230424001e-09,7.52522869835516e-11,2.59305192878883e-12,6.4461813544634e-14,1.08796432571372e-15,1.11258349538489e-17,5.19101810817451e-20,0,0,0,0,0,0,0,0,0,0,0
"9",3.51614081719588e-10,2.52715377839018e-08,1.01227347468416e-06,2.45140979039093e-05,0.000369015367248475,0.00346987331561718,0.020921165418994,0.0903713559098116,0.283862984299987,0.306310618923087,0.185016323887587,0.0772072874635025,0.0246084669872212,0.006270787775193,0.00130567920116294,0.000224696673724617,3.2043115855045e-05,3.76182150190987e-06,3.5878488267616e-07,2.73462605621277e-08,1.6359230424001e-09,7.52522869835516e-11,2.59305192878883e-12,6.4461813544634e-14,1.08796432571372e-15,1.11258349538489e-17,5.19101810817451e-20,0,0,0,0,0,0,0,0,0,0
"10",2.058492420317e-12,3.49555589299271e-10,2.52715377839018e-08,1.01227347468416e-06,2.45140979039093e-05,0.000369015367248475,0.00346987331561718,0.020921165418994,0.0903713559098116,0.283862984299987,0.306310618923087,0.185016323887587,0.0772072874635025,0.0246084669872212,0.006270787775193,0.00130567920116294,0.000224696673724617,3.2043115855045e-05,3.76182150190987e-06,3.5878488267616e-07,2.73462605621277e-08,1.6359230424001e-09,7.52522869835516e-11,2.59305192878883e-12,6.4461813544634e-14,1.08796432571372e-15,1.11258349538489e-17,5.19101810817451e-20,0,0,0,0,0,0,0,0,0
"11",0,2.058492420317e-12,3.49555589299271e-10,2.52715377839018e-08,1.01227347468416e-06,2.45140979039093e-05,0.000369015367248475,0.00346987331561718,0.020921165418994,0.0903713559098116,0.283862984299987,0.306310618923087,0.185016323887587,0.0772072874635025,0.0246084669872212,0.006270787775193,0.00130567920116294,0.000224696673724617,3.2043115855045e-05,3.76182150190987e-06,3.5878488267616e-07,2.73462605621277e-08,1.6359230424001e-09,7.52522869835516e-11,2.59305192878883e-12,6.4461813544634e-14,1.08796432571372e-15,1.11258349538489e-17,5.19101810817451e-20,0,0,0,0,0,0,0,0
"12",0,0,2.058492420317e-12,3.49555589299271e-10,2.52715377839018e-08,1.01227347468416e-06,2.45140979039093e-05,0.000369015367248475,0.00346987331561718,0.020921165418994,0.0903713559098116,0.283862984299987,0.306310618923087,0.185016323887587,0.0772072874635025,0.0246084669872212,0.006270787775193,0.00130567920116294,0.000224696673724617,3.2043115855045e-05,3.76182150190987e-06,3.5878488267616e-07,2.73462605621277e-08,1.6359230424001e-09,7.52522869835516e-11,2.59305192878883e-12,6.4461813544634e-14,1.08796432571372e-15,1.11258349538489e-17,5.19101810817451e-20,0,0,0,0,0,0,0
"13",0,0,0,2.058492420317e-12,3.49555589299271e-10,2.52715377839018e-08,1.01227347468416e-06,2.45140979039093e-05,0.000369015367248475,0.00346987331561718,0.020921165418994,0.0903713559098116,0.283862984299987,0.306310618923087,0.185016323887587,0.0772072874635025,0.0246084669872212,0.006270787775193,0.00130567920116294,0.000224696673724617,3.2043115855045e-05,3.76182150190987e-06,3.5878488267616e-07,2.73462605621277e-08,1.6359230424001e-09,7.52522869835516e-11,2.59305192878883e-12,6.4461813544634e-14,1.08796432571372e-15,1.11258349538489e-17,5.19101810817451e-20,0,0,0,0,0,0
"14",0,0,0,0,2.058492420317e-12,3.49555589299271e-10,2.52715377839018e-08,1.01227347468416e-06,2.45140979039093e-05,0.000369015367248475,0.00346987331561718,0.020921165418994,0.0903713559098116,0.283862984299987,0.306310618923087,0.185016323887587,0.0772072874635025,0.0246084669872212,0.006270787775193,0.00130567920116294,0.000224696673724617,3.2043115855045e-05,3.76182150190987e-06,3.5878488267616e-07,2.73462605621277e-08,1.6359230424001e-09,7.52522869835516e-11,2.59305192878883e-12,6.4461813544634e-14,1.08796432571372e-15,1.11258349538489e-17,5.19101810817451e-20,0,0,0,0,0
"15",0,0,0,0,0,2.058492420317e-12,3.49555589299271e-10,2.52715377839018e-08,1.01227347468416e-06,2.45140979039093e-05,0.000369015367248475,0.00346987331561718,0.020921165418994,0.0903713559098116,0.283862984299987,0.306310618923087,0.185016323887587,0.0772072874635025,0.0246084669872212,0.006270787775193,0.00130567920116294,0.000224696673724617,3.2043115855045e-05,3.76182150190987e-06,3.5878488267616e-07,2.73462605621277e-08,1.6359230424001e-09,7.52522869835516e-11,2.59305192878883e-12,6.4461813544634e-14,1.08796432571372e-15,1.11258349538489e-17,5.19101810817451e-20,0,0,0,0
"16",0,0,0,0,0,0,2.058492420317e-12,3.49555589299271e-10,2.52715377839018e-08,1.01227347468416e-06,2.45140979039093e-05,0.000369015367248475,0.00346987331561718,0.020921165418994,0.0903713559098116,0.283862984299987,0.306310618923087,0.185016323887587,0.0772072874635025,0.0246084669872212,0.006270787775193,0.00130567920116294,0.000224696673724617,3.2043115855045e-05,3.76182150190987e-06,3.5878488267616e-07,2.73462605621277e-08,1.6359230424001e-09,7.52522869835516e-11,2.59305192878883e-12,6.4461813544634e-14,1.08796432571372e-15,1.11258349538489e-17,5.19101810817451e-20,0,0,0
"17",0,0,0,0,0,0,0,2.058492420317e-12,3.49555589299271e-10,2.52715377839018e-08,1.01227347468416e-06,2.45140979039093e-05,0.000369015367248475,0.00346987331561718,0.020921165418994,0.0903713559098116,0.283862984299987,0.306310618923087,0.185016323887587,0.0772072874635025,0.0246084669872212,0.006270787775193,0.00130567920116294,0.000224696673724617,3.2043115855045e-05,3.76182150190987e-06,3.5878488267616e-07,2.73462605621277e-08,1.6359230424001e-09,7.52522869835516e-11,2.59305192878883e-12,6.4461813544634e-14,1.08796432571372e-15,1.11258349538489e-17,5.19101810817451e-20,0,0
"18",0,0,0,0,0,0,0,0,2.058492420317e-12,3.49555589299271e-10,2.52715377839018e-08,1.01227347468416e-06,2.45140979039093e-05,0.000369015367248475,0.00346987331561718,0.020921165418994,0.0903713559098116,0.283862984299987,0.306310618923087,0.185016323887587,0.0772072874635025,0.0246084669872212,0.006270787775193,0.00130567920116294,0.000224696673724617,3.2043115855045e-05,3.76182150190987e-06,3.5878488267616e-07,2.73462605621277e-08,1.6359230424001e-09,7.52522869835516e-11,2.59305192878883e-12,6.4461813544634e-14,1.08796432571372e-15,1.11258349538489e-17,5.19101810817451e-20,0
"19",0,0,0,0,0,0,0,0,0,2.058492420317e-12,3.49555589299271e-10,2.52715377839018e-08,1.01227347468416e-06,2.45140979039093e-05,0.000369015367248475,0.00346987331561718,0.020921165418994,0.0903713559098116,0.283862984299987,0.306310618923087,0.185016323887587,0.0772072874635025,0.0246084669872212,0.006270787775193,0.00130567920116294,0.000224696673724617,3.2043115855045e-05,3.76182150190987e-06,3.5878488267616e-07,2.73462605621277e-08,1.6359230424001e-09,7.52522869835516e-11,2.59305192878883e-12,6.4461813544634e-14,1.08796432571372e-15,1.11258349538489e-17,5.19101810817451e-20
"20",0,0,0,0,0,0,0,0,0,0,2.058492420317e-12,3.49555589299271e-10,2.52715377839018e-08,1.01227347468416e-06,2.45140979039093e-05,0.000369015367248475,0.00346987331561718,0.020921165418994,0.0903713559098116,0.283862984299987,0.306310618923087,0.185016323887587,0.0772072874635025,0.0246084669872212,0.006270787775193,0.00130567920116294,0.000224696673724617,3.2043115855045e-05,3.76182150190987e-06,3.5878488267616e-07,2.73462605621277e-08,1.6359230424001e-09,7.52522869835516e-11,2.59305192878883e-12,6.4461813544634e-14,1.08796432571372e-15,1.11777451349306e-17
"21",0,0,0,0,0,0,0,0,0,0,0,2.058492420317e-12,3.49555589299271e-10,2.52715377839018e-08,1.01227347468416e-06,2.45140979039093e-05,0.000369015367248475,0.00346987331561718,0.020921165418994,0.0903713559098116,0.283862984299987,0.306310618923087,0.185016323887587,0.0772072874635025,0.0246084669872212,0.006270787775193,0.00130567920116294,0.000224696673724617,3.2043115855045e-05,3.76182150190987e-06,3.5878488267616e-07,2.73462605621277e-08,1.6359230424001e-09,7.52522869835516e-11,2.59305192878883e-12,6.44618654548151e-14,1.09909016066757e-15
"22",0,0,0,0,0,0,0,0,0,0,0,0,2.058492420317e-12,3.49555589299271e-10,2.52715377839018e-08,1.01227347468416e-06,2.45140979039093e-05,0.000369015367248475,0.00346987331561718,0.020921165418994,0.0903713559098116,0.283862984299987,0.306310618923087,0.185016323887587,0.0772072874635025,0.0246084669872212,0.006270787775193,0.00130567920116294,0.000224696673724617,3.2043115855045e-05,3.76182150190987e-06,3.5878488267616e-07,2.73462605621277e-08,1.6359230424001e-09,7.52522870086415e-11,2.59306271937053e-12,6.55501399438608e-14
"23",0,0,0,0,0,0,0,0,0,0,0,0,0,2.058492420317e-12,3.49555589299271e-10,2.52715377839018e-08,1.01227347468416e-06,2.45140979039093e-05,0.000369015367248475,0.00346987331561718,0.020921165418994,0.0903713559098116,0.283862984299987,0.306310618923087,0.185016323887587,0.0772072874635025,0.0246084669872212,0.006270787775193,0.00130567920116294,0.000224696673724617,3.2043115855045e-05,3.76182150190987e-06,3.5878488267616e-07,2.73462605621277e-08,1.63592304709932e-09,7.52533033750672e-11,2.65759179366601e-12
"24",0,0,0,0,0,0,0,0,0,0,0,0,0,0,2.058492420317e-12,3.49555589299271e-10,2.52715377839018e-08,1.01227347468416e-06,2.45140979039093e-05,0.000369015367248475,0.00346987331561718,0.020921165418994,0.0903713559098116,0.283862984299987,0.306310618923087,0.185016323887587,0.0772072874635025,0.0246084669872212,0.006270787775193,0.00130567920116294,0.000224696673724617,3.2043115855045e-05,3.76182150190987e-06,3.58784882676184e-07,2.73462609577175e-08,1.63598060536578e-09,7.78529412883073e-11
"25",0,0,0,0,0,0,0,0,0,0,0,0,0,0,0,2.058492420317e-12,3.49555589299271e-10,2.52715377839018e-08,1.01227347468416e-06,2.45140979039093e-05,0.000369015367248475,0.00346987331561718,0.020921165418994,0.0903713559098116,0.283862984299987,0.306310618923087,0.185016323887587,0.0772072874635025,0.0246084669872212,0.006270787775193,0.00130567920116294,0.000224696673724617,3.20431158550453e-05,3.76182150193992e-06,3.58784903144165e-07,2.73484593933012e-08,1.71161461268694e-09
"26",0,0,0,0,0,0,0,0,0,0,0,0,0,0,0,0,2.058492420317e-12,3.49555589299271e-10,2.52715377839018e-08,1.01227347468416e-06,2.45140979039093e-05,0.000369015367248475,0.00346987331561718,0.020921165418994,0.0903713559098116,0.283862984299987,0.306310618923087,0.185016323887587,0.0772072874635025,0.0246084669872212,0.006270787775193,0.00130567920116294,0.000224696673724677,3.20431158597811e-05,3.76182227135426e-06,3.58845407838953e-07,2.89987951010631e-08
"27",0,0,0,0,0,0,0,0,0,0,0,0,0,0,0,0,0,2.058492420317e-12,3.49555589299271e-10,2.52715377839018e-08,1.01227347468416e-06,2.45140979039093e-05,0.000369015367248475,0.00346987331561718,0.020921165418994,0.0903713559098116,0.283862984299987,0.306310618923087,0.185016323887587,0.0772072874635025,0.0246084669872212,0.006270787775193,0.00130567920116744,0.000224696674070265,3.20431394516208e-05,3.76308402202103e-06,3.86558510340503e-07
"28",0,0,0,0,0,0,0,0,0,0,0,0,0,0,0,0,0,0,2.058492420317e-12,3.49555589299271e-10,2.52715377839018e-08,1.01227347468416e-06,2.45140979039093e-05,0.000369015367248475,0.00346987331561718,0.020921165418994,0.0903713559098116,0.283862984299987,0.306310618923087,0.185016323887587,0.0772072874635025,0.0246084669872212,0.00627078777538882,0.00130567921598313,0.000224697288083162,3.20640346382403e-05,4.1281183213304e-06
"29",0,0,0,0,0,0,0,0,0,0,0,0,0,0,0,0,0,0,0,2.058492420317e-12,3.49555589299271e-10,2.52715377839018e-08,1.01227347468416e-06,2.45140979039093e-05,0.000369015367248475,0.00346987331561718,0.020921165418994,0.0903713559098116,0.283862984299987,0.306310618923087,0.185016323887587,0.0772072874635029,0.0246084669927067,0.00627078818644073,0.00130569229200285,0.000224983647517002,3.58923009683061e-05
"30",0,0,0,0,0,0,0,0,0,0,0,0,0,0,0,0,0,0,0,0,2.058492420317e-12,3.49555589299271e-10,2.52715377839018e-08,1.01227347468416e-06,2.45140979039093e-05,0.000369015367248475,0.00346987331561718,0.020921165418994,0.0903713559098116,0.283862984299987,0.306310618923088,0.185016323887647,0.0772072875686429,0.0246084747328866,0.00627100319640173,0.00130900146259415,0.000257343922551442
"31",0,0,0,0,0,0,0,0,0,0,0,0,0,0,0,0,0,0,0,0,0,2.058492420317e-12,3.49555589299271e-10,2.52715377839018e-08,1.01227347468416e-06,2.45140979039093e-05,0.000369015367248475,0.00346987331561718,0.020921165418994,0.090371355909812,0.283862984300052,0.306310618927221,0.18501632534949,0.0772073891176336,0.0246110897270494,0.00630268958522743,0.00153194098712526
"32",0,0,0,0,0,0,0,0,0,0,0,0,0,0,0,0,0,0,0,0,0,0,2.058492420317e-12,3.49555589299271e-10,2.52715377839018e-08,1.01227347468416e-06,2.45140979039093e-05,0.000369015367248475,0.00346987331561723,0.020921165419017,0.0903713559126829,0.283862984458453,0.306310635240144,0.185017275168542,0.0772302955762792,0.0248515704779519,0.00757027706953435
"33",0,0,0,0,0,0,0,0,0,0,0,0,0,0,0,0,0,0,0,0,0,0,0,2.058492420317e-12,3.49555589299271e-10,2.52715377839018e-08,1.01227347468416e-06,2.45140979039093e-05,0.00036901536725244,0.00346987331653015,0.020921165502958,0.0903713598310409,0.283863154410714,0.306317278027681,0.18515984352814,0.07860820120587,0.0308945568152835
"34",0,0,0,0,0,0,0,0,0,0,0,0,0,0,0,0,0,0,0,0,0,0,0,0,2.058492420317e-12,3.49555589299271e-10,2.52715377839018e-08,1.01227347471912e-06,2.4514098026303e-05,0.000369015388583007,0.00346987491423964,0.0209212297052689,0.0903730869220541,0.28390182616967,0.306956666468705,0.190928558549954,0.103054189886873
"35",0,0,0,0,0,0,0,0,0,0,0,0,0,0,0,0,0,0,0,0,0,0,0,0,0,2.058492420317e-12,3.49555589299271e-10,2.52715402082629e-08,1.01227553654162e-06,2.45143932013361e-05,0.000369034533081431,0.00347055684404836,0.0209358274788527,0.090581701872594,0.286148682094344,0.324777769080254,0.273690875804934
"36",0,0,0,0,0,0,0,0,0,0,0,0,0,0,0,0,0,0,0,0,0,0,0,0,0,0,2.058492420317e-12,3.49615041511563e-10,2.52932594202047e-08,1.01477729118367e-06,2.46562833508808e-05,0.000373576666653857,0.00355629928478921,0.0219043983510741,0.0976511435585793,0.330294143368739,0.54619474206459
"37",0,0,0,0,0,0,0,0,0,0,0,0,0,0,0,0,0,0,0,0,0,0,0,0,0,0,0,2.69104379494872e-12,4.93222703595738e-10,3.84245370389974e-08,1.65537593122186e-06,4.29484830057127e-05,0.000686125865485878,0.00670561621357796,0.0409641399303075,0.191752534554097,0.759846940657144
