"","X0","X1","X2","X3","X4","X5","X6","X7","X8","X9","X10","X11","X12","X13","X14","X15","X16","X17","X18","X19","X20","X21","X22","X23","X24","X25","X26","X27","X28","X29","X30","X31","X32","X33","X34","X35","X36"
"1",0.462852489547712,0.25756810579756,0.156277435957619,0.0774124203364718,0.0312542853790247,0.0105881833248656,0.00306780127226764,0.000770682895450454,0.000169343261010121,3.27185656755482e-05,5.57245964946559e-06,8.36587457438278e-07,1.10449511759631e-07,1.27641296787113e-08,1.28206807698964e-09,1.10847607302513e-10,8.15109083503086e-12,5.02685520873552e-13,2.55907871232567e-14,1.05604344542344e-15,3.45599198493388e-17,8.71784304763409e-19,1.62820595486474e-20,2.11327555922604e-22,1.69702986146823e-24,6.33551320305401e-27,0,0,0,0,0,0,0,0,0,0,0
"2",0.264390971895676,0.247169550116111,0.223085367915383,0.146664304032163,0.0740916303686344,0.030279810841163,0.0103385787276582,0.00301295710075495,0.000760239585402014,0.000167617734760436,3.24719639266729e-05,5.54203960028802e-06,8.33373756902451e-07,1.10162155910265e-07,1.27426476642174e-08,1.28074811430778e-09,1.10782770482936e-10,8.14864308625781e-12,5.02618003873068e-13,2.55895180099857e-14,1.05602900943923e-15,3.45598452550063e-17,8.71784304763409e-19,1.62820595486474e-20,2.11327555922604e-22,1.69702986146823e-24,6.33551320305401e-27,0,0,0,0,0,0,0,0,0,0
"3",0.113486778379613,0.165126064016853,0.235756075406368,0.221058535634283,0.146074323618977,0.0739423009493355,0.0302455920086794,0.0103318612790074,0.00301182441549336,0.000760076658005739,0.000167598082638596,3.24699996985765e-05,5.54188222168092e-06,8.33364235110289e-07,1.10161747698927e-07,1.27426357970166e-08,1.28074787678908e-09,1.10782766782814e-10,8.14864304109252e-12,5.02618003617316e-13,2.55895180099857e-14,1.05602900943923e-15,3.45598452550063e-17,8.71784304763409e-19,1.62820595486474e-20,2.11327555922604e-22,1.69702986146823e-24,6.33551320305401e-27,0,0,0,0,0,0,0,0,0
"4",0.0382808182223037,0.0787998334526056,0.161985350832634,0.235411584975973,0.220973664273495,0.146055478098701,0.0739382548099348,0.0302448294905998,0.0103317367998924,0.00301180700481391,0.000760074618778038,0.000167597885499302,3.24699846023253e-05,5.54188137369836e-06,8.33364203427945e-07,1.10161747010361e-07,1.27426357904317e-08,1.28074787678537e-09,1.10782766782814e-10,8.14864304109252e-12,5.02618003617316e-13,2.55895180099857e-14,1.05602900943923e-15,3.45598452550063e-17,8.71784304763409e-19,1.62820595486474e-20,2.11327555922604e-22,1.69702986146823e-24,6.33551320305401e-27,0,0,0,0,0,0,0,0
"5",0.0104429510060518,0.0286153990314612,0.0780774160473678,0.161940418246399,0.235403130127392,0.220972250304027,0.146055218276116,0.0739382096318079,0.0302448225363128,0.0103317358657311,0.00301180689900435,0.000760074608840541,0.000167597884760457,3.24699845623054e-05,5.5418813722693e-06,8.33364203398544e-07,1.10161747010101e-07,1.27426357904317e-08,1.28074787678537e-09,1.10782766782814e-10,8.14864304109252e-12,5.02618003617316e-13,2.55895180099857e-14,1.05602900943923e-15,3.45598452550063e-17,8.71784304763409e-19,1.62820595486474e-20,2.11327555922604e-22,1.69702986146823e-24,6.33551320305401e-27,0,0,0,0,0,0,0
"6",0.00234450441771177,0.00824530766433862,0.0284744470213268,0.0780723095269298,0.161939702421714,0.235403054602499,0.220972240745623,0.146055216857126,0.0739382094397964,0.0302448225126158,0.0103317358632236,0.00301180689878204,0.000760074608824898,0.000167597884759665,3.24699845622795e-05,5.54188137226882e-06,8.3336420339854e-07,1.10161747010101e-07,1.27426357904317e-08,1.28074787678537e-09,1.10782766782814e-10,8.14864304109252e-12,5.02618003617316e-13,2.55895180099857e-14,1.05602900943923e-15,3.45598452550063e-17,8.71784304763409e-19,1.62820595486474e-20,2.11327555922604e-22,1.69702986146823e-24,6.33551320305401e-27,0,0,0,0,0,0
"7",0.000437389436619961,0.00193085545319298,0.00822213013285717,0.0284739433294413,0.078072254312471,0.161939698641991,0.235403054376504,0.220972240719952,0.146055216854528,0.0739382094395346,0.0302448225125923,0.0103317358632218,0.00301180689878193,0.000760074608824894,0.000167597884759665,3.24699845622795e-05,5.54188137226882e-06,8.3336420339854e-07,1.10161747010101e-07,1.27426357904317e-08,1.28074787678537e-09,1.10782766782814e-10,8.14864304109252e-12,5.02618003617316e-13,2.55895180099857e-14,1.05602900943923e-15,3.45598452550063e-17,8.71784304763409e-19,1.62820595486474e-20,2.11327555922604e-22,1.69702986146823e-24,6.33551320305401e-27,0,0,0,0,0
"8",6.80609464803909e-05,0.00037255932257531,0.00192766843998253,0.0082220899621343,0.0284739398738139,0.0780722541237041,0.161939698638215,0.235403054376191,0.220972240719934,0.146055216854527,0.0739382094395345,0.0302448225125923,0.0103317358632218,0.00301180689878193,0.000760074608824894,0.000167597884759665,3.24699845622795e-05,5.54188137226882e-06,8.3336420339854e-07,1.10161747010101e-07,1.27426357904317e-08,1.28074787678537e-09,1.10782766782814e-10,8.14864304109252e-12,5.02618003617316e-13,2.55895180099857e-14,1.05602900943923e-15,3.45598452550063e-17,8.71784304763409e-19,1.62820595486474e-20,2.11327555922604e-22,1.69702986146823e-24,6.33551320305401e-27,0,0,0,0
"9",8.81963596056949e-06,5.96081409963405e-05,0.000372195143796375,0.00192766595328567,0.00822208980508326,0.0284739398659088,0.0780722541236624,0.161939698638212,0.235403054376191,0.220972240719934,0.146055216854527,0.0739382094395345,0.0302448225125923,0.0103317358632218,0.00301180689878193,0.000760074608824894,0.000167597884759665,3.24699845622795e-05,5.54188137226882e-06,8.3336420339854e-07,1.10161747010101e-07,1.27426357904317e-08,1.28074787678537e-09,1.10782766782814e-10,8.14864304109252e-12,5.02618003617316e-13,2.55895180099857e-14,1.05602900943923e-15,3.45598452550063e-17,8.71784304763409e-19,1.62820595486474e-20,2.11327555922604e-22,1.69702986146823e-24,6.33551320305401e-27,0,0,0
"10",9.46477566282066e-07,7.90759514576471e-06,5.9573827509793e-05,0.000372195025629867,0.00192766594842621,0.00822208980484454,0.0284739398659086,0.0780722541236623,0.161939698638212,0.235403054376191,0.220972240719934,0.146055216854527,0.0739382094395345,0.0302448225125923,0.0103317358632218,0.00301180689878193,0.000760074608824894,0.000167597884759665,3.24699845622795e-05,5.54188137226882e-06,8.3336420339854e-07,1.10161747010101e-07,1.27426357904317e-08,1.28074787678537e-09,1.10782766782814e-10,8.14864304109252e-12,5.02618003617316e-13,2.55895180099857e-14,1.05602900943923e-15,3.45598452550063e-17,8.71784304763409e-19,1.62820595486474e-20,2.11327555922604e-22,1.69702986146823e-24,6.33551320305401e-27,0,0
"11",8.34762660285143e-08,8.65644477313478e-07,7.90495635860426e-06,5.95738232209355e-05,0.000372195025533533,0.0019276659484215,0.00822208980484454,0.0284739398659086,0.0780722541236623,0.161939698638212,0.235403054376191,0.220972240719934,0.146055216854527,0.0739382094395345,0.0302448225125923,0.0103317358632218,0.00301180689878193,0.000760074608824894,0.000167597884759665,3.24699845622795e-05,5.54188137226882e-06,8.3336420339854e-07,1.10161747010101e-07,1.27426357904317e-08,1.28074787678537e-09,1.10782766782814e-10,8.14864304109252e-12,5.02618003617316e-13,2.55895180099857e-14,1.05602900943923e-15,3.45598452550063e-17,8.71784304763409e-19,1.62820595486474e-20,2.11327555922604e-22,1.69702986146823e-24,6.33551320305401e-27,0
"12",6.00052722629414e-09,7.76395879099445e-08,8.65480746504258e-07,7.90495624146017e-06,5.95738232198349e-05,0.000372195025533479,0.0019276659484215,0.00822208980484454,0.0284739398659086,0.0780722541236623,0.161939698638212,0.235403054376191,0.220972240719934,0.146055216854527,0.0739382094395345,0.0302448225125923,0.0103317358632218,0.00301180689878193,0.000760074608824894,0.000167597884759665,3.24699845622795e-05,5.54188137226882e-06,8.3336420339854e-07,1.10161747010101e-07,1.27426357904317e-08,1.28074787678537e-09,1.10782766782814e-10,8.14864304109252e-12,5.02618003617316e-13,2.55895180099857e-14,1.05602900943923e-15,3.45598452550063e-17,8.71784304763409e-19,1.62820595486474e-20,2.11327555922604e-22,1.69702986146823e-24,6.33551320305401e-27
"13",3.48493419376858e-10,5.66013353043369e-09,7.76314905191106e-08,8.65480744177352e-07,7.90495624145467e-06,5.95738232198346e-05,0.000372195025533479,0.0019276659484215,0.00822208980484454,0.0284739398659086,0.0780722541236623,0.161939698638212,0.235403054376191,0.220972240719934,0.146055216854527,0.0739382094395345,0.0302448225125923,0.0103317358632218,0.00301180689878193,0.000760074608824894,0.000167597884759665,3.24699845622795e-05,5.54188137226882e-06,8.3336420339854e-07,1.10161747010101e-07,1.27426357904317e-08,1.28074787678537e-09,1.10782766782814e-10,8.14864304109252e-12,5.02618003617316e-13,2.55895180099857e-14,1.05602900943923e-15,3.45598452550063e-17,8.71784304763409e-19,1.62820595486474e-20,2.11327555922604e-22,1.70336537467128e-24
"14",1.61932793744733e-11,3.32615054179316e-10,5.65981864779656e-09,7.76314904875708e-08,8.65480744177352e-07,7.90495624145467e-06,5.95738232198346e-05,0.000372195025533479,0.0019276659484215,0.00822208980484454,0.0284739398659086,0.0780722541236623,0.161939698638212,0.235403054376191,0.220972240719934,0.146055216854527,0.0739382094395345,0.0302448225125923,0.0103317358632218,0.00301180689878193,0.000760074608824894,0.000167597884759665,3.24699845622795e-05,5.54188137226882e-06,8.3336420339854e-07,1.10161747010101e-07,1.27426357904317e-08,1.28074787678537e-09,1.10782766782814e-10,8.14864304109252e-12,5.02618003617316e-13,2.55895180099857e-14,1.05602900943924e-15,3.45598452552971e-17,8.71784309263864e-19,1.62820879755905e-20,2.12997696473213e-22
"15",5.94779473561585e-13,1.56079665608596e-11,3.32605587778144e-10,5.65981864753779e-09,7.76314904875708e-08,8.65480744177352e-07,7.90495624145467e-06,5.95738232198346e-05,0.000372195025533479,0.0019276659484215,0.00822208980484454,0.0284739398659086,0.0780722541236623,0.161939698638212,0.235403054376191,0.220972240719934,0.146055216854527,0.0739382094395345,0.0302448225125923,0.0103317358632218,0.00301180689878193,0.000760074608824894,0.000167597884759665,3.24699845622795e-05,5.54188137226882e-06,8.3336420339854e-07,1.10161747010101e-07,1.27426357904317e-08,1.28074787678537e-09,1.10782766782814e-10,8.14864304109252e-12,5.02618003617319e-13,2.55895180100136e-14,1.0560290096636e-15,3.45598468456951e-17,8.71791892281636e-19,1.64856570884799e-20
"16",1.69883655478369e-14,5.78005998996734e-13,1.5607751670838e-11,3.32605587777182e-10,5.65981864753779e-09,7.76314904875708e-08,8.65480744177352e-07,7.90495624145467e-06,5.95738232198346e-05,0.000372195025533479,0.0019276659484215,0.00822208980484454,0.0284739398659086,0.0780722541236623,0.161939698638212,0.235403054376191,0.220972240719934,0.146055216854527,0.0739382094395345,0.0302448225125923,0.0103317358632218,0.00301180689878193,0.000760074608824894,0.000167597884759665,3.24699845622795e-05,5.54188137226882e-06,8.3336420339854e-07,1.10161747010101e-07,1.27426357904317e-08,1.28074787678537e-09,1.10782766782814e-10,8.14864304109319e-12,5.02618003623982e-13,2.55895180557714e-14,1.05602925410176e-15,3.45607840282899e-17,8.87042799011223e-19
"17",3.68516606592471e-16,1.66234027011316e-14,5.78002445236847e-13,1.5607751670838e-11,3.32605587777182e-10,5.65981864753779e-09,7.76314904875708e-08,8.65480744177352e-07,7.90495624145467e-06,5.95738232198346e-05,0.000372195025533479,0.0019276659484215,0.00822208980484454,0.0284739398659086,0.0780722541236623,0.161939698638212,0.235403054376191,0.220972240719934,0.146055216854527,0.0739382094395345,0.0302448225125923,0.0103317358632218,0.00301180689878193,0.000760074608824894,0.000167597884759665,3.24699845622795e-05,5.54188137226882e-06,8.3336420339854e-07,1.10161747010101e-07,1.27426357904317e-08,1.28074787678537e-09,1.10782766782889e-10,8.14864304184028e-12,5.02618008454169e-13,2.55895402427687e-14,1.05610061446766e-15,3.53486218177311e-17
"18",5.85510154780285e-18,3.62701848253674e-16,1.66233623579226e-14,5.78002445236847e-13,1.5607751670838e-11,3.32605587777182e-10,5.65981864753779e-09,7.76314904875708e-08,8.65480744177352e-07,7.90495624145467e-06,5.95738232198346e-05,0.000372195025533479,0.0019276659484215,0.00822208980484454,0.0284739398659086,0.0780722541236623,0.161939698638212,0.235403054376191,0.220972240719934,0.146055216854527,0.0739382094395345,0.0302448225125923,0.0103317358632218,0.00301180689878193,0.000760074608824894,0.000167597884759665,3.24699845622795e-05,5.54188137226882e-06,8.3336420339854e-07,1.10161747010101e-07,1.2742635790432e-08,1.28074787679061e-09,1.10782766834403e-10,8.14864336449264e-12,5.02619358039859e-13,2.55932970368514e-14,1.08596311717806e-15
"19",6.41655966223237e-20,5.79121678065079e-18,3.62701567424204e-16,1.66233623579226e-14,5.78002445236847e-13,1.5607751670838e-11,3.32605587777182e-10,5.65981864753779e-09,7.76314904875708e-08,8.65480744177352e-07,7.90495624145467e-06,5.95738232198346e-05,0.000372195025533479,0.0019276659484215,0.00822208980484454,0.0284739398659086,0.0780722541236623,0.161939698638212,0.235403054376191,0.220972240719934,0.146055216854527,0.0739382094395345,0.0302448225125923,0.0103317358632218,0.00301180689878193,0.000760074608824894,0.000167597884759665,3.24699845622795e-05,5.54188137226882e-06,8.33364203398541e-07,1.10161747010116e-07,1.2742635790681e-08,1.2807478792332e-09,1.10782781839871e-10,8.14870230253827e-12,5.02764909929137e-13,2.6457056879009e-14
"20",4.32985771636375e-22,6.373351404809e-20,5.79121587745339e-18,3.62701567424204e-16,1.66233623579226e-14,5.78002445236847e-13,1.5607751670838e-11,3.32605587777182e-10,5.65981864753779e-09,7.76314904875708e-08,8.65480744177352e-07,7.90495624145467e-06,5.95738232198346e-05,0.000372195025533479,0.0019276659484215,0.00822208980484454,0.0284739398659086,0.0780722541236623,0.161939698638212,0.235403054376191,0.220972240719934,0.146055216854527,0.0739382094395345,0.0302448225125923,0.0103317358632218,0.00301180689878193,0.000760074608824894,0.000167597884759665,3.24699845622795e-05,5.54188137226884e-06,8.33364203399086e-07,1.10161747018775e-07,1.27426358753564e-08,1.28074839271685e-09,1.1078471148128e-10,8.15301889685593e-12,5.22368346960115e-13
"21",1.35479610393627e-24,4.31630975532438e-22,6.373351404809e-20,5.79121587745339e-18,3.62701567424204e-16,1.66233623579226e-14,5.78002445236847e-13,1.5607751670838e-11,3.32605587777182e-10,5.65981864753779e-09,7.76314904875708e-08,8.65480744177352e-07,7.90495624145467e-06,5.95738232198346e-05,0.000372195025533479,0.0019276659484215,0.00822208980484454,0.0284739398659086,0.0780722541236623,0.161939698638212,0.235403054376191,0.220972240719934,0.146055216854527,0.0739382094395345,0.0302448225125923,0.0103317358632218,0.00301180689878193,0.000760074608824894,0.000167597884759665,3.246998456228e-05,5.54188137228329e-06,8.33364203627961e-07,1.10161749250254e-07,1.27426492826275e-08,1.28079720222061e-09,1.10885448579768e-10,8.50995800912009e-12
"22",0,1.35479610393627e-24,4.31630975532438e-22,6.373351404809e-20,5.79121587745339e-18,3.62701567424204e-16,1.66233623579226e-14,5.78002445236847e-13,1.5607751670838e-11,3.32605587777182e-10,5.65981864753779e-09,7.76314904875708e-08,8.65480744177352e-07,7.90495624145467e-06,5.95738232198346e-05,0.000372195025533479,0.0019276659484215,0.00822208980484454,0.0284739398659086,0.0780722541236623,0.161939698638212,0.235403054376191,0.220972240719934,0.146055216854527,0.0739382094395345,0.0302448225125923,0.0103317358632218,0.00301180689878193,0.000760074608824894,0.000167597884759676,3.24699845625801e-05,5.54188137701474e-06,8.33364249601193e-07,1.10162023534777e-07,1.27436252727797e-08,1.28268717483106e-09,1.16204142859178e-10
"23",0,0,1.35479610393627e-24,4.31630975532438e-22,6.373351404809e-20,5.79121587745339e-18,3.62701567424204e-16,1.66233623579226e-14,5.78002445236847e-13,1.5607751670838e-11,3.32605587777182e-10,5.65981864753779e-09,7.76314904875708e-08,8.65480744177352e-07,7.90495624145467e-06,5.95738232198346e-05,0.000372195025533479,0.0019276659484215,0.00822208980484454,0.0284739398659086,0.0780722541236623,0.161939698638212,0.235403054376191,0.220972240719934,0.146055216854527,0.0739382094395345,0.0302448225125923,0.0103317358632218,0.00301180689878193,0.000760074608825086,0.000167597884764675,3.2469984640847e-05,5.54188213419518e-06,8.33368741346059e-07,1.10177750878507e-07,1.27726525515279e-08,1.34880430776235e-09
"24",0,0,0,1.35479610393627e-24,4.31630975532438e-22,6.373351404809e-20,5.79121587745339e-18,3.62701567424204e-16,1.66233623579226e-14,5.78002445236847e-13,1.5607751670838e-11,3.32605587777182e-10,5.65981864753779e-09,7.76314904875708e-08,8.65480744177352e-07,7.90495624145467e-06,5.95738232198346e-05,0.000372195025533479,0.0019276659484215,0.00822208980484454,0.0284739398659086,0.0780722541236623,0.161939698638212,0.235403054376191,0.220972240719934,0.146055216854527,0.0739382094395345,0.0302448225125923,0.0103317358632219,0.00301180689878461,0.000760074608893275,0.000167597885821772,3.24699948080581e-05,5.54194214250818e-06,8.33576577156127e-07,1.10548721787694e-07,1.3471346594417e-08
"25",0,0,0,0,1.35479610393627e-24,4.31630975532438e-22,6.373351404809e-20,5.79121587745339e-18,3.62701567424204e-16,1.66233623579226e-14,5.78002445236847e-13,1.5607751670838e-11,3.32605587777182e-10,5.65981864753779e-09,7.76314904875708e-08,8.65480744177352e-07,7.90495624145467e-06,5.95738232198346e-05,0.000372195025533479,0.0019276659484215,0.00822208980484454,0.0284739398659086,0.0780722541236623,0.161939698638212,0.235403054376191,0.220972240719934,0.146055216854527,0.0739382094395345,0.030244822512593,0.0103317358632532,0.00301180689956182,0.00076007462077203,0.000167597999166148,3.24706604141493e-05,5.5442318038085e-06,8.37581145038839e-07,1.16934200719787e-07
"26",0,0,0,0,0,1.35479610393627e-24,4.31630975532438e-22,6.373351404809e-20,5.79121587745339e-18,3.62701567424204e-16,1.66233623579226e-14,5.78002445236847e-13,1.5607751670838e-11,3.32605587777182e-10,5.65981864753779e-09,7.76314904875708e-08,8.65480744177352e-07,7.90495624145467e-06,5.95738232198346e-05,0.000372195025533479,0.0019276659484215,0.00822208980484454,0.0284739398659086,0.0780722541236623,0.161939698638212,0.235403054376191,0.220972240719934,0.146055216854527,0.0739382094395425,0.030244822512908,0.0103317358707955,0.00301180701256788,0.000760075687351552,0.000167604227371561,3.24920059543004e-05,5.58122735820049e-06,8.8875859474694e-07
"27",0,0,0,0,0,0,1.35479610393627e-24,4.31630975532438e-22,6.373351404809e-20,5.79121587745339e-18,3.62701567424204e-16,1.66233623579226e-14,5.78002445236847e-13,1.5607751670838e-11,3.32605587777182e-10,5.65981864753779e-09,7.76314904875708e-08,8.65480744177352e-07,7.90495624145467e-06,5.95738232198346e-05,0.000372195025533479,0.0019276659484215,0.00822208980484454,0.0284739398659086,0.0780722541236623,0.161939698638212,0.235403054376191,0.220972240719936,0.146055216854605,0.073938209442332,0.0302448225763389,0.0103317367950568,0.00301181560543781,0.000760125514965315,0.000167774736902309,3.27875898726518e-05,5.94448145837557e-06
"28",0,0,0,0,0,0,0,1.35479610393627e-24,4.31630975532438e-22,6.373351404809e-20,5.79121587745339e-18,3.62701567424204e-16,1.66233623579226e-14,5.78002445236847e-13,1.5607751670838e-11,3.32605587777182e-10,5.65981864753779e-09,7.76314904875708e-08,8.65480744177352e-07,7.90495624145467e-06,5.95738232198346e-05,0.000372195025533479,0.0019276659484215,0.00822208980484454,0.0284739398659086,0.0780722541236624,0.161939698638212,0.235403054376209,0.220972240720668,0.146055216876946,0.0739382099132277,0.0302448291665354,0.0103317967602707,0.00301216000669364,0.000761303630762636,0.0001698326515921,3.50845901902099e-05
"29",0,0,0,0,0,0,0,0,1.35479610393627e-24,4.31630975532438e-22,6.373351404809e-20,5.79121587745339e-18,3.62701567424204e-16,1.66233623579226e-14,5.78002445236847e-13,1.5607751670838e-11,3.32605587777182e-10,5.65981864753779e-09,7.76314904875708e-08,8.65480744177352e-07,7.90495624145467e-06,5.95738232198346e-05,0.000372195025533479,0.0019276659484215,0.00822208980484454,0.0284739398659089,0.0780722541236704,0.161939698638454,0.23540305438305,0.220972240889211,0.146055220039869,0.0739382515252381,0.0302451956625892,0.0103338710919616,0.00301925050638253,0.000773849646012013,0.000182794948533161
"30",0,0,0,0,0,0,0,0,0,1.35479610393627e-24,4.31630975532438e-22,6.373351404809e-20,5.79121587745339e-18,3.62701567424204e-16,1.66233623579226e-14,5.78002445236847e-13,1.5607751670838e-11,3.32605587777182e-10,5.65981864753779e-09,7.76314904875708e-08,8.65480744177352e-07,7.90495624145467e-06,5.95738232198346e-05,0.000372195025533481,0.0019276659484216,0.00822208980484853,0.0284739398660314,0.0780722541266946,0.161939698703634,0.235403055634055,0.220972260771735,0.14605545777263,0.0739402400081629,0.0302561801518866,0.0103712632768782,0.00308639063054035,0.000838880378626498
"31",0,0,0,0,0,0,0,0,0,0,1.35479610393627e-24,4.31630975532438e-22,6.373351404809e-20,5.79121587745339e-18,3.62701567424204e-16,1.66233623579226e-14,5.78002445236847e-13,1.5607751670838e-11,3.32605587777182e-10,5.65981864753779e-09,7.76314904875708e-08,8.65480744177354e-07,7.90495624145492e-06,5.95738232198567e-05,0.000372195025534749,0.001927665948472,0.00822208980630745,0.0284739398984504,0.0780722547142429,0.161939707807191,0.235403175405628,0.220973517792352,0.146065186229782,0.0739918753312388,0.030429819826923,0.010686579197619,0.00337356511593684
"32",0,0,0,0,0,0,0,0,0,0,0,1.35479610393627e-24,4.31630975532438e-22,6.373351404809e-20,5.79121587745339e-18,3.62701567424204e-16,1.66233623579226e-14,5.78002445236847e-13,1.5607751670838e-11,3.32605587777187e-10,5.65981864753833e-09,7.76314904876205e-08,8.65480744181337e-07,7.90495624171726e-06,5.95738232329289e-05,0.000372195026014963,0.00192766596158679,0.00822209007913122,0.0284739443756433,0.078072314886463,0.161940382100572,0.235409333025494,0.22101673382711,0.146281782231464,0.0747029919864561,0.0317248440067996,0.0117872945929292
"33",0,0,0,0,0,0,0,0,0,0,0,0,1.35479610393627e-24,4.31630975532438e-22,6.373351404809e-20,5.79121587745339e-18,3.62701567424204e-16,1.66233623579252e-14,5.78002445237836e-13,1.56077516710075e-11,3.32605587794589e-10,5.65981864878508e-09,7.76314905570561e-08,8.65480747375572e-07,7.9049563637355e-06,5.95738270064473e-05,0.000372195118315956,0.00192766773402277,0.00822211702139382,0.0284742743609584,0.07807561855326,0.161967248448598,0.235580467936315,0.221819810880601,0.148832007437586,0.0793202376952508,0.0353399269094649
"34",0,0,0,0,0,0,0,0,0,0,0,0,0,1.35479610393627e-24,4.31630975532438e-22,6.373351404809e-20,5.7912158774764e-18,3.62701567508181e-16,1.66233623841675e-14,5.78002449151325e-13,1.56077520308949e-11,3.32605610651427e-10,5.65981972397471e-09,7.76315299676243e-08,8.65481914511063e-07,7.90498484839034e-06,5.95744021939046e-05,0.000372204682049517,0.00192779807781555,0.0082235727496839,0.0284875978759561,0.0781746195352454,0.16254813494379,0.238142489664071,0.229680508441832,0.162950295020027,0.0894243505004154
"35",0,0,0,0,0,0,0,0,0,0,0,0,0,0,1.35479610393627e-24,4.31630975532438e-22,6.37335156436825e-20,5.79121747186177e-18,3.62701978834498e-16,1.66234173280727e-14,5.7800709609049e-13,1.56080254765694e-11,3.32617432964305e-10,5.66020913713993e-09,7.76415700280202e-08,8.65689020615561e-07,7.90846625017139e-06,5.96228148416871e-05,0.000372767895184395,0.00193331005337881,0.00826879249653625,0.0287936221688857,0.0798328519506993,0.169432059719335,0.258554909196641,0.266079358967967,0.186663846930662
"36",0,0,0,0,0,0,0,0,0,0,0,0,0,0,0,1.35479610393627e-24,4.31670103986247e-22,6.37536317976068e-20,5.79536254432601e-18,3.63189569274944e-16,1.66611502587836e-14,5.80075844855661e-13,1.56920023290258e-11,3.35214320134755e-10,5.72261545627894e-09,7.88251128946608e-08,8.83651589056775e-07,8.12987075623146e-06,6.18759971764618e-05,0.000391997220761832,0.0020719214583352,0.00910485671189375,0.0329014904486921,0.0956239827072647,0.213958328668525,0.335979538280907,0.309896910084868
"37",0,0,0,0,0,0,0,0,0,0,0,0,0,0,0,0,1.77110958142706e-24,5.88125946066344e-22,9.04136984379161e-20,8.54355391346672e-18,5.55713497978036e-16,2.64106763464827e-14,9.50449929681501e-13,2.65017527107982e-11,5.8156267244948e-10,1.01589194891875e-08,1.42598931668267e-07,1.62326465502916e-06,1.51365893420932e-05,0.000116832005398293,0.000752186066040236,0.00403881981068781,0.0178817762494431,0.0638191266664026,0.176489497337537,0.345252795401886,0.391632053241715
