"","X0","X1","X2","X3","X4","X5","X6","X7","X8","X9","X10","X11","X12","X13","X14","X15","X16","X17","X18","X19","X20","X21","X22","X23","X24","X25","X26","X27","X28","X29","X30","X31","X32","X33","X34","X35","X36"
"1",0.472656914975555,0.354000763316237,0.137932286690547,0.0307187418254694,0.00427759193841747,0.000389247456757764,2.34984750001083e-05,9.31712465431158e-07,2.32759365471324e-08,3.31564935369739e-10,2.04970963872962e-12,0,0,0,0,0,0,0,0,0,0,0,0,0,0,0,0,0,0,0,0,0,0,0,0,0,0
"2",0.0946486941485418,0.388794778221174,0.344407722508473,0.136810887008638,0.0306487589925693,0.00427548200011072,0.000389223323476478,2.34984750001083e-05,9.31712465431158e-07,2.32759365471324e-08,3.31564935369739e-10,2.04970963872962e-12,0,0,0,0,0,0,0,0,0,0,0,0,0,0,0,0,0,0,0,0,0,0,0,0,0
"3",0.0193389494221535,0.075493558916905,0.388616880132184,0.344401889149625,0.136810804265959,0.0306487589925693,0.00427548200011072,0.000389223323476478,2.34984750001083e-05,9.31712465431158e-07,2.32759365471324e-08,3.31564935369739e-10,2.04970963872962e-12,0,0,0,0,0,0,0,0,0,0,0,0,0,0,0,0,0,0,0,0,0,0,0,0
"4",0.00200428758703698,0.0173358616039576,0.0754923591480639,0.388616880132184,0.344401889149625,0.136810804265959,0.0306487589925693,0.00427548200011072,0.000389223323476478,2.34984750001083e-05,9.31712465431158e-07,2.32759365471324e-08,3.31564935369739e-10,2.04970963872962e-12,0,0,0,0,0,0,0,0,0,0,0,0,0,0,0,0,0,0,0,0,0,0,0
"5",8.4150634027124e-05,0.00192013695300985,0.0173358616039576,0.0754923591480639,0.388616880132184,0.344401889149625,0.136810804265959,0.0306487589925693,0.00427548200011072,0.000389223323476478,2.34984750001083e-05,9.31712465431158e-07,2.32759365471324e-08,3.31564935369739e-10,2.04970963872962e-12,0,0,0,0,0,0,0,0,0,0,0,0,0,0,0,0,0,0,0,0,0,0
"6",1.19976884109544e-06,8.29508651860285e-05,0.00192013695300985,0.0173358616039576,0.0754923591480639,0.388616880132184,0.344401889149625,0.136810804265959,0.0306487589925693,0.00427548200011072,0.000389223323476478,2.34984750001083e-05,9.31712465431158e-07,2.32759365471324e-08,3.31564935369739e-10,2.04970963872962e-12,0,0,0,0,0,0,0,0,0,0,0,0,0,0,0,0,0,0,0,0,0
"7",0,1.19976884109544e-06,8.29508651860285e-05,0.00192013695300985,0.0173358616039576,0.0754923591480639,0.388616880132184,0.344401889149625,0.136810804265959,0.0306487589925693,0.00427548200011072,0.000389223323476478,2.34984750001083e-05,9.31712465431158e-07,2.32759365471324e-08,3.31564935369739e-10,2.04970963872962e-12,0,0,0,0,0,0,0,0,0,0,0,0,0,0,0,0,0,0,0,0
"8",0,0,1.19976884109544e-06,8.29508651860285e-05,0.00192013695300985,0.0173358616039576,0.0754923591480639,0.388616880132184,0.344401889149625,0.136810804265959,0.0306487589925693,0.00427548200011072,0.000389223323476478,2.34984750001083e-05,9.31712465431158e-07,2.32759365471324e-08,3.31564935369739e-10,2.04970963872962e-12,0,0,0,0,0,0,0,0,0,0,0,0,0,0,0,0,0,0,0
"9",0,0,0,1.19976884109544e-06,8.29508651860285e-05,0.00192013695300985,0.0173358616039576,0.0754923591480639,0.388616880132184,0.344401889149625,0.136810804265959,0.0306487589925693,0.00427548200011072,0.000389223323476478,2.34984750001083e-05,9.31712465431158e-07,2.32759365471324e-08,3.31564935369739e-10,2.04970963872962e-12,0,0,0,0,0,0,0,0,0,0,0,0,0,0,0,0,0,0
"10",0,0,0,0,1.19976884109544e-06,8.29508651860285e-05,0.00192013695300985,0.0173358616039576,0.0754923591480639,0.388616880132184,0.344401889149625,0.136810804265959,0.0306487589925693,0.00427548200011072,0.000389223323476478,2.34984750001083e-05,9.31712465431158e-07,2.32759365471324e-08,3.31564935369739e-10,2.04970963872962e-12,0,0,0,0,0,0,0,0,0,0,0,0,0,0,0,0,0
"11",0,0,0,0,0,1.19976884109544e-06,8.29508651860285e-05,0.00192013695300985,0.0173358616039576,0.0754923591480639,0.388616880132184,0.344401889149625,0.136810804265959,0.0306487589925693,0.00427548200011072,0.000389223323476478,2.34984750001083e-05,9.31712465431158e-07,2.32759365471324e-08,3.31564935369739e-10,2.04970963872962e-12,0,0,0,0,0,0,0,0,0,0,0,0,0,0,0,0
"12",0,0,0,0,0,0,1.19976884109544e-06,8.29508651860285e-05,0.00192013695300985,0.0173358616039576,0.0754923591480639,0.388616880132184,0.344401889149625,0.136810804265959,0.0306487589925693,0.00427548200011072,0.000389223323476478,2.34984750001083e-05,9.31712465431158e-07,2.32759365471324e-08,3.31564935369739e-10,2.04970963872962e-12,0,0,0,0,0,0,0,0,0,0,0,0,0,0,0
"13",0,0,0,0,0,0,0,1.19976884109544e-06,8.29508651860285e-05,0.00192013695300985,0.0173358616039576,0.0754923591480639,0.388616880132184,0.344401889149625,0.136810804265959,0.0306487589925693,0.00427548200011072,0.000389223323476478,2.34984750001083e-05,9.31712465431158e-07,2.32759365471324e-08,3.31564935369739e-10,2.04970963872962e-12,0,0,0,0,0,0,0,0,0,0,0,0,0,0
"14",0,0,0,0,0,0,0,0,1.19976884109544e-06,8.29508651860285e-05,0.00192013695300985,0.0173358616039576,0.0754923591480639,0.388616880132184,0.344401889149625,0.136810804265959,0.0306487589925693,0.00427548200011072,0.000389223323476478,2.34984750001083e-05,9.31712465431158e-07,2.32759365471324e-08,3.31564935369739e-10,2.04970963872962e-12,0,0,0,0,0,0,0,0,0,0,0,0,0
"15",0,0,0,0,0,0,0,0,0,1.19976884109544e-06,8.29508651860285e-05,0.00192013695300985,0.0173358616039576,0.0754923591480639,0.388616880132184,0.344401889149625,0.136810804265959,0.0306487589925693,0.00427548200011072,0.000389223323476478,2.34984750001083e-05,9.31712465431158e-07,2.32759365471324e-08,3.31564935369739e-10,2.04970963872962e-12,0,0,0,0,0,0,0,0,0,0,0,0
"16",0,0,0,0,0,0,0,0,0,0,1.19976884109544e-06,8.29508651860285e-05,0.00192013695300985,0.0173358616039576,0.0754923591480639,0.388616880132184,0.344401889149625,0.136810804265959,0.0306487589925693,0.00427548200011072,0.000389223323476478,2.34984750001083e-05,9.31712465431158e-07,2.32759365471324e-08,3.31564935369739e-10,2.04970963872962e-12,0,0,0,0,0,0,0,0,0,0,0
"17",0,0,0,0,0,0,0,0,0,0,0,1.19976884109544e-06,8.29508651860285e-05,0.00192013695300985,0.0173358616039576,0.0754923591480639,0.388616880132184,0.344401889149625,0.136810804265959,0.0306487589925693,0.00427548200011072,0.000389223323476478,2.34984750001083e-05,9.31712465431158e-07,2.32759365471324e-08,3.31564935369739e-10,2.04970963872962e-12,0,0,0,0,0,0,0,0,0,0
"18",0,0,0,0,0,0,0,0,0,0,0,0,1.19976884109544e-06,8.29508651860285e-05,0.00192013695300985,0.0173358616039576,0.0754923591480639,0.388616880132184,0.344401889149625,0.136810804265959,0.0306487589925693,0.00427548200011072,0.000389223323476478,2.34984750001083e-05,9.31712465431158e-07,2.32759365471324e-08,3.31564935369739e-10,2.04970963872962e-12,0,0,0,0,0,0,0,0,0
"19",0,0,0,0,0,0,0,0,0,0,0,0,0,1.19976884109544e-06,8.29508651860285e-05,0.00192013695300985,0.0173358616039576,0.0754923591480639,0.388616880132184,0.344401889149625,0.136810804265959,0.0306487589925693,0.00427548200011072,0.000389223323476478,2.34984750001083e-05,9.31712465431158e-07,2.32759365471324e-08,3.31564935369739e-10,2.04970963872962e-12,0,0,0,0,0,0,0,0
"20",0,0,0,0,0,0,0,0,0,0,0,0,0,0,1.19976884109544e-06,8.29508651860285e-05,0.00192013695300985,0.0173358616039576,0.0754923591480639,0.388616880132184,0.344401889149625,0.136810804265959,0.0306487589925693,0.00427548200011072,0.000389223323476478,2.34984750001083e-05,9.31712465431158e-07,2.32759365471324e-08,3.31564935369739e-10,2.04970963872962e-12,0,0,0,0,0,0,0
"21",0,0,0,0,0,0,0,0,0,0,0,0,0,0,0,1.19976884109544e-06,8.29508651860285e-05,0.00192013695300985,0.0173358616039576,0.0754923591480639,0.388616880132184,0.344401889149625,0.136810804265959,0.0306487589925693,0.00427548200011072,0.000389223323476478,2.34984750001083e-05,9.31712465431158e-07,2.32759365471324e-08,3.31564935369739e-10,2.04970963872962e-12,0,0,0,0,0,0
"22",0,0,0,0,0,0,0,0,0,0,0,0,0,0,0,0,1.19976884109544e-06,8.29508651860285e-05,0.00192013695300985,0.0173358616039576,0.0754923591480639,0.388616880132184,0.344401889149625,0.136810804265959,0.0306487589925693,0.00427548200011072,0.000389223323476478,2.34984750001083e-05,9.31712465431158e-07,2.32759365471324e-08,3.31564935369739e-10,2.04970963872962e-12,0,0,0,0,0
"23",0,0,0,0,0,0,0,0,0,0,0,0,0,0,0,0,0,1.19976884109544e-06,8.29508651860285e-05,0.00192013695300985,0.0173358616039576,0.0754923591480639,0.388616880132184,0.344401889149625,0.136810804265959,0.0306487589925693,0.00427548200011072,0.000389223323476478,2.34984750001083e-05,9.31712465431158e-07,2.32759365471324e-08,3.31564935369739e-10,2.04970963872962e-12,0,0,0,0
"24",0,0,0,0,0,0,0,0,0,0,0,0,0,0,0,0,0,0,1.19976884109544e-06,8.29508651860285e-05,0.00192013695300985,0.0173358616039576,0.0754923591480639,0.388616880132184,0.344401889149625,0.136810804265959,0.0306487589925693,0.00427548200011072,0.000389223323476478,2.34984750001083e-05,9.31712465431158e-07,2.32759365471324e-08,3.31564935369739e-10,2.04970963872962e-12,0,0,0
"25",0,0,0,0,0,0,0,0,0,0,0,0,0,0,0,0,0,0,0,1.19976884109544e-06,8.29508651860285e-05,0.00192013695300985,0.0173358616039576,0.0754923591480639,0.388616880132184,0.344401889149625,0.136810804265959,0.0306487589925693,0.00427548200011072,0.000389223323476478,2.34984750001083e-05,9.31712465431158e-07,2.32759365471324e-08,3.31564935369739e-10,2.04970963872962e-12,0,0
"26",0,0,0,0,0,0,0,0,0,0,0,0,0,0,0,0,0,0,0,0,1.19976884109544e-06,8.29508651860285e-05,0.00192013695300985,0.0173358616039576,0.0754923591480639,0.388616880132184,0.344401889149625,0.136810804265959,0.0306487589925693,0.00427548200011072,0.000389223323476478,2.34984750001083e-05,9.31712465431158e-07,2.32759365471324e-08,3.31564935369739e-10,2.04970963872962e-12,0
"27",0,0,0,0,0,0,0,0,0,0,0,0,0,0,0,0,0,0,0,0,0,1.19976884109544e-06,8.29508651860285e-05,0.00192013695300985,0.0173358616039576,0.0754923591480639,0.388616880132184,0.344401889149625,0.136810804265959,0.0306487589925693,0.00427548200011072,0.000389223323476478,2.34984750001083e-05,9.31712465431158e-07,2.32759365471324e-08,3.31564935369739e-10,2.04970963872962e-12
"28",0,0,0,0,0,0,0,0,0,0,0,0,0,0,0,0,0,0,0,0,0,0,1.19976884109544e-06,8.29508651860285e-05,0.00192013695300985,0.0173358616039576,0.0754923591480639,0.388616880132184,0.344401889149625,0.136810804265959,0.0306487589925693,0.00427548200011072,0.000389223323476478,2.34984750001083e-05,9.31712465431158e-07,2.32759365471324e-08,3.33614645008469e-10
"29",0,0,0,0,0,0,0,0,0,0,0,0,0,0,0,0,0,0,0,0,0,0,0,1.19976884109544e-06,8.29508651860285e-05,0.00192013695300985,0.0173358616039576,0.0754923591480639,0.388616880132184,0.344401889149625,0.136810804265959,0.0306487589925693,0.00427548200011072,0.000389223323476478,2.3498477049818e-05,9.31712465431158e-07,2.36075014825022e-08
"30",0,0,0,0,0,0,0,0,0,0,0,0,0,0,0,0,0,0,0,0,0,0,0,0,1.19976884109544e-06,8.29508651860285e-05,0.00192013695300985,0.0173358616039576,0.0754923591480639,0.388616880132184,0.344401889149625,0.136810804265959,0.0306487589925693,0.00427548200216043,0.000389223599699253,2.34985323919782e-05,9.54986352268652e-07
"31",0,0,0,0,0,0,0,0,0,0,0,0,0,0,0,0,0,0,0,0,0,0,0,0,0,1.19976884109544e-06,8.29508651860285e-05,0.00192013695300985,0.0173358616039576,0.0754923591480639,0.388616880132184,0.344401889149625,0.136810804265959,0.0306487592093505,0.0042754978733745,0.000389229452791534,2.44315776567007e-05
"32",0,0,0,0,0,0,0,0,0,0,0,0,0,0,0,0,0,0,0,0,0,0,0,0,0,0,1.19976884109544e-06,8.29508651860285e-05,0.00192013695300985,0.0173358616039576,0.0754923591480639,0.388616880132184,0.344401889179346,0.136810814712422,0.0306492703873889,0.00427577912539528,0.000412858124205914
"33",0,0,0,0,0,0,0,0,0,0,0,0,0,0,0,0,0,0,0,0,0,0,0,0,0,0,0,1.19976884109544e-06,8.29508651860285e-05,0.00192013695300985,0.0173358616039576,0.0754923591480639,0.388616882443329,0.344402188596191,0.136821007728377,0.0306572922412908,0.00467012065175303
"34",0,0,0,0,0,0,0,0,0,0,0,0,0,0,0,0,0,0,0,0,0,0,0,0,0,0,0,0,1.19976884109544e-06,8.29508651860285e-05,0.00192013695300985,0.0173358616243376,0.0754924284320978,0.388622263999904,0.344532960201234,0.136964424209614,0.0350477739457751
"35",0,0,0,0,0,0,0,0,0,0,0,0,0,0,0,0,0,0,0,0,0,0,0,0,0,0,0,0,0,1.19976884109544e-06,8.29508651860285e-05,0.00192013836602111,0.0173369210828235,0.0755525589766615,0.389706329254311,0.346126848027112,0.169273053659043
"36",0,0,0,0,0,0,0,0,0,0,0,0,0,0,0,0,0,0,0,0,0,0,0,0,0,0,0,0,0,0,1.19976884109544e-06,8.29855162302288e-05,0.00192930875684997,0.0177430748912057,0.0812329607588624,0.400399586265984,0.498610884042027
"37",0,0,0,0,0,0,0,0,0,0,0,0,0,0,0,0,0,0,0,0,0,0,0,0,0,0,0,0,0,0,0,1.56844419893735e-06,0.000129570166819398,0.00352297243035322,0.0357141110268814,0.122734961366318,0.837896816565429
