"","X0","X1","X2","X3","X4","X5","X6","X7","X8","X9","X10","X11","X12","X13","X14","X15","X16","X17","X18","X19","X20","X21","X22","X23","X24","X25","X26","X27","X28","X29","X30","X31","X32","X33","X34","X35","X36"
"1",0.502013503198079,0.375432955528215,0.106641458538356,0.0148227024649377,0.0010525804230439,3.63266098949284e-05,4.73237473817305e-07,0,0,0,0,0,0,0,0,0,0,0,0,0,0,0,0,0,0,0,0,0,0,0,0,0,0,0,0,0,0
"2",0.019103650343057,0.488481750871747,0.36986105751149,0.106641458538356,0.0148227024649377,0.0010525804230439,3.63266098949284e-05,4.73237473817305e-07,0,0,0,0,0,0,0,0,0,0,0,0,0,0,0,0,0,0,0,0,0,0,0,0,0,0,0,0,0
"3",0,0.019103650343057,0.488481750871747,0.36986105751149,0.106641458538356,0.0148227024649377,0.0010525804230439,3.63266098949284e-05,4.73237473817305e-07,0,0,0,0,0,0,0,0,0,0,0,0,0,0,0,0,0,0,0,0,0,0,0,0,0,0,0,0
"4",0,0,0.019103650343057,0.488481750871747,0.36986105751149,0.106641458538356,0.0148227024649377,0.0010525804230439,3.63266098949284e-05,4.73237473817305e-07,0,0,0,0,0,0,0,0,0,0,0,0,0,0,0,0,0,0,0,0,0,0,0,0,0,0,0
"5",0,0,0,0.019103650343057,0.488481750871747,0.36986105751149,0.106641458538356,0.0148227024649377,0.0010525804230439,3.63266098949284e-05,4.73237473817305e-07,0,0,0,0,0,0,0,0,0,0,0,0,0,0,0,0,0,0,0,0,0,0,0,0,0,0
"6",0,0,0,0,0.019103650343057,0.488481750871747,0.36986105751149,0.106641458538356,0.0148227024649377,0.0010525804230439,3.63266098949284e-05,4.73237473817305e-07,0,0,0,0,0,0,0,0,0,0,0,0,0,0,0,0,0,0,0,0,0,0,0,0,0
"7",0,0,0,0,0,0.019103650343057,0.488481750871747,0.36986105751149,0.106641458538356,0.0148227024649377,0.0010525804230439,3.63266098949284e-05,4.73237473817305e-07,0,0,0,0,0,0,0,0,0,0,0,0,0,0,0,0,0,0,0,0,0,0,0,0
"8",0,0,0,0,0,0,0.019103650343057,0.488481750871747,0.36986105751149,0.106641458538356,0.0148227024649377,0.0010525804230439,3.63266098949284e-05,4.73237473817305e-07,0,0,0,0,0,0,0,0,0,0,0,0,0,0,0,0,0,0,0,0,0,0,0
"9",0,0,0,0,0,0,0,0.019103650343057,0.488481750871747,0.36986105751149,0.106641458538356,0.0148227024649377,0.0010525804230439,3.63266098949284e-05,4.73237473817305e-07,0,0,0,0,0,0,0,0,0,0,0,0,0,0,0,0,0,0,0,0,0,0
"10",0,0,0,0,0,0,0,0,0.019103650343057,0.488481750871747,0.36986105751149,0.106641458538356,0.0148227024649377,0.0010525804230439,3.63266098949284e-05,4.73237473817305e-07,0,0,0,0,0,0,0,0,0,0,0,0,0,0,0,0,0,0,0,0,0
"11",0,0,0,0,0,0,0,0,0,0.019103650343057,0.488481750871747,0.36986105751149,0.106641458538356,0.0148227024649377,0.0010525804230439,3.63266098949284e-05,4.73237473817305e-07,0,0,0,0,0,0,0,0,0,0,0,0,0,0,0,0,0,0,0,0
"12",0,0,0,0,0,0,0,0,0,0,0.019103650343057,0.488481750871747,0.36986105751149,0.106641458538356,0.0148227024649377,0.0010525804230439,3.63266098949284e-05,4.73237473817305e-07,0,0,0,0,0,0,0,0,0,0,0,0,0,0,0,0,0,0,0
"13",0,0,0,0,0,0,0,0,0,0,0,0.019103650343057,0.488481750871747,0.36986105751149,0.106641458538356,0.0148227024649377,0.0010525804230439,3.63266098949284e-05,4.73237473817305e-07,0,0,0,0,0,0,0,0,0,0,0,0,0,0,0,0,0,0
"14",0,0,0,0,0,0,0,0,0,0,0,0,0.019103650343057,0.488481750871747,0.36986105751149,0.106641458538356,0.0148227024649377,0.0010525804230439,3.63266098949284e-05,4.73237473817305e-07,0,0,0,0,0,0,0,0,0,0,0,0,0,0,0,0,0
"15",0,0,0,0,0,0,0,0,0,0,0,0,0,0.019103650343057,0.488481750871747,0.36986105751149,0.106641458538356,0.0148227024649377,0.0010525804230439,3.63266098949284e-05,4.73237473817305e-07,0,0,0,0,0,0,0,0,0,0,0,0,0,0,0,0
"16",0,0,0,0,0,0,0,0,0,0,0,0,0,0,0.019103650343057,0.488481750871747,0.36986105751149,0.106641458538356,0.0148227024649377,0.0010525804230439,3.63266098949284e-05,4.73237473817305e-07,0,0,0,0,0,0,0,0,0,0,0,0,0,0,0
"17",0,0,0,0,0,0,0,0,0,0,0,0,0,0,0,0.019103650343057,0.488481750871747,0.36986105751149,0.106641458538356,0.0148227024649377,0.0010525804230439,3.63266098949284e-05,4.73237473817305e-07,0,0,0,0,0,0,0,0,0,0,0,0,0,0
"18",0,0,0,0,0,0,0,0,0,0,0,0,0,0,0,0,0.019103650343057,0.488481750871747,0.36986105751149,0.106641458538356,0.0148227024649377,0.0010525804230439,3.63266098949284e-05,4.73237473817305e-07,0,0,0,0,0,0,0,0,0,0,0,0,0
"19",0,0,0,0,0,0,0,0,0,0,0,0,0,0,0,0,0,0.019103650343057,0.488481750871747,0.36986105751149,0.106641458538356,0.0148227024649377,0.0010525804230439,3.63266098949284e-05,4.73237473817305e-07,0,0,0,0,0,0,0,0,0,0,0,0
"20",0,0,0,0,0,0,0,0,0,0,0,0,0,0,0,0,0,0,0.019103650343057,0.488481750871747,0.36986105751149,0.106641458538356,0.0148227024649377,0.0010525804230439,3.63266098949284e-05,4.73237473817305e-07,0,0,0,0,0,0,0,0,0,0,0
"21",0,0,0,0,0,0,0,0,0,0,0,0,0,0,0,0,0,0,0,0.019103650343057,0.488481750871747,0.36986105751149,0.106641458538356,0.0148227024649377,0.0010525804230439,3.63266098949284e-05,4.73237473817305e-07,0,0,0,0,0,0,0,0,0,0
"22",0,0,0,0,0,0,0,0,0,0,0,0,0,0,0,0,0,0,0,0,0.019103650343057,0.488481750871747,0.36986105751149,0.106641458538356,0.0148227024649377,0.0010525804230439,3.63266098949284e-05,4.73237473817305e-07,0,0,0,0,0,0,0,0,0
"23",0,0,0,0,0,0,0,0,0,0,0,0,0,0,0,0,0,0,0,0,0,0.019103650343057,0.488481750871747,0.36986105751149,0.106641458538356,0.0148227024649377,0.0010525804230439,3.63266098949284e-05,4.73237473817305e-07,0,0,0,0,0,0,0,0
"24",0,0,0,0,0,0,0,0,0,0,0,0,0,0,0,0,0,0,0,0,0,0,0.019103650343057,0.488481750871747,0.36986105751149,0.106641458538356,0.0148227024649377,0.0010525804230439,3.63266098949284e-05,4.73237473817305e-07,0,0,0,0,0,0,0
"25",0,0,0,0,0,0,0,0,0,0,0,0,0,0,0,0,0,0,0,0,0,0,0,0.019103650343057,0.488481750871747,0.36986105751149,0.106641458538356,0.0148227024649377,0.0010525804230439,3.63266098949284e-05,4.73237473817305e-07,0,0,0,0,0,0
"26",0,0,0,0,0,0,0,0,0,0,0,0,0,0,0,0,0,0,0,0,0,0,0,0,0.019103650343057,0.488481750871747,0.36986105751149,0.106641458538356,0.0148227024649377,0.0010525804230439,3.63266098949284e-05,4.73237473817305e-07,0,0,0,0,0
"27",0,0,0,0,0,0,0,0,0,0,0,0,0,0,0,0,0,0,0,0,0,0,0,0,0,0.019103650343057,0.488481750871747,0.36986105751149,0.106641458538356,0.0148227024649377,0.0010525804230439,3.63266098949284e-05,4.73237473817305e-07,0,0,0,0
"28",0,0,0,0,0,0,0,0,0,0,0,0,0,0,0,0,0,0,0,0,0,0,0,0,0,0,0.019103650343057,0.488481750871747,0.36986105751149,0.106641458538356,0.0148227024649377,0.0010525804230439,3.63266098949284e-05,4.73237473817305e-07,0,0,0
"29",0,0,0,0,0,0,0,0,0,0,0,0,0,0,0,0,0,0,0,0,0,0,0,0,0,0,0,0.019103650343057,0.488481750871747,0.36986105751149,0.106641458538356,0.0148227024649377,0.0010525804230439,3.63266098949284e-05,4.73237473817305e-07,0,0
"30",0,0,0,0,0,0,0,0,0,0,0,0,0,0,0,0,0,0,0,0,0,0,0,0,0,0,0,0,0.019103650343057,0.488481750871747,0.36986105751149,0.106641458538356,0.0148227024649377,0.0010525804230439,3.63266098949284e-05,4.73237473817305e-07,0
"31",0,0,0,0,0,0,0,0,0,0,0,0,0,0,0,0,0,0,0,0,0,0,0,0,0,0,0,0,0,0.019103650343057,0.488481750871747,0.36986105751149,0.106641458538356,0.0148227024649377,0.0010525804230439,3.63266098949284e-05,4.73237473817305e-07
"32",0,0,0,0,0,0,0,0,0,0,0,0,0,0,0,0,0,0,0,0,0,0,0,0,0,0,0,0,0,0,0.019103650343057,0.488481750871747,0.36986105751149,0.106641458538356,0.0148227024649377,0.0010525804230439,3.67998473687457e-05
"33",0,0,0,0,0,0,0,0,0,0,0,0,0,0,0,0,0,0,0,0,0,0,0,0,0,0,0,0,0,0,0,0.019103650343057,0.488481750871747,0.36986105751149,0.106641458538356,0.0148227024649377,0.00108938027041265
"34",0,0,0,0,0,0,0,0,0,0,0,0,0,0,0,0,0,0,0,0,0,0,0,0,0,0,0,0,0,0,0,0,0.019103650343057,0.488481750871747,0.36986105751149,0.106641783044052,0.015911758229654
"35",0,0,0,0,0,0,0,0,0,0,0,0,0,0,0,0,0,0,0,0,0,0,0,0,0,0,0,0,0,0,0,0,0,0.019103650343057,0.488481750871747,0.369883556573102,0.122531042212094
"36",0,0,0,0,0,0,0,0,0,0,0,0,0,0,0,0,0,0,0,0,0,0,0,0,0,0,0,0,0,0,0,0,0,0,0.019103650343057,0.489033491681935,0.491862857975008
"37",0,0,0,0,0,0,0,0,0,0,0,0,0,0,0,0,0,0,0,0,0,0,0,0,0,0,0,0,0,0,0,0,0,0,0,0.0249739854318418,0.975026014568158
