"","X0","X1","X2","X3","X4","X5","X6","X7","X8","X9","X10","X11","X12","X13","X14","X15","X16","X17","X18","X19","X20","X21","X22","X23","X24","X25","X26","X27","X28","X29","X30","X31","X32","X33","X34","X35","X36"
"1",0.391678099230281,0.268710459552055,0.155968209294308,0.0897082067413561,0.0494822160783931,0.0250993742430493,0.0115990255467653,0.0048899735329292,0.00188675928482106,0.000668611385397704,0.000218362082546902,6.59368828541979e-05,1.84623271329185e-05,4.80558166613574e-06,1.16528283461127e-06,2.63693885556614e-07,5.57635020245564e-08,1.10313421778961e-08,2.04286458510239e-09,3.54285360890416e-10,5.75452891253022e-11,8.75236820640301e-12,1.24593686462752e-12,1.65881459995761e-13,2.06343214270324e-14,2.39505327779794e-15,2.58998922034487e-16,2.60463400480952e-17,2.43082022942586e-18,2.10034940360589e-19,1.67580148609739e-20,1.23109290200671e-21,8.30091397295744e-23,5.11963684114261e-24,2.87750767100228e-25,1.46811230270403e-26,7.03916453309041e-28
"2",0.326644305201137,0.241298016722228,0.163084743993625,0.112189980485658,0.07303741746457,0.0429624942605395,0.0226607693410537,0.0107541495017177,0.0046177533440712,0.00180449265404033,0.000645183125852052,0.000212068832988135,6.4344320644829e-05,1.80834242265954e-05,4.72099770142436e-06,1.14759647854526e-06,2.60234336729303e-07,5.51310562477636e-08,1.09233637501923e-08,2.02565853496479e-09,3.5172821761859e-10,5.71911341055447e-11,8.70670818068245e-12,1.24046407368533e-12,1.6527260950192e-13,2.0571572469718e-14,2.38907575843207e-15,2.5847395516388e-16,2.60039599311073e-17,2.42768572668357e-18,2.09823334849023e-19,1.67450307771065e-20,1.23037217707629e-21,8.29731405704193e-23,5.11802985853175e-24,2.87733662966149e-25,1.53346087880367e-26
"3",0.246119136394512,0.200785587728667,0.162564468121853,0.134790361526395,0.103259564679991,0.0700840194098536,0.042006724136254,0.0223743261649017,0.0106748205364896,0.00459718997073219,0.00179944356802984,0.000644000105703241,0.000211803659889477,6.42875361625263e-05,1.80718528713592e-05,4.71876533961219e-06,1.14719086113165e-06,2.60165240718216e-07,5.51200626706063e-08,1.09217350502416e-08,2.02543444975827e-09,3.51699656605523e-10,5.7187770546365e-11,8.70634321943961e-12,1.24042770709093e-12,1.65269293989762e-13,2.05712970738808e-14,2.38905501545424e-15,2.58472545763629e-16,2.60038740278408e-17,2.42768105777261e-18,2.09823109960061e-19,1.67450212377609e-20,1.23037182411035e-21,8.29731625241428e-23,5.11909144174463e-24,3.01971609536076e-25
"4",0.168200459914678,0.153369359125565,0.148221708088194,0.145842897642416,0.130360750069718,0.102008884097443,0.0697253309086327,0.0419107554825755,0.0223508025536488,0.0106694844875845,0.00459605281878243,0.00179921269904338,0.000643954950034451,0.000211795088537886,6.42859537838173e-05,1.80715697788671e-05,4.71871664583611e-06,1.14718288442018e-06,2.60164007213116e-07,5.51198838942697e-08,1.09217108990588e-08,2.02543142188291e-09,3.51699305635516e-10,5.71877330717533e-11,8.70633954795267e-12,1.24042737846741e-12,1.65269267248695e-13,2.05712951065475e-14,2.38905488540898e-15,2.58472538093337e-16,2.60038736272758e-17,2.42768103941178e-18,2.09823109234678e-19,1.67450212469786e-20,1.2303725669375e-21,8.29949496560571e-23,5.39848899936815e-24
"5",0.104728960989882,0.10709736121357,0.12157407565575,0.139094591080392,0.143794171571574,0.129870074121373,0.101883602626703,0.0696949323908543,0.0419040356630486,0.0223494470927667,0.0106692322229784,0.00459600903058278,0.00179920554077954,0.000643953835178965,0.000211794920573961,6.42859289094163e-05,1.80715661224045e-05,4.71871611336442e-06,1.14718280854734e-06,2.60163996807213e-07,5.51198825409409e-08,1.09217107340231e-08,2.02543140316265e-09,3.5169930367238e-10,5.71877328824339e-11,8.70633953124937e-12,1.24042737712647e-12,1.65269267151319e-13,2.05712951001928e-14,2.38905488503896e-15,2.58472538074285e-16,2.600387362648e-17,2.42768103959304e-18,2.09823110180197e-19,1.67450363050039e-20,1.23077798964809e-21,8.79717008740289e-23
"6",0.0596974881045948,0.0683564930520686,0.0895338452096648,0.116939738907158,0.138199856641773,0.143613911958345,0.129829239734535,0.101874517475174,0.0696930864492423,0.0419036956050887,0.0223493897098235,0.0106692232721745,0.00459600773692491,0.0017992053678541,0.000643953813786994,0.0002117949181031,6.42859286374617e-05,1.80715660929983e-05,4.71871611014604e-06,1.14718280818666e-06,2.60163996766392e-07,5.5119882536401e-08,1.09217107335396e-08,2.02543140311424e-09,3.51699303667881e-10,5.71877328820493e-11,8.70633953121935e-12,1.24042737712434e-12,1.65269267151184e-13,2.05712951001853e-14,2.38905488503924e-15,2.5847253807629e-16,2.6003873632705e-17,2.42768106336764e-18,2.09823389071897e-19,1.67519067764495e-20,1.31156741893011e-21
"7",0.031295361091753,0.0399638553619985,0.0594422234751723,0.0873365415434548,0.116567777487505,0.138137214735375,0.14360147432079,0.12982669826373,0.101874040090097,0.0696930056813684,0.0419036831405505,0.0223493879265937,0.0106692230343134,0.00459600770755328,0.00179920536453832,0.000643953813448259,0.00021179491807192,6.42859286348648e-05,1.80715660927992e-05,4.71871611013148e-06,1.14718280818559e-06,2.60163996766309e-07,5.51198825363942e-08,1.09217107335391e-08,2.0254314031142e-09,3.51699303667878e-10,5.7187732882049e-11,8.70633953121933e-12,1.24042737712434e-12,1.65269267151189e-13,2.05712951002033e-14,2.38905488509201e-15,2.58472538232901e-16,2.60038741716621e-17,2.42768581099068e-18,2.09929821783746e-19,1.79515216168282e-20
"8",0.0151496073882988,0.0214702476208758,0.0357870254049085,0.05846755382819,0.0871887408130118,0.116546955022135,0.138133649704331,0.143600805913438,0.129826581622561,0.101874021963998,0.0696930031437906,0.0419036828116754,0.0223493878863573,0.0106692230296759,0.00459600770705877,0.00179920536449052,0.000643953813444136,0.000211794918071606,6.42859286348438e-05,1.8071566092798e-05,4.71871611013141e-06,1.14718280818559e-06,2.60163996766309e-07,5.51198825363942e-08,1.09217107335391e-08,2.0254314031142e-09,3.51699303667878e-10,5.7187732882049e-11,8.70633953121936e-12,1.24042737712445e-12,1.65269267151607e-13,2.05712951014058e-14,2.38905488854829e-15,2.58472549223365e-16,2.60039487561825e-17,2.42919827886976e-18,2.26278080480514e-19
"9",0.00679557321396975,0.0106363131014566,0.0196567834854863,0.0353822095473275,0.0584113979591026,0.087182062485325,0.116545987671728,0.138133483896356,0.143600778791125,0.129826577723123,0.101874021470559,0.0696930030869227,0.0419036828054606,0.0223493878857024,0.0106692230296104,0.00459600770705273,0.00179920536449002,0.0006439538134441,0.000211794918071604,6.42859286348437e-05,1.8071566092798e-05,4.71871611013141e-06,1.14718280818559e-06,2.60163996766309e-07,5.51198825363942e-08,1.09217107335391e-08,2.0254314031142e-09,3.51699303667878e-10,5.71877328820496e-11,8.70633953122164e-12,1.24042737713302e-12,1.6526926717576e-13,2.05712951688831e-14,2.38905509012555e-15,2.58473633902254e-16,2.60237281127763e-17,2.63430753051695e-18
"10",0.00283275610411049,0.0048747403595575,0.00990461715077419,0.0194992922764593,0.0353618473620781,0.0584093193911501,0.0871818127709846,0.116545948958477,0.138133477900743,0.143600777981547,0.129826577629622,0.101874021461049,0.0696930030860214,0.041903682805377,0.0223493878856948,0.0106692230296097,0.00459600770705268,0.00179920536449002,0.0006439538134441,0.000211794918071604,6.42859286348437e-05,1.8071566092798e-05,4.71871611013141e-06,1.14718280818559e-06,2.60163996766309e-07,5.51198825363942e-08,1.09217107335391e-08,2.0254314031142e-09,3.51699303667889e-10,5.71877328820922e-11,8.70633953137718e-12,1.24042737756415e-12,1.65269268349979e-13,2.05712985009195e-14,2.38906972589796e-15,2.58712376251536e-16,2.83995080056072e-17
"11",0.00109995529024155,0.00207289862037306,0.00459977195800934,0.00984721438928036,0.0194922667622856,0.0353612178684301,0.0584092576546713,0.087181804301556,0.116545947709049,0.138133477739507,0.143600777964194,0.129826577628044,0.101874021460921,0.0696930030860113,0.0419036828053762,0.0223493878856947,0.0106692230296097,0.00459600770705268,0.00179920536449002,0.0006439538134441,0.000211794918071604,6.42859286348437e-05,1.8071566092798e-05,4.71871611013141e-06,1.14718280818559e-06,2.60163996766309e-07,5.51198825363942e-08,1.09217107335391e-08,2.02543140311438e-09,3.51699303668597e-10,5.71877328846167e-11,8.70633953826613e-12,1.24042739590095e-12,1.65269318148732e-13,2.05714820213911e-14,2.3917365822475e-15,2.84183012029367e-16
"12",0.000398603608929643,0.00081986139277571,0.00197649313394708,0.00458016895642581,0.00984491530268547,0.01949208139457,0.0353612031068327,0.058409255923644,0.0871818040588046,0.116545947678679,0.13813347773639,0.143600777963933,0.129826577628025,0.10187402146092,0.0696930030860113,0.0419036828053761,0.0223493878856947,0.0106692230296097,0.00459600770705268,0.00179920536449002,0.0006439538134441,0.000211794918071604,6.42859286348437e-05,1.8071566092798e-05,4.71871611013141e-06,1.14718280818559e-06,2.60163996766309e-07,5.51198825363949e-08,1.09217107335419e-08,2.02543140312496e-09,3.51699303705462e-10,5.71877329837761e-11,8.70633979677321e-12,1.24042807134518e-12,1.65271459045804e-13,2.05991176632327e-14,2.64505886648135e-15
"13",0.00013500246966645,0.000302215501227475,0.00078828752009009,0.00197022078763429,0.00457945751303294,0.00984486243679853,0.0194920779413903,0.0353612027757726,0.0584092558801008,0.0871818040534774,0.116545947678148,0.138133477736348,0.14360077796393,0.129826577628025,0.10187402146092,0.0696930030860113,0.0419036828053761,0.0223493878856947,0.0106692230296097,0.00459600770705268,0.00179920536449002,0.0006439538134441,0.000211794918071604,6.42859286348437e-05,1.8071566092798e-05,4.71871611013141e-06,1.14718280818559e-06,2.60163996766319e-07,5.51198825364332e-08,1.09217107336846e-08,2.02543140361194e-09,3.5169930499818e-10,5.71877362908574e-11,8.70634814275104e-12,1.24045132576955e-12,1.65537697635914e-13,2.29410579973675e-14
"14",4.27807976019026e-05,0.000103992958704454,0.000292547532268168,0.000786407217154395,0.00197001315194777,0.00457944299949207,0.00984486163913686,0.0194920778816459,0.0353612027686112,0.0584092558792418,0.0871818040533933,0.116545947678141,0.138133477736348,0.14360077796393,0.129826577628025,0.10187402146092,0.0696930030860113,0.0419036828053761,0.0223493878856947,0.0106692230296097,0.00459600770705268,0.00179920536449002,0.0006439538134441,0.000211794918071604,6.42859286348437e-05,1.8071566092798e-05,4.71871611013143e-06,1.14718280818571e-06,2.60163996766794e-07,5.511988253818e-08,1.09217107395315e-08,2.02543141894652e-09,3.51699343560998e-10,5.7187830578471e-11,8.70658347904441e-12,1.24284034538041e-12,1.85697996497753e-13
"15",1.26938838415142e-05,3.34451835195013e-05,0.000101223746147514,0.000292019510831978,0.000786350185251837,0.00197000934207387,0.00457944281706015,0.0098448616287948,0.0194920778805697,0.0353612027684851,0.0584092558792295,0.0871818040533924,0.116545947678141,0.138133477736348,0.14360077796393,0.129826577628025,0.10187402146092,0.0696930030860113,0.0419036828053761,0.0223493878856947,0.0106692230296097,0.00459600770705268,0.00179920536449002,0.0006439538134441,0.000211794918071604,6.42859286348438e-05,1.80715660927983e-05,4.7187161101328e-06,1.14718280819109e-06,2.60163996786283e-07,5.5119882602239e-08,1.09217109056993e-08,2.02543183036519e-09,3.51700320692359e-10,5.71900506608608e-11,8.72658276677484e-12,1.40467362492334e-12
"16",3.52849150669778e-06,1.00621354626818e-05,3.27030167068857e-05,0.000101084881287153,0.000292004792809665,0.000786349234837792,0.0019700093009793,0.00457944281530254,0.00984486162864692,0.019492077880553,0.0353612027684835,0.0584092558792294,0.0871818040533924,0.116545947678141,0.138133477736348,0.14360077796393,0.129826577628025,0.10187402146092,0.0696930030860113,0.0419036828053761,0.0223493878856947,0.0106692230296097,0.00459600770705268,0.00179920536449002,0.0006439538134441,0.000211794918071604,6.42859286348468e-05,1.80715660928125e-05,4.71871611018826e-06,1.14718280838988e-06,2.60163997428936e-07,5.51198842526371e-08,1.09217149345348e-08,2.02544114649162e-09,3.51719852004233e-10,5.73464505604981e-11,9.93941507545383e-12
"17",9.19048264678152e-07,2.83354222188857e-06,9.87602288411536e-06,3.26688274611249e-05,0.000101081317652596,0.000292004568630296,0.000786349225817262,0.00197000930067913,0.00457944281528383,0.00984486162864492,0.0194920778805528,0.0353612027684835,0.0584092558792294,0.0871818040533924,0.116545947678141,0.138133477736348,0.14360077796393,0.129826577628025,0.10187402146092,0.0696930030860113,0.0419036828053761,0.0223493878856947,0.0106692230296097,0.00459600770705268,0.00179920536449002,0.000643953813444105,0.000211794918071634,6.42859286349821e-05,1.80715660933368e-05,4.7187161120479e-06,1.14718281431097e-06,2.60164012496489e-07,5.51199205627148e-08,1.09217968545722e-08,2.0256014436634e-09,3.5286364569713e-10,6.58400014567572e-11
"18",2.24314219738313e-07,7.47131316720901e-07,2.7898816205257e-06,9.86814656479809e-06,3.26680188772057e-05,0.00010108126784646,0.00029200456672385,0.000786349225765115,0.00197000930067691,0.00457944281528362,0.0098448616286449,0.0194920778805528,0.0353612027684835,0.0584092558792294,0.0871818040533924,0.116545947678141,0.138133477736348,0.14360077796393,0.129826577628025,0.10187402146092,0.0696930030860113,0.0419036828053761,0.0223493878856947,0.0106692230296097,0.00459600770705269,0.00179920536449006,0.000643953813444363,0.000211794918072818,6.42859286395371e-05,1.80715661093334e-05,4.71871616227844e-06,1.14718294106738e-06,2.60164314358691e-07,5.5120586345757e-08,1.0923024472283e-08,2.03343015150505e-09,4.08480640063348e-10
"19",5.12953041545416e-08,1.84475991870991e-07,7.37553469402544e-07,2.78818490876349e-06,9.86797483303532e-06,3.26680084851104e-05,0.000101081267462549,0.00029200456671469,0.00078634922576486,0.00197000930067689,0.00457944281528362,0.0098448616286449,0.0194920778805528,0.0353612027684835,0.0584092558792294,0.0871818040533924,0.116545947678141,0.138133477736348,0.14360077796393,0.129826577628025,0.10187402146092,0.0696930030860113,0.0419036828053762,0.0223493878856947,0.0106692230296098,0.00459600770705308,0.00179920536449217,0.00064395381345392,0.000211794918109271,6.42859287663711e-05,1.80715665025501e-05,4.71871714689715e-06,1.14718526025947e-06,2.60169324059706e-07,5.51293605301104e-08,1.09731989763262e-08,2.37407997086964e-09
"20",1.09864742409006e-08,4.26501266397759e-08,1.82512397637336e-07,7.37211973926071e-07,2.7881508081248e-06,9.86797280137226e-06,3.26680084120234e-05,0.000101081267460953,0.00029200456671466,0.000786349225764858,0.00197000930067689,0.00457944281528362,0.0098448616286449,0.0194920778805528,0.0353612027684835,0.0584092558792294,0.0871818040533924,0.116545947678141,0.138133477736348,0.14360077796393,0.129826577628025,0.10187402146092,0.0696930030860113,0.0419036828053762,0.0223493878856952,0.0106692230296127,0.00459600770706894,0.00179920536456336,0.000643953813723348,0.000211794919038211,6.4285931612265e-05,1.80715735769602e-05,4.7187336387926e-06,1.1472202077703e-06,2.60227851928601e-07,5.54305365527223e-08,1.29249264132984e-08
"21",2.20284405753229e-09,9.23041373465397e-09,4.22742032028426e-08,1.82448245071673e-07,7.37205651150217e-07,2.78815043670624e-06,9.86797278829148e-06,3.26680084117537e-05,0.000101081267460949,0.00029200456671466,0.000786349225764858,0.00197000930067689,0.00457944281528362,0.0098448616286449,0.0194920778805528,0.0353612027684835,0.0584092558792294,0.0871818040533924,0.116545947678141,0.138133477736348,0.14360077796393,0.129826577628025,0.10187402146092,0.0696930030860117,0.0419036828053796,0.0223493878857163,0.0106692230297237,0.0045960077075603,0.00179920536640702,0.000643953820020476,0.00021179493811244,6.42859786953539e-05,1.8071682252405e-05,4.71895988541323e-06,1.14758451509646e-06,2.61920881988624e-07,6.58882780516605e-08
"22",4.13204895664743e-10,1.86917284344182e-09,9.16327356490451e-09,4.22629684056981e-08,1.82447151967594e-07,7.37205587775718e-07,2.78815043451409e-06,9.86797278824802e-06,3.26680084117532e-05,0.000101081267460949,0.00029200456671466,0.000786349225764858,0.00197000930067689,0.00457944281528362,0.0098448616286449,0.0194920778805528,0.0353612027684835,0.0584092558792294,0.0871818040533924,0.116545947678141,0.138133477736348,0.14360077796393,0.129826577628026,0.101874021460923,0.0696930030860354,0.0419036828055206,0.022349387886439,0.0106692230328761,0.00459600771927075,0.00179920540599442,0.000643953938589825,0.000211795228731365,6.42866429254395e-05,1.80730424420112e-05,4.72107521074048e-06,1.15649372726116e-06,3.14295673043081e-07
"23",7.24501696759427e-11,3.53945834076199e-10,1.85799957909093e-09,9.16144205950391e-09,4.2262792489705e-08,1.82447141894829e-07,7.37205587432808e-07,2.78815043450749e-06,9.86797278824796e-06,3.26680084117532e-05,0.000101081267460949,0.00029200456671466,0.000786349225764858,0.00197000930067689,0.00457944281528362,0.0098448616286449,0.0194920778805528,0.0353612027684835,0.0584092558792294,0.0871818040533924,0.116545947678142,0.138133477736348,0.143600777963934,0.129826577628051,0.101874021461081,0.0696930030869249,0.0419036828099382,0.0223493879053243,0.0106692231021359,0.00459600795057226,0.00179920609061054,0.00064395560406863,0.000211798996891956,6.42942395241414e-05,1.80844935844969e-05,4.76492985880898e-06,1.4014438148024e-06
"24",1.18621051931093e-11,6.26234694535255e-11,3.52215731610988e-10,1.85772211875137e-09,9.16141575629879e-09,4.22627910016189e-08,1.82447141844902e-07,7.3720558743187e-07,2.78815043450748e-06,9.86797278824796e-06,3.26680084117532e-05,0.000101081267460949,0.00029200456671466,0.000786349225764858,0.00197000930067689,0.00457944281528362,0.00984486162864491,0.0194920778805528,0.0353612027684835,0.0584092558792296,0.0871818040533936,0.116545947678148,0.138133477736381,0.143600777964116,0.129826577629075,0.101874021466464,0.0696930031124821,0.0419036829161973,0.0223493882882672,0.0106692243614914,0.00459601162836686,0.00179921496147066,0.000643975455052522,0.000211838411633864,6.43519863264541e-05,1.82861879842113e-05,5.83333734614579e-06
"25",1.81135618749199e-12,1.03424340191818e-11,6.2374624311694e-11,3.52176748412009e-10,1.85771847279417e-09,9.16141555245556e-09,4.22627909948719e-08,1.82447141844778e-07,7.37205587431868e-07,2.78815043450748e-06,9.86797278824796e-06,3.26680084117532e-05,0.000101081267460949,0.00029200456671466,0.000786349225764858,0.00197000930067689,0.00457944281528363,0.00984486162864499,0.0194920778805532,0.0353612027684859,0.0584092558792416,0.0871818040534501,0.116545947678417,0.138133477737703,0.143600777970698,0.129826577660698,0.101874021607796,0.0696930036780393,0.0419036849053787,0.0223493946983702,0.0106692427788933,0.00459605559054045,0.00179931210973834,0.000644165389841603,0.000212109384850789,6.52173036502544e-05,2.26246261173002e-05
"26",2.57600493465278e-13,1.59250002619828e-12,1.03092516667983e-11,6.23695563238231e-11,3.52176281098803e-10,1.85771844697449e-09,9.16141555161191e-09,4.22627909948566e-08,1.82447141844777e-07,7.37205587431868e-07,2.78815043450748e-06,9.86797278824796e-06,3.26680084117533e-05,0.00010108126746095,0.000292004566714663,0.000786349225764879,0.00197000930067702,0.00457944281528442,0.0098448616286493,0.0194920778805752,0.0353612027685909,0.0584092558797187,0.087181804055562,0.116545947687763,0.138133477779272,0.143600778152054,0.129826578414072,0.101874024476056,0.0696930134387055,0.0419037155215063,0.0223494808640825,0.0106694457302813,0.00459649736370551,0.00180016170020343,0.000645346792491145,0.00021556499235686,8.15802054603879e-05
"27",3.40624481194886e-14,2.28297367607429e-13,1.58840707086784e-12,1.030864363776e-11,6.23695010994908e-11,3.52176278084263e-10,1.85771844687721e-09,9.16141555161018e-09,4.22627909948566e-08,1.82447141844778e-07,7.37205587431872e-07,2.78815043450751e-06,9.86797278824831e-06,3.26680084117563e-05,0.000101081267460973,0.000292004566714828,0.000786349225765942,0.00197000930068331,0.00457944281531865,0.00984486162882195,0.0194920778813866,0.035361202772178,0.0584092558948746,0.0871818041179937,0.116545947941526,0.13813347879045,0.14360078203527,0.129826592348056,0.101874069941884,0.0696931511747994,0.0419040930313506,0.0223503546979428,0.0106713126733917,0.00460002173067547,0.00180493816842413,0.000658155768779976,0.000272714733259337
"28",4.18001023812811e-15,3.04217084473488e-14,2.2783154501658e-13,1.58833995365315e-12,1.03086376407428e-11,6.23695007762326e-11,3.5217627807396e-10,1.85771844687704e-09,9.16141555161035e-09,4.22627909948588e-08,1.82447141844804e-07,7.37205587432142e-07,2.78815043451005e-06,9.86797278826983e-06,3.26680084119219e-05,0.000101081267462134,0.000292004566722269,0.0007863492258097,0.00197000930092022,0.00457944281650409,0.00984486163432896,0.0194920779052964,0.0353612028702043,0.0584092562797155,0.0871818055818991,0.116545953348619,0.138133498057191,0.14360084692292,0.129826793927268,0.101874655285778,0.0696947031727428,0.0419076056330778,0.0223576861577154,0.0106848537078048,0.00461788602604304,0.00184884743082141,0.000842281388164123
"29",4.75045337312959e-16,3.76116577755062e-15,3.03729299198998e-14,2.27824751591684e-13,1.58833935745281e-12,1.03086376090345e-11,6.23695007752397e-11,3.52176278074024e-10,1.8577184468782e-09,9.16141555162517e-09,4.22627909950283e-08,1.82447141846545e-07,7.37205587448288e-07,2.78815043464562e-06,9.86797278930449e-06,3.26680084191239e-05,0.000101081267508004,0.000292004566990387,0.000786349227252285,0.00197000930808653,0.00457944284948908,0.00984486177565762,0.0194920784728676,0.035361205026828,0.0584092641055939,0.0871818328323677,0.116546044353114,0.138133786295039,0.14360169666784,0.129829145711716,0.101880648497855,0.0697078910370014,0.0419343454011388,0.0224057845504733,0.0107464674854897,0.00475643279283456,0.00239333028185697
"30",4.98805081429867e-17,4.30534863452932e-16,3.75648082610562e-15,3.03723017943084e-14,2.27824697556344e-13,1.58833935462281e-12,1.03086376089841e-11,6.23695007758038e-11,3.52176278081691e-10,1.85771844697203e-09,9.16141555266242e-09,4.2262791005405e-08,1.82447141940695e-07,7.37205588225081e-07,2.78815044048931e-06,9.86797282949557e-06,3.26680086724904e-05,0.00010108126897562,0.000292004574820273,0.000786349265820439,0.00197000948395624,0.00457944359435662,0.00984486471930343,0.0194920893948972,0.0353612433278505,0.0584093916366095,0.087182236732924,0.116547254928797,0.138137175575474,0.143610613043943,0.129850870853667,0.10192686600015,0.0697983651134073,0.0420918998863164,0.0226009702516433,0.011146377568704,0.00622459528508493
"31",4.82667321584098e-18,4.55226660425222e-17,4.30123545824121e-16,3.75642799314014e-15,3.03722973512849e-14,2.27824697345413e-13,1.58833935489693e-12,1.03086376129168e-11,6.23695008258729e-11,3.52176278661998e-10,1.85771845309797e-09,9.16141561161344e-09,4.2262791523207e-08,1.82447146098616e-07,7.3720561880203e-07,2.78815064679635e-06,9.86797410896849e-06,3.26680159792564e-05,0.000101081307466928,0.000292004762198007,0.000786350110367976,0.00197001301633469,0.00457945734568631,0.00984491474198937,0.0194922601717058,0.0353617924141616,0.0584110575297704,0.0871869968065769,0.116559953824229,0.138168934929126,0.143684351754205,0.130001763993672,0.102210243109215,0.0702726821792454,0.0426568914846244,0.0236483382330226,0.0147246147842742
"32",4.292176478851e-19,4.43471836510486e-18,4.54897751106131e-17,4.30119521682937e-16,3.75642767138261e-15,3.03722974670143e-14,2.27824699272949e-13,1.58833938042315e-12,1.03086379209977e-11,6.23695042216419e-11,3.52176312895646e-10,1.85771876917624e-09,9.16141828791981e-09,4.22628123325306e-08,1.82447294880121e-07,7.37206598276845e-07,2.78815659194158e-06,9.86800742172593e-06,3.26681885138021e-05,0.000101082134445171,0.000292008435225883,0.00078636524947689,0.00197007102797186,0.00457966449353535,0.00984560581350095,0.0194944187807572,0.035368113256449,0.0584283942399998,0.0872312684975823,0.116665452873816,0.138402055630147,0.144141407212048,0.130820344321663,0.103516337558308,0.0717568290812834,0.045118142354106,0.0314361413246118
"33",3.49727922862636e-20,3.96930855467985e-19,4.43233200872411e-18,4.54895018259579e-17,4.30119551674966e-16,3.75642847037209e-15,3.03723086360005e-14,2.2782484114752e-13,1.58834102460021e-12,1.03086553453723e-11,6.23696734272062e-11,3.52177821243479e-10,1.85773113198937e-09,9.16151159116896e-09,4.22634615932569e-08,1.82451465618531e-07,7.37231358794341e-07,2.78829257924617e-06,9.86869898403166e-06,3.2671447891286e-05,0.000101096383137012,0.000292066262779415,0.000786583348904103,0.00197083637916733,0.00458216664001958,0.00985323403335486,0.0195161115697154,0.0354256050961696,0.0585697183479139,0.0875536007130121,0.117344395147558,0.139675207596163,0.146306727926245,0.134086755250992,0.107022435124998,0.0768680015003644,0.0599991568478175
"34",2.60284940698191e-21,3.25449131118975e-20,3.967753663503e-19,4.43233304535142e-18,4.54897882870357e-17,4.30123729322999e-16,3.75648382458845e-15,3.03729793401733e-14,2.27832286698645e-13,1.58841688620616e-12,1.03093659496378e-11,6.23758022893053e-11,3.52226561531752e-10,1.85808898714694e-09,9.16394008652514e-09,4.22787099665246e-08,1.82540131891098e-07,7.37709200868646e-07,2.79068092515468e-06,9.87977674998107e-06,3.27191537754223e-05,0.000101287217539234,0.000292775676998698,0.000789035200324806,0.00197871758660284,0.0046057276058081,0.00991870035778273,0.0196849358369268,0.0358278599355172,0.0594538545717939,0.0893378629394684,0.120550447301926,0.144850111512578,0.153644397506226,0.141450399619295,0.116219521515392,0.101248002027538
"35",1.76387680756739e-22,2.43709748903349e-21,3.25421827561114e-20,3.96879850141457e-19,4.43388850272115e-18,4.55107764958032e-17,4.3038339863315e-16,3.75943680076679e-15,3.04039098699679e-14,2.28131209267193e-13,1.59108627253908e-12,1.03314198243524e-11,6.25445500229359e-11,3.53423473604393e-10,1.86596473011432e-09,9.21204700452839e-09,4.25516353785816e-08,1.83978895776876e-07,7.44759211638122e-07,2.82279895519035e-06,1.00158369131077e-05,3.32551473296169e-05,0.00010325065460704,0.000299462720153221,0.000810201915611691,0.0020409389570929,0.00477534490966247,0.0103465551194146,0.0206789562092087,0.0379475589468727,0.0635789912609156,0.0964711697791172,0.131509653264449,0.159426433082661,0.167197126403775,0.155433244783934,0.149334035413421
"36",1.09593004140869e-23,1.6814025753537e-22,2.47162802017767e-21,3.30818299617226e-20,4.04443988696379e-19,4.53066701908838e-18,4.6645081358032e-17,4.42601637300937e-16,3.88073623693806e-15,3.15165581600756e-14,2.37580884921443e-13,1.66552320038377e-12,1.08760238803617e-11,6.62494337821722e-11,3.76878635357188e-10,2.00424005603773e-09,9.97146698170333e-09,4.64382010228928e-08,2.02516213905062e-07,8.27156799758074e-07,3.16407034375541e-06,1.13324930170082e-05,3.79848303014859e-05,0.000119059204338366,0.000348580772249435,0.000951868734555296,0.00241943289834845,0.00570935183442364,0.0124646771759422,0.0250711234965693,0.0462146565428996,0.0773656781059129,0.116670879879529,0.156668379168583,0.180864208842296,0.184427358442791,0.190651174965037
"37",1.05369785307003e-24,1.81739401937258e-23,2.97351817437475e-22,4.41114326024671e-21,5.95330707780912e-20,7.33434165678946e-19,8.27515103795323e-18,8.57720151224772e-17,8.19068884818948e-16,7.22507781985197e-15,5.9011439607322e-14,4.4720181838962e-13,3.15010191999083e-12,2.06566903705553e-11,1.26258424090988e-10,7.20055052631346e-10,3.83459952771012e-09,1.90798297120474e-08,8.8734814631992e-08,3.85799143153602e-07,1.56811444558369e-06,5.95746805282061e-06,2.11466195693063e-05,7.00873151058731e-05,0.000216697831481009,0.000624193951675136,0.00167205870375201,0.00415539456771034,0.00954829381031932,0.0202043957458236,0.039169841712514,0.0688936261098444,0.109074780762574,0.153597146972723,0.185113195379936,0.196896311727219,0.210734804888234
