"","X0","X1","X2","X3","X4","X5","X6","X7","X8","X9","X10","X11","X12","X13","X14","X15","X16","X17","X18","X19","X20","X21","X22","X23","X24","X25","X26","X27","X28","X29","X30","X31","X32","X33","X34","X35","X36"
"1",0.381846426328882,0.337093568578193,0.185671797694259,0.0695402651479392,0.0201590418644252,0.00466229320573127,0.000874034246469565,0.000134044218314527,1.67255931039563e-05,1.66608167242312e-06,1.29130325305984e-07,7.57440079331358e-09,3.26167392731604e-10,9.91475105698189e-12,2.00245878423733e-13,2.40081189034152e-15,1.28871350383856e-17,0,0,0,0,0,0,0,0,0,0,0,0,0,0,0,0,0,0,0,0
"2",0.0930119245547085,0.313002370061891,0.322326135904646,0.178143148064292,0.0679998817368346,0.0198740455819504,0.00462058904939196,0.000869703468963488,0.000133694599406611,1.67046703244858e-05,1.66528372130405e-06,1.29113336975964e-07,7.57424906018564e-09,3.26167392731604e-10,9.91475105698189e-12,2.00245878423733e-13,2.40081189034152e-15,1.28871350383856e-17,0,0,0,0,0,0,0,0,0,0,0,0,0,0,0,0,0,0,0
"3",0.019083028211514,0.0773996910209491,0.310967140235072,0.321106010645847,0.177958950448792,0.0679721314790769,0.0198707125826123,0.00462043250950107,0.000869701339272296,0.000133694549967623,1.67046698042579e-05,1.66528372130405e-06,1.29113336975964e-07,7.57424906018564e-09,3.26167392731604e-10,9.91475105698189e-12,2.00245878423733e-13,2.40081189034152e-15,1.28871350383856e-17,0,0,0,0,0,0,0,0,0,0,0,0,0,0,0,0,0,0
"4",0.00249555519027838,0.0169698134420889,0.0771897996671547,0.310817345666078,0.321086691896591,0.177955966003395,0.06797179296228,0.0198706998035402,0.00462043250195777,0.000869701339272296,0.000133694549967623,1.67046698042579e-05,1.66528372130405e-06,1.29113336975964e-07,7.57424906018564e-09,3.26167392731604e-10,9.91475105698189e-12,2.00245878423733e-13,2.40081189034152e-15,1.28871350383856e-17,0,0,0,0,0,0,0,0,0,0,0,0,0,0,0,0,0
"5",0.000178275485945378,0.00233803959198797,0.0169599498632741,0.0771800365100184,0.310816390888559,0.321086530703022,0.177955949351859,0.0679717924331999,0.0198706998035402,0.00462043250195777,0.000869701339272296,0.000133694549967623,1.67046698042579e-05,1.66528372130405e-06,1.29113336975964e-07,7.57424906018564e-09,3.26167392731604e-10,9.91475105698189e-12,2.00245878423733e-13,2.40081189034152e-15,1.28871350383856e-17,0,0,0,0,0,0,0,0,0,0,0,0,0,0,0,0
"6",6.860087392599e-06,0.000171963251695216,0.00233784863955413,0.0169596177391962,0.077180016085731,0.310816386897638,0.321086530349143,0.177955949344316,0.0679717924331999,0.0198706998035402,0.00462043250195777,0.000869701339272296,0.000133694549967623,1.67046698042579e-05,1.66528372130405e-06,1.29113336975964e-07,7.57424906018564e-09,3.26167392731604e-10,9.91475105698189e-12,2.00245878423733e-13,2.40081189034152e-15,1.28871350383856e-17,0,0,0,0,0,0,0,0,0,0,0,0,0,0,0
"7",1.34499540777706e-07,6.73244856919515e-06,0.0001719621652918,0.00233784305135025,0.0169596175921437,0.0771800160491879,0.310816386895124,0.321086530349143,0.177955949344316,0.0679717924331999,0.0198706998035402,0.00462043250195777,0.000869701339272296,0.000133694549967623,1.67046698042579e-05,1.66528372130405e-06,1.29113336975964e-07,7.57424906018564e-09,3.26167392731604e-10,9.91475105698189e-12,2.00245878423733e-13,2.40081189034152e-15,1.28871350383856e-17,0,0,0,0,0,0,0,0,0,0,0,0,0,0
"8",1.05731978782179e-09,1.33478680292913e-07,6.73244856919515e-06,0.000171962128832497,0.00233784305135025,0.0169596175921437,0.0771800160491879,0.310816386895124,0.321086530349143,0.177955949344316,0.0679717924331999,0.0198706998035402,0.00462043250195777,0.000869701339272296,0.000133694549967623,1.67046698042579e-05,1.66528372130405e-06,1.29113336975964e-07,7.57424906018564e-09,3.26167392731604e-10,9.91475105698189e-12,2.00245878423733e-13,2.40081189034152e-15,1.28871350383856e-17,0,0,0,0,0,0,0,0,0,0,0,0,0
"9",0,1.05731978782179e-09,1.33478680292913e-07,6.73244856919515e-06,0.000171962128832497,0.00233784305135025,0.0169596175921437,0.0771800160491879,0.310816386895124,0.321086530349143,0.177955949344316,0.0679717924331999,0.0198706998035402,0.00462043250195777,0.000869701339272296,0.000133694549967623,1.67046698042579e-05,1.66528372130405e-06,1.29113336975964e-07,7.57424906018564e-09,3.26167392731604e-10,9.91475105698189e-12,2.00245878423733e-13,2.40081189034152e-15,1.28871350383856e-17,0,0,0,0,0,0,0,0,0,0,0,0
"10",0,0,1.05731978782179e-09,1.33478680292913e-07,6.73244856919515e-06,0.000171962128832497,0.00233784305135025,0.0169596175921437,0.0771800160491879,0.310816386895124,0.321086530349143,0.177955949344316,0.0679717924331999,0.0198706998035402,0.00462043250195777,0.000869701339272296,0.000133694549967623,1.67046698042579e-05,1.66528372130405e-06,1.29113336975964e-07,7.57424906018564e-09,3.26167392731604e-10,9.91475105698189e-12,2.00245878423733e-13,2.40081189034152e-15,1.28871350383856e-17,0,0,0,0,0,0,0,0,0,0,0
"11",0,0,0,1.05731978782179e-09,1.33478680292913e-07,6.73244856919515e-06,0.000171962128832497,0.00233784305135025,0.0169596175921437,0.0771800160491879,0.310816386895124,0.321086530349143,0.177955949344316,0.0679717924331999,0.0198706998035402,0.00462043250195777,0.000869701339272296,0.000133694549967623,1.67046698042579e-05,1.66528372130405e-06,1.29113336975964e-07,7.57424906018564e-09,3.26167392731604e-10,9.91475105698189e-12,2.00245878423733e-13,2.40081189034152e-15,1.28871350383856e-17,0,0,0,0,0,0,0,0,0,0
"12",0,0,0,0,1.05731978782179e-09,1.33478680292913e-07,6.73244856919515e-06,0.000171962128832497,0.00233784305135025,0.0169596175921437,0.0771800160491879,0.310816386895124,0.321086530349143,0.177955949344316,0.0679717924331999,0.0198706998035402,0.00462043250195777,0.000869701339272296,0.000133694549967623,1.67046698042579e-05,1.66528372130405e-06,1.29113336975964e-07,7.57424906018564e-09,3.26167392731604e-10,9.91475105698189e-12,2.00245878423733e-13,2.40081189034152e-15,1.28871350383856e-17,0,0,0,0,0,0,0,0,0
"13",0,0,0,0,0,1.05731978782179e-09,1.33478680292913e-07,6.73244856919515e-06,0.000171962128832497,0.00233784305135025,0.0169596175921437,0.0771800160491879,0.310816386895124,0.321086530349143,0.177955949344316,0.0679717924331999,0.0198706998035402,0.00462043250195777,0.000869701339272296,0.000133694549967623,1.67046698042579e-05,1.66528372130405e-06,1.29113336975964e-07,7.57424906018564e-09,3.26167392731604e-10,9.91475105698189e-12,2.00245878423733e-13,2.40081189034152e-15,1.28871350383856e-17,0,0,0,0,0,0,0,0
"14",0,0,0,0,0,0,1.05731978782179e-09,1.33478680292913e-07,6.73244856919515e-06,0.000171962128832497,0.00233784305135025,0.0169596175921437,0.0771800160491879,0.310816386895124,0.321086530349143,0.177955949344316,0.0679717924331999,0.0198706998035402,0.00462043250195777,0.000869701339272296,0.000133694549967623,1.67046698042579e-05,1.66528372130405e-06,1.29113336975964e-07,7.57424906018564e-09,3.26167392731604e-10,9.91475105698189e-12,2.00245878423733e-13,2.40081189034152e-15,1.28871350383856e-17,0,0,0,0,0,0,0
"15",0,0,0,0,0,0,0,1.05731978782179e-09,1.33478680292913e-07,6.73244856919515e-06,0.000171962128832497,0.00233784305135025,0.0169596175921437,0.0771800160491879,0.310816386895124,0.321086530349143,0.177955949344316,0.0679717924331999,0.0198706998035402,0.00462043250195777,0.000869701339272296,0.000133694549967623,1.67046698042579e-05,1.66528372130405e-06,1.29113336975964e-07,7.57424906018564e-09,3.26167392731604e-10,9.91475105698189e-12,2.00245878423733e-13,2.40081189034152e-15,1.28871350383856e-17,0,0,0,0,0,0
"16",0,0,0,0,0,0,0,0,1.05731978782179e-09,1.33478680292913e-07,6.73244856919515e-06,0.000171962128832497,0.00233784305135025,0.0169596175921437,0.0771800160491879,0.310816386895124,0.321086530349143,0.177955949344316,0.0679717924331999,0.0198706998035402,0.00462043250195777,0.000869701339272296,0.000133694549967623,1.67046698042579e-05,1.66528372130405e-06,1.29113336975964e-07,7.57424906018564e-09,3.26167392731604e-10,9.91475105698189e-12,2.00245878423733e-13,2.40081189034152e-15,1.28871350383856e-17,0,0,0,0,0
"17",0,0,0,0,0,0,0,0,0,1.05731978782179e-09,1.33478680292913e-07,6.73244856919515e-06,0.000171962128832497,0.00233784305135025,0.0169596175921437,0.0771800160491879,0.310816386895124,0.321086530349143,0.177955949344316,0.0679717924331999,0.0198706998035402,0.00462043250195777,0.000869701339272296,0.000133694549967623,1.67046698042579e-05,1.66528372130405e-06,1.29113336975964e-07,7.57424906018564e-09,3.26167392731604e-10,9.91475105698189e-12,2.00245878423733e-13,2.40081189034152e-15,1.28871350383856e-17,0,0,0,0
"18",0,0,0,0,0,0,0,0,0,0,1.05731978782179e-09,1.33478680292913e-07,6.73244856919515e-06,0.000171962128832497,0.00233784305135025,0.0169596175921437,0.0771800160491879,0.310816386895124,0.321086530349143,0.177955949344316,0.0679717924331999,0.0198706998035402,0.00462043250195777,0.000869701339272296,0.000133694549967623,1.67046698042579e-05,1.66528372130405e-06,1.29113336975964e-07,7.57424906018564e-09,3.26167392731604e-10,9.91475105698189e-12,2.00245878423733e-13,2.40081189034152e-15,1.28871350383856e-17,0,0,0
"19",0,0,0,0,0,0,0,0,0,0,0,1.05731978782179e-09,1.33478680292913e-07,6.73244856919515e-06,0.000171962128832497,0.00233784305135025,0.0169596175921437,0.0771800160491879,0.310816386895124,0.321086530349143,0.177955949344316,0.0679717924331999,0.0198706998035402,0.00462043250195777,0.000869701339272296,0.000133694549967623,1.67046698042579e-05,1.66528372130405e-06,1.29113336975964e-07,7.57424906018564e-09,3.26167392731604e-10,9.91475105698189e-12,2.00245878423733e-13,2.40081189034152e-15,1.28871350383856e-17,0,0
"20",0,0,0,0,0,0,0,0,0,0,0,0,1.05731978782179e-09,1.33478680292913e-07,6.73244856919515e-06,0.000171962128832497,0.00233784305135025,0.0169596175921437,0.0771800160491879,0.310816386895124,0.321086530349143,0.177955949344316,0.0679717924331999,0.0198706998035402,0.00462043250195777,0.000869701339272296,0.000133694549967623,1.67046698042579e-05,1.66528372130405e-06,1.29113336975964e-07,7.57424906018564e-09,3.26167392731604e-10,9.91475105698189e-12,2.00245878423733e-13,2.40081189034152e-15,1.28871350383856e-17,0
"21",0,0,0,0,0,0,0,0,0,0,0,0,0,1.05731978782179e-09,1.33478680292913e-07,6.73244856919515e-06,0.000171962128832497,0.00233784305135025,0.0169596175921437,0.0771800160491879,0.310816386895124,0.321086530349143,0.177955949344316,0.0679717924331999,0.0198706998035402,0.00462043250195777,0.000869701339272296,0.000133694549967623,1.67046698042579e-05,1.66528372130405e-06,1.29113336975964e-07,7.57424906018564e-09,3.26167392731604e-10,9.91475105698189e-12,2.00245878423733e-13,2.40081189034152e-15,1.28871350383856e-17
"22",0,0,0,0,0,0,0,0,0,0,0,0,0,0,1.05731978782179e-09,1.33478680292913e-07,6.73244856919515e-06,0.000171962128832497,0.00233784305135025,0.0169596175921437,0.0771800160491879,0.310816386895124,0.321086530349143,0.177955949344316,0.0679717924331999,0.0198706998035402,0.00462043250195777,0.000869701339272296,0.000133694549967623,1.67046698042579e-05,1.66528372130405e-06,1.29113336975964e-07,7.57424906018564e-09,3.26167392731604e-10,9.91475105698189e-12,2.00245878423733e-13,2.41369902537991e-15
"23",0,0,0,0,0,0,0,0,0,0,0,0,0,0,0,1.05731978782179e-09,1.33478680292913e-07,6.73244856919515e-06,0.000171962128832497,0.00233784305135025,0.0169596175921437,0.0771800160491879,0.310816386895124,0.321086530349143,0.177955949344316,0.0679717924331999,0.0198706998035402,0.00462043250195777,0.000869701339272296,0.000133694549967623,1.67046698042579e-05,1.66528372130405e-06,1.29113336975964e-07,7.57424906018564e-09,3.26167392731604e-10,9.91475105698189e-12,2.02659577449113e-13
"24",0,0,0,0,0,0,0,0,0,0,0,0,0,0,0,0,1.05731978782179e-09,1.33478680292913e-07,6.73244856919515e-06,0.000171962128832497,0.00233784305135025,0.0169596175921437,0.0771800160491879,0.310816386895124,0.321086530349143,0.177955949344316,0.0679717924331999,0.0198706998035402,0.00462043250195777,0.000869701339272296,0.000133694549967623,1.67046698042579e-05,1.66528372130405e-06,1.29113336975964e-07,7.57424906018564e-09,3.26167405189167e-10,1.01173981768671e-11
"25",0,0,0,0,0,0,0,0,0,0,0,0,0,0,0,0,0,1.05731978782179e-09,1.33478680292913e-07,6.73244856919515e-06,0.000171962128832497,0.00233784305135025,0.0169596175921437,0.0771800160491879,0.310816386895124,0.321086530349143,0.177955949344316,0.0679717924331999,0.0198706998035402,0.00462043250195777,0.000869701339272296,0.000133694549967623,1.67046698042579e-05,1.66528372130405e-06,1.29113337156599e-07,7.57425662518961e-09,3.36277057727394e-10
"26",0,0,0,0,0,0,0,0,0,0,0,0,0,0,0,0,0,0,1.05731978782179e-09,1.33478680292913e-07,6.73244856919515e-06,0.000171962128832497,0.00233784305135025,0.0169596175921437,0.0771800160491879,0.310816386895124,0.321086530349143,0.177955949344316,0.0679717924331999,0.0198706998035402,0.00462043250195777,0.000869701339272296,0.000133694549967623,1.67046698042579e-05,1.66528375214957e-06,1.2911442570458e-07,7.90941428941382e-09
"27",0,0,0,0,0,0,0,0,0,0,0,0,0,0,0,0,0,0,0,1.05731978782179e-09,1.33478680292913e-07,6.73244856919515e-06,0.000171962128832497,0.00233784305135025,0.0169596175921437,0.0771800160491879,0.310816386895124,0.321086530349143,0.177955949344316,0.0679717924331999,0.0198706998035402,0.00462043250195777,0.000869701339272296,0.000133694549967623,1.67046721185339e-05,1.6653604283108e-06,1.36944849556783e-07
"28",0,0,0,0,0,0,0,0,0,0,0,0,0,0,0,0,0,0,0,0,1.05731978782179e-09,1.33478680292913e-07,6.73244856919515e-06,0.000171962128832497,0.00233784305135025,0.0169596175921437,0.0771800160491879,0.310816386895124,0.321086530349143,0.177955949344316,0.0679717924331999,0.0198706998035402,0.00462043250195777,0.000869701339272296,0.000133694650549352,1.67078997778735e-05,1.79897703679836e-06
"29",0,0,0,0,0,0,0,0,0,0,0,0,0,0,0,0,0,0,0,0,0,1.05731978782179e-09,1.33478680292913e-07,6.73244856919515e-06,0.000171962128832497,0.00233784305135025,0.0169596175921437,0.0771800160491879,0.310816386895124,0.321086530349143,0.177955949344316,0.0679717924331999,0.019870699803542,0.00462043250206092,0.000869704151567499,0.000133783211319065,1.84155036448012e-05
"30",0,0,0,0,0,0,0,0,0,0,0,0,0,0,0,0,0,0,0,0,0,0,1.05731978782179e-09,1.33478680292913e-07,6.73244856919515e-06,0.000171962128832497,0.00233784305135025,0.0169596175921437,0.0771800160491879,0.310816386895124,0.321086530349143,0.177955949344318,0.0679717924335465,0.0198706998189706,0.00462048569186965,0.000871356046210825,0.000150493614734813
"31",0,0,0,0,0,0,0,0,0,0,0,0,0,0,0,0,0,0,0,0,0,0,0,1.05731978782179e-09,1.33478680292913e-07,6.73244856919515e-06,0.000171962128832497,0.00233784305135025,0.0169596175921437,0.0771800160491879,0.310816386895124,0.321086530349334,0.177955949369213,0.0679717933938578,0.0198713986433361,0.00464180383903239,0.000999831704019031
"32",0,0,0,0,0,0,0,0,0,0,0,0,0,0,0,0,0,0,0,0,0,0,0,0,1.05731978782179e-09,1.33478680292913e-07,6.73244856919515e-06,0.000171962128832497,0.00233784305135025,0.0169596175921437,0.0771800160492141,0.310816386905826,0.321086531346973,0.177955982885552,0.0679783034025503,0.0200618613240691,0.00544462832892029
"33",0,0,0,0,0,0,0,0,0,0,0,0,0,0,0,0,0,0,0,0,0,0,0,0,0,1.05731978782179e-09,1.33478680292913e-07,6.73244856919515e-06,0.000171962128832497,0.00233784305135025,0.0169596175941804,0.077180016429386,0.310816412624358,0.321087267825984,0.178000648250786,0.069141554914433,0.0242978101961209
"34",0,0,0,0,0,0,0,0,0,0,0,0,0,0,0,0,0,0,0,0,0,0,0,0,0,0,1.05731978782179e-09,1.33478680292913e-07,6.73244856919515e-06,0.000171962128850458,0.00233784311343375,0.0169596258381087,0.0771804525009574,0.310827014811682,0.321333609397772,0.182769479240834,0.0884131459837931
"35",0,0,0,0,0,0,0,0,0,0,0,0,0,0,0,0,0,0,0,0,0,0,0,0,0,0,0,1.05731978782179e-09,1.33478680292913e-07,6.732449814439e-06,0.000171963133626715,0.00233795044016022,0.0169643720385121,0.0772799755645852,0.312041445111661,0.334594254410614,0.256603172315027
"36",0,0,0,0,0,0,0,0,0,0,0,0,0,0,0,0,0,0,0,0,0,0,0,0,0,0,0,0,1.05731978782179e-09,1.3350921720423e-07,6.74227516388832e-06,0.000172807559796928,0.00237001948924901,0.0175542285981493,0.0824558671981116,0.34091485505022,0.556525345262773
"37",0,0,0,0,0,0,0,0,0,0,0,0,0,0,0,0,0,0,0,0,0,0,0,0,0,0,0,0,0,1.38222216716064e-09,1.9311589907596e-07,1.07571108916282e-05,0.000302523103286825,0.00446848936025905,0.0333765498999619,0.144896342149451,0.816945143878029
