"","X0","X1","X2","X3","X4","X5","X6","X7","X8","X9","X10","X11","X12","X13","X14","X15","X16","X17","X18","X19","X20","X21","X22","X23","X24","X25","X26","X27","X28","X29","X30","X31","X32","X33","X34","X35","X36"
"1",0.493847016251636,0.366258055572086,0.118059054726514,0.019858098208907,0.00187541063135002,9.95782512322098e-05,2.75582682525561e-06,3.05314499236971e-08,0,0,0,0,0,0,0,0,0,0,0,0,0,0,0,0,0,0,0,0,0,0,0,0,0,0,0,0,0
"2",0.0493861084416822,0.450546344814396,0.360532095859046,0.117699577435112,0.019858098208907,0.00187541063135002,9.95782512322098e-05,2.75582682525561e-06,3.05314499236971e-08,0,0,0,0,0,0,0,0,0,0,0,0,0,0,0,0,0,0,0,0,0,0,0,0,0,0,0,0
"3",0.00123249357051981,0.0481536148711624,0.450546344814396,0.360532095859046,0.117699577435112,0.019858098208907,0.00187541063135002,9.95782512322098e-05,2.75582682525561e-06,3.05314499236971e-08,0,0,0,0,0,0,0,0,0,0,0,0,0,0,0,0,0,0,0,0,0,0,0,0,0,0,0
"4",0,0.00123249357051981,0.0481536148711624,0.450546344814396,0.360532095859046,0.117699577435112,0.019858098208907,0.00187541063135002,9.95782512322098e-05,2.75582682525561e-06,3.05314499236971e-08,0,0,0,0,0,0,0,0,0,0,0,0,0,0,0,0,0,0,0,0,0,0,0,0,0,0
"5",0,0,0.00123249357051981,0.0481536148711624,0.450546344814396,0.360532095859046,0.117699577435112,0.019858098208907,0.00187541063135002,9.95782512322098e-05,2.75582682525561e-06,3.05314499236971e-08,0,0,0,0,0,0,0,0,0,0,0,0,0,0,0,0,0,0,0,0,0,0,0,0,0
"6",0,0,0,0.00123249357051981,0.0481536148711624,0.450546344814396,0.360532095859046,0.117699577435112,0.019858098208907,0.00187541063135002,9.95782512322098e-05,2.75582682525561e-06,3.05314499236971e-08,0,0,0,0,0,0,0,0,0,0,0,0,0,0,0,0,0,0,0,0,0,0,0,0
"7",0,0,0,0,0.00123249357051981,0.0481536148711624,0.450546344814396,0.360532095859046,0.117699577435112,0.019858098208907,0.00187541063135002,9.95782512322098e-05,2.75582682525561e-06,3.05314499236971e-08,0,0,0,0,0,0,0,0,0,0,0,0,0,0,0,0,0,0,0,0,0,0,0
"8",0,0,0,0,0,0.00123249357051981,0.0481536148711624,0.450546344814396,0.360532095859046,0.117699577435112,0.019858098208907,0.00187541063135002,9.95782512322098e-05,2.75582682525561e-06,3.05314499236971e-08,0,0,0,0,0,0,0,0,0,0,0,0,0,0,0,0,0,0,0,0,0,0
"9",0,0,0,0,0,0,0.00123249357051981,0.0481536148711624,0.450546344814396,0.360532095859046,0.117699577435112,0.019858098208907,0.00187541063135002,9.95782512322098e-05,2.75582682525561e-06,3.05314499236971e-08,0,0,0,0,0,0,0,0,0,0,0,0,0,0,0,0,0,0,0,0,0
"10",0,0,0,0,0,0,0,0.00123249357051981,0.0481536148711624,0.450546344814396,0.360532095859046,0.117699577435112,0.019858098208907,0.00187541063135002,9.95782512322098e-05,2.75582682525561e-06,3.05314499236971e-08,0,0,0,0,0,0,0,0,0,0,0,0,0,0,0,0,0,0,0,0
"11",0,0,0,0,0,0,0,0,0.00123249357051981,0.0481536148711624,0.450546344814396,0.360532095859046,0.117699577435112,0.019858098208907,0.00187541063135002,9.95782512322098e-05,2.75582682525561e-06,3.05314499236971e-08,0,0,0,0,0,0,0,0,0,0,0,0,0,0,0,0,0,0,0
"12",0,0,0,0,0,0,0,0,0,0.00123249357051981,0.0481536148711624,0.450546344814396,0.360532095859046,0.117699577435112,0.019858098208907,0.00187541063135002,9.95782512322098e-05,2.75582682525561e-06,3.05314499236971e-08,0,0,0,0,0,0,0,0,0,0,0,0,0,0,0,0,0,0
"13",0,0,0,0,0,0,0,0,0,0,0.00123249357051981,0.0481536148711624,0.450546344814396,0.360532095859046,0.117699577435112,0.019858098208907,0.00187541063135002,9.95782512322098e-05,2.75582682525561e-06,3.05314499236971e-08,0,0,0,0,0,0,0,0,0,0,0,0,0,0,0,0,0
"14",0,0,0,0,0,0,0,0,0,0,0,0.00123249357051981,0.0481536148711624,0.450546344814396,0.360532095859046,0.117699577435112,0.019858098208907,0.00187541063135002,9.95782512322098e-05,2.75582682525561e-06,3.05314499236971e-08,0,0,0,0,0,0,0,0,0,0,0,0,0,0,0,0
"15",0,0,0,0,0,0,0,0,0,0,0,0,0.00123249357051981,0.0481536148711624,0.450546344814396,0.360532095859046,0.117699577435112,0.019858098208907,0.00187541063135002,9.95782512322098e-05,2.75582682525561e-06,3.05314499236971e-08,0,0,0,0,0,0,0,0,0,0,0,0,0,0,0
"16",0,0,0,0,0,0,0,0,0,0,0,0,0,0.00123249357051981,0.0481536148711624,0.450546344814396,0.360532095859046,0.117699577435112,0.019858098208907,0.00187541063135002,9.95782512322098e-05,2.75582682525561e-06,3.05314499236971e-08,0,0,0,0,0,0,0,0,0,0,0,0,0,0
"17",0,0,0,0,0,0,0,0,0,0,0,0,0,0,0.00123249357051981,0.0481536148711624,0.450546344814396,0.360532095859046,0.117699577435112,0.019858098208907,0.00187541063135002,9.95782512322098e-05,2.75582682525561e-06,3.05314499236971e-08,0,0,0,0,0,0,0,0,0,0,0,0,0
"18",0,0,0,0,0,0,0,0,0,0,0,0,0,0,0,0.00123249357051981,0.0481536148711624,0.450546344814396,0.360532095859046,0.117699577435112,0.019858098208907,0.00187541063135002,9.95782512322098e-05,2.75582682525561e-06,3.05314499236971e-08,0,0,0,0,0,0,0,0,0,0,0,0
"19",0,0,0,0,0,0,0,0,0,0,0,0,0,0,0,0,0.00123249357051981,0.0481536148711624,0.450546344814396,0.360532095859046,0.117699577435112,0.019858098208907,0.00187541063135002,9.95782512322098e-05,2.75582682525561e-06,3.05314499236971e-08,0,0,0,0,0,0,0,0,0,0,0
"20",0,0,0,0,0,0,0,0,0,0,0,0,0,0,0,0,0,0.00123249357051981,0.0481536148711624,0.450546344814396,0.360532095859046,0.117699577435112,0.019858098208907,0.00187541063135002,9.95782512322098e-05,2.75582682525561e-06,3.05314499236971e-08,0,0,0,0,0,0,0,0,0,0
"21",0,0,0,0,0,0,0,0,0,0,0,0,0,0,0,0,0,0,0.00123249357051981,0.0481536148711624,0.450546344814396,0.360532095859046,0.117699577435112,0.019858098208907,0.00187541063135002,9.95782512322098e-05,2.75582682525561e-06,3.05314499236971e-08,0,0,0,0,0,0,0,0,0
"22",0,0,0,0,0,0,0,0,0,0,0,0,0,0,0,0,0,0,0,0.00123249357051981,0.0481536148711624,0.450546344814396,0.360532095859046,0.117699577435112,0.019858098208907,0.00187541063135002,9.95782512322098e-05,2.75582682525561e-06,3.05314499236971e-08,0,0,0,0,0,0,0,0
"23",0,0,0,0,0,0,0,0,0,0,0,0,0,0,0,0,0,0,0,0,0.00123249357051981,0.0481536148711624,0.450546344814396,0.360532095859046,0.117699577435112,0.019858098208907,0.00187541063135002,9.95782512322098e-05,2.75582682525561e-06,3.05314499236971e-08,0,0,0,0,0,0,0
"24",0,0,0,0,0,0,0,0,0,0,0,0,0,0,0,0,0,0,0,0,0,0.00123249357051981,0.0481536148711624,0.450546344814396,0.360532095859046,0.117699577435112,0.019858098208907,0.00187541063135002,9.95782512322098e-05,2.75582682525561e-06,3.05314499236971e-08,0,0,0,0,0,0
"25",0,0,0,0,0,0,0,0,0,0,0,0,0,0,0,0,0,0,0,0,0,0,0.00123249357051981,0.0481536148711624,0.450546344814396,0.360532095859046,0.117699577435112,0.019858098208907,0.00187541063135002,9.95782512322098e-05,2.75582682525561e-06,3.05314499236971e-08,0,0,0,0,0
"26",0,0,0,0,0,0,0,0,0,0,0,0,0,0,0,0,0,0,0,0,0,0,0,0.00123249357051981,0.0481536148711624,0.450546344814396,0.360532095859046,0.117699577435112,0.019858098208907,0.00187541063135002,9.95782512322098e-05,2.75582682525561e-06,3.05314499236971e-08,0,0,0,0
"27",0,0,0,0,0,0,0,0,0,0,0,0,0,0,0,0,0,0,0,0,0,0,0,0,0.00123249357051981,0.0481536148711624,0.450546344814396,0.360532095859046,0.117699577435112,0.019858098208907,0.00187541063135002,9.95782512322098e-05,2.75582682525561e-06,3.05314499236971e-08,0,0,0
"28",0,0,0,0,0,0,0,0,0,0,0,0,0,0,0,0,0,0,0,0,0,0,0,0,0,0.00123249357051981,0.0481536148711624,0.450546344814396,0.360532095859046,0.117699577435112,0.019858098208907,0.00187541063135002,9.95782512322098e-05,2.75582682525561e-06,3.05314499236971e-08,0,0
"29",0,0,0,0,0,0,0,0,0,0,0,0,0,0,0,0,0,0,0,0,0,0,0,0,0,0,0.00123249357051981,0.0481536148711624,0.450546344814396,0.360532095859046,0.117699577435112,0.019858098208907,0.00187541063135002,9.95782512322098e-05,2.75582682525561e-06,3.05314499236971e-08,0
"30",0,0,0,0,0,0,0,0,0,0,0,0,0,0,0,0,0,0,0,0,0,0,0,0,0,0,0,0.00123249357051981,0.0481536148711624,0.450546344814396,0.360532095859046,0.117699577435112,0.019858098208907,0.00187541063135002,9.95782512322098e-05,2.75582682525561e-06,3.05314499236971e-08
"31",0,0,0,0,0,0,0,0,0,0,0,0,0,0,0,0,0,0,0,0,0,0,0,0,0,0,0,0,0.00123249357051981,0.0481536148711624,0.450546344814396,0.360532095859046,0.117699577435112,0.019858098208907,0.00187541063135002,9.95782512322098e-05,2.78635827517931e-06
"32",0,0,0,0,0,0,0,0,0,0,0,0,0,0,0,0,0,0,0,0,0,0,0,0,0,0,0,0,0,0.00123249357051981,0.0481536148711624,0.450546344814396,0.360532095859046,0.117699577435112,0.019858098208907,0.00187544116279994,0.000102334078057465
"33",0,0,0,0,0,0,0,0,0,0,0,0,0,0,0,0,0,0,0,0,0,0,0,0,0,0,0,0,0,0,0.00123249357051981,0.0481536148711624,0.450546344814396,0.360532095859046,0.117699577435112,0.0198604723926082,0.0019754010571562
"34",0,0,0,0,0,0,0,0,0,0,0,0,0,0,0,0,0,0,0,0,0,0,0,0,0,0,0,0,0,0,0,0.00123249357051981,0.0481536148711624,0.450546344814396,0.360532116794898,0.117770121731345,0.0217653082176797
"35",0,0,0,0,0,0,0,0,0,0,0,0,0,0,0,0,0,0,0,0,0,0,0,0,0,0,0,0,0,0,0,0,0.00123249357051981,0.0481536148711624,0.450547796366758,0.361576826246498,0.138489268945062
"36",0,0,0,0,0,0,0,0,0,0,0,0,0,0,0,0,0,0,0,0,0,0,0,0,0,0,0,0,0,0,0,0,0,0.00123249357051981,0.0481892110524648,0.458897977162851,0.491680318214165
"37",0,0,0,0,0,0,0,0,0,0,0,0,0,0,0,0,0,0,0,0,0,0,0,0,0,0,0,0,0,0,0,0,0,0,0.00161122486657044,0.0846564398643886,0.913732335269041
