"","X0","X1","X2","X3","X4","X5","X6","X7","X8","X9","X10","X11","X12","X13","X14","X15","X16","X17","X18","X19","X20","X21","X22","X23","X24","X25","X26","X27","X28","X29","X30","X31","X32","X33","X34","X35","X36"
"1",0.390376635019012,0.272443465928586,0.154853166812685,0.0893671796450635,0.0492638528670489,0.0248334110429912,0.0113778625589798,0.00474932178181197,0.00181241941293119,0.00063463604703715,0.000204631909913324,6.09586510706128e-05,1.68261174441359e-05,4.31434170801154e-06,1.02977279639312e-06,2.29193603663254e-07,4.7628608436738e-08,9.25015474190096e-09,1.67999076878835e-09,2.85403624411647e-10,4.53510097711762e-11,6.73807153099191e-12,9.35448743866065e-13,1.21233765018308e-13,1.46486741393301e-14,1.64764272378521e-15,1.72187478639087e-16,1.66824687554777e-17,1.4946728707357e-18,1.23487858097937e-19,9.37812633083916e-21,6.52373632690994e-22,4.14083777022107e-23,2.38810383782824e-24,1.24558966294707e-25,5.84577518099897e-27,2.54775582734749e-28
"2",0.323849038551325,0.243984082628667,0.162783002774745,0.11275116474833,0.0734437610106812,0.0429854529298179,0.0224997494647479,0.0105788075568966,0.00449485621361281,0.00173635950562804,0.00061321118053643,0.000198943143895043,5.95372608369501e-05,1.6492679687882e-05,4.24106083232857e-06,1.01471068387167e-06,2.2630200582979e-07,4.71106040261457e-08,9.16362971182485e-09,1.66652452770421e-09,2.834524894992e-10,4.50880940442865e-11,6.70516608710531e-12,9.31629862364681e-13,1.20823593187519e-13,1.46079980562563e-14,1.6439285104391e-15,1.71876180725587e-16,1.66586073910613e-17,1.49300703692031e-18,1.23382432981458e-19,9.37211036096897e-21,6.52065981385254e-22,4.13943767119345e-23,2.38754142539639e-24,1.24543420557233e-25,6.09564310973768e-27
"3",0.242149147436512,0.202008807776865,0.162661895804757,0.136112474530214,0.104469764321561,0.0706652246946263,0.0420899958844995,0.022235303392403,0.0105066916242415,0.00447641435038583,0.00173188395330165,0.000612173642053932,0.000198713047195171,5.9488559309678e-05,1.64828880799152e-05,4.23920134463236e-06,1.01437894451371e-06,2.26246665227154e-07,4.71020041653643e-08,9.16238867400774e-09,1.66635867624123e-09,2.83432020316617e-10,4.50857679123209e-11,6.70492351221254e-12,9.3160674035788e-13,1.20821587816574e-13,1.46078406268966e-14,1.64391738960276e-15,1.71875478447895e-16,1.66585680260062e-17,1.49300509311125e-18,1.23382349092097e-19,9.37210722220459e-21,6.52065880865409e-22,4.13943759990525e-23,2.38765391575467e-24,1.30523770212057e-25
"4",0.163922484295112,0.153199316399098,0.148019794312598,0.147230785780333,0.132148080629291,0.103324273982464,0.0703359391974743,0.0420033166768419,0.0222144757913144,0.01050205323239,0.00447544112634869,0.00173168882740058,0.000612135854788048,0.000198705933325465,5.9487256557293e-05,1.64826572798151e-05,4.23916215645249e-06,1.01437263228169e-06,2.26245709277636e-07,4.71018689982585e-08,9.16237092522871e-09,1.66635652130771e-09,2.83431779369701e-10,4.5085743205112e-11,6.7049211994271e-12,9.31606543766498e-13,1.2082157273414e-13,1.46078395897939e-14,1.64391732619451e-15,1.71875475032092e-16,1.66585678655485e-17,1.49300508661788e-18,1.23382348873833e-19,9.37210723505125e-21,6.52065943034641e-22,4.13970512399375e-23,2.51541349591003e-24
"5",0.10095763587365,0.106022309047771,0.120728839188466,0.13977228269316,0.145472537503638,0.131713486085674,0.103211723756201,0.0703090522419244,0.0419975159601407,0.0222133342596244,0.0105018456351727,0.00447540585191033,0.00173168317169939,0.000612134987958771,0.000198705804102313,5.94872375105665e-05,1.64826544851051e-05,4.2391617510013e-06,1.01437257505544e-06,2.26245701558513e-07,4.71018680175078e-08,9.16237080906497e-09,1.66635650857665e-09,2.83431778086456e-10,4.50857430868271e-11,6.70492118951567e-12,9.31606543016457e-13,1.20821572683255e-13,1.46078395867246e-14,1.64391732603143e-15,1.71875475024558e-16,1.66585678653045e-17,1.49300508678395e-18,1.23382349506951e-19,9.37210892620566e-21,6.52122917910399e-22,4.38529081853726e-23
"6",0.0568611237639304,0.0669684372254326,0.088187945532157,0.116622552853206,0.139039577346777,0.145319543264752,0.131677677798992,0.103203846366543,0.0703074947303541,0.0419972372815772,0.0222132885140881,0.0105018386871844,0.00447540487579118,0.00173168304527801,0.000612134972829096,0.000198705802405883,5.94872373273875e-05,1.64826544653573e-05,4.2391617488173e-06,1.0143725748078e-06,2.26245701530446e-07,4.71018680144257e-08,9.16237080874479e-09,1.66635650854568e-09,2.83431778083697e-10,4.50857430866028e-11,6.70492118949917e-12,9.31606543015367e-13,1.20821572683191e-13,1.46078395867214e-14,1.64391732603187e-15,1.71875475026296e-16,1.66585678704902e-17,1.49300510468679e-18,1.23382390727021e-19,9.37320237381936e-21,6.94815577279908e-22
"7",0.0294270774947391,0.0387016593977217,0.0579673522992927,0.0862749413151434,0.116332607861127,0.138989221315256,0.1453089487725,0.131675518462075,0.103203452746594,0.0703074303820918,0.0419972276550224,0.0222132871734394,0.0105018385132281,0.00447540485503533,0.00173168304303474,0.00061213497261156,0.000198705802386985,5.94872373259019e-05,1.64826544652484e-05,4.23916174880947e-06,1.01437257480721e-06,2.26245701530399e-07,4.71018680144218e-08,9.16237080874447e-09,1.66635650854566e-09,2.83431778083695e-10,4.50857430866027e-11,6.70492118949916e-12,9.31606543015367e-13,1.20821572683195e-13,1.46078395867371e-14,1.64391732607776e-15,1.71875475158496e-16,1.66585683101971e-17,1.49300600751395e-18,1.23401397243014e-19,1.00474704824778e-20
"8",0.0140524378044856,0.0205336600922367,0.0345072820129185,0.0571316916505754,0.0861651991305707,0.116316962527451,0.138986292884103,0.145308392484719,0.131675424482803,0.103203438749554,0.0703074284966307,0.0419972274174755,0.0222132871450231,0.0105018385100439,0.00447540485470952,0.00173168304300496,0.000612134972609163,0.000198705802386818,5.94872373258917e-05,1.64826544652479e-05,4.23916174880945e-06,1.01437257480721e-06,2.26245701530399e-07,4.71018680144218e-08,9.16237080874447e-09,1.66635650854566e-09,2.83431778083695e-10,4.50857430866027e-11,6.70492118949918e-12,9.31606543015453e-13,1.20821572683563e-13,1.46078395877908e-14,1.6439173290281e-15,1.71875484631771e-16,1.66585861011087e-17,1.49330658838471e-18,1.33116539072171e-19
"9",0.00621384287635378,0.0100378000453238,0.0187223937477693,0.034164743573792,0.0570918376214786,0.0861605706694625,0.116316204534274,0.138986157743839,0.145308371085977,0.131675421565388,0.103203438399308,0.0703074284577309,0.0419972274133019,0.0222132871445904,0.010501838510002,0.00447540485470584,0.00173168304300467,0.000612134972609144,0.000198705802386816,5.94872373258917e-05,1.64826544652479e-05,4.23916174880944e-06,1.01437257480721e-06,2.26245701530399e-07,4.71018680144218e-08,9.16237080874447e-09,1.66635650854566e-09,2.83431778083696e-10,4.50857430866031e-11,6.70492118950099e-12,9.31606543023015e-13,1.20821572704861e-13,1.46078396459569e-14,1.64391750957588e-15,1.71875800708412e-16,1.6662928633043e-17,1.62149455937447e-18
"10",0.00255171822069765,0.00453622174172344,0.00931088737701326,0.0185906297889602,0.034150857262321,0.0570905232519621,0.0861603870564795,0.116316173678063,0.138986153094205,0.145308370496843,0.131675421502085,0.103203438393234,0.0703074284571691,0.0419972274132498,0.0222132871445857,0.0105018385100016,0.00447540485470582,0.00173168304300467,0.000612134972609144,0.000198705802386816,5.94872373258917e-05,1.64826544652479e-05,4.23916174880944e-06,1.01437257480721e-06,2.26245701530399e-07,4.71018680144218e-08,9.16237080874447e-09,1.66635650854566e-09,2.83431778083704e-10,4.50857430866372e-11,6.70492118963882e-12,9.31606543405303e-13,1.20821573726038e-13,1.46078427130698e-14,1.64392258656629e-15,1.71933324295949e-16,1.82171691229828e-17
"11",0.000975400680294576,0.0019006357987694,0.00426450366608242,0.00926332954776902,0.0185859978309746,0.0341504961196352,0.057090481654021,0.0861603804848856,0.116316172721978,0.138986152979306,0.145308370485567,0.131675421501149,0.103203438393162,0.0703074284571634,0.0419972274132494,0.0222132871445857,0.0105018385100016,0.00447540485470582,0.00173168304300467,0.000612134972609144,0.000198705802386816,5.94872373258917e-05,1.64826544652479e-05,4.23916174880944e-06,1.01437257480721e-06,2.26245701530399e-07,4.71018680144218e-08,9.1623708087445e-09,1.66635650854581e-09,2.83431778084275e-10,4.50857430888817e-11,6.70492119577687e-12,9.31606559482632e-13,1.20821620485293e-13,1.4607916684604e-14,1.64462358222215e-15,1.89303546810786e-16
"12",0.000347702087740575,0.000740137334566594,0.00180587997710941,0.0042484018396137,0.00926185543900256,0.0185859011811258,0.0341504872861129,0.0570904803594863,0.0861603803011346,0.116316172700638,0.13898615297734,0.145308370485421,0.131675421501139,0.103203438393161,0.0703074284571634,0.0419972274132494,0.0222132871445857,0.0105018385100016,0.00447540485470582,0.00173168304300467,0.000612134972609144,0.000198705802386816,5.94872373258917e-05,1.64826544652479e-05,4.23916174880944e-06,1.01437257480721e-06,2.26245701530399e-07,4.71018680144223e-08,9.16237080874675e-09,1.66635650855441e-09,2.83431778117149e-10,4.5085743177608e-11,6.70492142415812e-12,9.3160720311601e-13,1.20822601511292e-13,1.46157989748247e-14,1.82405869258481e-15
"13",0.000115746784705098,0.00026840570330519,0.000709272620329411,0.00180076749674724,0.00424795595041079,0.00926183016420546,0.0185858994103459,0.0341504870518983,0.0570904803268726,0.0861603802974245,0.11631617270031,0.138986152977318,0.14530837048542,0.131675421501139,0.103203438393161,0.0703074284571634,0.0419972274132494,0.0222132871445857,0.0105018385100016,0.00447540485470582,0.00173168304300467,0.000612134972609144,0.000198705802386816,5.94872373258917e-05,1.64826544652479e-05,4.23916174880944e-06,1.01437257480721e-06,2.26245701530407e-07,4.71018680144533e-08,9.16237080886376e-09,1.66635650898984e-09,2.83431779278176e-10,4.50857461201149e-11,6.70492946612718e-12,9.31619086951447e-13,1.20904602367858e-13,1.63332349241556e-14
"14",3.60182651545149e-05,9.07829604701247e-05,0.000259007623476664,0.000707750817813478,0.00180063977122428,0.00424794950143681,0.0092618298248019,0.0185858993716152,0.0341504870466043,0.0570904803262776,0.086160380297373,0.116316172700307,0.138986152977318,0.14530837048542,0.131675421501139,0.103203438393161,0.0703074284571634,0.0419972274132494,0.0222132871445857,0.0105018385100016,0.00447540485470582,0.00173168304300467,0.000612134972609144,0.000198705802386816,5.94872373258917e-05,1.64826544652479e-05,4.23916174880946e-06,1.0143725748073e-06,2.26245701530793e-07,4.71018680158963e-08,9.16237081410434e-09,1.6663565228076e-09,2.83431813818174e-10,4.50858377542559e-11,6.7050613867971e-12,9.3241019264458e-13,1.36167633410276e-13
"15",1.04842513927692e-05,2.86711180122985e-05,8.81065911845402e-05,0.000258583094651747,0.0007077162781072,0.00180063817478723,0.00424794943815411,0.00926182981896279,0.0185858993708352,0.0341504870465173,0.0570904803262702,0.0861603802973726,0.116316172700306,0.138986152977318,0.14530837048542,0.131675421501139,0.103203438393161,0.0703074284571634,0.0419972274132494,0.0222132871445857,0.0105018385100016,0.00447540485470582,0.00173168304300467,0.000612134972609144,0.000198705802386816,5.94872373258917e-05,1.64826544652481e-05,4.23916174881054e-06,1.01437257481169e-06,2.26245701546996e-07,4.71018680734383e-08,9.16237096427167e-09,1.66635689358702e-09,2.83432769819048e-10,4.50871837438289e-11,6.71215359251765e-12,1.05858322563893e-12
"16",2.85571748102138e-06,8.461634429256e-06,2.79581498918885e-05,8.79956468951524e-05,0.000258574299563811,0.000707715897683699,0.00180063816310996,0.00424794943735131,0.00926182981885913,0.0185858993708237,0.0341504870465164,0.0570904803262702,0.0861603802973726,0.116316172700306,0.138986152977318,0.14530837048542,0.131675421501139,0.103203438393161,0.0703074284571634,0.0419972274132494,0.0222132871445857,0.0105018385100016,0.00447540485470582,0.00173168304300467,0.000612134972609144,0.000198705802386817,5.94872373258939e-05,1.64826544652594e-05,4.23916174885595e-06,1.01437257497792e-06,2.26245702125406e-07,4.7101869568778e-08,9.16237461589141e-09,1.66636605663833e-09,2.83445425498962e-10,4.51463668786421e-11,7.68378403154568e-12
"17",7.27963302543896e-07,2.3347564959206e-06,8.28397366300936e-06,2.7931001715492e-05,8.79935423652441e-05,0.000258574212988043,0.000707715895529523,0.00180063816300886,0.00424794943733895,0.00926182981885777,0.0185858993708235,0.0341504870465164,0.0570904803262702,0.0861603802973726,0.116316172700306,0.138986152977318,0.14530837048542,0.131675421501139,0.103203438393161,0.0703074284571634,0.0419972274132494,0.0222132871445857,0.0105018385100016,0.00447540485470582,0.00173168304300467,0.000612134972609148,0.000198705802386838,5.9487237326002e-05,1.64826544656899e-05,4.23916175041902e-06,1.01437258031657e-06,2.26245715809006e-07,4.71019026518065e-08,9.16245553319778e-09,1.66647596421339e-09,2.83905769141318e-10,5.21247500218912e-11
"18",1.7365103654897e-07,6.02419862827988e-07,2.2933570415022e-06,8.27775704832389e-06,2.79305292875849e-05,8.79935236752575e-05,0.000258574212591473,0.000707715895517728,0.00180063816300754,0.00424794943733881,0.00926182981885776,0.0185858993708235,0.0341504870465164,0.0570904803262702,0.0861603802973726,0.116316172700306,0.138986152977318,0.14530837048542,0.131675421501139,0.103203438393161,0.0703074284571634,0.0419972274132494,0.0222132871445857,0.0105018385100016,0.00447540485470582,0.0017316830430047,0.000612134972609339,0.000198705802387787,5.94872373297515e-05,1.64826544791978e-05,4.23916179578135e-06,1.01437269567272e-06,2.26245992160479e-07,4.7102562564804e-08,9.16333879948484e-09,1.66981707299803e-09,3.3069072752261e-10
"19",3.87515301350782e-08,1.45351130171199e-07,5.93402605268543e-07,2.29202590076719e-06,8.27765770375359e-06,2.7930525480115e-05,8.79935236032755e-05,0.000258574212590171,0.000707715895517604,0.00180063816300753,0.00424794943733881,0.00926182981885775,0.0185858993708235,0.0341504870465164,0.0570904803262702,0.0861603802973726,0.116316172700306,0.138986152977318,0.14530837048542,0.131675421501139,0.103203438393161,0.0703074284571634,0.0419972274132494,0.0222132871445857,0.0105018385100016,0.00447540485470609,0.00173168304300627,0.000612134972617009,0.000198705802417871,5.94872374373014e-05,1.64826548348279e-05,4.23916269358428e-06,1.01437482811358e-06,2.26250971882885e-07,4.71091413184807e-08,9.18598208446471e-09,1.96277298864671e-09
"20",8.08595054422115e-09,3.27867478046816e-08,1.43516538551217e-07,5.93136312753234e-07,2.29200635860336e-06,8.27765697466922e-06,2.79305254674366e-05,8.79935236031351e-05,0.000258574212590161,0.000707715895517603,0.00180063816300753,0.00424794943733881,0.00926182981885775,0.0185858993708235,0.0341504870465164,0.0570904803262702,0.0861603802973726,0.116316172700306,0.138986152977318,0.14530837048542,0.131675421501139,0.103203438393161,0.0703074284571634,0.0419972274132494,0.022213287144586,0.0105018385100037,0.00447540485471795,0.00173168304306356,0.000612134972839937,0.00019870580320858,5.94872400146926e-05,1.64826612972669e-05,4.23917791740864e-06,1.01440964951886e-06,2.26296438787315e-07,4.72524931900673e-08,1.08997660624689e-08
"21",1.57655491121337e-09,6.91117914359098e-09,3.24384028950666e-08,1.4346682374629e-07,5.93132721942835e-07,2.2920062277699e-06,8.27765697253317e-06,2.79305254674213e-05,8.79935236031343e-05,0.000258574212590161,0.000707715895517603,0.00180063816300753,0.00424794943733881,0.00926182981885775,0.0185858993708235,0.0341504870465164,0.0570904803262702,0.0861603802973726,0.116316172700306,0.138986152977318,0.14530837048542,0.131675421501139,0.103203438393161,0.0703074284571636,0.0419972274132516,0.0222132871446007,0.0105018385100871,0.00447540485511447,0.00173168304459315,0.000612134978219125,0.000198705820505871,5.94872831009886e-05,1.64827619766973e-05,4.23940380524815e-06,1.01470146410872e-06,2.2714427742635e-07,5.66182492219429e-08
"22",2.86974448416587e-10,1.36052970922884e-09,6.84951797825617e-09,3.24297524438234e-08,1.43466208404779e-07,5.93132699996858e-07,2.29200622742929e-06,8.27765697253147e-06,2.79305254674212e-05,8.79935236031343e-05,0.000258574212590161,0.000707715895517603,0.00180063816300753,0.00424794943733881,0.00926182981885775,0.0185858993708235,0.0341504870465164,0.0570904803262702,0.0861603802973726,0.116316172700306,0.138986152977318,0.14530837048542,0.13167542150114,0.103203438393163,0.0703074284571792,0.0419972274133511,0.022213287145148,0.0105018385126393,0.00447540486485942,0.00173168307852664,0.000612135085883442,0.000198706086926442,5.9487900476674e-05,1.6484122392796e-05,4.24114395759198e-06,1.01938473739562e-06,2.74940328957027e-07
"23",4.8715129320157e-11,2.49923532395085e-10,1.35036785749322e-09,6.84811726825141e-09,3.24296542763059e-08,1.43466204971966e-07,5.93132699945825e-07,2.2920062274291e-06,8.27765697253146e-06,2.79305254674212e-05,8.79935236031343e-05,0.000258574212590161,0.000707715895517603,0.00180063816300753,0.00424794943733881,0.00926182981885775,0.0185858993708235,0.0341504870465164,0.0570904803262702,0.0861603802973726,0.116316172700307,0.138986152977318,0.145308370485423,0.131675421501156,0.10320343839327,0.0703074284578178,0.0419972274167259,0.0222132871605012,0.0105018385704837,0.00447540506382832,0.00173168370103964,0.000612136615518413,0.000198709599910005,5.94955101189649e-05,1.64937649346586e-05,4.26528916870288e-06,1.24698623418921e-06
"24",7.70201539335874e-12,4.27955693128105e-11,2.483668153746e-10,1.35015717563882e-09,6.84810271841231e-09,3.24296537768037e-08,1.43466204964818e-07,5.93132699945804e-07,2.2920062274291e-06,8.27765697253146e-06,2.79305254674212e-05,8.79935236031343e-05,0.000258574212590161,0.000707715895517603,0.00180063816300753,0.00424794943733881,0.00926182981885776,0.0185858993708235,0.0341504870465164,0.0570904803262703,0.0861603802973734,0.116316172700311,0.138986152977341,0.145308370485547,0.131675421501877,0.10320343839722,0.0703074284775714,0.0419972275035998,0.0222132874818044,0.0105018396580188,0.00447540841328284,0.00173169186494187,0.000612155175408684,0.000198749137851153,5.95451482956561e-05,1.66098285088959e-05,5.27544217422914e-06
"25",1.13238167997802e-12,6.8223423234482e-12,4.25743014490664e-11,2.48337441768606e-10,1.35015517686282e-09,6.84810265098263e-09,3.24296537758712e-08,1.43466204964816e-07,5.93132699945804e-07,2.2920062274291e-06,8.27765697253146e-06,2.79305254674212e-05,8.79935236031343e-05,0.000258574212590161,0.000707715895517603,0.00180063816300753,0.00424794943733882,0.00926182981885781,0.0185858993708239,0.0341504870465182,0.0570904803262792,0.0861603802974156,0.116316172700509,0.138986152978301,0.145308370490383,0.131675421525721,0.103203438508149,0.0703074289435407,0.0419972291827017,0.0222132930427079,0.0105018564634805,0.0044754489667855,0.0017317829512509,0.00061234595514602,0.000198986376949795,6.00645152770964e-05,2.07815927973191e-05
"26",1.54540725450633e-13,1.01100820506798e-12,6.79322423471395e-12,4.25705146296827e-11,2.48337187958629e-10,1.35015516844343e-09,6.84810265086979e-09,3.2429653775871e-08,1.43466204964816e-07,5.93132699945804e-07,2.2920062274291e-06,8.27765697253147e-06,2.79305254674212e-05,8.79935236031345e-05,0.000258574212590162,0.000707715895517616,0.00180063816300762,0.00424794943733936,0.0092618298188609,0.0185858993708401,0.0341504870465974,0.0570904803266439,0.0861603802990311,0.116316172707627,0.138986153010118,0.145308370631317,0.131675422128264,0.103203440895575,0.0703074372475868,0.0419972558922542,0.0222133718602706,0.0105020442040975,0.00447586437838807,0.00173263741972436,0.000613397535451219,0.00020114536022062,7.60609207257263e-05
"27",1.95364330730187e-14,1.39023983804347e-13,1.00746934158626e-12,6.79277408750112e-12,4.25704849306233e-11,2.48337186989594e-10,1.35015516843081e-09,6.84810265086977e-09,3.2429653775871e-08,1.43466204964816e-07,5.93132699945805e-07,2.29200622742911e-06,8.27765697253165e-06,2.79305254674229e-05,8.79935236031486e-05,0.000258574212590267,0.000707715895518324,0.00180063816301198,0.00424794943736398,0.00926182981898902,0.018585899371458,0.0341504870493812,0.0570904803385269,0.0861603803481772,0.116316172908557,0.138986153819236,0.14530837380231,0.131675433871804,0.103203479955983,0.0703075582437004,0.0419976023075917,0.0222141829752863,0.0105038052768867,0.00447941363753675,0.00173695372850839,0.000621711420877078,0.000257932178754023
"28",2.28222916903342e-15,1.77027647484823e-14,1.38627898813917e-13,1.00742016044588e-12,6.7927708964963e-12,4.25704848282147e-11,2.48337186988296e-10,1.35015516843081e-09,6.84810265086983e-09,3.24296537758719e-08,1.43466204964827e-07,5.93132699945938e-07,2.29200622743046e-06,8.2776569725439e-06,2.7930525467523e-05,8.79935236038879e-05,0.000258574212595232,0.000707715895548757,0.00180063816318292,0.00424794943824737,0.00926182982320821,0.0185858993901919,0.034150487127435,0.057090480648235,0.086160381537238,0.116316177345536,0.138986169878141,0.145308429250124,0.131675609027721,0.103203998449651,0.0703089881798274,0.0420008764798179,0.0222211233728614,0.0105174610595193,0.00449578468673405,0.00176650327980761,0.000807651516423822
"29",2.4570115753181e-16,2.08246746951795e-15,1.76620695266211e-14,1.38622978153775e-13,1.00741984688615e-12,6.79277088660259e-12,4.25704848280938e-11,2.48337186988323e-10,1.35015516843125e-09,6.84810265087599e-09,3.24296537759493e-08,1.43466204965693e-07,5.93132699954588e-07,2.29200622750805e-06,8.27765697317163e-06,2.79305254721253e-05,8.79935236345878e-05,0.000258574212782245,0.000707715896592726,0.00180063816854168,0.00424794946363228,0.00926182993466894,0.0185858998467139,0.0341504888886812,0.0570904871217556,0.0861604043486262,0.116316254599615,0.138986419625052,0.145309176641406,0.131677712032292,0.103209547702009,0.070321342867578,0.0420262951136693,0.0222697046683749,0.0105746763502007,0.00459226329205319,0.00232534798776769
"30",2.43036492889017e-17,2.25699935799859e-16,2.07864298333492e-15,1.76616205173299e-14,1.38622950101735e-13,1.00741984601729e-12,6.79277088660401e-12,4.25704848282933e-11,2.48337186991319e-10,1.35015516847155e-09,6.84810265136176e-09,3.24296537812027e-08,1.43466205016811e-07,5.93132700403577e-07,2.2920062310804e-06,8.27765699900694e-06,2.79305256425066e-05,8.799352466236e-05,0.000258574218469183,0.000707715925537312,0.00180063830443692,0.00424795005411376,0.00926183231960296,0.0185859088578526,0.034150520986226,0.0570905955063803,0.0861607524993851,0.116317317101902,0.138989436870579,0.145317231106866,0.131697944038575,0.103253099687508,0.0704077663942281,0.0421857131007699,0.022453277984091,0.0108622536235449,0.00612420018071654
"31",2.20138532391883e-18,2.24692705012247e-17,2.25372471833225e-16,2.07860578420118e-15,1.7661618244154e-14,1.38622950038262e-13,1.00741984611298e-12,6.79277088809008e-12,4.25704848489803e-11,2.48337187251798e-10,1.35015517143966e-09,6.84810268199609e-09,3.24296540680142e-08,1.4346620745733e-07,5.93132719319511e-07,2.29200636493732e-06,8.27765786581242e-06,2.79305307904934e-05,8.79935527630015e-05,0.000258574359742847,0.000707716581070522,0.00180064111848917,0.00424796126284217,0.00926187391395086,0.0185860533783155,0.0341509930687784,0.0570920493746028,0.0861649780520936,0.116328750643927,0.139018422642534,0.145386341211119,0.131841073176118,0.103525330172712,0.0708886810040547,0.0427237749316952,0.0232293853188954,0.0146601285155722
"32",1.81925418102385e-19,2.04785163651658e-18,2.24438341017548e-17,2.25369687630768e-16,2.0786056206169e-15,1.76616182827146e-14,1.38622950739085e-13,1.00741985628279e-12,6.79277102150835e-12,4.25704864361177e-11,2.48337204410311e-10,1.35015534033891e-09,6.84810419843187e-09,3.24296665082666e-08,1.43466300870264e-07,5.93133362469778e-07,2.29201043196445e-06,8.27768152507686e-06,2.79306576002317e-05,8.79941799170278e-05,0.000258577225967824,0.000707728705037436,0.00180068867332932,0.00424813465364794,0.0092624633389591,0.0185879263077729,0.0341565652107348,0.0571075903485589,0.0862052453739774,0.116425995926394,0.139238384935508,0.145822966532201,0.132632571808527,0.104852791535529,0.0723199088103677,0.0445986919150284,0.0316464966425305
"33",1.36633280770076e-20,1.70244856901616e-19,2.04606738023855e-18,2.24436476422879e-17,2.253696928027e-16,2.07860589523809e-15,1.76616225153719e-14,1.38623009466737e-13,1.0074205934826e-12,6.79277942200161e-12,4.25705735851265e-11,2.48338029589603e-10,1.35016248728609e-09,6.84816093148278e-09,3.24300800024103e-08,1.43469072412233e-07,5.93150471534185e-07,2.29210783148619e-06,8.27819348065859e-06,2.79331448971486e-05,8.80053612070152e-05,0.000258623781237696,0.000707908444969098,0.00180133299471065,0.00425028255038972,0.00926913038248503,0.0186072044047334,0.0342085228289966,0.0572372559961076,0.0865050548349576,0.117070907046711,0.140463477134241,0.147931621279172,0.135961763032168,0.108277374257275,0.0763117174786382,0.0610105371989798
"34",9.28698014713352e-22,1.28590429812669e-20,1.70132639538878e-19,2.04606148666618e-18,2.24437420877834e-17,2.25371213355832e-16,2.07862790526576e-15,1.76619116289776e-14,1.38626464646946e-13,1.00745825434264e-12,6.7931546670964e-12,4.25739985138334e-11,2.48366719263971e-10,1.35038343289058e-09,6.84972769579093e-09,3.24403242507231e-08,1.43530908698288e-07,5.93495421454473e-07,2.29388782837681e-06,8.28669661806204e-06,2.79707751918608e-05,8.81597302364742e-05,0.000259211130815602,0.000709982400835553,0.00180813299938367,0.0042709906528697,0.009327670979067,0.0187607578086242,0.0345801856470096,0.0580659080743119,0.0882102539732775,0.120177178810459,0.145539986654771,0.155433895240565,0.143249364000102,0.115618979483325,0.103860013089045
"35",5.68824998998841e-23,8.78891614049937e-22,1.28546015727046e-20,1.70166292514111e-19,2.04661815199847e-18,2.2451938107525e-17,2.25480964755708e-16,2.07996928415498e-15,1.76769192758944e-14,1.38780554011707e-13,1.00891315643462e-12,6.80580939969912e-12,4.26755464081998e-11,2.49119440449871e-10,1.35554296976595e-09,6.88246179724474e-09,3.26326959834664e-08,1.44578796164714e-07,5.98788993981257e-07,2.31869753251812e-06,8.39460702944132e-06,2.84064443869874e-05,8.97925542983814e-05,0.000264891792332878,0.00072832453301623,0.00186306865308441,0.00442340341336775,0.00971878671859968,0.0196842386541951,0.0365791249862714,0.06202897457271,0.0951636405794244,0.13100364346563,0.160493182529326,0.169027867451085,0.154615539530952,0.154275616278501
"36",3.15184023654912e-24,5.46689139428048e-23,8.89365832078385e-22,1.30396133049035e-20,1.73018957465105e-19,2.08636267971375e-18,2.29547694087437e-17,2.31283176019487e-16,2.14127389443218e-15,1.82720294018267e-14,1.44103529990182e-13,1.05288732196843e-12,7.14198422596128e-12,4.50574585690893e-11,2.64779809044338e-10,1.45117264688308e-09,7.42520115112497e-09,3.5496883176584e-08,1.58637592029338e-07,6.62981757015087e-07,2.59134670032682e-06,9.47162804236741e-06,3.23618958834757e-05,0.00010329101302832,0.000307661580272531,0.000853992118319004,0.00220478037197927,0.00528122442385511,0.0116962642196967,0.0238485422155781,0.0445592178224123,0.0755414633209761,0.115250859078489,0.156904426113878,0.182291200102894,0.183184131829654,0.197927654607541
"37",2.63499301651261e-25,5.2126587422014e-24,9.56626162893165e-23,1.57317027867927e-21,2.32871988516597e-20,3.1169652295438e-19,3.7888149935033e-18,4.19961975051219e-17,4.26089048915014e-16,3.9707653936629e-15,3.40934423646952e-14,2.70436951512845e-13,1.98643785141889e-12,1.35381583770601e-11,8.57508111825455e-11,5.054716328156e-10,2.77587390733931e-09,1.42134919609002e-08,6.78972220938081e-08,3.02698810447667e-07,1.25963211734134e-06,4.89245763431669e-06,1.77313271248055e-05,5.99321359402396e-05,0.000188768240201049,0.000553393653435945,0.00150740231088376,0.00380674636602208,0.00888236756871186,0.0190714598747969,0.0375195489146365,0.0668991178552356,0.107267211604934,0.153409858906686,0.186222427902871,0.195324071168801,0.219263421887515
