"","X0","X1","X2","X3","X4","X5","X6","X7","X8","X9","X10","X11","X12","X13","X14","X15","X16","X17","X18","X19","X20","X21","X22","X23","X24","X25","X26","X27","X28","X29","X30","X31","X32","X33","X34","X35","X36"
"1",0.443979197565515,0.254530293453341,0.162086031078047,0.0834633313657216,0.0363591895434226,0.0135633813841462,0.00438111541775918,0.00124064042134092,0.000310784036369063,6.93011898164606e-05,1.38109869726951e-05,2.46492294645993e-06,3.9413511742826e-07,5.63932456922721e-08,7.20003278400949e-09,8.16665926874867e-10,8.17849701618682e-11,7.17316830939764e-12,5.45503413181118e-13,3.5544112880299e-14,1.95748654566538e-15,8.97122141902811e-17,3.3603833353659e-18,1.00634459210723e-19,2.3412376014997e-21,4.06269542277731e-23,4.93305424799476e-25,3.7295786878544e-27,1.3185251203026e-29,0,0,0,0,0,0,0,0
"2",0.268845417663051,0.238704035596027,0.214375677046754,0.145498727029408,0.0785577882286643,0.034959585490525,0.013167586862258,0.00428130612282158,0.00121836001877172,0.000306385638799405,6.85329013048104e-05,1.36922115439623e-05,2.44872080680334e-06,3.92193004079202e-07,5.61899532166834e-08,7.18162497789673e-09,8.15240584416859e-10,8.16919111327571e-11,7.16814599349365e-12,5.45285575798472e-13,3.55367960094964e-14,1.95730517133735e-15,8.97091161684073e-17,3.36035096304707e-18,1.00634303967576e-19,2.3412376014997e-21,4.06269542277731e-23,4.93305424799476e-25,3.7295786878544e-27,1.3185251203026e-29,0,0,0,0,0,0,0
"3",0.124642733323242,0.166629079688017,0.223173711288457,0.208994733338889,0.14431252003047,0.0783071849210451,0.0348984657459678,0.0131537662255719,0.00427851592951381,0.00121786297508627,0.000306308125997529,6.85223706630691e-05,1.36909800350984e-05,2.44859856859356e-06,3.92182917622821e-07,5.61892860927759e-08,7.18159126682368e-09,8.15239342135636e-10,8.16918786828823e-11,7.16814537976791e-12,5.45285566666935e-13,3.55367959075161e-14,1.95730517080509e-15,8.97091161684073e-17,3.36035096304707e-18,1.00634303967576e-19,2.3412376014997e-21,4.06269542277731e-23,4.93305424799476e-25,3.7295786878544e-27,1.3185251203026e-29,0,0,0,0,0,0
"4",0.0457764483489361,0.0856744563030308,0.161661297532326,0.221646021874744,0.208730860451255,0.144273768915143,0.0782991749381995,0.0348967878043003,0.0131534436831542,0.00427846033533508,0.00121785453831812,0.000306307008181775,6.85222433043422e-05,1.36909677657946e-05,2.44859759386527e-06,3.9218285661972e-07,5.6189283277478e-08,7.18159117884813e-09,8.15239340496748e-10,8.16918786690624e-11,7.16814537976019e-12,5.45285566666935e-13,3.55367959075161e-14,1.95730517080509e-15,8.97091161684073e-17,3.36035096304707e-18,1.00634303967576e-19,2.3412376014997e-21,4.06269542277731e-23,4.93305424799476e-25,3.7295786878544e-27,1.3185251203026e-29,0,0,0,0,0
"5",0.0136733045522592,0.0338618338421514,0.0843478073376868,0.161287552659796,0.221593220339258,0.208726178842311,0.144273097067432,0.0782990575162106,0.0348967677723739,0.013153440456064,0.00427845986793969,0.00121785447854763,0.000306307001566789,6.85222426834443e-05,1.36909677176998e-05,2.44859759093909e-06,3.92182856489211e-07,5.61892832735647e-08,7.18159117877882e-09,8.15239340496207e-10,8.16918786690624e-11,7.16814537976019e-12,5.45285566666935e-13,3.55367959075161e-14,1.95730517080509e-15,8.97091161684073e-17,3.36035096304707e-18,1.00634303967576e-19,2.3412376014997e-21,4.06269542277731e-23,4.93305424799476e-25,3.7295786878544e-27,1.3185251203026e-29,0,0,0,0
"6",0.00338247543025011,0.0106796914655427,0.0335627082112498,0.0842686248264605,0.16127762012395,0.221592651648196,0.208726132404927,0.144273091359862,0.0782990567989423,0.0348967676745581,0.013153440443287,0.00427845986642794,0.00121785447839011,0.000306307001552757,6.85222426824091e-05,1.369096771764e-05,2.44859759093659e-06,3.92182856489142e-07,5.61892832735635e-08,7.18159117877881e-09,8.15239340496207e-10,8.16918786690624e-11,7.16814537976019e-12,5.45285566666935e-13,3.55367959075161e-14,1.95730517080509e-15,8.97091161684073e-17,3.36035096304707e-18,1.00634303967576e-19,2.3412376014997e-21,4.06269542277731e-23,4.93305424799476e-25,3.7295786878544e-27,1.3185251203026e-29,0,0,0
"7",0.000700750307040215,0.00275479396339122,0.0106226522179812,0.0335484205815974,0.0842669577283233,0.161277548803815,0.221592648395154,0.208726132134134,0.144273091340876,0.0782990567972605,0.0348967676743844,0.0131534404432701,0.00427845986642643,0.00121785447838999,0.000306307001552749,6.85222426824087e-05,1.369096771764e-05,2.44859759093659e-06,3.92182856489142e-07,5.61892832735635e-08,7.18159117877881e-09,8.15239340496207e-10,8.16918786690624e-11,7.16814537976019e-12,5.45285566666935e-13,3.55367959075161e-14,1.95730517080509e-15,8.97091161684073e-17,3.36035096304707e-18,1.00634303967576e-19,2.3412376014997e-21,4.06269542277731e-23,4.93305424799476e-25,3.7295786878544e-27,1.3185251203026e-29,0,0
"8",0.000122319308199311,0.000590057022035205,0.00274559107506049,0.0106204779091461,0.0335481802902056,0.0842669494177125,0.161277548593989,0.221592648381526,0.208726132133584,0.144273091340856,0.0782990567972591,0.0348967676743843,0.0131534404432701,0.00427845986642643,0.00121785447838999,0.000306307001552749,6.85222426824087e-05,1.369096771764e-05,2.44859759093659e-06,3.92182856489142e-07,5.61892832735635e-08,7.18159117877881e-09,8.15239340496207e-10,8.16918786690624e-11,7.16814537976019e-12,5.45285566666935e-13,3.55367959075161e-14,1.95730517080509e-15,8.97091161684073e-17,3.36035096304707e-18,1.00634303967576e-19,2.3412376014997e-21,4.06269542277731e-23,4.93305424799476e-25,3.7295786878544e-27,1.3185251203026e-29,0
"9",1.80225410348273e-05,0.000105859395221874,0.000588801856388791,0.00274531376014704,0.0106204486272983,0.0335481794359123,0.0842669494069535,0.16127754859341,0.221592648381507,0.208726132133584,0.144273091340856,0.0782990567972591,0.0348967676743843,0.0131534404432701,0.00427845986642643,0.00121785447838999,0.000306307001552749,6.85222426824087e-05,1.369096771764e-05,2.44859759093659e-06,3.92182856489142e-07,5.61892832735635e-08,7.18159117877881e-09,8.15239340496207e-10,8.16918786690624e-11,7.16814537976019e-12,5.45285566666935e-13,3.55367959075161e-14,1.95730517080509e-15,8.97091161684073e-17,3.36035096304707e-18,1.00634303967576e-19,2.3412376014997e-21,4.06269542277731e-23,4.93305424799476e-25,3.7295786878544e-27,1.3185251203026e-29
"10",2.23746132820135e-06,1.59617304661549e-05,0.000105715213686726,0.000588772445898151,0.00274531077752535,0.0106204485516217,0.0335481794354949,0.0842669494069359,0.161277548593409,0.221592648381507,0.208726132133584,0.144273091340856,0.0782990567972591,0.0348967676743843,0.0131534404432701,0.00427845986642643,0.00121785447838999,0.000306307001552749,6.85222426824087e-05,1.369096771764e-05,2.44859759093659e-06,3.92182856489142e-07,5.61892832735635e-08,7.18159117877881e-09,8.15239340496207e-10,8.16918786690624e-11,7.16814537976019e-12,5.45285566666935e-13,3.55367959075161e-14,1.95730517080509e-15,8.97091161684073e-17,3.36035096304707e-18,1.00634303967576e-19,2.3412376014997e-21,4.06269542277731e-23,4.93305424799476e-25,3.74276393905743e-27
"11",2.33051730209809e-07,2.02110164783794e-06,1.59478648734041e-05,0.000105712643906977,0.000588772194870515,0.00274531077188832,0.0106204485516094,0.0335481794354945,0.0842669494069359,0.161277548593409,0.221592648381507,0.208726132133584,0.144273091340856,0.0782990567972591,0.0348967676743843,0.0131534404432701,0.00427845986642643,0.00121785447838999,0.000306307001552749,6.85222426824087e-05,1.369096771764e-05,2.44859759093659e-06,3.92182856489142e-07,5.61892832735635e-08,7.18159117877881e-09,8.15239340496207e-10,8.16918786690624e-11,7.16814537976019e-12,5.45285566666935e-13,3.55367959075161e-14,1.95730517080509e-15,8.97091161684073e-17,3.36035096304707e-18,1.00634303967576e-19,2.3412376014997e-21,4.06269608203987e-23,4.97041596112932e-25
"12",2.02513515149416e-08,2.14109470274466e-07,2.01999343443556e-06,1.59476816088576e-05,0.00010571262663817,0.000588772194525977,0.00274531077188804,0.0106204485516094,0.0335481794354945,0.0842669494069359,0.161277548593409,0.221592648381507,0.208726132133584,0.144273091340856,0.0782990567972591,0.0348967676743843,0.0131534404432701,0.00427845986642643,0.00121785447838999,0.000306307001552749,6.85222426824087e-05,1.369096771764e-05,2.44859759093659e-06,3.92182856489142e-07,5.61892832735635e-08,7.18159117877881e-09,8.15239340496207e-10,8.16918786690624e-11,7.16814537976019e-12,5.45285566666935e-13,3.55367959075161e-14,1.95730517080509e-15,8.97091161684073e-17,3.36035096304707e-18,1.00634303967576e-19,2.34123938058491e-21,4.11222233313005e-23
"13",1.45893470237555e-09,1.8876993525901e-08,2.14036440216078e-07,2.01998286610211e-06,1.59476806474664e-05,0.000105712626621245,0.000588772194525972,0.00274531077188804,0.0106204485516094,0.0335481794354945,0.0842669494069359,0.161277548593409,0.221592648381507,0.208726132133584,0.144273091340856,0.0782990567972591,0.0348967676743843,0.0131534404432701,0.00427845986642643,0.00121785447838999,0.000306307001552749,6.85222426824087e-05,1.369096771764e-05,2.44859759093659e-06,3.92182856489142e-07,5.61892832735635e-08,7.18159117877881e-09,8.15239340496207e-10,8.16918786690624e-11,7.16814537976019e-12,5.45285566666935e-13,3.55367959075161e-14,1.95730517080509e-15,8.97091161684073e-17,3.36035096307344e-18,1.00634528293184e-19,2.38213725193705e-21
"14",8.65481149466974e-11,1.3768512023071e-09,1.88730603355419e-08,2.14035952325873e-07,2.01998282322417e-06,1.59476806468101e-05,0.000105712626621245,0.000588772194525972,0.00274531077188804,0.0106204485516094,0.0335481794354945,0.0842669494069359,0.161277548593409,0.221592648381507,0.208726132133584,0.144273091340856,0.0782990567972591,0.0348967676743843,0.0131534404432701,0.00427845986642643,0.00121785447838999,0.000306307001552749,6.85222426824087e-05,1.369096771764e-05,2.44859759093659e-06,3.92182856489142e-07,5.61892832735635e-08,7.18159117877881e-09,8.15239340496207e-10,8.16918786690624e-11,7.16814537976019e-12,5.45285566666935e-13,3.55367959075161e-14,1.95730517080606e-15,8.9709116182756e-17,3.36036860157306e-18,1.02999011654597e-19
"15",4.19557747443562e-12,8.25432197935547e-11,1.37667986591069e-09,1.88730425229981e-08,2.14035950812201e-07,2.01998282320446e-06,1.59476806468101e-05,0.000105712626621245,0.000588772194525972,0.00274531077188804,0.0106204485516094,0.0335481794354945,0.0842669494069359,0.161277548593409,0.221592648381507,0.208726132133584,0.144273091340856,0.0782990567972591,0.0348967676743843,0.0131534404432701,0.00427845986642643,0.00121785447838999,0.000306307001552749,6.85222426824087e-05,1.369096771764e-05,2.44859759093659e-06,3.92182856489142e-07,5.61892832735635e-08,7.18159117877881e-09,8.15239340496207e-10,8.16918786690624e-11,7.1681453797602e-12,5.45285566666995e-13,3.55367959079423e-14,1.95730517392709e-15,8.97100915302813e-17,3.46238865144516e-18
"16",1.64655625736909e-13,4.03742827378239e-12,8.25372613685082e-11,1.37667935997469e-09,1.88730424813813e-08,2.14035950811754e-07,2.01998282320446e-06,1.59476806468101e-05,0.000105712626621245,0.000588772194525972,0.00274531077188804,0.0106204485516094,0.0335481794354945,0.0842669494069359,0.161277548593409,0.221592648381507,0.208726132133584,0.144273091340856,0.0782990567972591,0.0348967676743843,0.0131534404432701,0.00427845986642643,0.00121785447838999,0.000306307001552749,6.85222426824087e-05,1.369096771764e-05,2.44859759093659e-06,3.92182856489142e-07,5.61892832735635e-08,7.18159117877881e-09,8.15239340496207e-10,8.1691878669064e-11,7.16814537977271e-12,5.4528556674007e-13,3.55367962893371e-14,1.95734580187752e-15,9.31313834500543e-17
"17",5.1677425021413e-15,1.59662221790505e-13,4.03726573152762e-12,8.25372504500907e-11,1.3766793591042e-09,1.88730424813739e-08,2.14035950811754e-07,2.01998282320446e-06,1.59476806468101e-05,0.000105712626621245,0.000588772194525972,0.00274531077188804,0.0106204485516094,0.0335481794354945,0.0842669494069359,0.161277548593409,0.221592648381507,0.208726132133584,0.144273091340856,0.0782990567972591,0.0348967676743843,0.0131534404432701,0.00427845986642643,0.00121785447838999,0.000306307001552749,6.85222426824087e-05,1.369096771764e-05,2.44859759093659e-06,3.92182856489142e-07,5.61892832735635e-08,7.18159117877883e-09,8.1523934049639e-10,8.16918786704025e-11,7.16814538686007e-12,5.45285596981955e-13,3.55381320615911e-14,2.04910254413661e-15
"18",1.27538403266085e-16,5.04378296381819e-15,1.59658829023544e-13,4.03726555887449e-12,8.25372504367298e-11,1.37667935910412e-09,1.88730424813739e-08,2.14035950811754e-07,2.01998282320446e-06,1.59476806468101e-05,0.000105712626621245,0.000588772194525972,0.00274531077188804,0.0106204485516094,0.0335481794354945,0.0842669494069359,0.161277548593409,0.221592648381507,0.208726132133584,0.144273091340856,0.0782990567972591,0.0348967676743843,0.0131534404432701,0.00427845986642643,0.00121785447838999,0.000306307001552749,6.85222426824087e-05,1.369096771764e-05,2.44859759093659e-06,3.92182856489142e-07,5.61892832735647e-08,7.1815911787914e-09,8.1523934058645e-10,8.16918791208792e-11,7.16814707055671e-12,5.45321491839944e-13,3.75491016546993e-14
"19",2.41560381698707e-18,1.251770231771e-16,5.04373076626441e-15,1.59658827139675e-13,4.03726555873277e-12,8.25372504367292e-11,1.37667935910412e-09,1.88730424813739e-08,2.14035950811754e-07,2.01998282320446e-06,1.59476806468101e-05,0.000105712626621245,0.000588772194525972,0.00274531077188804,0.0106204485516094,0.0335481794354945,0.0842669494069359,0.161277548593409,0.221592648381507,0.208726132133584,0.144273091340856,0.0782990567972591,0.0348967676743843,0.0131534404432701,0.00427845986642643,0.00121785447838999,0.000306307001552749,6.85222426824087e-05,1.369096771764e-05,2.44859759093659e-06,3.921828564892e-07,5.61892832741605e-08,7.18159118299894e-09,8.15239360873717e-10,8.16919482592043e-11,7.16895662072729e-12,5.81966753361291e-13
"20",3.38354453801374e-20,2.38233878889714e-18,1.25176466350784e-16,5.04373075360275e-15,1.59658827138748e-13,4.03726555873277e-12,8.25372504367292e-11,1.37667935910412e-09,1.88730424813739e-08,2.14035950811754e-07,2.01998282320446e-06,1.59476806468101e-05,0.000105712626621245,0.000588772194525972,0.00274531077188804,0.0106204485516094,0.0335481794354945,0.0842669494069359,0.161277548593409,0.221592648381507,0.208726132133584,0.144273091340856,0.0782990567972591,0.0348967676743843,0.0131534404432701,0.00427845986642643,0.00121785447838999,0.000306307001552749,6.85222426824087e-05,1.36909677176401e-05,2.44859759093858e-06,3.92182856509842e-07,5.61892834185945e-08,7.18159186212212e-09,8.15241526353131e-10,8.17075633259464e-11,7.73229650291591e-12
"21",3.29796838774139e-22,3.35093643738974e-20,2.38233511535793e-18,1.2517646631131e-16,5.04373075359993e-15,1.59658827138748e-13,4.03726555873277e-12,8.25372504367292e-11,1.37667935910412e-09,1.88730424813739e-08,2.14035950811754e-07,2.01998282320446e-06,1.59476806468101e-05,0.000105712626621245,0.000588772194525972,0.00274531077188804,0.0106204485516094,0.0335481794354945,0.0842669494069359,0.161277548593409,0.221592648381507,0.208726132133584,0.144273091340856,0.0782990567972591,0.0348967676743843,0.0131534404432701,0.00427845986642643,0.00121785447838999,0.000306307001552749,6.85222426824121e-05,1.36909677176928e-05,2.44859759148257e-06,3.92182860289934e-07,5.6189300878311e-08,7.18164489152236e-09,8.15502090124519e-10,8.91044266717472e-11
"22",1.99536956585303e-24,3.27812747427673e-22,3.3509353095678e-20,2.38233511535793e-18,1.2517646631131e-16,5.04373075359993e-15,1.59658827138748e-13,4.03726555873277e-12,8.25372504367292e-11,1.37667935910412e-09,1.88730424813739e-08,2.14035950811754e-07,2.01998282320446e-06,1.59476806468101e-05,0.000105712626621245,0.000588772194525972,0.00274531077188804,0.0106204485516094,0.0335481794354945,0.0842669494069359,0.161277548593409,0.221592648381507,0.208726132133584,0.144273091340856,0.0782990567972591,0.0348967676743843,0.0131534404432701,0.00427845986642643,0.00121785447839,0.00030630700155282,6.85222426835003e-05,1.36909677289041e-05,2.44859766896308e-06,3.92183213580982e-07,5.61903365028477e-08,7.18542754607987e-09,8.99345092496073e-10
"23",5.63910969380341e-27,1.98973045615923e-24,3.27812747427673e-22,3.3509353095678e-20,2.38233511535793e-18,1.2517646631131e-16,5.04373075359993e-15,1.59658827138748e-13,4.03726555873277e-12,8.25372504367292e-11,1.37667935910412e-09,1.88730424813739e-08,2.14035950811754e-07,2.01998282320446e-06,1.59476806468101e-05,0.000105712626621245,0.000588772194525972,0.00274531077188804,0.0106204485516094,0.0335481794354945,0.0842669494069359,0.161277548593409,0.221592648381507,0.208726132133584,0.144273091340856,0.0782990567972591,0.0348967676743843,0.0131534404432701,0.00427845986642648,0.00121785447839118,0.000306307001570833,6.85222428683001e-05,1.36909689999268e-05,2.448603410459e-06,3.92199623167055e-07,5.6238226783078e-08,8.01325620730699e-09
"24",0,5.63910969380341e-27,1.98973045615923e-24,3.27812747427673e-22,3.3509353095678e-20,2.38233511535793e-18,1.2517646631131e-16,5.04373075359993e-15,1.59658827138748e-13,4.03726555873277e-12,8.25372504367292e-11,1.37667935910412e-09,1.88730424813739e-08,2.14035950811754e-07,2.01998282320446e-06,1.59476806468101e-05,0.000105712626621245,0.000588772194525972,0.00274531077188804,0.0106204485516094,0.0335481794354945,0.0842669494069359,0.161277548593409,0.221592648381507,0.208726132133584,0.144273091340856,0.0782990567972591,0.0348967676743843,0.0131534404432708,0.00427845986644258,0.00121785447863473,0.00030630700405563,6.8522259878286e-05,1.36910453145391e-05,2.44881779252697e-06,3.9272935809842e-07,6.34112962173692e-08
"25",0,0,5.63910969380341e-27,1.98973045615923e-24,3.27812747427673e-22,3.3509353095678e-20,2.38233511535793e-18,1.2517646631131e-16,5.04373075359993e-15,1.59658827138748e-13,4.03726555873277e-12,8.25372504367292e-11,1.37667935910412e-09,1.88730424813739e-08,2.14035950811754e-07,2.01998282320446e-06,1.59476806468101e-05,0.000105712626621245,0.000588772194525972,0.00274531077188804,0.0106204485516094,0.0335481794354945,0.0842669494069359,0.161277548593409,0.221592648381507,0.208726132133584,0.144273091340856,0.0782990567972594,0.0348967676743926,0.0131534404434542,0.00427845986918379,0.00121785450639225,0.000306307193097923,6.85231037166951e-05,1.36933903140684e-05,2.45395066611371e-06,4.4759920987849e-07
"26",0,0,0,5.63910969380341e-27,1.98973045615923e-24,3.27812747427673e-22,3.3509353095678e-20,2.38233511535793e-18,1.2517646631131e-16,5.04373075359993e-15,1.59658827138748e-13,4.03726555873277e-12,8.25372504367292e-11,1.37667935910412e-09,1.88730424813739e-08,2.14035950811754e-07,2.01998282320446e-06,1.59476806468101e-05,0.000105712626621245,0.000588772194525972,0.00274531077188804,0.0106204485516094,0.0335481794354945,0.0842669494069359,0.161277548593409,0.221592648381507,0.208726132133584,0.144273091340859,0.0782990567973416,0.0348967676761712,0.0131534404695945,0.00427846013116176,0.001217856279551,0.000306315076327792,6.85448845078949e-05,1.37371025340602e-05,2.82611049447012e-06
"27",0,0,0,0,5.63910969380341e-27,1.98973045615923e-24,3.27812747427673e-22,3.3509353095678e-20,2.38233511535793e-18,1.2517646631131e-16,5.04373075359993e-15,1.59658827138748e-13,4.03726555873277e-12,8.25372504367292e-11,1.37667935910412e-09,1.88730424813739e-08,2.14035950811754e-07,2.01998282320446e-06,1.59476806468101e-05,0.000105712626621245,0.000588772194525972,0.00274531077188804,0.0106204485516094,0.0335481794354945,0.0842669494069359,0.161277548593409,0.221592648381508,0.208726132133608,0.144273091341579,0.0782990568122958,0.0348967678907295,0.0131534425891884,0.00427847436184972,0.001217919314526,0.000306488890361739,6.88731244614094e-05,1.59815435273126e-05
"28",0,0,0,0,0,5.63910969380341e-27,1.98973045615923e-24,3.27812747427673e-22,3.3509353095678e-20,2.38233511535793e-18,1.2517646631131e-16,5.04373075359993e-15,1.59658827138748e-13,4.03726555873277e-12,8.25372504367292e-11,1.37667935910412e-09,1.88730424813739e-08,2.14035950811754e-07,2.01998282320446e-06,1.59476806468101e-05,0.000105712626621245,0.000588772194525972,0.00274531077188804,0.0106204485516094,0.0335481794354945,0.084266949406936,0.161277548593415,0.221592648381719,0.208726132139295,0.144273091452683,0.0782990583506618,0.0348967827743519,0.0131535413879074,0.0042789101057758,0.00121912163112339,0.000308667347781924,8.09228123293594e-05
"29",0,0,0,0,0,0,5.63910969380341e-27,1.98973045615923e-24,3.27812747427673e-22,3.3509353095678e-20,2.38233511535793e-18,1.2517646631131e-16,5.04373075359993e-15,1.59658827138748e-13,4.03726555873277e-12,8.25372504367292e-11,1.37667935910412e-09,1.88730424813739e-08,2.14035950811754e-07,2.01998282320446e-06,1.59476806468101e-05,0.000105712626621245,0.000588772194525972,0.00274531077188804,0.0106204485516095,0.0335481794354968,0.0842669494070048,0.161277548595271,0.221592648423979,0.20872613288832,0.144273101257951,0.0782991501978444,0.0348973819145352,0.0131561662490537,0.00428616584757139,0.00123191369469603,0.000366215907751937
"30",0,0,0,0,0,0,0,5.63910969380341e-27,1.98973045615923e-24,3.27812747427673e-22,3.3509353095678e-20,2.38233511535793e-18,1.2517646631131e-16,5.04373075359993e-15,1.59658827138748e-13,4.03726555873277e-12,8.25372504367292e-11,1.37667935910412e-09,1.88730424813739e-08,2.14035950811754e-07,2.01998282320446e-06,1.59476806468101e-05,0.000105712626621246,0.000588772194526004,0.00274531077188919,0.0106204485516425,0.03354817943629,0.0842669494237454,0.161277548904712,0.221592653176361,0.208726189829861,0.144273607523326,0.0783023589991274,0.0349112669870024,0.0131945609250722,0.00435258834938505,0.00147565026455753
"31",0,0,0,0,0,0,0,0,5.63910969380341e-27,1.98973045615923e-24,3.27812747427673e-22,3.3509353095678e-20,2.38233511535793e-18,1.2517646631131e-16,5.04373075359993e-15,1.59658827138748e-13,4.03726555873277e-12,8.25372504367292e-11,1.37667935910412e-09,1.88730424813739e-08,2.14035950811755e-07,2.01998282320459e-06,1.59476806468188e-05,0.000105712626621653,0.000588772194540199,0.0027453107722694,0.0106204485597902,0.0335481795819822,0.084266951656264,0.161277577977139,0.221592962001097,0.208728729167816,0.144288975879274,0.0783673598747782,0.0350900714271301,0.0134986880126414,0.00526205823277674
"32",0,0,0,0,0,0,0,0,0,5.63910969380341e-27,1.98973045615923e-24,3.27812747427673e-22,3.3509353095678e-20,2.38233511535793e-18,1.2517646631131e-16,5.04373075359993e-15,1.59658827138748e-13,4.03726555873279e-12,8.25372504367321e-11,1.37667935910441e-09,1.88730424813979e-08,2.14035950813452e-07,2.01998282329935e-06,1.5947680650875e-05,0.000105712626754366,0.000588772197900796,0.0027453108395143,0.01062044965089,0.0335481942927469,0.0842671181835126,0.161279138248247,0.221604624661401,0.208794977959294,0.144559287833077,0.0791003700341837,0.0363112346459657,0.0164566067906281
"33",0,0,0,0,0,0,0,0,0,0,5.63910969380341e-27,1.98973045615923e-24,3.27812747427673e-22,3.3509353095678e-20,2.38233511535793e-18,1.25176466311321e-16,5.04373075360442e-15,1.59658827139596e-13,4.0372655588301e-12,8.25372504445274e-11,1.37667935958401e-09,1.88730425055134e-08,2.14035951828032e-07,2.01998285876325e-06,1.5947681663301e-05,0.000105712650084376,0.000588772631132803,0.00274531736926827,0.0106205304703682,0.0335490228142123,0.0842741258939543,0.161326981094103,0.221858297211237,0.209785158732164,0.147185472569916,0.0833643105659767,0.0445780959606491
"34",0,0,0,0,0,0,0,0,0,0,0,5.63910969380341e-27,1.98973045615923e-24,3.27812747427673e-22,3.35093530957738e-20,2.38233511571075e-18,1.25176466432539e-16,5.04373077369672e-15,1.59658829214841e-13,4.03726570816275e-12,8.25372584441273e-11,1.37667969379556e-09,1.88730537770178e-08,2.14036265942393e-07,2.01999017800606e-06,1.59478245817446e-05,0.000105714982758629,0.000588804376186444,0.00274567732289196,0.0106239269553446,0.0335755077097609,0.0844417822136225,0.162162061204948,0.224978743445168,0.217868281244381,0.159977965983862,0.102913332373579
"35",0,0,0,0,0,0,0,0,0,0,0,0,5.63910969380341e-27,1.98973045615923e-24,3.27812754069057e-22,3.35093599596006e-20,2.38233705625949e-18,1.25176754942291e-16,5.04375825218583e-15,1.59660670423098e-13,4.03735733182737e-12,8.25407668221353e-11,1.37678574333435e-09,1.88756354094858e-08,2.14087721369155e-07,2.02084163038278e-06,1.5959656384566e-05,0.000105854227225864,0.000590197994508656,0.00275751202252228,0.0107082885553449,0.0340702253053915,0.0867580961474777,0.170448295412055,0.245944499175275,0.250292492104719,0.198306324130582
"36",0,0,0,0,0,0,0,0,0,0,0,0,0,5.63910969380341e-27,1.98989332173179e-24,3.27902062304093e-22,3.35295097463003e-20,2.38497233423417e-18,1.25406382476018e-16,5.05810834194091e-15,1.60333008906516e-13,4.06166754606291e-12,8.32328614854182e-11,1.39253155655155e-09,1.91653850497498e-08,2.18448418525154e-07,2.07513505906536e-06,1.65257685083704e-05,0.000110853604644602,0.000627817443665392,0.00299771484430891,0.0119884588916319,0.0396105109179222,0.105442372747016,0.215946710168124,0.313692375762923,0.309564345622403
"37",0,0,0,0,0,0,0,0,0,0,0,0,0,0,7.37194414745912e-27,2.70046388857531e-24,4.61481545323605e-22,4.8884509420686e-20,3.59778429274983e-18,1.95463053759694e-16,8.13188439397181e-15,2.65336085944848e-13,6.902146663106e-12,1.44823502320964e-10,2.47306746747329e-09,3.46290599179062e-08,4.00474830575956e-07,3.85380504494009e-06,3.1091682664732e-05,0.00021153323185556,0.00121522623571339,0.0058601051312953,0.0233810860713203,0.075279045175326,0.186871443006337,0.328261548156185,0.378884629775301
