"","X0","X1","X2","X3","X4","X5","X6","X7","X8","X9","X10","X11","X12","X13","X14","X15","X16","X17","X18","X19","X20","X21","X22","X23","X24","X25","X26","X27","X28","X29","X30","X31","X32","X33","X34","X35","X36"
"1",0.0325698481939,0.0824392313508413,0.125544060486572,0.158882899894257,0.162803159562219,0.142921294321926,0.109479902600722,0.073717614778467,0.0434685400292368,0.0221841638736036,0.010541702722485,0.00609448604520941,0.00517779706147717,0.00543224240590743,0.00541825476718292,0.0047058778862876,0.00359461611383993,0.00241923638749762,0.00142586738266696,0.000723290684007701,0.000308635961487045,0.000108525902480952,3.06936674237056e-05,6.78667170362972e-06,1.12854375618517e-06,1.3224803040074e-07,9.99641812468023e-09,4.49591138858559e-10,1.06971259445233e-11,1.02378837314278e-13,0,0,0,0,0,0,0
"2",0.00730473481626012,0.0385121562004061,0.0871581313679346,0.13005733179859,0.157098543601954,0.159708211569115,0.138223867357885,0.104852397920511,0.0700936006038123,0.041067293510012,0.0209525622720927,0.0100846251584672,0.00599794218729843,0.0051964967677017,0.00542460220912487,0.00534832502873899,0.0046047624398229,0.00349110851995388,0.00233399647889667,0.00136708087239434,0.000689656966038211,0.000293070590436817,0.000102792435221542,2.90582972963012e-05,6.43765889077884e-06,1.07584629837162e-06,1.27303619203263e-07,9.76618294824122e-09,4.44293765304955e-10,1.06459365258661e-11,1.02378837314278e-13,0,0,0,0,0,0
"3",0.000741622635197925,0.0075993428632919,0.0387361807977952,0.0874847547859986,0.129744914289009,0.156884199145668,0.159389157072969,0.137930666483873,0.104643074366771,0.0699642265137947,0.0410050802044188,0.0209283778156418,0.0100783929728948,0.00599773531508974,0.00519601237178438,0.00542217626437035,0.00534492420219989,0.00460131675924736,0.003488293829246,0.00233207081871758,0.00136599031756903,0.000689159371761582,0.000292890750923647,0.000102742515859793,2.90480690871718e-05,6.43621577171902e-06,1.07572960433212e-06,1.2730024106727e-07,9.76615735353189e-09,4.44293765304955e-10,1.06459365258661e-11,1.02378837314278e-13,0,0,0,0,0
"4",4.05138137223029e-05,0.000747871528517686,0.00760378033890428,0.0387503088030129,0.0874637325628766,0.129736549826598,0.156871755817716,0.15937850643748,0.137924021437945,0.104639421442692,0.0699627094326126,0.0410044621551065,0.0209281923203879,0.0100783592184911,0.0059977231476804,0.00519598331384492,0.00542213697535364,0.00534488459036218,0.00460128449086281,0.00348827181306235,0.00233205839384965,0.00136598467606427,0.000689157346203345,0.000292890194018956,0.000102742403402764,2.90480536143575e-05,6.43621459472803e-06,1.07572957873741e-06,1.2730024106727e-07,9.76615735353189e-09,4.44293765304955e-10,1.06459365258661e-11,1.02378837314278e-13,0,0,0,0
"5",1.23849707194224e-06,4.0537363573866e-05,0.000747877758043621,0.00760415612734955,0.03874960132724,0.0874635350306839,0.129736254362844,0.15687151757678,0.159378381607736,0.137923965202787,0.104639406108056,0.0699627031687829,0.0410044601479874,0.0209281917672147,0.0100783591065485,0.00599772313224679,0.00519598331266879,0.00542213697532804,0.00534488459036218,0.00460128449086281,0.00348827181306235,0.00233205839384965,0.00136598467606427,0.000689157346203345,0.000292890194018956,0.000102742403402764,2.90480536143575e-05,6.43621459472803e-06,1.07572957873741e-06,1.2730024106727e-07,9.76615735353189e-09,4.44293765304955e-10,1.06459365258661e-11,1.02378837314278e-13,0,0,0
"6",2.00226954029019e-08,1.23756328553626e-06,4.05364918378717e-05,0.000747883502271853,0.00760414421474,0.0387495986053896,0.0874635309257114,0.129736251136054,0.156871516127557,0.159378381094458,0.13792396517605,0.104639406102114,0.0699627031687829,0.0410044601479874,0.0209281917672147,0.0100783591065485,0.00599772313224679,0.00519598331266879,0.00542213697532804,0.00534488459036218,0.00460128449086281,0.00348827181306235,0.00233205839384965,0.00136598467606427,0.000689157346203345,0.000292890194018956,0.000102742403402764,2.90480536143575e-05,6.43621459472803e-06,1.07572957873741e-06,1.2730024106727e-07,9.76615735353189e-09,4.44293765304955e-10,1.06459365258661e-11,1.02378837314278e-13,0,0
"7",1.33686651403689e-10,2.0013782959475e-08,1.23755585850007e-06,4.05365304584599e-05,0.000747883422059862,0.00760414419765782,0.038749598579395,0.0874635309049157,0.129736251127142,0.156871516124586,0.159378381094458,0.13792396517605,0.104639406102114,0.0699627031687829,0.0410044601479874,0.0209281917672147,0.0100783591065485,0.00599772313224679,0.00519598331266879,0.00542213697532804,0.00534488459036218,0.00460128449086281,0.00348827181306235,0.00233205839384965,0.00136598467606427,0.000689157346203345,0.000292890194018956,0.000102742403402764,2.90480536143575e-05,6.43621459472803e-06,1.07572957873741e-06,1.2730024106727e-07,9.76615735353189e-09,4.44293765304955e-10,1.06459365258661e-11,1.02378837314278e-13,0
"8",0,1.33686651403689e-10,2.0013782959475e-08,1.23755585850007e-06,4.05365304584599e-05,0.000747883422059862,0.00760414419765782,0.038749598579395,0.0874635309049157,0.129736251127142,0.156871516124586,0.159378381094458,0.13792396517605,0.104639406102114,0.0699627031687829,0.0410044601479874,0.0209281917672147,0.0100783591065485,0.00599772313224679,0.00519598331266879,0.00542213697532804,0.00534488459036218,0.00460128449086281,0.00348827181306235,0.00233205839384965,0.00136598467606427,0.000689157346203345,0.000292890194018956,0.000102742403402764,2.90480536143575e-05,6.43621459472803e-06,1.07572957873741e-06,1.2730024106727e-07,9.76615735353189e-09,4.44293765304955e-10,1.06459365258661e-11,1.02378837314278e-13
"9",0,0,1.33686651403689e-10,2.0013782959475e-08,1.23755585850007e-06,4.05365304584599e-05,0.000747883422059862,0.00760414419765782,0.038749598579395,0.0874635309049157,0.129736251127142,0.156871516124586,0.159378381094458,0.13792396517605,0.104639406102114,0.0699627031687829,0.0410044601479874,0.0209281917672147,0.0100783591065485,0.00599772313224679,0.00519598331266879,0.00542213697532804,0.00534488459036218,0.00460128449086281,0.00348827181306235,0.00233205839384965,0.00136598467606427,0.000689157346203345,0.000292890194018956,0.000102742403402764,2.90480536143575e-05,6.43621459472803e-06,1.07572957873741e-06,1.2730024106727e-07,9.76615735353189e-09,4.44293765304955e-10,1.07483153631804e-11
"10",0,0,0,1.33686651403689e-10,2.0013782959475e-08,1.23755585850007e-06,4.05365304584599e-05,0.000747883422059862,0.00760414419765782,0.038749598579395,0.0874635309049157,0.129736251127142,0.156871516124586,0.159378381094458,0.13792396517605,0.104639406102114,0.0699627031687829,0.0410044601479874,0.0209281917672147,0.0100783591065485,0.00599772313224679,0.00519598331266879,0.00542213697532804,0.00534488459036218,0.00460128449086281,0.00348827181306235,0.00233205839384965,0.00136598467606427,0.000689157346203345,0.000292890194018956,0.000102742403402764,2.90480536143575e-05,6.43621459472803e-06,1.07572957873741e-06,1.2730024106727e-07,9.76615735353189e-09,4.55042080668135e-10
"11",0,0,0,0,1.33686651403689e-10,2.0013782959475e-08,1.23755585850007e-06,4.05365304584599e-05,0.000747883422059862,0.00760414419765782,0.038749598579395,0.0874635309049157,0.129736251127142,0.156871516124586,0.159378381094458,0.13792396517605,0.104639406102114,0.0699627031687829,0.0410044601479874,0.0209281917672147,0.0100783591065485,0.00599772313224679,0.00519598331266879,0.00542213697532804,0.00534488459036218,0.00460128449086281,0.00348827181306235,0.00233205839384965,0.00136598467606427,0.000689157346203345,0.000292890194018956,0.000102742403402764,2.90480536143575e-05,6.43621459472803e-06,1.07572957873741e-06,1.2730024106727e-07,1.02211994342e-08
"12",0,0,0,0,0,1.33686651403689e-10,2.0013782959475e-08,1.23755585850007e-06,4.05365304584599e-05,0.000747883422059862,0.00760414419765782,0.038749598579395,0.0874635309049157,0.129736251127142,0.156871516124586,0.159378381094458,0.13792396517605,0.104639406102114,0.0699627031687829,0.0410044601479874,0.0209281917672147,0.0100783591065485,0.00599772313224679,0.00519598331266879,0.00542213697532804,0.00534488459036218,0.00460128449086281,0.00348827181306235,0.00233205839384965,0.00136598467606427,0.000689157346203345,0.000292890194018956,0.000102742403402764,2.90480536143575e-05,6.43621459472803e-06,1.07572957873741e-06,1.3752144050147e-07
"13",0,0,0,0,0,0,1.33686651403689e-10,2.0013782959475e-08,1.23755585850007e-06,4.05365304584599e-05,0.000747883422059862,0.00760414419765782,0.038749598579395,0.0874635309049157,0.129736251127142,0.156871516124586,0.159378381094458,0.13792396517605,0.104639406102114,0.0699627031687829,0.0410044601479874,0.0209281917672147,0.0100783591065485,0.00599772313224679,0.00519598331266879,0.00542213697532804,0.00534488459036218,0.00460128449086281,0.00348827181306235,0.00233205839384965,0.00136598467606427,0.000689157346203345,0.000292890194018956,0.000102742403402764,2.90480536143575e-05,6.43621459472803e-06,1.21325101923888e-06
"14",0,0,0,0,0,0,0,1.33686651403689e-10,2.0013782959475e-08,1.23755585850007e-06,4.05365304584599e-05,0.000747883422059862,0.00760414419765782,0.038749598579395,0.0874635309049157,0.129736251127142,0.156871516124586,0.159378381094458,0.13792396517605,0.104639406102114,0.0699627031687829,0.0410044601479874,0.0209281917672147,0.0100783591065485,0.00599772313224679,0.00519598331266879,0.00542213697532804,0.00534488459036218,0.00460128449086281,0.00348827181306235,0.00233205839384965,0.00136598467606427,0.000689157346203345,0.000292890194018956,0.000102742403402764,2.90480536143575e-05,7.64946561396691e-06
"15",0,0,0,0,0,0,0,0,1.33686651403689e-10,2.0013782959475e-08,1.23755585850007e-06,4.05365304584599e-05,0.000747883422059862,0.00760414419765782,0.038749598579395,0.0874635309049157,0.129736251127142,0.156871516124586,0.159378381094458,0.13792396517605,0.104639406102114,0.0699627031687829,0.0410044601479874,0.0209281917672147,0.0100783591065485,0.00599772313224679,0.00519598331266879,0.00542213697532804,0.00534488459036218,0.00460128449086281,0.00348827181306235,0.00233205839384965,0.00136598467606427,0.000689157346203345,0.000292890194018956,0.000102742403402764,3.66975192283244e-05
"16",0,0,0,0,0,0,0,0,0,1.33686651403689e-10,2.0013782959475e-08,1.23755585850007e-06,4.05365304584599e-05,0.000747883422059862,0.00760414419765782,0.038749598579395,0.0874635309049157,0.129736251127142,0.156871516124586,0.159378381094458,0.13792396517605,0.104639406102114,0.0699627031687829,0.0410044601479874,0.0209281917672147,0.0100783591065485,0.00599772313224679,0.00519598331266879,0.00542213697532804,0.00534488459036218,0.00460128449086281,0.00348827181306235,0.00233205839384965,0.00136598467606427,0.000689157346203345,0.000292890194018956,0.000139439922631089
"17",0,0,0,0,0,0,0,0,0,0,1.33686651403689e-10,2.0013782959475e-08,1.23755585850007e-06,4.05365304584599e-05,0.000747883422059862,0.00760414419765782,0.038749598579395,0.0874635309049157,0.129736251127142,0.156871516124586,0.159378381094458,0.13792396517605,0.104639406102114,0.0699627031687829,0.0410044601479874,0.0209281917672147,0.0100783591065485,0.00599772313224679,0.00519598331266879,0.00542213697532804,0.00534488459036218,0.00460128449086281,0.00348827181306235,0.00233205839384965,0.00136598467606427,0.000689157346203345,0.000432330116650044
"18",0,0,0,0,0,0,0,0,0,0,0,1.33686651403689e-10,2.0013782959475e-08,1.23755585850007e-06,4.05365304584599e-05,0.000747883422059862,0.00760414419765782,0.038749598579395,0.0874635309049157,0.129736251127142,0.156871516124586,0.159378381094458,0.13792396517605,0.104639406102114,0.0699627031687829,0.0410044601479874,0.0209281917672147,0.0100783591065485,0.00599772313224679,0.00519598331266879,0.00542213697532804,0.00534488459036218,0.00460128449086281,0.00348827181306235,0.00233205839384965,0.00136598467606427,0.00112148746285339
"19",0,0,0,0,0,0,0,0,0,0,0,0,1.33686651403689e-10,2.0013782959475e-08,1.23755585850007e-06,4.05365304584599e-05,0.000747883422059862,0.00760414419765782,0.038749598579395,0.0874635309049157,0.129736251127142,0.156871516124586,0.159378381094458,0.13792396517605,0.104639406102114,0.0699627031687829,0.0410044601479874,0.0209281917672147,0.0100783591065485,0.00599772313224679,0.00519598331266879,0.00542213697532804,0.00534488459036218,0.00460128449086281,0.00348827181306235,0.00233205839615318,0.00248747213661414
"20",0,0,0,0,0,0,0,0,0,0,0,0,0,1.33686651403689e-10,2.0013782959475e-08,1.23755585850007e-06,4.05365304584599e-05,0.000747883422059862,0.00760414419765782,0.038749598579395,0.0874635309049157,0.129736251127142,0.156871516124586,0.159378381094458,0.13792396517605,0.104639406102114,0.0699627031687829,0.0410044601479874,0.0209281917672147,0.0100783591065485,0.00599772313224679,0.00519598331266879,0.00542213697532804,0.00534488459036218,0.00460128449119188,0.00348827204533433,0.00481953030016626
"21",0,0,0,0,0,0,0,0,0,0,0,0,0,0,1.33686651403689e-10,2.0013782959475e-08,1.23755585850007e-06,4.05365304584599e-05,0.000747883422059862,0.00760414419765782,0.038749598579395,0.0874635309049157,0.129736251127142,0.156871516124586,0.159378381094458,0.13792396517605,0.104639406102114,0.0699627031687829,0.0410044601479874,0.0209281917672147,0.0100783591065485,0.00599772313224679,0.00519598331266879,0.00542213697532804,0.00534488462201917,0.00460129371741658,0.0083077930876189
"22",0,0,0,0,0,0,0,0,0,0,0,0,0,0,0,1.33686651403689e-10,2.0013782959475e-08,1.23755585850007e-06,4.05365304584599e-05,0.000747883422059862,0.00760414419765782,0.038749598579395,0.0874635309049157,0.129736251127142,0.156871516124586,0.159378381094458,0.13792396517605,0.104639406102114,0.0699627031687829,0.0410044601479874,0.0209281917672147,0.0100783591065485,0.00599772313224679,0.00519598331266879,0.00542213814668271,0.00534507140073417,0.0129088988549658
"23",0,0,0,0,0,0,0,0,0,0,0,0,0,0,0,0,1.33686651403689e-10,2.0013782959475e-08,1.23755585850007e-06,4.05365304584599e-05,0.000747883422059862,0.00760414419765782,0.038749598579395,0.0874635309049157,0.129736251127142,0.156871516124586,0.159378381094458,0.13792396517605,0.104639406102114,0.0699627031687829,0.0410044601479874,0.0209281917672147,0.0100783591065485,0.00599772313224679,0.00519600456806572,0.00542425782335491,0.0182518293236309
"24",0,0,0,0,0,0,0,0,0,0,0,0,0,0,0,0,0,1.33686651403689e-10,2.0013782959475e-08,1.23755585850007e-06,4.05365304584599e-05,0.000747883422059862,0.00760414419765782,0.038749598579395,0.0874635309049157,0.129736251127142,0.156871516124586,0.159378381094458,0.13792396517605,0.104639406102114,0.0699627031687829,0.0410044601479874,0.0209281917672147,0.0100783591065485,0.00599792745986083,0.00521030106016896,0.0236615863272685
"25",0,0,0,0,0,0,0,0,0,0,0,0,0,0,0,0,0,0,1.33686651403689e-10,2.0013782959475e-08,1.23755585850007e-06,4.05365304584599e-05,0.000747883422059862,0.00760414419765782,0.0387495985972199,0.0874635320583047,0.129736275085072,0.1568716911147,0.159378791212218,0.137924564616071,0.104640127196919,0.0699634275353046,0.0410050754439462,0.0209286504528346,0.0100797533063881,0.00605954148064891,0.0288051500468668
"26",0,0,0,0,0,0,0,0,0,0,0,0,0,0,0,0,0,0,0,1.33686651403689e-10,2.0013782959475e-08,1.23755585850007e-06,4.05365304584599e-05,0.000747883422059862,0.00760414521367637,0.0387496643403936,0.0874648976603033,0.129746249521537,0.156895067827047,0.159412959293391,0.137965667019923,0.104681416088657,0.069998499404956,0.0410312205242812,0.0209493776304971,0.0102650416119827,0.0344461162075056
"27",0,0,0,0,0,0,0,0,0,0,0,0,0,0,0,0,0,0,0,0,1.33686651403689e-10,2.0013782959475e-08,1.23755585850007e-06,4.05365304584599e-05,0.000747901425195585,0.00760531013657851,0.0387738618494915,0.0876416376748577,0.130160468459626,0.157500502247828,0.160141265045864,0.138697277206859,0.105302865007042,0.0704617718810676,0.0413411176914463,0.0214081260959958,0.0401761010443597
"28",0,0,0,0,0,0,0,0,0,0,0,0,0,0,0,0,0,0,0,0,0,1.33686651403689e-10,2.0013782959475e-08,1.23755585850007e-06,4.06391126823037e-05,0.000754539178959768,0.00774318802257693,0.0397809299522245,0.0900018653864435,0.133610245778032,0.161650402847316,0.164309994378354,0.142238305449736,0.107942600749638,0.0721902893517083,0.0423424858724971,0.0373932562165
"29",0,0,0,0,0,0,0,0,0,0,0,0,0,0,0,0,0,0,0,0,0,0,1.33686651403689e-10,2.0013782959475e-08,1.24830872149464e-06,4.13348946038056e-05,0.000768991800111558,0.00784875080849765,0.0400283334912365,0.0903634775788551,0.134045246218804,0.162087376951543,0.164681171665499,0.142515007549948,0.10812373965567,0.0722932054715599,0.0772020954574773
"30",0,0,0,0,0,0,0,0,0,0,0,0,0,0,0,0,0,0,0,0,0,0,0,1.33686651403689e-10,2.03925618051188e-08,1.2728182380001e-06,4.18440006120535e-05,0.000772710340021736,0.00785746581090793,0.0400410715916737,0.0903788008434492,0.13406063900739,0.162100451990667,0.164690918734922,0.142521387775228,0.108127348144866,0.149406068415772
"31",0,0,0,0,0,0,0,0,0,0,0,0,0,0,0,0,0,0,0,0,0,0,0,0,1.38142873117145e-10,2.06809090581241e-08,1.27880772045007e-06,4.18877481404085e-05,0.000772812869461858,0.00785761567091308,0.0400412518653748,0.0903789819350796,0.13406079283138,0.162100566662072,0.164690994774369,0.142521716015721,0.257532080000712
"32",0,0,0,0,0,0,0,0,0,0,0,0,0,0,0,0,0,0,0,0,0,0,0,0,0,1.38142873117145e-10,2.06809090581241e-08,1.27880772045007e-06,4.18877481404085e-05,0.000772812869461858,0.00785761567091308,0.0400412518653748,0.0903789819350796,0.13406079283138,0.162100602974067,0.164696784914534,0.400047969564274
"33",0,0,0,0,0,0,0,0,0,0,0,0,0,0,0,0,0,0,0,0,0,0,0,0,0,0,1.38142873117145e-10,2.06809090581241e-08,1.27880772045007e-06,4.18877481404085e-05,0.000772812869461858,0.00785761567091308,0.0400412518653748,0.0903789819350796,0.134061451748685,0.162166312950905,0.564678385584665
"34",0,0,0,0,0,0,0,0,0,0,0,0,0,0,0,0,0,0,0,0,0,0,0,0,0,0,0,1.38142873117145e-10,2.06809090581241e-08,1.27880772045007e-06,4.18877481404085e-05,0.000772812869461858,0.00785761567091308,0.0400412518653748,0.0903853160911148,0.134504643003885,0.726395173124335
"35",0,0,0,0,0,0,0,0,0,0,0,0,0,0,0,0,0,0,0,0,0,0,0,0,0,0,0,0,1.38142873117145e-10,2.06809090581241e-08,1.27880772045007e-06,4.18877481404085e-05,0.000772812869461858,0.00785761622348457,0.0400752345672708,0.0922922816930276,0.858958867271841
"36",0,0,0,0,0,0,0,0,0,0,0,0,0,0,0,0,0,0,0,0,0,0,0,0,0,0,0,0,0,1.38142873117145e-10,2.06809090581241e-08,1.27880772045007e-06,4.1888300711901e-05,0.000772880121096301,0.00797437683843901,0.0456502597961264,0.945559295316854
"37",0,0,0,0,0,0,0,0,0,0,0,0,0,0,0,0,0,0,0,0,0,0,0,0,0,0,0,0,0,0,1.38142873117145e-10,2.09571948043584e-08,1.32044582431256e-06,4.43626730993657e-05,0.00108598777583895,0.0193920012741036,0.979476306735796
