"","X0","X1","X2","X3","X4","X5","X6","X7","X8","X9","X10","X11","X12","X13","X14","X15","X16","X17","X18","X19","X20","X21","X22","X23","X24","X25","X26","X27","X28","X29","X30","X31","X32","X33","X34","X35","X36"
"1",0.00393876488633467,0.00243192881480599,0.00338594831940853,0.00432931052330014,0.00543097505304047,0.00684141385316841,0.00848530380952363,0.0103926428566272,0.0125598307157279,0.0149602566570587,0.0175663526221207,0.0203362364122804,0.0232164247999958,0.0261436977770852,0.0290462491442695,0.0318470634447449,0.0344673887658308,0.0368306209674367,0.0388662397255361,0.0405135143090697,0.0417248153828406,0.0424683889974794,0.0427303243395335,0.0425169100272086,0.0418522861303227,0.0408149688156348,0.0394103424010217,0.0377008710227935,0.0360052371467838,0.0337461491546841,0.0318018101376656,0.0303319952600474,0.0305731393729126,0.0300762642069134,0.0286292466628489,0.0332452755588825,0.0447818119250374
"2",0.00311152585287144,0.0019455344391064,0.00272697372020825,0.00351732045849545,0.00445706274230975,0.00567043990525539,0.00710541261658974,0.0087940766990934,0.0107413349767199,0.0129323149798621,0.0153502421491504,0.0179648363517973,0.020733767515213,0.0236036270094897,0.0265105701727452,0.0293829280908914,0.0321441842664307,0.034716559962673,0.0370249080430589,0.0390006529099899,0.040585579039556,0.0417353332999267,0.0424222814984856,0.0426390614238904,0.0423968017472002,0.0417688792564641,0.0407430033882433,0.0393741102698934,0.0380184369500431,0.0359875219034816,0.0342948517392337,0.0331178876369569,0.0338790608416092,0.0337306095357279,0.0324140167420402,0.0380333611447434,0.0514249307205291
"3",0.00231050208181703,0.001469237762399,0.00207775814751083,0.00271080964879403,0.00348017816084085,0.00448418105355352,0.00569259486075287,0.00713888979719709,0.00883599006048004,0.0107808042919279,0.0129678711972168,0.0153795803604967,0.0179864144148401,0.0207469863873216,0.023608051660956,0.0265061972550416,0.0293701174777418,0.0321236742963834,0.0346895240571129,0.0369930925660498,0.038966691066069,0.0405536714641401,0.0417121732059573,0.0424200096588837,0.0426734878885508,0.0425402972805634,0.0419857347028253,0.0410544178268336,0.0401488894675975,0.0384378860816109,0.0371041564787187,0.0363451843950048,0.0378140572064456,0.0381577879739248,0.0370551271074706,0.0439760091191088,0.0597019635378373
"4",0.00166909733218262,0.00108187442490998,0.00154534673552636,0.00204202793048673,0.0026593655144022,0.00347420832434075,0.00447281863059629,0.00568883390799585,0.00714114363829736,0.00883633138591805,0.0107787618711254,0.0129624350791563,0.015370293876368,0.0179734656290165,0.020730636662792,0.0235888101157041,0.0264847688360264,0.0293474308637593,0.0321009727888661,0.034668570350448,0.0369765714788502,0.0389590629979264,0.040562317379049,0.0417509254551098,0.0425071027938468,0.0428937913718689,0.0428516329304838,0.0424132590497348,0.0420324538841377,0.0407147696391791,0.0398316369345302,0.0396002964677004,0.0419276720647197,0.0428905721047282,0.0420915285187109,0.0505201332884184,0.0688590797430635
"5",0.00117916006628382,0.000780534253013546,0.00112713451979527,0.00150995442265122,0.0019965119586298,0.0026464479277707,0.00345751320814352,0.00446236893914521,0.00568375338291591,0.00713555433851482,0.00883005585935464,0.010771235974892,0.012953437526699,0.0153600008205631,0.0179620655182688,0.0207184628594652,0.0235763317459801,0.0264726583888173,0.0293367120485793,0.0320933099440148,0.0346667775842174,0.0369856583793868,0.0389876179173869,0.0406266637002885,0.0418727451438049,0.0427860261178853,0.0432812735216615,0.0433782656573246,0.0435872937980306,0.04273140844508,0.0423893055067964,0.0427974109654641,0.0461371699063527,0.0478530068919042,0.0474567205746128,0.0575986480763002,0.0788108041099816
"6",0.000816028983392332,0.000552562897220072,0.000807315854023998,0.00109732698633001,0.00147410235427117,0.00198367472018267,0.00263115232080864,0.00344726101161876,0.00445666720047488,0.00567824635350512,0.00713015694961974,0.00882441505129833,0.0107652066405832,0.0129471181613637,0.0153534870638987,0.017955555309715,0.0207122817259816,0.0235710346559028,0.0264692296398387,0.0293369365251431,0.0321003936249065,0.0346866016279611,0.0370284252332064,0.0390726965577435,0.0407798541512807,0.04221024822623,0.0432525989918922,0.0439139097649582,0.0447669267424073,0.0444338534702112,0.044719124424919,0.0458777951120985,0.0503849632226172,0.0529920346107009,0.0531045520548869,0.0651662250961826,0.089500036682602
"7",0.000553740772780318,0.000384151540989832,0.000568263174276662,0.000784232665080302,0.00107089465519112,0.00146359840748716,0.0019716087758807,0.00262299327708501,0.00344272491768607,0.00445255717695678,0.00567450631336916,0.00712655467810841,0.00882084505260686,0.0107617151412663,0.0129437539090494,0.0153503879935509,0.0179530005933831,0.0207108242095844,0.0235717513257366,0.0264741770594976,0.029349893216278,0.0321283449730562,0.0347416796678737,0.0371335106075053,0.0392582998691541,0.0411804477713763,0.0427635505026492,0.0440029558475618,0.045540481601365,0.0457807520528923,0.0467719939802664,0.0487875164051537,0.0546132291820335,0.0582500816537341,0.0589812110019255,0.0731642170918,0.100849552935785
"8",0.000368706740937727,0.000262415378409014,0.000393274273700076,0.000551372631467261,0.000765650577925877,0.00106310300123171,0.00145481595615483,0.00196572821734983,0.00261984676214565,0.00344000102046586,0.00445021166768539,0.00567238581000165,0.0071245847704229,0.008819049355028,0.0107601322105387,0.012942512925297,0.0153497833044284,0.0179536543683656,0.0207139897670612,0.023579859126048,0.0264917128178411,0.0293851390496857,0.0321956459123229,0.0348678686365475,0.0373543872033069,0.0397282301512385,0.0418298487666214,0.0436451040383147,0.0458920480951459,0.0467432701127731,0.0485079760103259,0.0514776715797158,0.0587637628538073,0.0635644507011686,0.065024182335195,0.081518671339978,0.112758952531324
"9",0.000241034353883073,0.000176203525738075,0.000267683807407732,0.000381447369330456,0.000538805091474831,0.000760235781229784,0.001057054054935,0.00145084237356694,0.0019637283977474,0.00261817968264203,0.00343863097335104,0.00444903957791372,0.00567136380278687,0.00712373236682009,0.00881841475675933,0.0107598635117675,0.0129429536522983,0.0153516672233883,0.0179584663028285,0.0207246108475323,0.0236015960214268,0.0265343213873,0.0294654506537151,0.0323448770780905,0.0351276826799245,0.0379005583789081,0.0404837241073753,0.0428566910860894,0.0458212392791005,0.0473063540774157,0.0498980202262665,0.053906313798151,0.0627798561904058,0.0688689537722414,0.0711635208507865,0.0901412500547144,0.125105632904665
"10",0.000154774779450899,0.000116331975196608,0.000179233818764673,0.000259696895630912,0.000373221938834144,0.000535219304085469,0.000756238834095913,0.00105449227386383,0.00144965345815255,0.00196277093372779,0.00261742642610477,0.00343802081681985,0.00444854663873,0.00567101289657792,0.00712359017408122,0.00881866197192007,0.0107609116012356,0.0129456749890906,0.0153578192239032,0.0179714457276944,0.0207506499297289,0.0236520943875835,0.0266288639247734,0.0296400565677688,0.0326476354211298,0.035757135770912,0.0387721996664296,0.0416699289422482,0.0453433579250715,0.0474697001292744,0.0509255646208621,0.0560404707455457,0.066608569400254,0.0740961891062823,0.0773239406376862,0.098931365965854,0.137747532180613
"11",9.76527322793939e-05,7.55280236661291e-05,0.000118067403870478,0.000174001797797925,0.000254462237566089,0.000370932522107539,0.000532660256054928,0.000754642799487579,0.00105382123728713,0.00144913094096923,0.0019623780319736,0.00261712844279259,0.0034378093722479,0.00444845590907648,0.00567113142161018,0.0071241382397896,0.008820130758823,0.0107643323450071,0.0129531127046659,0.0153732461056951,0.0180021195458048,0.0208097784153459,0.0237622739537912,0.0268313137665342,0.0299898255729484,0.0333671890698483,0.0367546132680251,0.0401312982006977,0.0444887285983477,0.0472479581000486,0.0515875250213702,0.0578577797445224,0.0702029449730219,0.0791800588073798,0.0834273791190376,0.107779209562177,0.15052724099831
"12",6.05501035059614e-05,4.8223601951407e-05,7.65159892365436e-05,0.000114729562776582,0.000170751282938169,0.000253041744711485,0.000369334271619583,0.000531690807414119,0.00075427946902671,0.00105354799444794,0.00144893625966047,0.0019622452643303,0.00261706274111448,0.00343785573886657,0.00444872601841287,0.0056718895618654,0.00712596448365228,0.00882423294577889,0.0107731156054272,0.0129711816520596,0.0154089798237805,0.0180706900989,0.0209370361655627,0.023995001382992,0.0272320081091923,0.0308057780611543,0.0344994447751504,0.0382990943005659,0.0433011235172635,0.0466700361646793,0.051894492938484,0.0593475319667106,0.0735239469667102,0.0840583217610772,0.0893958574219207,0.116569502191497,0.163277279255541
"13",3.69004680138423e-05,3.02786996639539e-05,4.87817704185936e-05,7.44371225980937e-05,0.000112755746230296,0.000169890696095914,0.000252064314888249,0.000368757250408531,0.000531501159355753,0.000754142455118239,0.00105345799228993,0.00144888875525983,0.00196225585818161,0.00261718775420184,0.00343823080946617,0.00444966315196568,0.00567406612152037,0.00713078163118219,0.00883446678736845,0.0107940570425099,0.0130124206767869,0.0154877963957356,0.0182164072051335,0.0212023154271395,0.0244502127215387,0.0281498766385383,0.0320806535720157,0.036240272078873,0.0418353573463444,0.0457775107561747,0.0518700813437927,0.0605110133843303,0.0765419720662586,0.0886750097678347,0.0951544663387,0.125185784591519,0.175826284102525
"14",2.21024765025833e-05,1.86938251016079e-05,3.05911483763025e-05,4.75158906687267e-05,7.32634587072537e-05,0.000112245206704451,0.000169304188787113,0.000251726885403699,0.000368661826330618,0.00053143602408595,0.000754106409833055,0.00105345469815314,0.00144894217230171,0.00196243394782116,0.00261765112411995,0.00343934282793541,0.00445220653454537,0.00567965113621753,0.00714258403509534,0.00885851297538369,0.0108412282505997,0.0131022302390905,0.0156532261445327,0.0185162530426239,0.0217151620406027,0.025474499656371,0.0295737854130592,0.0340268084593552,0.0401542109566455,0.0446222344865728,0.0515494393039845,0.0613610944439602,0.0792378149099808,0.0929825420119457,0.100634289315164,0.133514993492336,0.18800576104108
"15",1.30112052342033e-05,1.13469253762324e-05,1.88668416478291e-05,2.98368572077044e-05,4.6831948647603e-05,7.29663780019703e-05,0.000111899589850739,0.000169110136771483,0.000251680927537221,0.000368633650604215,0.000531427656463808,0.000754127210401976,0.00105353576136951,0.00144916352974672,0.00196298244984078,0.00261894512217274,0.00344227797966884,0.00445861660623143,0.00569313701622499,0.00716995023239221,0.00891199973847906,0.0109426842903555,0.0132884417038847,0.0159893056702224,0.0190892435941447,0.0228491488967889,0.0270521335729157,0.0317318528896059,0.0383249114610525,0.0432633133374837,0.0509770354766232,0.0619210891559513,0.0816030158727988,0.0969433928164754,0.10577506951175,0.141452037506534,0.199656976479521
"16",7.52679026200807e-06,6.77008557516912e-06,1.14415564234188e-05,1.8426839329441e-05,2.94460938022775e-05,4.66622464562072e-05,7.27663591372887e-05,0.000111789908863715,0.000169089456310806,0.000251671496523807,0.000368639874735659,0.000531463156385515,0.00075422962054462,0.00105379774335817,0.00144979959799425,0.00196446936381773,0.0026222982733497,0.00344956702598592,0.00447388875947643,0.00572400904192763,0.00723007349145698,0.00902563198506038,0.0111505134868335,0.0136619971700809,0.0166242202143696,0.0203348220260742,0.0245832351677416,0.0294259572073045,0.0364154403914849,0.0417636868764681,0.0502038814849643,0.0622229730097082,0.0836395734809634,0.100531201735088,0.110527441225224,0.148904066407667,0.21063753134923
"17",4.27799672686023e-06,3.96959068261474e-06,6.82113772343416e-06,1.1190256859013e-05,1.82079275050463e-05,2.93509199047499e-05,4.65486413983554e-05,7.27055915205832e-05,0.000111781897126555,0.000169089602412698,0.000251686052313428,0.000368685957145742,0.000531584749268089,0.00075453263981431,0.00105452577485219,0.00145149083110922,0.00196826458117202,0.00263051284612973,0.00346671041292556,0.00450841401288694,0.00579101246734319,0.00735626330837631,0.00925564192628876,0.0115623001580205,0.014359793458134,0.0179817731187518,0.0222259499453457,0.027173668713981,0.0344909593422049,0.0401865858184342,0.0492844223675284,0.0623051109693288,0.0853590594192634,0.103731257739037,0.114854572220696,0.155794131030006,0.220827146577763
"18",2.38840283869801e-06,2.28673691475077e-06,3.99672320804285e-06,6.68063105220374e-06,1.10700280519728e-05,1.81555536866165e-05,2.92876949435195e-05,4.65158431478648e-05,7.27038933233982e-05,0.000111787169070748,0.000169109640433149,0.000251741114009753,0.000368826413508236,0.000531930384075567,0.00075535736643404,0.00105643165711786,0.00145574829006565,0.00197744149151058,0.00264959080228489,0.00350499143799352,0.0045824530360297,0.00592997470577973,0.00760871522527829,0.00970588539424459,0.0123230525004884,0.0158281366123307,0.0200283060302569,0.0250307279822337,0.0326106243644329,0.0385921478678624,0.0482733493175272,0.0622096900885476,0.0867812258349824,0.106540341547159,0.118733110285982,0.162063973983423,0.230132243949752
"19",1.30943962008367e-06,1.29381693376363e-06,2.30092738486575e-06,3.91983964114957e-06,6.61592628998033e-06,1.10417899375174e-05,1.8121180027771e-05,2.92706889773578e-05,4.65173621243089e-05,7.27122198328418e-05,0.000111811495628799,0.000169173241479463,0.000251900894817913,0.000369216571117607,0.000532856168276851,0.000757486459224454,0.00106116676167568,0.00146591322857704,0.00199849334660375,0.0026916811555032,0.00358612633244481,0.00473422515814188,0.00620481217505328,0.00809709120535031,0.0105287609440945,0.0138994426346286,0.0180262182189992,0.0230420473820572,0.0308250149499188,0.0370344504306148,0.0472225914045072,0.0619800742119071,0.0879322366427952,0.10896596337167,0.122153384133529,0.16767575937082,0.238488998919775
"20",7.04733669351699e-07,7.1873190511855e-07,1.30111430441214e-06,2.25977615108032e-06,3.88574384361447e-06,6.60105472382655e-06,1.10236446684727e-05,1.81129979655382e-05,2.92739746821415e-05,4.65278408503495e-05,7.2740428829419e-05,0.000111883725124685,0.000169353115237997,0.000252337464891774,0.00037024712873669,0.000535214985712103,0.000762709456949743,0.00107233365338722,0.00148895319857016,0.00204439581972441,0.00277987450153639,0.00375056555601996,0.00503107248085955,0.00673045085334516,0.00898036667163421,0.012208972435064,0.0162431014030068,0.0212405682243666,0.0291743389703553,0.0355591729799313,0.0461787201048913,0.0616582996357342,0.0888426820383078,0.111025080158225,0.125118866814153,0.172612630601279,0.245864657981345
"21",3.72181087252095e-07,3.91862793759937e-07,7.2242003787274e-07,1.27958547447453e-06,2.2422100653835e-06,3.87814319851723e-06,6.59187958206864e-06,1.10203673418653e-05,1.81174094053668e-05,2.92862669673812e-05,4.65599002885084e-05,7.28216205441895e-05,0.000112084572798715,0.000169837846956647,0.000253475789614938,0.000372840086552725,0.000540930923449421,0.00077488043638311,0.00109735094462976,0.00153862041255037,0.00213951447842917,0.00295666322812184,0.00406874077949281,0.0055925877856959,0.00767156982149585,0.0107588341786979,0.0146903209023987,0.0196470092374131,0.0276874950880173,0.0342020336274737,0.0451809518402839,0.0612829074543984,0.0895455453167278,0.112742414547227,0.127644968319161,0.17687808159286,0.252257056942365
"22",1.92787842570086e-07,2.09601578426019e-07,3.93695578730853e-07,7.11424145360503e-07,1.27076225901685e-06,2.23849742206461e-06,3.87385061364819e-06,6.59134752831806e-06,1.10256536254124e-05,1.81314473558545e-05,2.93223278473358e-05,4.66505088700878e-05,7.30443580814303e-05,0.000112619036911652,0.000171086206559343,0.000256305246759422,0.000379048950101687,0.000554096728491688,0.000801840283200595,0.0011506879071613,0.00164044138762206,0.00232817301398203,0.00329520418143232,0.00466428178820641,0.00658825403456745,0.00954158702505582,0.0133683501133813,0.0182704347284054,0.0263819863796594,0.032988059790912,0.044259863187201,0.0608872620916573,0.0900742825164104,0.114148524753986,0.129757279607824,0.180494233516831,0.257692441260915
"23",9.79010889551944e-08,1.09939936895552e-07,2.1049945890326e-07,3.88224563922605e-07,7.07130487742477e-07,1.26909905995653e-06,2.23683749253175e-06,3.8749049746834e-06,6.59744337315254e-06,1.1041500739254e-05,1.8171754050112e-05,2.94228690766455e-05,4.6896044367767e-05,7.36299164048378e-05,0.000113978957066273,0.00017415249272377,0.000263002132062103,0.000393189500937971,0.000582941991504445,0.000858708301496926,0.00125890708920652,0.00184034627675771,0.0026858735482013,0.00392252393763013,0.00571058093401542,0.00854221405858789,0.0122684567793351,0.0171095033628121,0.0252646008295926,0.0319316698214097,0.0434368568470556,0.0604984471006536,0.0904611502900897,0.115277783408777,0.131489428497273,0.183499198319792,0.262221831457928
"24",4.87133957152697e-08,5.65216679654755e-08,1.10377066710841e-07,2.07860057436399e-07,3.86231739215723e-07,7.06540242523108e-07,1.2688653344404e-06,2.23887935217965e-06,3.88183294053924e-06,6.6152278239776e-06,1.10863453081852e-05,1.82827676844722e-05,2.96920647003561e-05,4.75338070837848e-05,7.51021412127657e-05,0.00011728038334591,0.000181327811760741,0.000278087296794639,0.000423842803606595,0.000643163837653491,0.000972951791879213,0.00146931431500259,0.00221580106808231,0.00334241193834222,0.00501506719503092,0.00774024559432723,0.0113747195058074,0.0161542186502472,0.0243327189134601,0.0310374755405254,0.0427243476464903,0.0601367693684859,0.0907358799111084,0.116166411473621,0.132880720054322,0.185943762063907,0.265916264660573
"25",2.37369804539857e-08,2.84691078828803e-08,5.67376482634316e-08,1.09156545365561e-07,2.07016874140668e-07,3.86209588817934e-07,7.07106290186125e-07,1.27160396657392e-06,2.24670389486027e-06,3.9017148186559e-06,6.66492337639193e-06,1.12083655261218e-05,1.85763990369453e-05,3.03828351712505e-05,4.91182412941595e-05,7.86350000492229e-05,0.000124920101344469,0.000197318319898485,0.000310453569358802,0.000487208795344195,0.000763001095152061,0.00119302328118416,0.00186096922378866,0.00289877624624549,0.00447649251339609,0.00711184792178407,0.0106661698762393,0.0153879741316691,0.0235760611052867,0.0303016511029861,0.0421265658855876,0.0598158359403297,0.0909247503126945,0.116850695592816,0.133973743656808,0.18788767700408,0.268861340103821
"26",1.13218470639849e-08,1.40439108334386e-08,2.8584246103418e-08,5.62170924795445e-08,1.08889837736297e-07,2.07323087683267e-07,3.87288264156572e-07,7.10462810256188e-07,1.28049334135389e-06,2.26900948450572e-06,3.95684677462023e-06,6.79892222737993e-06,1.15278827645266e-05,1.9321958751493e-05,3.20806890493021e-05,5.28803604387653e-05,8.67264964711282e-05,0.000141777175645008,0.000231300568993635,0.000376747253840835,0.000612194124453295,0.000991871080916802,0.00159928007542355,0.0025675404727302,0.00406961629322895,0.00663183338235949,0.0101190021226738,0.0147898319079256,0.0229788201211067,0.0297138302979391,0.0416409590201274,0.0595431981852163,0.0910500545466437,0.117365375841613,0.134811921936688,0.189395503346381,0.271150975455679
"27",5.29400108217551e-09,6.79736014248471e-09,1.41423226595998e-08,2.84585863637983e-08,5.63524202480782e-08,1.09619698759521e-07,2.09186450134149e-07,3.92013949912513e-07,7.21970799849455e-07,1.30805365949714e-06,2.33460415378688e-06,4.11150899838273e-06,7.15889023814482e-06,1.23518428828397e-05,2.11700080822212e-05,3.61266078029404e-05,6.14995168093425e-05,0.000104546523815272,0.000177480428703842,0.000300601008405034,0.000506857988140945,0.000849589759843091,0.00141194517509704,0.00232770262322303,0.003771802282209,0.00627690998502226,0.0097103888778831,0.0143387660965802,0.0225239625484461,0.0292613593145527,0.0412617759140473,0.0593225497846655,0.0911297556944445,0.117740806420156,0.135434588792663,0.19052750481548,0.272873501098391
"28",2.47733715646309e-09,3.29617146019677e-09,7.01826954724815e-09,1.44670305134638e-08,2.93238604340704e-08,5.83660047190887e-08,1.13974388756273e-07,2.18630419331808e-07,4.12430719094376e-07,7.66210202865835e-07,1.40441080605733e-06,2.54520660276922e-06,4.57184501825242e-06,8.16062424091731e-06,1.45108176277785e-05,2.57528470850525e-05,4.56607397920687e-05,8.08568403120218e-05,0.000142793283406297,0.000250919560642282,0.000437323788488606,0.000754618233441829,0.00128557716725997,0.00216430086313932,0.00356698304173046,0.00603066975861141,0.00942446846724954,0.0140204933593906,0.0222003295137045,0.0289365421848597,0.0409863778399319,0.0591578030913957,0.0911772216135121,0.117998344568949,0.135868684109357,0.19132392215219,0.274087537876837
"29",1.11444552936206e-09,1.53925445984873e-09,3.35998070686202e-09,7.10878221557409e-09,1.47834279872665e-08,3.01895088449272e-08,6.05199438183483e-08,1.19286839825622e-07,2.31537410947278e-07,4.43431114870531e-07,8.39880943270703e-07,1.5773092895092e-06,2.94496746248518e-06,5.47995854671919e-06,1.01814462499027e-05,1.89013665456885e-05,3.50400617529521e-05,6.473908818751e-05,0.000118862516716333,0.00021618587515326,0.000388091557174454,0.000686562691839734,0.00119398618610848,0.00204458692965707,0.00341539012015623,0.00584669010383964,0.0092088612650951,0.0137783181923151,0.0219518765046993,0.0286848003079161,0.0407703410655545,0.0590249963314669,0.0912062522285886,0.118188518335695,0.136195065623002,0.19192873202526,0.275011265190061
"30",4.91103235857822e-10,7.06895915449644e-10,1.58740639865702e-09,3.46041874417692e-09,7.41524874197887e-09,1.56125102534474e-08,3.23075942450918e-08,6.58383313412201e-08,1.32398294327602e-07,2.63354501596376e-07,5.19493438113536e-07,1.01888336034155e-06,1.99139844818496e-06,3.88475680841531e-06,7.56754651430671e-06,1.47071028731668e-05,2.84521457853555e-05,5.46152659430808e-05,0.000103651279902648,0.000193857585785905,0.000356103590608603,0.000641897002564837,0.00113330073426746,0.00196455735894603,0.0033131944941577,0.00572169595125065,0.00906127070649551,0.013611322653423,0.0217793234290518,0.0285086302880463,0.0406177233728548,0.0589292412474263,0.0912223462468443,0.118316511715686,0.136418077398443,0.19234539237613,0.275648622802626
"31",2.16062022969671e-10,3.26465018584551e-10,7.5868668556434e-10,1.71509939607827e-09,3.81330176130236e-09,8.33884893153754e-09,1.79507093412754e-08,3.81234188439536e-08,8.0059941748376e-08,1.6664142477778e-07,3.44581736286702e-07,7.09217543916006e-07,1.45468877710914e-06,2.9741229869334e-06,6.05522056448337e-06,1.22493696907496e-05,2.45450732137692e-05,4.85425454965015e-05,9.44285417337786e-05,0.000180182199114441,0.000336324605684288,0.000614030764751542,0.00109512039381028,0.00191380833976874,0.00324790796738198,0.0056412994333182,0.00896571043114211,0.0135025042966516,0.0216661855775639,0.0283923606951147,0.0405161889077946,0.0588644631220885,0.0912306200528864,0.118398174735914,0.136562306581384,0.192616814511382,0.276064376078535
"32",9.84604100957162e-11,1.58048265378624e-10,3.8348376342128e-10,9.0690566491805e-10,2.10976003138652e-09,4.82955755742314e-09,1.08914298559391e-08,2.42485802424527e-08,5.34067500532313e-08,1.1658650641168e-07,2.52655212955366e-07,5.44091941655114e-07,1.16454745593816e-06,2.47544036318087e-06,5.21690142299826e-06,1.08713094563099e-05,2.23306834103954e-05,4.50658281088761e-05,8.90981470839786e-05,0.000172207801279001,0.000324694536343432,0.000597516844329719,0.00107232794628756,0.00188330464924698,0.00320841349909896,0.00559237705724969,0.00890722750856489,0.0134355391024068,0.021596192434199,0.0283200258521834,0.0404525950643155,0.0588233332128844,0.0912345460172135,0.118447527414511,0.13665051894338,0.192783864164054,0.276320554728502
"33",5.0058726458858e-11,8.63758293177825e-11,2.20321705422452e-10,5.47832343625728e-10,1.33760330686693e-09,3.20882242895769e-09,7.57291740399266e-09,1.76164009403292e-08,4.046478672861e-08,9.19194217816076e-08,2.06720131566144e-07,4.60497273243894e-07,1.01585870706871e-06,2.21694227336275e-06,4.77767936637149e-06,1.01420548223181e-05,2.11478761120852e-05,4.31925182659762e-05,8.62026035640416e-05,0.000167842969380242,0.000318283372441016,0.000588352750914802,0.0010596008960085,0.00186617264132141,0.00318611111895536,0.00556461303536732,0.00887387732140297,0.0133971739900408,0.0215559142543381,0.0282782045078591,0.040415622840054,0.0587991565818221,0.0912362357958048,0.118475375654949,0.136700808171268,0.192879605509159,0.276467522813846
"34",3.11685606815951e-11,5.75251103640267e-11,1.53319421768668e-10,3.97463205585678e-10,1.00832688697583e-09,2.50590336159602e-09,6.11067644581216e-09,1.46504124814452e-08,3.45962213251949e-08,8.05883227290544e-08,1.85362957641959e-07,4.21190747371856e-07,9.45208739987535e-07,2.09291435487112e-06,4.56502480233879e-06,9.78599873510853e-06,2.05658502881901e-05,4.22640061546142e-05,8.4757701933232e-05,0.00016565114786547,0.000315045043594031,0.000583698491780678,0.00105310395728042,0.00185738523699477,0.00317462053340449,0.00555025000882645,0.00885655601565736,0.0133771720029555,0.0215348387101887,0.0282562376865863,0.040396115936899,0.0587862892804313,0.0912368787002235,0.118489715348993,0.136726925633755,0.192929546473521,0.276544246432981
"35",2.43830363170275e-11,4.68775100933971e-11,1.28157530687363e-10,3.40030926877876e-10,8.80588474622766e-10,2.22925461257488e-09,5.5273947471771e-09,1.34524180746035e-08,3.21981651092912e-08,7.59079395854529e-08,1.76452597562691e-07,4.04639204970644e-07,9.15202722663051e-07,2.03981874864896e-06,4.47331905160674e-06,9.63140821909727e-06,2.03115605786008e-05,4.18559732751971e-05,8.41193141078623e-05,0.000164677895975959,0.000313600382873369,0.000581613118861396,0.00105018112092493,0.00185341697376318,0.00316941313564817,0.00554371974676659,0.00884865597869092,0.0133680217393338,0.0215251697049576,0.0282461292939605,0.0403871079986555,0.058780307383058,0.0912370867007593,0.118496211153523,0.136738838276947,0.192952404987315,0.276579385984261
"36",2.22785022077553e-11,4.35022831094533e-11,1.20068847975621e-10,3.21317498213841e-10,8.38448495962181e-10,2.13694281559053e-09,5.33069529875893e-09,1.30444427820455e-08,3.13740755757679e-08,7.42859971215144e-08,1.73340810608628e-07,3.98817457998025e-07,9.04578895806518e-07,2.02090558903196e-06,4.44046965313589e-06,9.57574751067763e-06,2.02195672528927e-05,4.17077120790425e-05,8.38864081149807e-05,0.000164321478947363,0.000313069470563121,0.00058084423439372,0.00104910016566699,0.00185194520115285,0.00316747662836594,0.00554128537406122,0.00884570400436198,0.0133645948123783,0.0215215407116751,0.0282423267707048,0.0403837105664024,0.0587780400622288,0.0912371403722991,0.1184986260475,0.136743290153524,0.192960969969287,0.276592558911347
"37",2.18090876659204e-11,4.2738221825684e-11,1.18220353364128e-10,3.1700194197842e-10,8.28649498603254e-10,2.1153127947914e-09,5.28427959670951e-09,1.29475433745791e-08,3.11771655496924e-08,7.38962963834605e-08,1.72589330101381e-07,3.97404933050312e-07,9.01990120253844e-07,2.01627862245744e-06,4.4324040071839e-06,9.56203513511006e-06,2.01968342282877e-05,4.16709701802707e-05,8.38285378892783e-05,0.000164232703965819,0.000312936933040493,0.000580651883510947,0.00104882921084927,0.00185157560387093,0.00316698948657547,0.00554067202623443,0.00884495910754313,0.01336372879461,0.0215206223576351,0.0282413630931925,0.040382848104378,0.0587774626703993,0.0912371499840428,0.118499233414042,0.136744413654899,0.192963135167388,0.276595890010353
