"","X0","X1","X2","X3","X4","X5","X6","X7","X8","X9","X10","X11","X12","X13","X14","X15","X16","X17","X18","X19","X20","X21","X22","X23","X24","X25","X26","X27","X28","X29","X30","X31","X32","X33","X34","X35","X36"
"1",0.00670605814809414,0.00305300376472727,0.00407976605629271,0.00450777766116468,0.00533491149641744,0.00620996199593277,0.00728498996573161,0.00849769323372875,0.0098465157653372,0.0113212809336017,0.0129103253527723,0.0146008633264461,0.0163777291679572,0.0182214238007867,0.020108928819476,0.0220146254832483,0.0239118177258867,0.025773909102067,0.0275761981514347,0.0292979369905346,0.0309258303090588,0.0324525505870705,0.0338832911040179,0.0352446529801035,0.0365928985711726,0.0378656295756855,0.039207282512415,0.0405597043449944,0.0420613245817173,0.0452898196393515,0.0439698859190733,0.045047986814249,0.0470465251031479,0.046923519804804,0.0465114239311679,0.0482710649094594,0.0705108923708384
"2",0.00562704192879711,0.00258821243853053,0.00347043620856205,0.00385482901027604,0.00458959563984988,0.00537832708074585,0.00635007416372105,0.00745527928596364,0.00869508069881078,0.0100632862507066,0.0115521784398426,0.0131526777604734,0.014853188507654,0.0166379002491603,0.0184874120643704,0.0203794975276919,0.022290458271421,0.0241962723713385,0.0260743682879112,0.0279057021474077,0.0296784330531328,0.0313862088671716,0.0330352440170282,0.0346538833407435,0.0363016565454588,0.0379080642463395,0.0396256830586641,0.0413857485604328,0.0433310605249403,0.0471624078961766,0.0460698667281835,0.0475651617650712,0.0500356141458903,0.0501717458407917,0.0499474966138934,0.052026578713924,0.076113327748888
"3",0.00452821122207532,0.00211064842728034,0.00284247077698585,0.00317860595995891,0.00381328587675703,0.00450631511956974,0.00536330079482001,0.00634750154676715,0.00746274188731134,0.00870690695059482,0.0100764211925075,0.0115662244674296,0.0131687300878236,0.0148723842407142,0.0166620967082252,0.0185198429088968,0.020425835811518,0.0223596301252501,0.024301858801665,0.0262363117916342,0.0281537904726759,0.0300500852801653,0.0319336293505956,0.0338358043403385,0.0358208932433932,0.0378096278377251,0.0399646872252195,0.0422050722142163,0.0446786019201453,0.0492301189176269,0.048421143649243,0.0504254545654318,0.053470282649762,0.0539302885106978,0.0539438168086932,0.0564119327662392,0.0826654455500116
"4",0.0035846229583818,0.00169556689017736,0.0022944433226883,0.00258458917270538,0.00312615463771799,0.0037276811719544,0.00447460097987787,0.00534095293189963,0.00633276242514286,0.00745139862289844,0.0086969483724059,0.0100680554423961,0.0115609872324662,0.013168418562977,0.0148797009443309,0.0166813225190191,0.0185579181610979,0.0204933221697494,0.0224722576662604,0.0244823979370894,0.0265183765029193,0.0285794035945163,0.0306774657388272,0.0328483311357152,0.0351623737507892,0.0375322884166312,0.0401319305823813,0.0428680692133442,0.0458936488583064,0.0512014066598035,0.0507042202892039,0.0532560414757939,0.0569173037245945,0.0577349714886955,0.0580146216244441,0.0609007783328013,0.0893846664899623
"5",0.00280189474097523,0.00134642477663647,0.00183133094260053,0.00207888738421408,0.00253618158393454,0.00305260912171646,0.0036967857700004,0.00445143023835271,0.00532424096464053,0.0063194068653102,0.00744010113456181,0.00868823443963271,0.010063629044642,0.0115629978238978,0.0131800909193502,0.0149060426414071,0.0167302486258006,0.0186413689394602,0.0206289692154973,0.0226855528881987,0.0248107060412378,0.027008309671635,0.029295246077767,0.0317130454803901,0.0343395328322844,0.0370803982125498,0.0401216948140513,0.0433583301993207,0.0469484961871383,0.0530339812361273,0.0528710110625729,0.0559991000667094,0.0603081728612909,0.0615115981840783,0.0620817283201863,0.0654080096944986,0.0961442109972978
"6",0.00216506195561023,0.00105797645672155,0.0014467798540898,0.00165560421646865,0.00203783555616053,0.00247646942629588,0.00302632329393726,0.00367688951050142,0.00443703251308506,0.00531311036836937,0.00631078893473118,0.00743475464715471,0.00868799775924684,0.0100709656257938,0.0115816277455354,0.0132157433995778,0.0149676403731305,0.0168311794755938,0.0188013551809997,0.0208762959476492,0.023061529597835,0.025366759583412,0.0278150384208237,0.0304549924421856,0.0333732327521777,0.0364696389955043,0.0399434599764359,0.0436783613424655,0.0478379675619056,0.0547127695442647,0.0549015234795829,0.0586273282480572,0.0636077482928819,0.0652202523973761,0.0661016703541068,0.0698851371704,0.102871157599899
"7",0.00165498998208466,0.000823093897755445,0.00113193694494324,0.00130611079146888,0.00162240607851589,0.00199102020002794,0.0024555729353738,0.00301067751751646,0.00366590176921812,0.00442916638993152,0.00530805002008146,0.00630950025175733,0.00743922951567865,0.00870102905515569,0.0100967930771807,0.0116267433807696,0.0132901476716749,0.0150862643182623,0.0170159183988886,0.019083476139065,0.0213012240396837,0.0236856901085471,0.0262672466658593,0.0291028492205831,0.0322891468929258,0.0357215034787323,0.0396132989596571,0.0438377875709393,0.0485642692609838,0.0562302013018245,0.0567828201233555,0.0611200264378376,0.066786992952455,0.0688264436476572,0.0700357601221795,0.0742880591464418,0.109498651734954
"8",0.00125205944937024,0.00063425615090199,0.000877358633409065,0.00102101470245749,0.00128014815212239,0.00158666604111575,0.00197517495088,0.00244402211186017,0.00300307444746739,0.00366127132152972,0.00442756054185662,0.0053106384923224,0.00631846263664753,0.00745771810934951,0.00873383939677428,0.0101512284890285,0.0117139521709552,0.0134266916526905,0.0152963164696388,0.0173338469075329,0.0195589473096554,0.0219957865418331,0.024683036097447,0.027687060983677,0.031115661906733,0.0348610245496327,0.0391514872486607,0.0438508940473113,0.0491345014356464,0.0575836530083403,0.0585066096541783,0.0634607479070768,0.0698206482047941,0.0722988858022578,0.0738479699138788,0.0785749370970984,0.115962847463835
"9",0.000937783988347551,0.000484211995104499,0.00067386311412602,0.00079104439515275,0.00100125091896324,0.001253483241263,0.00157513715561225,0.00196716316689596,0.00243938911266321,0.00300130292662118,0.00366273099291741,0.00443363047838615,0.00532372160545033,0.00634210218553468,0.00749730127687626,0.00879752562811779,0.0102513745418099,0.0118688224746123,0.0136628177064708,0.015651252815826,0.0178615788207859,0.0203262121103975,0.0230928981808266,0.0262382964130644,0.0298822859999706,0.0339151997843536,0.0385810079220489,0.0437352701365426,0.0495594930061105,0.058774534811069,0.0600685531182982,0.0656368631359179,0.0726870615798353,0.0756095394642876,0.0775051507851071,0.0827065797769472,0.122203565233653
"10",0.000695558033674293,0.000366304415623209,0.00051295506418263,0.000607502907545664,0.000776350649636373,0.00098178233937321,0.00124545052700948,0.0015700130100322,0.00196498935049581,0.00244002552358122,0.00300540050743112,0.00367188648029214,0.00445050222991966,0.00535227243235723,0.00638834249713217,0.00757028454809423,0.00891086570463571,0.0104250927759407,0.0121318647954736,0.0140559757589003,0.0162328609745061,0.0187035695348525,0.0215254686088427,0.0247861694745782,0.0286183311406359,0.0329116942946475,0.0379263406376287,0.0435107463123563,0.049852945513148,0.0598077285271874,0.0614679197777085,0.0676395048601216,0.0753684408205129,0.0787341038341565,0.0809777191518864,0.0866473342518891,0.128165702733979
"11",0.000510964649182036,0.0002746259035731,0.0003870375268345,0.000462509187338223,0.000596822001738351,0.000762450087492468,0.000976486142947548,0.00124260641130292,0.00156982078969323,0.00196762318315842,0.00244639035433683,0.00301731899042004,0.00369229924046065,0.0044838154852793,0.00540514554237666,0.00647075255465262,0.00769713813922922,0.00910397706898297,0.0107158526677337,0.0125643179605125,0.0146927885088434,0.0171511095729497,0.0200065801485289,0.0233581739611448,0.0273517785046091,0.0318776926092125,0.0372123641302311,0.0431984108846296,0.0500306278844546,0.0606910559269495,0.0627072567344498,0.0694635202276408,0.0778511158631449,0.0816525202692213,0.0842403609244403,0.0903660026101053,0.133800687352167
"12",0.000371818422533454,0.000204070009423236,0.000289492592120284,0.000349107212164517,0.000454929943643774,0.000587151340569189,0.000759252237249474,0.000975415442260651,0.00124400311101247,0.0015741241902135,0.00197597149554377,0.00246083898305903,0.0030411118150012,0.0037303042479947,0.00454335999557797,0.00549715063617279,0.00661143946082145,0.00791013088542392,0.00942311552812293,0.0111884156831041,0.0132572398810376,0.0156881817451414,0.0185585464916957,0.0219788272056259,0.0261083220453297,0.0308388908642057,0.036463356884256,0.0428196815955514,0.0501095841587056,0.0614347181177461,0.0637920047757864,0.0711073452559596,0.0801257035745961,0.0843493697931215,0.0872726256331157,0.0938366421792977,0.139067756566784
"13",0.000268041320402446,0.000150314564511717,0.000214674454315594,0.000261284661734873,0.00034388366651019,0.000448429049774583,0.000585546078418559,0.000759559055945399,0.000978100731793282,0.00124973309512922,0.00158425423893716,0.00199279461470177,0.00248791755112503,0.00308378818347557,0.00379658549214432,0.00464512167818458,0.00565193617339793,0.00684467991896468,0.00825809306016532,0.00993625846204205,0.0119378323402225,0.0143299171925245,0.0171996760159809,0.0206690305589795,0.0249106051892662,0.0298186496737195,0.0357021187256256,0.0423954538186338,0.0501073710861345,0.0620507119501924,0.0647300595639668,0.0725727880987705,0.0821871466293088,0.0868141243134183,0.0900593604311041,0.0970391877188058,0.143934970641641
"14",0.000191449211597097,0.000109765094532538,0.000157850107430519,0.000193935215410484,0.00025782654172675,0.000339734213259922,0.000448029951363702,0.000586932828515898,0.000763312498746342,0.000985084341901372,0.00126150656853575,0.00160335082254074,0.00202310496728661,0.0025352651074418,0.00315686400133859,0.0039082197333944,0.00481417271184999,0.005905619403697,0.00722164044582535,0.00881188213732187,0.0107419749716364,0.0130871258838277,0.0159440068643265,0.0194456476295231,0.023777660635039,0.0288373251769451,0.0349492358467009,0.0419453497963933,0.0500413483001873,0.0625522387560064,0.065531288319799,0.0738647208163505,0.0840346131877443,0.0890412274920825,0.0925909505194005,0.0999598517625801,0.14837988813771
"15",0.000135502823704406,7.94785814495605e-05,0.000115112759840006,0.000142789010446652,0.000191786988254939,0.000255409441290882,0.00034025333377769,0.000450278351187467,0.000591596169506151,0.000771428405269033,0.000998406179648365,0.00128280810779743,0.00163685558452103,0.00207511823732362,0.00261515832460737,0.00327841133985544,0.00409157235594681,0.00508828784621529,0.00631144613590031,0.00781570188834684,0.00967309060085001,0.0119663858889772,0.0148012495340459,0.0183212958748033,0.0227245582749746,0.0279117918710916,0.0342225096006161,0.0414870934001889,0.0499280464513714,0.0629531269480552,0.06620702014165,0.0749906899144891,0.0856712573069329,0.0910299960364916,0.0948633484553766,0.102591276821359,0.152389861013807
"16",9.50544607723572e-05,5.7079747082101e-05,8.32832786451273e-05,0.000104326533883224,0.000141606060268374,0.000190641561855017,0.000256635992392607,0.000343205517832723,0.000455738558766471,0.000600757969001014,0.000786229433864157,0.00102185853305387,0.00131946777596048,0.00169350449293191,0.00216179665933186,0.00274656308759686,0.0034759495546688,0.00438588144618615,0.00552252236489888,0.00694495107413326,0.00873097543750134,0.010970298862967,0.0137769182656082,0.0173043413387954,0.0217622601639092,0.0270551651202197,0.0335365648306615,0.0410360321900369,0.0497826385437823,0.0632672936774656,0.0667695338491312,0.0759604649154463,0.0871038525903265,0.0927843471191168,0.0968778915807663,0.104932432293409,0.155961935117703
"17",6.61082677009725e-05,4.06772804070771e-05,5.98092017029154e-05,7.56858273162295e-05,0.00010385242176464,0.000141394217809088,0.000192422994519835,0.000260178179663688,0.000349380587602608,0.000465881316889466,0.000616981434873474,0.00081177926808137,0.00106161805299973,0.00138068444257522,0.00178686802131627,0.00230289466979842,0.00295800781425945,0.00378997920954562,0.00484773564154238,0.00619419208935754,0.00791226365927649,0.0100978820388516,0.0128726266363485,0.0163990787459105,0.020897672740949,0.0262767220597119,0.0329026447251214,0.040604821028044,0.0496185343150575,0.0635082688611278,0.0672315676176915,0.0767855480981538,0.0883423193804476,0.0943123683221577,0.0986409198582047,0.106988264704855,0.159102366268337
"18",4.5603705044023e-05,2.87845755404878e-05,4.26673936081503e-05,5.45696632164878e-05,7.57323429262631e-05,0.000104328846183241,0.000143620629659697,0.000196472374449131,0.000267006110169591,0.000360450779400695,0.00048347321774333,0.000644566937285643,0.000854559411483901,0.00112728907988249,0.00148055863977857,0.00193738209651543,0.00252780238141481,0.00329105294372543,0.0042783472105908,0.00555586631590379,0.00721096274470227,0.00934506316823313,0.0120865164326069,0.0156060705942618,0.0201338761943587,0.0255820082295344,0.0323285876409484,0.0402032707828149,0.0494471086921296,0.0636887996747867,0.0676058719308456,0.0774786698052109,0.0893991716736092,0.0956257559851972,0.100163218931398,0.108769125784167,0.161825787080645
"19",3.12266460718733e-05,2.02476346876987e-05,3.02740781822622e-05,3.91571251033496e-05,5.50002073962422e-05,7.67205612568066e-05,0.000106920729102548,0.000148115347748153,0.000203903076004544,0.000278954585031078,0.000379353489876589,0.000513018470052819,0.000690259798817836,0.000924522937843785,0.00123342443535522,0.00164010110914426,0.00217515227051935,0.00287894112143525,0.00380453724431451,0.00502085247292034,0.00661902560602411,0.00870524278678846,0.0114137843595842,0.0149226119936784,0.0194705019086163,0.0249731068027128,0.0318189701643852,0.0398383547201029,0.0492775657241415,0.0638205469529571,0.0679048228901233,0.0780532929284244,0.0902889135430804,0.096739155012984,0.101459323485996,0.110290016467101,0.164154081312408
"20",2.12490989219721e-05,1.41814665414996e-05,2.14043245235189e-05,2.80223899119604e-05,3.9873369612862e-05,5.63739277917038e-05,7.96195256905239e-05,0.000111812559654335,0.00015610503161315,0.000216680534616629,0.000299103198697058,0.000410765872516463,0.000561486420824432,0.000764306633345565,0.00103659910682929,0.00140150587830779,0.0018899915584661,0.0025432709154074,0.00341589132337895,0.00457900646838631,0.00612692790033082,0.00816988863251074,0.0108472694427285,0.0143432840333084,0.0189042228445291,0.0244490393959866,0.0313753916067309,0.039514355684008,0.0491169304158667,0.0639138778907327,0.0681401074156199,0.0785231475452799,0.0910274157549087,0.0976694371175798,0.102546722578098,0.111569694338268,0.166115037798449
"21",1.43964018051863e-05,9.91538963122097e-06,1.51218778578751e-05,2.00622789589546e-05,2.8953879762442e-05,4.15422792681145e-05,5.95359123737692e-05,8.48687409258156e-05,0.000120320118614027,0.000169659500749311,0.000238001367825901,0.000332273230156,0.000461843333047034,0.000639364556262265,0.000881940857345985,0.00121264235965844,0.00166265475501142,0.00227381789235545,0.00310183287744723,0.00421966045243387,0.00572422251917255,0.00772912925243117,0.0103780644079679,0.0138605568975127,0.0184293181032025,0.0240062619760509,0.0309968681985523,0.0392331293766824,0.048970153011291,0.0639777526854132,0.0683224861184992,0.0789018130862795,0.0916313024686126,0.0984349561884109,0.103445012598804,0.112629698386259,0.167740866663342
"22",9.73946436075393e-06,6.94702288297925e-06,1.07193871535831e-05,1.44332164202625e-05,2.1158529398918e-05,3.08530741733786e-05,4.49327380925081e-05,6.51078616462447e-05,9.3853648920649e-05,0.00013459593057148,0.000192070218165705,0.000272804374051801,0.000385770572289503,0.000543265024748803,0.000762123253368867,0.00106529898821538,0.00148409510986455,0.00206079746447889,0.0028519901398591,0.00393206356853161,0.0054000475496763,0.0073723171937898,0.00999611636098964,0.013465404349464,0.0180382715351398,0.0236392162052107,0.0306803005297009,0.038994453205161,0.0488403039255108,0.0640196968368012,0.0684616342319829,0.0792023614945194,0.0921173760550504,0.0990548195807987,0.104175045473047,0.113493348756186,0.169066667129752
"23",6.60897995949445e-06,4.90434347432571e-06,7.66851492525059e-06,1.04975602080433e-05,1.5657839525005e-05,2.32408058747712e-05,3.44436782900683e-05,5.07957035562575e-05,7.45291753616126e-05,0.000108791487049266,0.000158006800022978,0.000228369258036108,0.00032851326153355,0.000470421117843991,0.000670677432850273,0.000952100023014883,0.00134603826461303,0.00189508658563685,0.00265649123734437,0.00370575238947179,0.00514356958424237,0.00708853746846104,0.00969078668465711,0.0131478947291053,0.0177223664062736,0.0233408971546321,0.030420976759329,0.0387964276548299,0.0487288338047062,0.0640458462858284,0.0685660561435477,0.0794370701216059,0.0925021038450938,0.0995482106476983,0.104758117043634,0.114184777275335,0.170128933932404
"24",4.52832405349377e-06,3.51496294892131e-06,5.57906470270875e-06,7.77881022604312e-06,1.1823996322605e-05,1.78881997897149e-05,2.70072797285461e-05,4.05676659114309e-05,6.06118498928515e-05,9.00668607736562e-05,0.000133107400797984,0.000195656419645946,0.000286068901094695,0.000416060806937249,0.000601994091654898,0.000866549016321328,0.00124107687405859,0.00176837849054588,0.00250618640238435,0.00353084531665514,0.00494435124734255,0.0068670443585426,0.0094513474578729,0.0128977305737285,0.017472244229717,0.0231034031530376,0.0302130773563422,0.0386358985529705,0.0486358726333957,0.0640610497317726,0.0686430649754051,0.0796172075014721,0.0928011835897384,0.0999337900480291,0.105215232328783,0.114728035553829,0.170964175973551
"25",3.16193016387929e-06,2.58166697997285e-06,4.16606982661156e-06,5.92490155892405e-06,9.1872922138827e-06,1.41758097848103e-05,2.18089774300364e-05,3.33634609784633e-05,5.07367450610929e-05,7.66855791895818e-05,0.000115189780884811,0.000171957789497373,0.000255120190168375,0.000376174533228741,0.000551293759626506,0.000803030676314211,0.00116271345961277,0.00167327584466846,0.0023927998230539,0.00339825965732352,0.00479263701975013,0.00669761540100815,0.00926739773474245,0.0127047149204444,0.0172784013556633,0.0229184381934006,0.0300501506190515,0.0385088706582795,0.0485605422944175,0.0640690110602409,0.0686988161359057,0.0797528912780199,0.0930291992589337,0.100229197470175,0.105566477954243,0.115146320413794,0.171607710284342
"26",2.27630707059273e-06,1.96333783296376e-06,3.22385528810805e-06,4.67881577243272e-06,7.40061426455123e-06,1.16400751965855e-05,1.82318356098364e-05,2.83703782986172e-05,4.38450099772501e-05,6.72841610317105e-05,0.000102519348421669,0.000155093988167539,0.000232963765446309,0.000347453011752546,0.000514580587701683,0.000756788709293519,0.00110537122766368,0.00160334381526124,0.00230903389784044,0.00329987474421436,0.00467958054372228,0.00657084469293262,0.00912921987641166,0.0125591616143497,0.0171316368672781,0.022777775931157,0.0299255627747019,0.0384109106588817,0.048501274531541,0.064072456068641,0.0687383754413752,0.0798529934661105,0.0931993365660536,0.100450619845193,0.105830465455624,0.115461276683901,0.172092571495998
"27",1.71261600537545e-06,1.56148722856559e-06,2.60775769364556e-06,3.85793812782795e-06,6.21468047514623e-06,9.94444342820126e-06,1.58233176536549e-05,2.49861958118352e-05,3.91440993786259e-05,6.08317748275151e-05,9.37715366111215e-05,0.000143384131168578,0.000217493778229159,0.000327292714762216,0.000488679694709273,0.00072400666574286,0.00106453133992305,0.00155331728862694,0.00224885947090399,0.00322891637826075,0.00459773072273384,0.00647873237622944,0.0090284660597151,0.0124526618505911,0.0170238688779676,0.02267408666288,0.0298332801159216,0.0383378230763478,0.0484563093838078,0.0640733216954883,0.068765717805891,0.0799248171864653,0.0933226831933365,0.1006118046324,0.106023102279634,0.115691488803384,0.172447167967616
"28",1.36911617553543e-06,1.31196619889469e-06,2.22310393581549e-06,3.34203553515837e-06,5.46435426749525e-06,8.86463421688689e-06,1.42802460986847e-05,2.28054595715135e-05,3.60979734201737e-05,5.66282519068255e-05,8.80431422485823e-05,0.000135677953106142,0.000207264507574433,0.000313901129323987,0.000471399720452499,0.000702044726690911,0.00103706258933588,0.00151954278578921,0.00220808845210898,0.00318067554466691,0.00454190595482969,0.00641571473132796,0.00895933168800934,0.0123793712890848,0.0169494841816303,0.022602284641659,0.0297691218524918,0.038286707427319,0.0484244388577743,0.064072962440184,0.0687836108790328,0.0799734320043946,0.0934069232137557,0.100722270971901,0.106155396295381,0.115849810704176,0.172691145174402
"29",1.14502647181356e-06,1.14588904249171e-06,1.96558616201159e-06,2.99422703922611e-06,4.95492822245759e-06,8.12647237301794e-06,1.32186721299497e-05,2.12960304530097e-05,3.39771729703929e-05,5.3685102521415e-05,8.40105342842304e-05,0.000130224718457388,0.000199989563269553,0.000304331509815519,0.000458994877192412,0.000686209929118535,0.00101717495815042,0.00149499312958316,0.00217834217213705,0.00314535422194372,0.00450089380739418,0.00636926911188533,0.00890821967538932,0.0123250213389939,0.0168941514991314,0.0225486932431801,0.0297210389814952,0.0382481672657529,0.0484000874990708,0.0640719603276093,0.0687961698602927,0.0800088634559851,0.0934689097922422,0.100803855967871,0.106253314384126,0.115967167123426,0.172872081944795
"30",1.00886716089096e-06,1.04323390301738e-06,1.80561869187999e-06,2.7768951836239e-06,4.63472244840399e-06,7.65983192364587e-06,1.25440194032388e-05,2.03318893780853e-05,3.26159351355813e-05,5.17872252323586e-05,8.13984839937859e-05,0.00012667733104208,0.000195237712253852,0.000298056319069685,0.000450830112623769,0.000675750528522324,0.00100399415287712,0.00147867038710813,0.00215850427007885,0.00312173065001559,0.00447338942759864,0.00633804002714399,0.00887376725714405,0.0122882968232864,0.0168566701425609,0.0225122941180226,0.0296882752696527,0.0382217815641318,0.0483832447234702,0.0640708860031309,0.0688042732271676,0.0800324723924261,0.0935105385054746,0.100858810475695,0.106319386271045,0.116046449871928,0.172994365714053
"31",9.29404014382175e-07,9.82398065532648e-07,1.71039849464625e-06,2.64685265113106e-06,4.44212431267608e-06,7.37774221348703e-06,1.21342838956961e-05,1.97437367871869e-05,3.17820117122126e-05,5.06198087094211e-05,7.97854986882865e-05,0.000124478582081217,0.000192281906531116,0.000294139668510256,0.000445717580934211,0.000669181000185357,0.000995691133306335,0.00146835970981772,0.0021459403495335,0.00310673210657736,0.0044558860194436,0.00631812190537947,0.00885174615095671,0.0122647742204749,0.0168326117623627,0.0224888769741093,0.0296671389072216,0.038204691889916,0.0483722431174277,0.0640699801641374,0.0688092539750417,0.0800474133225354,0.0935370645504463,0.100893918524862,0.106361660609695,0.116097229007706,0.173072712601242
"32",8.84912509093309e-07,9.47875624308843e-07,1.65615533429649e-06,2.57243669669709e-06,4.33141415740028e-06,7.21488596436364e-06,1.18967857442272e-05,1.94015176839882e-05,3.12950171552153e-05,4.99356780064925e-05,7.88370949736337e-05,0.000123181630400682,0.000190533082426253,0.000291815621226676,0.000442675541916259,0.000665261764627249,0.000990725409877245,0.00146217875877302,0.00213839187329592,0.00309770192581322,0.00444532673932804,0.00630608313125168,0.00883841209838548,0.0122505056895355,0.0168179920205962,0.0224746194621862,0.0296542403057979,0.0381942281492626,0.0483654598913341,0.0640693190580929,0.0688121678840001,0.0800563840603653,0.0935530854186188,0.100915169546992,0.106387282381822,0.116128032312889,0.173120252467316
"33",8.61358603801449e-07,9.29389658559063e-07,1.62701434095374e-06,2.53230543400561e-06,4.27148357372943e-06,7.12640592760487e-06,1.17673182708374e-05,1.92143658150621e-05,3.10278763578452e-05,4.95593012150804e-05,7.83138699573202e-05,0.00012246420656277,0.000189563239930499,0.000290523657151616,0.000440980544954977,0.000663073229946781,0.000987946766544087,0.00145871334257509,0.00213415190546756,0.00309262081469947,0.00443937540213347,0.00629928725976788,0.00883087368707316,0.0122424270932235,0.0168097022703837,0.0224665222347171,0.029646900912768,0.0381882580259418,0.0483615677991671,0.0640688924503575,0.068813767437085,0.0800614201296617,0.093562124044884,0.100927181036716,0.106401779836693,0.116145474287102,0.173147177695318
"34",8.49841148110729e-07,9.2026523565846e-07,1.6125921649093e-06,2.512382055183e-06,4.24163877253323e-06,7.08221316828912e-06,1.17024766242602e-05,1.91203897414095e-05,3.08934015468697e-05,4.93693889971039e-05,7.80492627219462e-05,0.000122100603774128,0.000189070693912239,0.000289866230715701,0.000440116423995123,0.000661955526534598,0.000986525311891489,0.00145693775000785,0.00213197619907802,0.00309000979389736,0.00443631310860315,0.00629578596011918,0.00882698508900146,0.0122382548932625,0.0168054158874995,0.0224623300333043,0.0296430952684344,0.0381851556576365,0.0483595362158074,0.0640686503459155,0.068814572613954,0.0800640031760392,0.093566778839519,0.100933376090169,0.106409263551896,0.116154483290883,0.173161087591955
"35",8.44830580102735e-07,9.1626624786348e-07,1.60625794269382e-06,2.50361021765961e-06,4.22846685901746e-06,7.06266346106124e-06,1.16737307699936e-05,1.90786427760329e-05,3.08335474628365e-05,4.92847027524149e-05,7.79310586742489e-05,0.00012193790170718,0.000188849937520818,0.000289571123126467,0.000439727968451629,0.000661452380016765,0.000985884588944339,0.00145613640577181,0.00213099312801357,0.00308882872384552,0.00443492645897303,0.00629419894437323,0.0088252208430483,0.0122363602177044,0.0168034675355802,0.0224604225846561,0.0296413616452755,0.038183740024078,0.0483586059896718,0.0640685326706894,0.0688149308417002,0.0800651698780507,0.0935688880283395,0.100936186507647,0.106412660892534,0.116158574946485,0.173167406056036
"36",8.43022922016176e-07,9.14815540667855e-07,1.60395645725277e-06,2.50041721684814e-06,4.22366354819393e-06,7.05552207344191e-06,1.16632133046192e-05,1.90633452802204e-05,3.08115831260857e-05,4.92535828905597e-05,7.78875645631023e-05,0.000121877958754382,0.000188768508438088,0.000289462144169746,0.000439584361670769,0.000661266181879445,0.000985647246834732,0.00145583929090542,0.00213062831623168,0.00308839007461222,0.00443441105611184,0.00629360863062657,0.00882456414003809,0.0122356544771298,0.0168027412957251,0.0224597110629088,0.0296407143945357,0.0381832108368738,0.0483582573731135,0.0640684866970797,0.0688150622229312,0.0800656027161682,0.0935696723970744,0.100937232568825,0.106413926054613,0.116160099194321,0.173169760111489
"37",8.42576920845539e-07,9.14456337665061e-07,1.60338601958846e-06,2.49962488428219e-06,4.22247024491476e-06,7.05374594957385e-06,1.16605948451015e-05,1.90595330641308e-05,3.08061044199055e-05,4.92458135860147e-05,7.787669675086e-05,0.000121862968807344,0.000188748129792059,0.000289434850864281,0.000439548370964199,0.00066121948613882,0.000985587687729521,0.00145576468820925,0.00213053666429336,0.00308827981423939,0.00443428143797692,0.00629346010275907,0.00882439883290577,0.012235476747376,0.016802558321946,0.0224595317120336,0.0296405511523307,0.0381830772652464,0.048358169237197,0.0640684747739663,0.0688150949780959,0.0800657114392206,0.0935698697236502,0.100937495878861,0.106414244619746,0.116160483081453,0.173170353031157
