"","X0","X1","X2","X3","X4","X5","X6","X7","X8","X9","X10","X11","X12","X13","X14","X15","X16","X17","X18","X19","X20","X21","X22","X23","X24","X25","X26","X27","X28","X29","X30","X31","X32","X33","X34","X35","X36"
"1",0.825232994160393,0.134907598202965,0.00747140563127422,0.000129937489239552,0,0,0,0,0,0,0.0275077664720131,0.00449691994009881,0.000249046854375807,4.33124964131838e-06,0,0,0,0,0,0,0,0,0,0,0,0,0,0,0,0,0,0,0,0,0,0,0
"2",0.0811459620300999,0.74782273494593,0.131236864131947,0.00740643688665445,0.000129937489239552,0,0,0,0,0,0.00270486540100333,0.0249274244981976,0.00437456213773157,0.000246881229555148,4.33124964131838e-06,0,0,0,0,0,0,0,0,0,0,0,0,0,0,0,0,0,0,0,0,0,0
"3",0.00279365601865035,0.0783847903837595,0.74779025057362,0.131236864131947,0.00740643688665445,0.000129937489239552,0,0,0,0,9.31218672883451e-05,0.00261282634612531,0.0249263416857873,0.00437456213773157,0.000246881229555148,4.33124964131838e-06,0,0,0,0,0,0,0,0,0,0,0,0,0,0,0,0,0,0,0,0,0
"4",3.24843723098878e-05,0.00276117164634047,0.0783847903837595,0.74779025057362,0.131236864131947,0.00740643688665445,0.000129937489239552,0,0,0,1.08281241032959e-06,9.20390548780155e-05,0.00261282634612531,0.0249263416857873,0.00437456213773157,0.000246881229555148,4.33124964131838e-06,0,0,0,0,0,0,0,0,0,0,0,0,0,0,0,0,0,0,0,0
"5",0,3.24843723098878e-05,0.00276117164634047,0.0783847903837595,0.74779025057362,0.131236864131947,0.00740643688665445,0.000129937489239552,0,0,0,1.08281241032959e-06,9.20390548780155e-05,0.00261282634612531,0.0249263416857873,0.00437456213773157,0.000246881229555148,4.33124964131838e-06,0,0,0,0,0,0,0,0,0,0,0,0,0,0,0,0,0,0,0
"6",0,0,3.24843723098878e-05,0.00276117164634047,0.0783847903837595,0.74779025057362,0.131236864131947,0.00740643688665445,0.000129937489239552,0,0,0,1.08281241032959e-06,9.20390548780155e-05,0.00261282634612531,0.0249263416857873,0.00437456213773157,0.000246881229555148,4.33124964131838e-06,0,0,0,0,0,0,0,0,0,0,0,0,0,0,0,0,0,0
"7",0,0,0,3.24843723098878e-05,0.00276117164634047,0.0783847903837595,0.74779025057362,0.131236864131947,0.00740643688665445,0.000129937489239552,0,0,0,1.08281241032959e-06,9.20390548780155e-05,0.00261282634612531,0.0249263416857873,0.00437456213773157,0.000246881229555148,4.33124964131838e-06,0,0,0,0,0,0,0,0,0,0,0,0,0,0,0,0,0
"8",0,0,0,0,3.24843723098878e-05,0.00276117164634047,0.0783847903837595,0.74779025057362,0.131236864131947,0.00740643688665445,0.000129937489239552,0,0,0,1.08281241032959e-06,9.20390548780155e-05,0.00261282634612531,0.0249263416857873,0.00437456213773157,0.000246881229555148,4.33124964131838e-06,0,0,0,0,0,0,0,0,0,0,0,0,0,0,0,0
"9",0,0,0,0,0,3.24843723098878e-05,0.00276117164634047,0.0783847903837595,0.74779025057362,0.131236864131947,0.00740643688665445,0.000129937489239552,0,0,0,1.08281241032959e-06,9.20390548780155e-05,0.00261282634612531,0.0249263416857873,0.00437456213773157,0.000246881229555148,4.33124964131838e-06,0,0,0,0,0,0,0,0,0,0,0,0,0,0,0
"10",0,0,0,0,0,0,3.24843723098878e-05,0.00276117164634047,0.0783847903837595,0.74779025057362,0.131236864131947,0.00740643688665445,0.000129937489239552,0,0,0,1.08281241032959e-06,9.20390548780155e-05,0.00261282634612531,0.0249263416857873,0.00437456213773157,0.000246881229555148,4.33124964131838e-06,0,0,0,0,0,0,0,0,0,0,0,0,0,0
"11",0,0,0,0,0,0,0,3.24843723098878e-05,0.00276117164634047,0.0783847903837595,0.74779025057362,0.131236864131947,0.00740643688665445,0.000129937489239552,0,0,0,1.08281241032959e-06,9.20390548780155e-05,0.00261282634612531,0.0249263416857873,0.00437456213773157,0.000246881229555148,4.33124964131838e-06,0,0,0,0,0,0,0,0,0,0,0,0,0
"12",0,0,0,0,0,0,0,0,3.24843723098878e-05,0.00276117164634047,0.0783847903837595,0.74779025057362,0.131236864131947,0.00740643688665445,0.000129937489239552,0,0,0,1.08281241032959e-06,9.20390548780155e-05,0.00261282634612531,0.0249263416857873,0.00437456213773157,0.000246881229555148,4.33124964131838e-06,0,0,0,0,0,0,0,0,0,0,0,0
"13",0,0,0,0,0,0,0,0,0,3.24843723098878e-05,0.00276117164634047,0.0783847903837595,0.74779025057362,0.131236864131947,0.00740643688665445,0.000129937489239552,0,0,0,1.08281241032959e-06,9.20390548780155e-05,0.00261282634612531,0.0249263416857873,0.00437456213773157,0.000246881229555148,4.33124964131838e-06,0,0,0,0,0,0,0,0,0,0,0
"14",0,0,0,0,0,0,0,0,0,0,3.24843723098878e-05,0.00276117164634047,0.0783847903837595,0.74779025057362,0.131236864131947,0.00740643688665445,0.000129937489239552,0,0,0,1.08281241032959e-06,9.20390548780155e-05,0.00261282634612531,0.0249263416857873,0.00437456213773157,0.000246881229555148,4.33124964131838e-06,0,0,0,0,0,0,0,0,0,0
"15",0,0,0,0,0,0,0,0,0,0,0,3.24843723098878e-05,0.00276117164634047,0.0783847903837595,0.74779025057362,0.131236864131947,0.00740643688665445,0.000129937489239552,0,0,0,1.08281241032959e-06,9.20390548780155e-05,0.00261282634612531,0.0249263416857873,0.00437456213773157,0.000246881229555148,4.33124964131838e-06,0,0,0,0,0,0,0,0,0
"16",0,0,0,0,0,0,0,0,0,0,0,0,3.24843723098878e-05,0.00276117164634047,0.0783847903837595,0.74779025057362,0.131236864131947,0.00740643688665445,0.000129937489239552,0,0,0,1.08281241032959e-06,9.20390548780155e-05,0.00261282634612531,0.0249263416857873,0.00437456213773157,0.000246881229555148,4.33124964131838e-06,0,0,0,0,0,0,0,0
"17",0,0,0,0,0,0,0,0,0,0,0,0,0,3.24843723098878e-05,0.00276117164634047,0.0783847903837595,0.74779025057362,0.131236864131947,0.00740643688665445,0.000129937489239552,0,0,0,1.08281241032959e-06,9.20390548780155e-05,0.00261282634612531,0.0249263416857873,0.00437456213773157,0.000246881229555148,4.33124964131838e-06,0,0,0,0,0,0,0
"18",0,0,0,0,0,0,0,0,0,0,0,0,0,0,3.24843723098878e-05,0.00276117164634047,0.0783847903837595,0.74779025057362,0.131236864131947,0.00740643688665445,0.000129937489239552,0,0,0,1.08281241032959e-06,9.20390548780155e-05,0.00261282634612531,0.0249263416857873,0.00437456213773157,0.000246881229555148,4.33124964131838e-06,0,0,0,0,0,0
"19",0,0,0,0,0,0,0,0,0,0,0,0,0,0,0,3.24843723098878e-05,0.00276117164634047,0.0783847903837595,0.74779025057362,0.131236864131947,0.00740643688665445,0.000129937489239552,0,0,0,1.08281241032959e-06,9.20390548780155e-05,0.00261282634612531,0.0249263416857873,0.00437456213773157,0.000246881229555148,4.33124964131838e-06,0,0,0,0,0
"20",0,0,0,0,0,0,0,0,0,0,0,0,0,0,0,0,3.24843723098878e-05,0.00276117164634047,0.0783847903837595,0.74779025057362,0.131236864131947,0.00740643688665445,0.000129937489239552,0,0,0,1.08281241032959e-06,9.20390548780155e-05,0.00261282634612531,0.0249263416857873,0.00437456213773157,0.000246881229555148,4.33124964131838e-06,0,0,0,0
"21",0,0,0,0,0,0,0,0,0,0,0,0,0,0,0,0,0,3.24843723098878e-05,0.00276117164634047,0.0783847903837595,0.74779025057362,0.131236864131947,0.00740643688665445,0.000129937489239552,0,0,0,1.08281241032959e-06,9.20390548780155e-05,0.00261282634612531,0.0249263416857873,0.00437456213773157,0.000246881229555148,4.33124964131838e-06,0,0,0
"22",0,0,0,0,0,0,0,0,0,0,0,0,0,0,0,0,0,0,3.24843723098878e-05,0.00276117164634047,0.0783847903837595,0.74779025057362,0.131236864131947,0.00740643688665445,0.000129937489239552,0,0,0,1.08281241032959e-06,9.20390548780155e-05,0.00261282634612531,0.0249263416857873,0.00437456213773157,0.000246881229555148,4.33124964131838e-06,0,0
"23",0,0,0,0,0,0,0,0,0,0,0,0,0,0,0,0,0,0,0,3.24843723098878e-05,0.00276117164634047,0.0783847903837595,0.74779025057362,0.131236864131947,0.00740643688665445,0.000129937489239552,0,0,0,1.08281241032959e-06,9.20390548780155e-05,0.00261282634612531,0.0249263416857873,0.00437456213773157,0.000246881229555148,4.33124964131838e-06,0
"24",0,0,0,0,0,0,0,0,0,0,0,0,0,0,0,0,0,0,0,0,3.24843723098878e-05,0.00276117164634047,0.0783847903837595,0.74779025057362,0.131236864131947,0.00740643688665445,0.000129937489239552,0,0,0,1.08281241032959e-06,9.20390548780155e-05,0.00261282634612531,0.0249263416857873,0.00437456213773157,0.000246881229555148,4.33124964131838e-06
"25",0,0,0,0,0,0,0,0,0,0,0,0,0,0,0,0,0,0,0,0,0,3.24843723098878e-05,0.00276117164634047,0.0783847903837595,0.74779025057362,0.131236864131947,0.00740643688665445,0.00013426873888087,0,0,0,1.08281241032959e-06,9.20390548780155e-05,0.00261282634612531,0.0249263416857873,0.00437456213773157,0.000246881229555148
"26",0,0,0,0,0,0,0,0,0,0,0,0,0,0,0,0,0,0,0,0,0,0,3.24843723098878e-05,0.00276117164634047,0.0783847903837595,0.74779025057362,0.131236864131947,0.0076533181162096,0.00013426873888087,0,0,0,1.08281241032959e-06,9.20390548780155e-05,0.00261282634612531,0.0249263416857873,0.00437456213773157
"27",0,0,0,0,0,0,0,0,0,0,0,0,0,0,0,0,0,0,0,0,0,0,0,3.24843723098878e-05,0.00276117164634047,0.0783847903837595,0.74779025057362,0.135611426269679,0.0076533181162096,0.00013426873888087,0,0,0,1.08281241032959e-06,9.20390548780155e-05,0.00261282634612531,0.0249263416857873
"28",0,0,0,0,0,0,0,0,0,0,0,0,0,0,0,0,0,0,0,0,0,0,0,0,3.24843723098878e-05,0.00276117164634047,0.0783847903837595,0.772716592259407,0.135611426269679,0.0076533181162096,0.00013426873888087,0,0,0,1.08281241032959e-06,9.20390548780155e-05,0.00261282634612531
"29",0,0,0,0,0,0,0,0,0,0,0,0,0,0,0,0,0,0,0,0,0,0,0,0,0,3.24843723098878e-05,0.00276117164634047,0.0809976167298848,0.772716592259407,0.135611426269679,0.0076533181162096,0.00013426873888087,0,0,0,1.08281241032959e-06,9.20390548780155e-05
"30",0,0,0,0,0,0,0,0,0,0,0,0,0,0,0,0,0,0,0,0,0,0,0,0,0,0,3.24843723098878e-05,0.00285321070121848,0.0809976167298848,0.772716592259407,0.135611426269679,0.0076533181162096,0.00013426873888087,0,0,0,1.08281241032959e-06
"31",0,0,0,0,0,0,0,0,0,0,0,0,0,0,0,0,0,0,0,0,0,0,0,0,0,0,0,3.35671847202174e-05,0.00285321070121848,0.0809976167298848,0.772716592259407,0.135611426269679,0.0076533181162096,0.00013426873888087,0,0,0
"32",0,0,0,0,0,0,0,0,0,0,0,0,0,0,0,0,0,0,0,0,0,0,0,0,0,0,0,0,3.35671847202174e-05,0.00285321070121848,0.0809976167298848,0.772716592259407,0.135611426269679,0.0076533181162096,0.00013426873888087,0,0
"33",0,0,0,0,0,0,0,0,0,0,0,0,0,0,0,0,0,0,0,0,0,0,0,0,0,0,0,0,0,3.35671847202174e-05,0.00285321070121848,0.0809976167298848,0.772716592259407,0.135611426269679,0.0076533181162096,0.00013426873888087,0
"34",0,0,0,0,0,0,0,0,0,0,0,0,0,0,0,0,0,0,0,0,0,0,0,0,0,0,0,0,0,0,3.35671847202174e-05,0.00285321070121848,0.0809976167298848,0.772716592259407,0.135611426269679,0.0076533181162096,0.00013426873888087
"35",0,0,0,0,0,0,0,0,0,0,0,0,0,0,0,0,0,0,0,0,0,0,0,0,0,0,0,0,0,0,0,3.35671847202174e-05,0.00285321070121848,0.0809976167298848,0.772716592259407,0.135611426269679,0.00778758685509047
"36",0,0,0,0,0,0,0,0,0,0,0,0,0,0,0,0,0,0,0,0,0,0,0,0,0,0,0,0,0,0,0,0,3.35671847202174e-05,0.00285321070121848,0.0809976167298848,0.772850860998288,0.143264744385888
"37",0,0,0,0,0,0,0,0,0,0,0,0,0,0,0,0,0,0,0,0,0,0,0,0,0,0,0,0,0,0,0,0,0,3.35671847202174e-05,0.00292034507065892,0.0867711725017622,0.910274915242859
