"","X0","X1","X2","X3","X4","X5","X6","X7","X8","X9","X10","X11","X12","X13","X14","X15","X16","X17","X18","X19","X20","X21","X22","X23","X24","X25","X26","X27","X28","X29","X30","X31","X32","X33","X34","X35","X36"
"1",0.0045796892909893,0.00438215190235952,0.00508707032640162,0.00559387523967371,0.00628084988817675,0.00703221150967964,0.00787258111209995,0.00880415749408017,0.00981994849291192,0.0109165670997637,0.012091816940449,0.0133435765715563,0.0146679730684639,0.016058922516734,0.0175081892228541,0.0190057365566188,0.0205402159237839,0.0220994833292997,0.023671024507549,0.0252422467681411,0.0268006657801729,0.028334075883323,0.0298308061613121,0.0312801172709041,0.0326729876482753,0.0340046685163289,0.0352813568903683,0.0365294985450496,0.0377970706112879,0.0391304300048945,0.0405536445007664,0.0421558651831636,0.0443737088664774,0.0490325571201519,0.056874272317659,0.0732160642568439,0.107533922681391
"2",0.0039917579874889,0.00382593307835713,0.00445207540901116,0.0049125254189468,0.00553783811535638,0.00622840518640989,0.00700691056087413,0.00787654287716546,0.00883249632995848,0.00987309123287642,0.0109976663037053,0.0122055955564578,0.0134946825286263,0.014860736356465,0.0162975934389246,0.0177973863832429,0.019350925750944,0.0209480970841661,0.0225781684751453,0.0242299724263767,0.025891992163096,0.0275524464325499,0.0291994830545055,0.0308215410621443,0.0324081465604302,0.0339526122933736,0.0354591465938107,0.0369527935829308,0.0384808655948001,0.0400884041698423,0.0417962924607967,0.0436940997546465,0.0462398181345465,0.0513618442616548,0.0598390852263206,0.0772842843406707,0.113678743813339
"3",0.00337374349189979,0.00324044228598691,0.0037823019711361,0.00419171437662191,0.00474901679051029,0.00537152036240255,0.00607983169007765,0.006878166522984,0.00776403932691349,0.00873762987466934,0.00980000081632184,0.0109522568069808,0.0121941726721586,0.0135238083499043,0.0149374909026905,0.0164299947800032,0.0179948050728637,0.0196243793064053,0.0213103176841624,0.0230434114740808,0.0248136023297126,0.0266099536088674,0.028420754167883,0.0302338212535788,0.032037287926215,0.0338224508365446,0.0355913661017799,0.0373675127246653,0.0391973908146347,0.0411243809942897,0.0431654548183017,0.0454103239218097,0.0483411513094796,0.0540041617415607,0.0632201827804748,0.0819399011122089,0.120721258999177
"4",0.00281976829318139,0.00271464702475531,0.00317918469798565,0.00354006770221224,0.00403255705799212,0.00458902391859134,0.00522815460888297,0.00595505933100323,0.00676934785842626,0.00767293341782351,0.00866854610994795,0.00975902404108812,0.0109461547707516,0.0122303280455517,0.013610483186182,0.0150842077212967,0.0166478882006323,0.0182968395824765,0.0200253356887576,0.0218265157220955,0.023692202664855,0.025612742514809,0.027576996219226,0.0295725591741425,0.0315865157343434,0.0336084129872463,0.0356383271609163,0.0376982407397019,0.0398337979770626,0.0420865462428607,0.0444692359098798,0.0470713185200088,0.0503987509939887,0.0566153845486173,0.0665833400618651,0.086590558062144,0.127769003508656
"5",0.00233698693058259,0.00225546021819077,0.00265085517350796,0.00296668327249617,0.00339885381033023,0.00389274818766444,0.00446531026443634,0.00512239065932104,0.00586542627443559,0.00669789265320043,0.00762408065258435,0.00864850846607806,0.00977495401582352,0.0110061451106028,0.0123436790711612,0.0137880494226358,0.0153386935167324,0.0169939959193086,0.0187511803194465,0.0206060694301584,0.0225527519332741,0.0245832739091739,0.0266874988638767,0.0288532207240323,0.0310668605415341,0.0333165401449139,0.0356005917983114,0.0379396237478291,0.0403784196191183,0.042956575031582,0.045682404526462,0.0486447087247214,0.0523723982002411,0.0591444497400782,0.069862832606536,0.0911454506863968,0.134684435833179
"6",0.0019222421250912,0.00186008336205185,0.00219443269531161,0.00246896112968964,0.00284570047573653,0.00328109200381416,0.00379050574289991,0.00438037743257272,0.00505369896951439,0.00581532039072585,0.00667095905994068,0.00762672254046154,0.00868831145061259,0.00986074772308054,0.0111482743438986,0.0125543210028233,0.0140814593516601,0.0157312888257834,0.0175041937688193,0.0193989548895375,0.0214122573523982,0.0235382217603678,0.0257681149748532,0.0280903356654707,0.0304910295687631,0.0329572360564443,0.0354858089059031,0.038096137164057,0.0408321723728181,0.0437314887416271,0.0467978274074018,0.0501189878964147,0.0542457977613997,0.0615687474114779,0.0730278527262683,0.0955605044864732,0.141399832463794
"7",0.00156993861736954,0.00152341377880818,0.00180441064756195,0.00204149240117725,0.00236784137060807,0.00274917743296969,0.00319945131009668,0.00372553483428211,0.00433171140092068,0.00502401145677198,0.0058094262650935,0.00669553283554667,0.00768984914703094,0.00879960200133463,0.0100316152715639,0.0113922260218325,0.0128871592122134,0.0145213059199145,0.0162983516493831,0.0182202403578351,0.0202865195850069,0.0224937018344447,0.0248348122687239,0.0272992288771511,0.0298731949057687,0.032543011812945,0.0353043358885294,0.0381755154229335,0.0411997279236088,0.0444125049408941,0.0478129545458804,0.0514875779971837,0.0560079435279386,0.0638715569189308,0.0760544217017502,0.0998004021383051,0.147860297777649
"8",0.00127361006734491,0.00123950900474046,0.0014742981814768,0.00167777354823949,0.00195878014365757,0.00229072937881062,0.00268629275642399,0.00315264047074607,0.00369510031644868,0.00432069066312755,0.00503751381517783,0.0058544752977036,0.00678077566478386,0.00782571989971077,0.00899860262358266,0.0103085862983334,0.0117645076737314,0.0133745594675829,0.015145797713595,0.0170834620332092,0.0191901569939187,0.0214650384170186,0.023903187808418,0.026495292791488,0.0292280383314793,0.0320873209417136,0.03506788403639,0.0381872279063657,0.0414878380863108,0.0450032277071772,0.0487278886194873,0.0527467858852121,0.057650945763255,0.0660396379852966,0.0789225979265832,0.103834998543904,0.154018507237514
"9",0.0010266125568579,0.00100223397045775,0.00119734405038265,0.0013709593013786,0.00161156991285145,0.00189889088595415,0.00224444149692954,0.00265556741950832,0.00313841542550993,0.00370080737969517,0.0043517910032218,0.00510144664320795,0.00596050190165421,0.00694018461515808,0.00805211309916325,0.00930814769178576,0.01072014125911,0.0122995360472603,0.0140567594210114,0.0160004064375454,0.0181362597606082,0.0204662991070208,0.0229878962322983,0.0256933252224284,0.028570017685002,0.0316037752434062,0.0347887057824444,0.0381416595638893,0.041704529655594,0.0455088755257552,0.0495446618570998,0.0538951411381202,0.0591694359957542,0.0680626951503059,0.0816159841108692,0.107638814786674,0.159834052664045
"10",0.000822490717195496,0.000805603723569508,0.000966921607584183,0.00111426563448449,0.00131923909982341,0.00156666585298917,0.00186702869910696,0.00222774307833298,0.00265557445213465,0.00315897698468846,0.00374778203293453,0.00443308608416119,0.00522697609085522,0.00614242779939651,0.00719320836039548,0.00839371171489338,0.00975866507100712,0.0113026528602691,0.0130394112990316,0.0149808813218465,0.0171360722256579,0.0195098959845224,0.0221021805561821,0.024907003732341,0.0279128013635037,0.0311055579671812,0.0344790063238639,0.0380495411811188,0.0418585731220762,0.0459358068590859,0.0502668343839492,0.0549330801211026,0.0605603479813664,0.0699332702069252,0.0841217430581199,0.111191198418969,0.165273774029295
"11",0.000655190185514947,0.000643983998301286,0.000776756893303073,0.000901212759504422,0.00107505351248514,0.00128719792992651,0.00154719871462681,0.00186245371679727,0.00224017381132292,0.00268929131724705,0.00322026874060648,0.00384506188635086,0.00457694507327061,0.00543045604093553,0.00642131722239531,0.00756626439557586,0.00888272027487764,0.010388257317508,0.0120998021844541,0.0140325686596671,0.0161987726523423,0.0186062963176775,0.0212575212128354,0.0241484834777264,0.0272688282028925,0.0306049612034791,0.0341504756254411,0.0379214940281248,0.0419590581744691,0.046291143908933,0.050899181726835,0.0558627103102032,0.061822770907659,0.0716467016208224,0.0864306788718731,0.114476556550387,0.170312190573588
"12",0.000519175786779989,0.000512204692402398,0.000621060799332425,0.000725770695270728,0.000872679261105935,0.00105395103150023,0.00127830716411981,0.00155305908417601,0.00188571730477298,0.00228555766372882,0.00276353475244558,0.00333231435516604,0.00400618869360058,0.00480106840794798,0.00573442755709146,0.00682513364445007,0.00809309840548188,0.00955869066501262,0.0112418619989041,0.01316097037369,0.0153313561265079,0.017763843618549,0.0204633991993163,0.0234281093538926,0.0266489783224303,0.0301130275706878,0.0338139150283078,0.0377676568096724,0.0420150370447458,0.0465824481285878,0.0514474169273125,0.0566875915179426,0.0629578011714999,0.0732010616190782,0.0885372719419627,0.117484510116168,0.17493180316632
"13",0.000409483971540437,0.000405612458840901,0.000494593937387939,0.000582436131635613,0.000706275325854524,0.000860819590366409,0.0010540504575551,0.00129314190781392,0.00158578513879814,0.00194148555352938,0.00237156695987477,0.00288926752867571,0.00350973594885911,0.00425007014003367,0.00512928971166132,0.00616817401676466,0.00738889894281022,0.00881441018218543,0.0104674812365624,0.0123694391627462,0.0145386126425099,0.0169886811872758,0.0197271658519119,0.022754235490246,0.0260623485170682,0.0296392901581966,0.0334789525031251,0.0375973885920545,0.0420352284452626,0.0468174386712467,0.0519179362385627,0.0574125201317715,0.0639683751110926,0.0745970476347015,0.090439636442827,0.12020992472246,0.179123199356152
"14",0.00032173256765154,0.000320083578857485,0.000392687304183265,0.000466263710166765,0.000570538900011341,0.000702191003810708,0.000868547967772105,0.00107661172404154,0.00133416040574196,0.00165083574841778,0.00203822558931957,0.00251001752993106,0.00308206744355186,0.00377248371694334,0.00460162955287306,0.00559197419706599,0.00676772314107413,0.00815416110890992,0.00977665305812345,0.0116592836390741,0.013823189454911,0.0162847675873542,0.019054009453214,0.0221331433391615,0.0255161246144587,0.0291916043019822,0.033153841117501,0.037419042960736,0.0420277776014142,0.0470037490040713,0.0523175828034231,0.0580433093570057,0.0648590735863047,0.0758378155913423,0.0921393829786505,0.122652792684221,0.182884921676689
"15",0.000252104258380531,0.000252012171197794,0.000311235146406555,0.000372868104083911,0.000460719829182142,0.000572976020842999,0.000716391588524041,0.000897776326610464,0.00112492444112923,0.00140754058466236,0.00175738946949944,0.00218850142265604,0.00271730514782315,0.00336275548331221,0.00414636664960204,0.00509208031670617,0.00622589518588704,0.00757518779374763,0.0091676664136324,0.0110299356748072,0.0131857256171395,0.0156539725071968,0.0184470081049815,0.0215690491186207,0.0250155431121991,0.0287760651590105,0.0328453362915861,0.0372398104132488,0.0420000705182918,0.0471487205733769,0.0526534275081234,0.0585865645086542,0.0656358968057416,0.0769287520951783,0.0936413814391611,0.124817958157965,0.186223086040794
"16",0.000197313776988298,0.000198282884631641,0.000246669960664624,0.000298406763526526,0.000372613887480258,0.000468616334747949,0.000592671148498326,0.000751388191366238,0.000952526979775241,0.00120579985786501,0.00152307870310143,0.0019186466123564,0.00240938723572912,0.00301495333338787,0.00375783091372967,0.0046632264291932,0.00575870029347837,0.0070734723360069,0.00863733756660774,0.0104791669196693,0.0126250457717697,0.0150962406822198,0.0179072576210078,0.0210641908477896,0.0245639341343548,0.0283970051262474,0.0325586479840911,0.0370656271997073,0.0419586026323191,0.0472592353915157,0.0529325703185779,0.0590494577846875,0.06630601468932,0.0778771916386764,0.094953431089924,0.126714694132365,0.189150762826586
"17",0.000154565312582239,0.000156234029331356,0.000195926109057035,0.000239549775480228,0.000302541265584716,0.000385075437964374,0.000492981186939476,0.000632670585250259,0.000811834760652699,0.00104015458661264,0.00132955553294865,0.00169449984473028,0.00215222517940636,0.00272295068448244,0.0034299709876217,0.00429956358247108,0.00536062952174097,0.00664398908895304,0.00818126733073526,0.010003341158426,0.0121383996794951,0.0146098106691035,0.0174340620208488,0.0206189838017943,0.0241628361811427,0.0280570635527992,0.0322974624699727,0.03690114763003,0.0419089012811533,0.0473415893661073,0.053161966203928,0.0594395087663518,0.0668775010889642,0.0786920896351205,0.0960858518333552,0.128356150391402,0.191687149467425
"18",0.000121504700166315,0.000123615363386344,0.000156396675052096,0.000193441495010282,0.000247314937764477,0.000318817246182612,0.000413413263046381,0.000537327000021161,0.000698161467153327,0.000905540554578344,0.0011714040842924,0.00151033505072524,0.00193984073266578,0.00248059261824713,0.00315654842288011,0.00399487968941645,0.005025621722706,0.00628096384045949,0.00779411146830234,0.00959768891948532,0.0117217332624607,0.0141914740708023,0.0170251725403757,0.0202322311254116,0.0238121707282974,0.0277573185746368,0.0320640257131504,0.036749774361229,0.0418554992827976,0.0474014066313176,0.0533482789795068,0.0597643770987695,0.0673590615931459,0.0793836651138826,0.0970510156371815,0.129758699669317,0.193856576366141
"19",9.6169705088082e-05,9.85436135160583e-05,0.000125886980782347,0.000157657459110142,0.000204202509037489,0.000266776068022233,0.000350537223342565,0.000461537026674859,0.000607281622056228,0.00079732354154139,0.00104358995872034,0.00136073985045419,0.0017664812353753,0.00228184104787433,0.00293131278338154,0.00374280350870887,0.00474729410243258,0.00597812734799402,0.00746985228579348,0.00925659096995203,0.0113699767296511,0.0138368601273421,0.0166770599043571,0.0199013747120905,0.0235104626997328,0.027497468569215,0.0318592778411341,0.0366137386819574,0.0418019546062259,0.0474435932174043,0.0534977650550624,0.060031673215689,0.0677597650014709,0.0799630285440879,0.0978628403770104,0.130941214783189,0.195687397094487
"20",7.69408015608434e-05,7.94579897384939e-05,0.000102567321556328,0.00013015927503479,0.000170884388718501,0.000226320851552637,0.000301374356588804,0.000401941480294899,0.000535430972602936,0.000711318318139791,0.000941501082221253,0.00124068121802946,0.00162671260649698,0.00212089691915592,0.00274815411837447,0.00353698745786064,0.00451915428176857,0.00572895426222427,0.007202060657902,0.00897385827801357,0.0110773359683132,0.0135407308120692,0.0163852043998933,0.0196227708061845,0.0232550917667328,0.0272760492880609,0.0316830265048498,0.0364942209164895,0.041750909185205,0.0474723265778992,0.0536161875216262,0.0602487918282477,0.0680887879659266,0.0804418104212925,0.0985362694524727,0.131924311920459,0.197210818026409
"21",6.24941373094379e-05,6.50773137496925e-05,8.49267922349998e-05,0.000109249522189187,0.000145410525867511,0.000195216106025208,0.000263364944781637,0.000355619309877065,0.000479295804791097,0.000643793590646028,0.000860971550808091,0.00114555139115177,0.00151549021547976,0.0019922985002417,0.00260123049332841,0.00337126537194315,0.00433478823388061,0.00552687997596363,0.00698413915507366,0.00874299732721448,0.0108375744699875,0.0132972723684549,0.0161443887407291,0.019391974858524,0.0230425591101014,0.027090672036415,0.0315341458901383,0.0363914997958999,0.0417041784871672,0.0474910759959107,0.0537087595679311,0.0604227716222029,0.0683551812953799,0.0808318056449987,0.0990867604183928,0.13272959573475,0.198459723700425
"22",5.17578031807116e-05,5.43598573713739e-05,7.17295148185528e-05,9.35281518472007e-05,0.000126157405969999,0.000171581406638919,0.000234332301054521,0.000320058511890956,0.000435993442810126,0.000591465061094148,0.000798290384437084,0.00107119548481983,0.00142820841674898,0.00189099563008943,0.00248506928966218,0.00323978252800091,0.00418801982509466,0.0053654893785651,0.00680953842391409,0.00855745110314898,0.0106442743855388,0.0131003703685826,0.0159489796166621,0.0192040207786442,0.022868754572,0.0269382682251335,0.0314107877802292,0.0363051189865554,0.0416628625533264,0.0475026478251315,0.0537801150581865,0.0605601834349139,0.0685676653061126,0.0811446477135761,0.0995298050114399,0.133378941135513,0.199467553327264
"23",4.3872076661157e-05,4.64665735272444e-05,6.19741246526385e-05,8.18514182084451e-05,0.000111786564052571,0.000153850974299371,0.000212445021319044,0.000293122981663042,0.000403046015377341,0.000551478737622701,0.000750197246313865,0.00101392262239067,0.00136073011922062,0.00181240063449162,0.00239464208357647,0.0031370966109062,0.00407303928082433,0.00523867329892771,0.00667194093470917,0.00841080814089157,0.0104910674046375,0.0129438574319451,0.0157931857564272,0.0190536814597176,0.0227292105838387,0.0268153267455326,0.0313105918123894,0.0362340592958953,0.0416274691244647,0.0475092489848185,0.0538343031434927,0.0606670478196579,0.0687344598362003,0.0813915245007016,0.0998805000564159,0.133893842694253,0.200267277889944
"24",3.81539747977776e-05,4.07280937966813e-05,5.48570335401564e-05,7.32940331111706e-05,0.000101205530985375,0.000140734504925431,0.000196178901977246,0.000273017032235144,0.000378349469216559,0.000521386668638917,0.000713867403977444,0.000970502838294347,0.00130939846530213,0.00175241761788193,0.00232541423816682,0.00305824996217181,0.00398449990942637,0.0051407507638276,0.00656540885536632,0.0082969749180131,0.0103718292342977,0.0128217259188955,0.0156712835041643,0.0189357005088887,0.0226193320812533,0.0267181130928712,0.0312308840831866,0.0361769065153155,0.041598040236251,0.0475125621412325,0.0538748029699611,0.060748781220465,0.0688631518990117,0.0815829434958028,0.100153183274908,0.13429485463482,0.200890514972991
"25",3.40661745879252e-05,3.66156041760858e-05,4.97396895833573e-05,6.71149203037457e-05,9.35317935230864e-05,0.000131180076062833,0.000184279630997102,0.000258248984403983,0.000360139526052564,0.000499117060717,0.000686888097338658,0.000938152033109937,0.00127103289405721,0.00170745224817825,0.00227337099216247,0.00299881436724525,0.00391758361099434,0.00506655667593419,0.00648449456131936,0.00821030887429567,0.0102808336505941,0.0127283002573242,0.015577803325858,0.0188449875198704,0.0225345939171171,0.026642861263734,0.0311688550597608,0.0361320062727161,0.0415742746021384,0.0475138263848806,0.0539045543027421,0.0608101690645281,0.0689606022918721,0.0817285517773245,0.100361144201005,0.134601138696256,0.201366809597205
"26",3.1190666316109e-05,3.37160342584844e-05,4.61204808246456e-05,6.27275006014465e-05,8.80610912844353e-05,0.000124340952752282,0.000175728685576564,0.000247596985252659,0.000346958572255876,0.000482943698585924,0.000667232242455839,0.000914511979017343,0.00124291768579973,0.00167441122619962,0.00223503028547022,0.00295491957916503,0.00386804718721164,0.00501150755656935,0.00642432681720297,0.00814572520112611,0.0102128790509159,0.0126583812609934,0.0155076886623373,0.0187767869825688,0.0224707141718161,0.0265859447758854,0.0311217207662895,0.0360976071830319,0.0415556441153734,0.0475139185390595,0.0539259958248222,0.0608553539985755,0.0690328755150073,0.0818369898796785,0.100516382517062,0.134830080852369,0.201723021476257
"27",2.92134890464115e-05,3.17180809695919e-05,4.3619614097508e-05,5.96848931048242e-05,8.42533423727206e-05,0.000119563308673233,0.000169734153653603,0.000240104583190135,0.000337658045160706,0.000471497597692392,0.000653282177712077,0.000897689304743697,0.00122285955971779,0.00165078196456258,0.00220754789860717,0.00292338697418546,0.00383238696592416,0.00497179867634699,0.00638084070721163,0.00809895830339628,0.0101635783376604,0.0126075592733996,0.0154566250082702,0.0187270138217533,0.0224239846791654,0.0265441889868027,0.0310870022964211,0.0360720918457382,0.0415415599028984,0.0475134380179005,0.0539410540347888,0.060887715381963,0.0690849928370583,0.0819154776172904,0.100628980276978,0.134996336454085,0.201981821587427
"28",2.79226537794187e-05,3.04112798599587e-05,4.1979875954954e-05,5.7683770543284e-05,8.17411137128116e-05,0.000116401303007911,0.000165754853230841,0.000235116829605739,0.000331449991326871,0.000463838019206999,0.000643924614625659,0.000886379241970209,0.00120934529666803,0.00163482915752398,0.00218895772275971,0.00290201757554773,0.0038081774850337,0.00494479466503938,0.00635121928614378,0.00806705096868102,0.0101298890254145,0.012572775274217,0.0154216185820417,0.0186928327617701,0.0223918310747401,0.026515389148913,0.0310629770541178,0.0360543347493153,0.0415316092617572,0.0475127955456809,0.0539510591195628,0.0609095898247193,0.0691204279978798,0.0819690109553427,0.100705914860848,0.135110048394566,0.202158900664862
"29",2.70162142727489e-05,2.94918544553533e-05,4.08232537186709e-05,5.62676718739324e-05,7.99575128847525e-05,0.000114149082227738,0.000162911669014027,0.000231542626985891,0.00032698897320742,0.00045831952475623,0.000637166064901253,0.000878191329289321,0.00119953990335499,0.00162323001933979,0.00217541381796616,0.00288641901338371,0.00379047337637434,0.00492501211202097,0.0063294822693677,0.00804359757662756,0.010105085239256,0.0125471234989015,0.0153957592970577,0.0186675379538874,0.0223679888521275,0.0264939816839085,0.0310450586239224,0.0360410154249297,0.041524033851435,0.0475120829316124,0.0539582086839143,0.0609255136200985,0.0691463832335024,0.0820083522311325,0.10076255802892,0.135193856791571,0.202289466187771
"30",2.64300595185524e-05,2.88963566808119e-05,4.00725548301502e-05,5.53461315072786e-05,7.87937242584345e-05,0.000112675642944162,0.000161046922666105,0.000229192856628682,0.000324049616018147,0.000454675713995868,0.00063269455181704,0.000872763915813314,0.00119302871564031,0.00161551464705608,0.00216639031743285,0.00287601063161184,0.00377864265494518,0.00491177379353183,0.00631491618346481,0.00802786045250648,0.0100884202300472,0.0125298661828753,0.0153783390389311,0.0186504737010342,0.0223518789359707,0.0264794890497604,0.0310328960317973,0.0360319343512431,0.0415188100895781,0.0475114754186864,0.0539628960834136,0.0609361155206871,0.0691637508471247,0.0820347470928559,0.100800617475818,0.135250216355877,0.202377298151403
"31",2.60685080322285e-05,2.85285337898535e-05,3.96080232681991e-05,5.47745781309759e-05,7.80702640691921e-05,0.000111757607785315,0.000159882562169881,0.000227722646897596,0.000322206975339577,0.00045238732134838,0.000629881540093882,0.000869344029755077,0.00118891964700005,0.00161063857081236,0.00216067963380502,0.00286941482780346,0.0037711360728357,0.00490336393694603,0.00630565203925421,0.00801784014980939,0.0100777972558631,0.0125188533559698,0.0153672095171103,0.0186395584174291,0.0223415601758852,0.0264701910645127,0.0310250755819914,0.0360260735573803,0.0415154071159502,0.0475110179996227,0.0539658207963448,0.0609428210710417,0.0691747834455222,0.0820515526191013,0.100824880667404,0.135286171911918,0.202433347977979
"32",2.58560776070048e-05,2.83121626227615e-05,3.93343380669153e-05,5.44371829087013e-05,7.76423610954445e-05,0.000111213572442924,0.000159191284834197,0.000226848278734539,0.000321109331098531,0.000451022057739447,0.000628200860108799,0.000867297970610952,0.00118645808123493,0.00160771393894335,0.00215725041449401,0.00286544969613951,0.0037666186194869,0.00489829772771616,0.00630006569686388,0.00801179204754784,0.010071379346864,0.0125121936505316,0.0153604727633305,0.0186329446124948,0.0223353007262331,0.0264645431308196,0.0310203163548001,0.036022495900085,0.0415133138664539,0.0475107058588947,0.0539675555673566,0.0609468455678661,0.0691814295307628,0.0820616960570924,0.100839541178722,0.135307910527627,0.202467243659741
"33",2.57389327417186e-05,2.81927267253636e-05,3.91830692052023e-05,5.42503985078787e-05,7.7405086504171e-05,0.000110911419525331,0.000158806771135878,0.000226361227767764,0.000320497085946452,0.00045025957505136,0.000627261099714884,0.00086615261483108,0.00118507865752112,0.00160607335811238,0.00215532492934702,0.00286322125383106,0.00376407753674803,0.00489544556495327,0.00629691815135092,0.00800838163314731,0.0100677575897186,0.0125084325230173,0.0153566651021352,0.018629203306979,0.0223317565709345,0.0264613416418917,0.031017614534777,0.0360204597617639,0.0415121151846011,0.047510513023236,0.0539685195361228,0.0609491042762196,0.0691851711363146,0.0820674158302974,0.100847815465481,0.1353201858351,0.202486387588716
"34",2.56797035803445e-05,2.81322908495081e-05,3.91064451830066e-05,5.4155660454298e-05,7.7284581970444e-05,0.0001107577675588,0.000158610997343046,0.000226112962076386,0.000320184666987396,0.000449870095770436,0.000626780604763709,0.00086556646791455,0.00118437211686364,0.00160523236712724,0.0021543371255812,0.00286207718298262,0.00376277203562514,0.00489397924970354,0.00629529891827065,0.00800662605187277,0.0100658920486918,0.0125064939831171,0.0153547013262514,0.0186272724538966,0.0223299260973689,0.0264596866659743,0.0310162161677036,0.0360194038252387,0.0415114905241535,0.0475104067737384,0.0539690098559389,0.0609502625951109,0.0691870947417243,0.0820703602781247,0.100852078006319,0.135326512093935,0.202496255270209
"35",2.56532477468994e-05,2.81052790901076e-05,3.90721700390467e-05,5.41132392562753e-05,7.72305680863245e-05,0.000110688826775196,0.000158523073463916,0.000226001363603052,0.00032004411243904,0.000449694733351955,0.000626564100643735,0.00086530217157104,0.00118405332087503,0.00160485266489161,0.00215389086856929,0.00286156003172648,0.00376218158820705,0.0048933157189594,0.00629456581567355,0.00800583082348218,0.0100650465994105,0.0125056150235696,0.0153538104818943,0.0186263960852401,0.022329094805329,0.0264589345514284,0.0310155800747651,0.0360189227575147,0.0415112048755796,0.0475103561748064,0.0539692298699693,0.060950785728881,0.0691879652166402,0.0820716940697412,0.100854009962483,0.13532938032153,0.202500729682741
"36",2.56435133981157e-05,2.8095335558605e-05,3.90595450292368e-05,5.40976018407827e-05,7.72106422575756e-05,0.000110663375449294,0.000158490591077032,0.000225960107544418,0.000319992119361319,0.000449629826206748,0.000626483921186414,0.000865204241540547,0.0011839351383353,0.0016047118371047,0.00215372528205656,0.00286136805741292,0.00376196231564936,0.00489306920897141,0.00629429335570822,0.00800553516541931,0.0100647321559643,0.0125052879987822,0.0153534789131245,0.0186260697774885,0.0223287851480881,0.0264586542436363,0.0310153428431914,0.036018743138968,0.0415110979295185,0.0475103366800442,0.0539693110929111,0.0609509797971571,0.0691882886138138,0.0820721899744614,0.100854728566032,0.135330447429079,0.202502394516608
"37",2.5641081082704e-05,2.80928502338443e-05,3.90563882549176e-05,5.4093689942702e-05,7.72056551451197e-05,0.000110657002365097,0.000158482453723325,0.000225949767862549,0.000319979083547809,0.000449613546438118,0.000626463803744057,0.000865179662151815,0.00118390546636658,0.00160467646896318,0.00215368368397543,0.00286131981709874,0.00376190720128846,0.00489300723291004,0.00629422483887029,0.00800546079733525,0.0100646530444154,0.0125052057028709,0.0153533954540658,0.0186259876222796,0.0223287071635621,0.0264585836273198,0.0310152830524254,0.0360186978360035,0.0415110709090003,0.0475103316665436,0.0539693314305357,0.0609510285431919,0.0691883699213028,0.0820723147140285,0.100854909371594,0.13533071596119,0.202502813488347
