"","X0","X1","X2","X3","X4","X5","X6","X7","X8","X9","X10","X11","X12","X13","X14","X15","X16","X17","X18","X19","X20","X21","X22","X23","X24","X25","X26","X27","X28","X29","X30","X31","X32","X33","X34","X35","X36"
"1",0.647438750390432,0.279045223366488,0.0387271400566041,0.00245804341699982,7.19931589200778e-05,7.85094426609354e-07,0,0,0,0.000692518708805001,0.0210780614179494,0.00911775914814668,0.00128536451888303,8.19347805666606e-05,2.39977196400259e-06,2.61698142203118e-08,0,0,0,0,0,0,0,0,0,0,0,0,0,0,0,0,0,0,0,0,0
"2",0.082156042711197,0.590561761395978,0.255244125173562,0.0372851811122471,0.00242243938475309,7.16006117067731e-05,7.85094426609354e-07,0,0,6.80960374191029e-05,0.00268905163651535,0.0196673238979374,0.00850759273748605,0.00124283937040823,8.07479794917695e-05,2.38668705689243e-06,2.61698142203118e-08,0,0,0,0,0,0,0,0,0,0,0,0,0,0,0,0,0,0,0,0
"3",0.00415364020078011,0.079162265032795,0.5894418340101,0.255204386310669,0.0372849848386404,0.00242243938475309,7.16006117067731e-05,7.85094426609354e-07,0,2.34437919056959e-06,0.000136751091147523,0.0026381201258146,0.0196480423786365,0.00850681287702228,0.00124283282795468,8.07479794917695e-05,2.38668705689243e-06,2.61698142203118e-08,0,0,0,0,0,0,0,0,0,0,0,0,0,0,0,0,0,0,0
"4",9.48655765486301e-05,0.00408470454848811,0.0791370940331508,0.589441075085488,0.255204386310669,0.0372849848386404,0.00242243938475309,7.16006117067731e-05,7.85094426609354e-07,2.7260223146158e-08,3.14237678946813e-06,0.000136149585237062,0.00263790291635657,0.0196480358361829,0.00850681287702228,0.00124283282795468,8.07479794917695e-05,2.38668705689243e-06,2.61698142203118e-08,0,0,0,0,0,0,0,0,0,0,0,0,0,0,0,0,0,0
"5",8.17806694384742e-07,9.42713036840439e-05,0.00408448755711186,0.0791370874906973,0.589441075085488,0.255204386310669,0.0372849848386404,0.00242243938475309,7.16006117067731e-05,7.85094426609354e-07,2.7260223146158e-08,3.14237678946813e-06,0.000136149585237062,0.00263790291635657,0.0196480358361829,0.00850681287702228,0.00124283282795468,8.07479794917695e-05,2.38668705689243e-06,2.61698142203118e-08,0,0,0,0,0,0,0,0,0,0,0,0,0,0,0,0,0
"6",0,8.17806694384742e-07,9.42713036840439e-05,0.00408448755711186,0.0791370874906973,0.589441075085488,0.255204386310669,0.0372849848386404,0.00242243938475309,7.16006117067731e-05,7.85094426609354e-07,2.7260223146158e-08,3.14237678946813e-06,0.000136149585237062,0.00263790291635657,0.0196480358361829,0.00850681287702228,0.00124283282795468,8.07479794917695e-05,2.38668705689243e-06,2.61698142203118e-08,0,0,0,0,0,0,0,0,0,0,0,0,0,0,0,0
"7",0,0,8.17806694384742e-07,9.42713036840439e-05,0.00408448755711186,0.0791370874906973,0.589441075085488,0.255204386310669,0.0372849848386404,0.00242243938475309,7.16006117067731e-05,7.85094426609354e-07,2.7260223146158e-08,3.14237678946813e-06,0.000136149585237062,0.00263790291635657,0.0196480358361829,0.00850681287702228,0.00124283282795468,8.07479794917695e-05,2.38668705689243e-06,2.61698142203118e-08,0,0,0,0,0,0,0,0,0,0,0,0,0,0,0
"8",0,0,0,8.17806694384742e-07,9.42713036840439e-05,0.00408448755711186,0.0791370874906973,0.589441075085488,0.255204386310669,0.0372849848386404,0.00242243938475309,7.16006117067731e-05,7.85094426609354e-07,2.7260223146158e-08,3.14237678946813e-06,0.000136149585237062,0.00263790291635657,0.0196480358361829,0.00850681287702228,0.00124283282795468,8.07479794917695e-05,2.38668705689243e-06,2.61698142203118e-08,0,0,0,0,0,0,0,0,0,0,0,0,0,0
"9",0,0,0,0,8.17806694384742e-07,9.42713036840439e-05,0.00408448755711186,0.0791370874906973,0.589441075085488,0.255204386310669,0.0372849848386404,0.00242243938475309,7.16006117067731e-05,7.85094426609354e-07,2.7260223146158e-08,3.14237678946813e-06,0.000136149585237062,0.00263790291635657,0.0196480358361829,0.00850681287702228,0.00124283282795468,8.07479794917695e-05,2.38668705689243e-06,2.61698142203118e-08,0,0,0,0,0,0,0,0,0,0,0,0,0
"10",0,0,0,0,0,8.17806694384742e-07,9.42713036840439e-05,0.00408448755711186,0.0791370874906973,0.589441075085488,0.255204386310669,0.0372849848386404,0.00242243938475309,7.16006117067731e-05,7.85094426609354e-07,2.7260223146158e-08,3.14237678946813e-06,0.000136149585237062,0.00263790291635657,0.0196480358361829,0.00850681287702228,0.00124283282795468,8.07479794917695e-05,2.38668705689243e-06,2.61698142203118e-08,0,0,0,0,0,0,0,0,0,0,0,0
"11",0,0,0,0,0,0,8.17806694384742e-07,9.42713036840439e-05,0.00408448755711186,0.0791370874906973,0.589441075085488,0.255204386310669,0.0372849848386404,0.00242243938475309,7.16006117067731e-05,7.85094426609354e-07,2.7260223146158e-08,3.14237678946813e-06,0.000136149585237062,0.00263790291635657,0.0196480358361829,0.00850681287702228,0.00124283282795468,8.07479794917695e-05,2.38668705689243e-06,2.61698142203118e-08,0,0,0,0,0,0,0,0,0,0,0
"12",0,0,0,0,0,0,0,8.17806694384742e-07,9.42713036840439e-05,0.00408448755711186,0.0791370874906973,0.589441075085488,0.255204386310669,0.0372849848386404,0.00242243938475309,7.16006117067731e-05,7.85094426609354e-07,2.7260223146158e-08,3.14237678946813e-06,0.000136149585237062,0.00263790291635657,0.0196480358361829,0.00850681287702228,0.00124283282795468,8.07479794917695e-05,2.38668705689243e-06,2.61698142203118e-08,0,0,0,0,0,0,0,0,0,0
"13",0,0,0,0,0,0,0,0,8.17806694384742e-07,9.42713036840439e-05,0.00408448755711186,0.0791370874906973,0.589441075085488,0.255204386310669,0.0372849848386404,0.00242243938475309,7.16006117067731e-05,7.85094426609354e-07,2.7260223146158e-08,3.14237678946813e-06,0.000136149585237062,0.00263790291635657,0.0196480358361829,0.00850681287702228,0.00124283282795468,8.07479794917695e-05,2.38668705689243e-06,2.61698142203118e-08,0,0,0,0,0,0,0,0,0
"14",0,0,0,0,0,0,0,0,0,8.17806694384742e-07,9.42713036840439e-05,0.00408448755711186,0.0791370874906973,0.589441075085488,0.255204386310669,0.0372849848386404,0.00242243938475309,7.16006117067731e-05,7.85094426609354e-07,2.7260223146158e-08,3.14237678946813e-06,0.000136149585237062,0.00263790291635657,0.0196480358361829,0.00850681287702228,0.00124283282795468,8.07479794917695e-05,2.38668705689243e-06,2.61698142203118e-08,0,0,0,0,0,0,0,0
"15",0,0,0,0,0,0,0,0,0,0,8.17806694384742e-07,9.42713036840439e-05,0.00408448755711186,0.0791370874906973,0.589441075085488,0.255204386310669,0.0372849848386404,0.00242243938475309,7.16006117067731e-05,7.85094426609354e-07,2.7260223146158e-08,3.14237678946813e-06,0.000136149585237062,0.00263790291635657,0.0196480358361829,0.00850681287702228,0.00124283282795468,8.07479794917695e-05,2.38668705689243e-06,2.61698142203118e-08,0,0,0,0,0,0,0
"16",0,0,0,0,0,0,0,0,0,0,0,8.17806694384742e-07,9.42713036840439e-05,0.00408448755711186,0.0791370874906973,0.589441075085488,0.255204386310669,0.0372849848386404,0.00242243938475309,7.16006117067731e-05,7.85094426609354e-07,2.7260223146158e-08,3.14237678946813e-06,0.000136149585237062,0.00263790291635657,0.0196480358361829,0.00850681287702228,0.00124283282795468,8.07479794917695e-05,2.38668705689243e-06,2.61698142203118e-08,0,0,0,0,0,0
"17",0,0,0,0,0,0,0,0,0,0,0,0,8.17806694384742e-07,9.42713036840439e-05,0.00408448755711186,0.0791370874906973,0.589441075085488,0.255204386310669,0.0372849848386404,0.00242243938475309,7.16006117067731e-05,7.85094426609354e-07,2.7260223146158e-08,3.14237678946813e-06,0.000136149585237062,0.00263790291635657,0.0196480358361829,0.00850681287702228,0.00124283282795468,8.07479794917695e-05,2.38668705689243e-06,2.61698142203118e-08,0,0,0,0,0
"18",0,0,0,0,0,0,0,0,0,0,0,0,0,8.17806694384742e-07,9.42713036840439e-05,0.00408448755711186,0.0791370874906973,0.589441075085488,0.255204386310669,0.0372849848386404,0.00242243938475309,7.16006117067731e-05,7.85094426609354e-07,2.7260223146158e-08,3.14237678946813e-06,0.000136149585237062,0.00263790291635657,0.0196480358361829,0.00850681287702228,0.00124283282795468,8.07479794917695e-05,2.38668705689243e-06,2.61698142203118e-08,0,0,0,0
"19",0,0,0,0,0,0,0,0,0,0,0,0,0,0,8.17806694384742e-07,9.42713036840439e-05,0.00408448755711186,0.0791370874906973,0.589441075085488,0.255204386310669,0.0372849848386404,0.00242243938475309,7.16006117067731e-05,7.85094426609354e-07,2.7260223146158e-08,3.14237678946813e-06,0.000136149585237062,0.00263790291635657,0.0196480358361829,0.00850681287702228,0.00124283282795468,8.07479794917695e-05,2.38668705689243e-06,2.61698142203118e-08,0,0,0
"20",0,0,0,0,0,0,0,0,0,0,0,0,0,0,0,8.17806694384742e-07,9.42713036840439e-05,0.00408448755711186,0.0791370874906973,0.589441075085488,0.255204386310669,0.0372849848386404,0.00242243938475309,7.16006117067731e-05,7.85094426609354e-07,2.7260223146158e-08,3.14237678946813e-06,0.000136149585237062,0.00263790291635657,0.0196480358361829,0.00850681287702228,0.00124283282795468,8.07479794917695e-05,2.38668705689243e-06,2.61698142203118e-08,0,0
"21",0,0,0,0,0,0,0,0,0,0,0,0,0,0,0,0,8.17806694384742e-07,9.42713036840439e-05,0.00408448755711186,0.0791370874906973,0.589441075085488,0.255204386310669,0.0372849848386404,0.00242243938475309,7.16006117067731e-05,7.85094426609354e-07,2.7260223146158e-08,3.14237678946813e-06,0.000136149585237062,0.00263790291635657,0.0196480358361829,0.00850681287702228,0.00124283282795468,8.07479794917695e-05,2.38668705689243e-06,2.61698142203118e-08,0
"22",0,0,0,0,0,0,0,0,0,0,0,0,0,0,0,0,0,8.17806694384742e-07,9.42713036840439e-05,0.00408448755711186,0.0791370874906973,0.589441075085488,0.255204386310669,0.0372849848386404,0.00242243938475309,7.16006117067731e-05,7.85094426609354e-07,2.7260223146158e-08,3.14237678946813e-06,0.000136149585237062,0.00263790291635657,0.0196480358361829,0.00850681287702228,0.00124283282795468,8.07479794917695e-05,2.38668705689243e-06,2.61698142203118e-08
"23",0,0,0,0,0,0,0,0,0,0,0,0,0,0,0,0,0,0,8.17806694384742e-07,9.42713036840439e-05,0.00408448755711186,0.0791370874906973,0.589441075085488,0.255204386310669,0.0372849848386404,0.00242243938475309,7.16006117067731e-05,7.85094426609354e-07,2.7260223146158e-08,3.14237678946813e-06,0.000136149585237062,0.00263790291635657,0.0196480358361829,0.00850681287702228,0.00124283282795468,8.07479794917695e-05,2.41285687111275e-06
"24",0,0,0,0,0,0,0,0,0,0,0,0,0,0,0,0,0,0,0,8.17806694384742e-07,9.42713036840439e-05,0.00408448755711186,0.0791370874906973,0.589441075085488,0.255204386310669,0.0372849848386404,0.00242243938475309,7.16006117067731e-05,7.85094426609354e-07,2.7260223146158e-08,3.14237678946813e-06,0.000136149585237062,0.00263790291635657,0.0196480358361829,0.00850681287702228,0.00124283282795468,8.31608363628822e-05
"25",0,0,0,0,0,0,0,0,0,0,0,0,0,0,0,0,0,0,0,0,8.17806694384742e-07,9.42713036840439e-05,0.00408448755711186,0.0791370874906973,0.589441075085488,0.255204386310669,0.037285093879533,0.00242574041604127,7.24956193531078e-05,8.11264240829665e-07,2.7260223146158e-08,3.14237678946813e-06,0.000136149585237062,0.00263790291635657,0.0196480358361829,0.00850681287702228,0.00132166241467624
"26",0,0,0,0,0,0,0,0,0,0,0,0,0,0,0,0,0,0,0,0,0,8.17806694384742e-07,9.42713036840439e-05,0.00408448755711186,0.0791370874906973,0.589441075085488,0.255210601641546,0.0374732526629592,0.00247675585188234,7.39872987636655e-05,8.11264240829665e-07,2.7260223146158e-08,3.14237678946813e-06,0.000136149585237062,0.00263790291635657,0.0196480358361829,0.00958159406214338
"27",0,0,0,0,0,0,0,0,0,0,0,0,0,0,0,0,0,0,0,0,0,0,8.17806694384742e-07,9.42713036840439e-05,0.00408448755711186,0.0791370874906973,0.589551206386998,0.258544643242607,0.0383772103857572,0.00250318736424486,7.39872987636655e-05,8.11264240829665e-07,2.7260223146158e-08,3.14237678946813e-06,0.000136149585237062,0.00263790291635657,0.0248550677605947
"28",0,0,0,0,0,0,0,0,0,0,0,0,0,0,0,0,0,0,0,0,0,0,0,8.17806694384742e-07,9.42713036840439e-05,0.00408448755711186,0.0797646178275218,0.608548641450467,0.263695412247263,0.0385278176665951,0.00250318736424486,7.39872987636655e-05,8.11264240829665e-07,2.7260223146158e-08,3.14237678946813e-06,0.000136149585237062,0.00256662899116398
"29",0,0,0,0,0,0,0,0,0,0,0,0,0,0,0,0,0,0,0,0,0,0,0,0,8.17806694384742e-07,9.42713036840439e-05,0.00415026647556354,0.0817559649521157,0.609088554813119,0.263711199187691,0.0385278176665951,0.00250318736424486,7.39872987636655e-05,8.11264240829665e-07,2.7260223146158e-08,3.14237678946813e-06,8.99522302757308e-05
"30",0,0,0,0,0,0,0,0,0,0,0,0,0,0,0,0,0,0,0,0,0,0,0,0,0,8.17806694384742e-07,9.65884226514673e-05,0.00422041339043734,0.0817749838646003,0.609089110921671,0.263711199187691,0.0385278176665951,0.00250318736424486,7.39872987636655e-05,8.11264240829665e-07,2.7260223146158e-08,1.05555218718343e-06
"31",0,0,0,0,0,0,0,0,0,0,0,0,0,0,0,0,0,0,0,0,0,0,0,0,0,0,8.450669175309e-07,9.7413680473512e-05,0.00422063714234893,0.0817749904070538,0.609089110921671,0.263711199187691,0.0385278176665951,0.00250318736424486,7.39872987636655e-05,8.11264240829665e-07,0
"32",0,0,0,0,0,0,0,0,0,0,0,0,0,0,0,0,0,0,0,0,0,0,0,0,0,0,0,8.450669175309e-07,9.7413680473512e-05,0.00422063714234893,0.0817749904070538,0.609089110921671,0.263711199187691,0.0385278176665951,0.00250318736424486,7.39872987636655e-05,8.11264240829665e-07
"33",0,0,0,0,0,0,0,0,0,0,0,0,0,0,0,0,0,0,0,0,0,0,0,0,0,0,0,0,8.450669175309e-07,9.7413680473512e-05,0.00422063714234893,0.0817749904070538,0.609089110921671,0.263711199187691,0.0385278176665951,0.00250318736424486,7.47985630044952e-05
"34",0,0,0,0,0,0,0,0,0,0,0,0,0,0,0,0,0,0,0,0,0,0,0,0,0,0,0,0,0,8.450669175309e-07,9.7413680473512e-05,0.00422063714234893,0.0817749904070538,0.609089110921671,0.263711199187691,0.0385278176665951,0.00257798592724935
"35",0,0,0,0,0,0,0,0,0,0,0,0,0,0,0,0,0,0,0,0,0,0,0,0,0,0,0,0,0,0,8.450669175309e-07,9.7413680473512e-05,0.00422063714234893,0.0817749904070538,0.609089110921671,0.263714579455361,0.0411024233261743
"36",0,0,0,0,0,0,0,0,0,0,0,0,0,0,0,0,0,0,0,0,0,0,0,0,0,0,0,0,0,0,0,8.450669175309e-07,9.7413680473512e-05,0.00422063714234893,0.0817783706747239,0.609384118148802,0.304518615286735
"37",0,0,0,0,0,0,0,0,0,0,0,0,0,0,0,0,0,0,0,0,0,0,0,0,0,0,0,0,0,0,0,0,8.450669175309e-07,9.91038143085738e-05,0.00441715463713101,0.0896522219607559,0.905830674520887
