"","X0","X1","X2","X3","X4","X5","X6","X7","X8","X9","X10","X11","X12","X13","X14","X15","X16","X17","X18","X19","X20","X21","X22","X23","X24","X25","X26","X27","X28","X29","X30","X31","X32","X33","X34","X35","X36"
"1",0.00540197023266185,0.00554910397868821,0.00833827215715852,0.0117516550071814,0.015961847117404,0.0209761653606133,0.0264371817353457,0.0323098740649679,0.0382377819899609,0.043928741238961,0.0490560007802118,0.0533211212233721,0.0564925328355557,0.0584164871708346,0.0590256595425518,0.0583498608989068,0.056493038881142,0.0536229126172644,0.0499468207676869,0.0456926971566579,0.0410872273421594,0.0363421390071746,0.0316413796765512,0.0271342139915919,0.0229327733871346,0.019112458749102,0.015715526412112,0.012756049256398,0.0102257255259295,0.00809983210042019,0.00634276166040023,0.00491312606292817,0.00377088037659007,0.00289209221855403,0.00236765711998876,0.00224462559964618,0.00311180675618272
"2",0.00375575414035181,0.00396186301019356,0.00610197957559029,0.00884201689053741,0.0123516046030602,0.0166847268906418,0.0216261627531368,0.0271525852662968,0.032987512836662,0.038863371210999,0.0444585026208975,0.0494518228079669,0.0535605344164694,0.056562030181687,0.0583122673546293,0.0587616491885561,0.0579447271168002,0.0559737473348207,0.0530188330174129,0.049289078096675,0.045010084008563,0.0404063080368639,0.0356849850802437,0.0310250327226396,0.0265707998234677,0.0224294968089737,0.0186723917075336,0.015338338355616,0.0124388457714831,0.00996387799999232,0.00788773573355115,0.00617488680290038,0.00478914355274289,0.00371380689861033,0.00308589435109899,0.00297044640813022,0.00417715662419507
"3",0.00233171451255981,0.00255195131321327,0.0040643317195194,0.00611012487103272,0.00885309956391075,0.012389393548198,0.016637515728713,0.0216062951216507,0.0271159997540854,0.0329509129194447,0.0388220170479856,0.0444090592975052,0.049395189246892,0.0534966702381735,0.0564903559295454,0.0582367117652459,0.0586835468987463,0.057866652929839,0.0558972071177791,0.0529455794840595,0.0492199910182772,0.0449462351604649,0.0403484251236361,0.0356334342193756,0.0309800171076287,0.0265322092866273,0.0223970775191368,0.0186458143689031,0.015317268127282,0.0124229978704439,0.00995312952375316,0.00788279921218494,0.00618397548643131,0.00485329148375425,0.00409808272009122,0.00400919034445995,0.00572173241944097
"4",0.00136090074293266,0.0015548562073491,0.00257255536624082,0.00402872846660847,0.00607538745963193,0.00883447986110921,0.0123225063280501,0.0165906320166215,0.0215546642797877,0.0270708598177449,0.0329100813349586,0.0387844574789865,0.0443753996885109,0.0493650417717081,0.0534690599304519,0.0564664557603543,0.0582160188870026,0.058666235829849,0.0578522349843838,0.0558854243435444,0.0529358624447695,0.0492120196583663,0.044939748788335,0.0403431598786784,0.0356292414925145,0.0309767660271261,0.0265298595273276,0.0223957264870727,0.0186457227213009,0.0153188482263367,0.0124269285452229,0.00996128152146743,0.00790759941567445,0.00628385942459812,0.0053957422004259,0.00536738972932969,0.00777426335561748
"5",0.000750785241832329,0.000900857313846527,0.00155470411648228,0.00254417909929577,0.00400276543822847,0.00606035096933827,0.00879459349726572,0.0122955649377906,0.0165626950643189,0.0215317568805741,0.0270513659914945,0.0328933723108615,0.0387706116306307,0.0443639291835131,0.0493552184541206,0.0534612664281131,0.0564602231208791,0.0582113183961493,0.0586627087211891,0.0578496809226145,0.0558835314698876,0.0529344477252865,0.0492109661872002,0.0449389498334046,0.0403425871864309,0.0356289114972414,0.0309767983501871,0.0265305536487242,0.0223976076120828,0.0186495163053851,0.0153256553078377,0.0124395553508568,0.00999730400544837,0.00804854830896171,0.00703361103747876,0.00711831379370113,0.0104651946613374
"6",0.000390886786824169,0.000495889490067525,0.000896461725892288,0.00153762843223149,0.00252955133459743,0.0039948845531266,0.00604030782246412,0.00878187598076548,0.0122827217744162,0.0165526890869951,0.0215235469828845,0.0270446273308711,0.0328880697903829,0.0387664324867477,0.0443604829474983,0.0493526523133661,0.0534593170919198,0.0564588748646511,0.0582103984460645,0.0586621259725987,0.0578493053418957,0.0558832853033998,0.0529342896402997,0.0492108630098705,0.0449389190833927,0.0403427097049932,0.0356294006231397,0.0309781134663067,0.026533477090003,0.0224032078166065,0.0186594062357273,0.0153438815174196,0.0124906416658254,0.0101938301282312,0.00907476923195348,0.009349890180501,0.0139545847460598
"7",0.000191368913773674,0.000258644132451442,0.000492054457171413,0.000887541259848535,0.00153048136618514,0.00252619113505985,0.00398589758659032,0.00603506214351199,0.00877664363694071,0.0122788490229365,0.0165495873393586,0.0215210767694108,0.0270427539707585,0.0328866375017899,0.0387652669267798,0.0443596491771686,0.0493520299026031,0.0534589074562308,0.0564586102125338,0.0582102456918358,0.0586620392529366,0.0578492563582309,0.0558832612679192,0.0529342868864509,0.0492109208208761,0.0449391655121505,0.0403434556784042,0.0356313018301486,0.0309822883760956,0.0265414582522571,0.0224173137480883,0.0186853943259441,0.0154156233290617,0.0127620753450306,0.0115852041961413,0.012160844617593,0.0184286115997227
"8",8.76708365082509e-05,0.000127334124258322,0.00025623469280656,0.000487852722642709,0.000884383184566359,0.00152925818513581,0.00252253123844928,0.00398398509678446,0.00603316877062786,0.00877533233024303,0.0122778222354559,0.0165487967587766,0.0215205009595856,0.0270423261539364,0.0328862892002108,0.0387650264334462,0.0443594684484492,0.0493519137589242,0.053458833534793,0.0564585687487254,0.0582102232753349,0.0586620273749519,0.0578492525315536,0.0558832754718995,0.0529343782185405,0.0492112723560749,0.0449402156283425,0.0403461256262528,0.0356371693732025,0.0309935264208654,0.0265613627698778,0.0224539914372727,0.0187851778563557,0.0157869669100539,0.0146305242699413,0.0156587185343989,0.0240984945307458
"9",3.73789396532377e-05,5.89092957223816e-05,0.000126087444691868,0.000254450003723015,0.000486584675231811,0.000884009196493908,0.00152790208496321,0.0025219186733906,0.00398338129327061,0.00603278898075181,0.00877504214321029,0.0122776105591921,0.0165486521635895,0.021520398500076,0.0270422420962608,0.0328862345443453,0.0387649843542591,0.0443594421153887,0.0493518970331883,0.0534588241939629,0.056458563750385,0.0582102206565063,0.058662028243462,0.0578492752727027,0.0558834029615029,0.052934864790664,0.0492127259473305,0.0449439137685181,0.0403542651828514,0.0356527924201592,0.0310212639337555,0.0266125169769391,0.0225913462611023,0.0192882801053418,0.0182717401266328,0.0199566932063901,0.0311973681043816
"10",1.47517667955252e-05,2.54880210925971e-05,5.83670313719e-05,0.000125414477173631,0.000253991959091969,0.000486495799145393,0.000883552562267666,0.00152773023949257,0.00252174860628011,0.0039832877833342,0.00603271851222512,0.00877499517922248,0.0122775817119892,0.0165486335113923,0.0215203829346538,0.0270422332344947,0.0328862273124339,0.0387649800846533,0.0443594394034131,0.0493518955188677,0.0534588233851087,0.0564585633282011,0.0582102231726489,0.0586620597371657,0.0578494487880178,0.055884065181121,0.0529368450146496,0.0492177682924924,0.044955030401527,0.0403756517780785,0.0356908722881266,0.0310916440967051,0.026799492966191,0.0232661657868611,0.0225600562257158,0.0251689472336038,0.0399744266743853
"11",5.35691896834667e-06,1.02570046004268e-05,2.52878343057525e-05,5.81447758826448e-05,0.000125267280647085,0.000253979923262611,0.000486356576734839,0.000883510535838761,0.00152768770456211,0.00252172892118179,0.0039832724038386,0.0060327095370875,0.00877499039519228,0.0122775790675431,0.0165486312319202,0.0215203819771557,0.0270422323271561,0.0328862268510453,0.0387649797915477,0.0443594392397203,0.049351895431468,0.0534588233417807,0.0564585668872032,0.0582102651695756,0.0586622911899911,0.0578503333251458,0.0558867133073459,0.0529435948196234,0.049232677413319,0.0449837885947156,0.0404270463019203,0.0357862549151682,0.0313431701567907,0.0276953730317214,0.0275308533089381,0.0314044652658686,0.050685867241224
"12",1.77600447542288e-06,3.81342862179724e-06,1.01935376330415e-05,2.52240307153278e-05,5.81030477576042e-05,0.000125269251746471,0.00025394187401685,0.000486347895430725,0.000883501288444823,0.00152768431164548,0.00252172586130722,0.00398327090506087,0.00603270883063572,0.00877499007031144,0.012277578775075,0.0165486311654031,0.0215203818858849,0.0270422322951012,0.0328862268306804,0.0387649797801736,0.0443594392336534,0.0493518954319577,0.0534588279815406,0.0564586215405487,0.0582105672970015,0.0586634479125415,0.0578538011865318,0.0558955631039923,0.0529631865946928,0.049270586905488,0.0450518661719999,0.0405542388450402,0.0361204477104348,0.0325200366250644,0.033197214765217,0.0387593589003461,0.063582318723819
"13",5.32064868795285e-07,1.29889578783791e-06,3.79618768938619e-06,1.01778296640978e-05,2.52136923735636e-05,5.81050596044301e-05,0.000125260026427398,0.000253940426778385,0.000486346213902724,0.000883500866448361,0.00152768378274804,0.00252172565926092,0.00398327081582487,0.00603270879441414,0.00877499003660753,0.0122775787721681,0.0165486311570096,0.0215203818844839,0.0270422322942112,0.0328862268301851,0.0387649797799378,0.0443594392387018,0.0493519012985319,0.0534588973626042,0.0564590066637402,0.0582120451526993,0.0586678862819598,0.0578651445473947,0.0559207456690492,0.0530121042315203,0.0493589926809888,0.0452186537811885,0.0409926512186607,0.0376498370929074,0.0395435381143743,0.0473079259747904,0.0788926496204831
"14",1.4212503157859e-07,4.01052180722308e-07,1.29496533659878e-06,3.79296099900501e-06,1.01756292125331e-05,2.52144786202983e-05,5.81030990087088e-05,0.00012525983581488,0.000253940177852324,0.000486346184013181,0.000883500790871067,0.00152768376305639,0.00252172565076813,0.00398327081255257,0.00603270879132417,0.00877499003653054,0.0122775787714832,0.0165486311569725,0.0215203818844604,0.0270422322942059,0.0328862268303061,0.0387649797873123,0.0443594464501122,0.0493519870649265,0.0534593759952806,0.0564608487848023,0.0582175899165776,0.0586820843268191,0.0578967772496002,0.0559824959865596,0.0531246244191575,0.0495740757233855,0.0457864952886073,0.0429584861334349,0.0465199617640441,0.0570928624365605,0.0968043073822099
"15",3.32606094417573e-08,1.10728826354054e-07,4.00321810885149e-07,1.29443047833255e-06,3.7925702977631e-06,1.01758356201857e-05,2.52141237746771e-05,5.81030791673511e-05,0.000125259806666322,0.000253940177714141,0.000486346175398392,0.000883500789581867,0.00152768376250425,0.00252172565055878,0.00398327081235397,0.00603270879132304,0.00877499003648823,0.0122775787714827,0.0165486311569724,0.0215203818844894,0.0270422322946676,0.0328862268418484,0.0387649883960088,0.0443595495695164,0.0493525665982151,0.0534616150754154,0.0564676080675728,0.0582349405366296,0.0587209183568587,0.0579730608518433,0.0561229589837723,0.0533976145505049,0.0503004500937382,0.0482855059438471,0.0540384893337113,0.0681152951246221,0.1174408372151
"16",6.66464065763099e-09,2.68469143689081e-08,1.106217028429e-07,4.00252107423508e-07,1.29437479986892e-06,3.79260874482224e-06,1.0175783534822e-05,2.52141221811002e-05,5.81030766137781e-05,0.000125259806849663,0.000253940176972524,0.000486346175344071,0.000883500789558642,0.00152768376249548,0.00252172565055045,0.00398327081235396,0.00603270879132128,0.00877499003648823,0.0122775787714838,0.0165486311570656,0.0215203818859117,0.027042232315716,0.032886236820147,0.0387651089464461,0.0443602333247495,0.0493552216559868,0.053469660572736,0.0564883259940574,0.0582815843374977,0.0588132701779005,0.058145325076036,0.0564644917455051,0.0543157950435739,0.0534420934816887,0.0619717521028293,0.08032558769705,0.140837938540436
"17",1.11041040602238e-09,5.58041880004429e-09,2.68349679279485e-08,1.10614697143742e-07,4.00246008248269e-07,1.29437980601446e-06,3.79260288099842e-06,1.01757834418182e-05,2.52141220244255e-05,5.81030766314681e-05,0.000125259806804588,0.00025394017697112,0.000486346175343471,0.000883500789558416,0.00152768376249526,0.00252172565055045,0.00398327081235391,0.00603270879132128,0.0087749900364924,0.0122775787717446,0.016548631160877,0.0215203819286516,0.0270422435617917,0.0328863739657058,0.0387658961501443,0.0443633099398874,0.0493645903421655,0.0534938837958453,0.0565432686979568,0.0583914429241745,0.0590213938646325,0.0585674033514161,0.0576123075966175,0.0582215547510243,0.0701552746705796,0.09361601084872,0.166919903324878
"18",1.48416977742286e-10,9.64028949005429e-10,5.57944809586161e-09,2.68344398225988e-08,1.10614206749038e-07,4.0024645355011e-07,1.29437932546652e-06,3.7926028773109e-06,1.01757834354527e-05,2.52141220252673e-05,5.81030766296449e-05,0.000125259806804568,0.000253940176971111,0.000486346175343467,0.000883500789558412,0.00152768376249526,0.00252172565055045,0.00398327081235391,0.00603270879133423,0.00877499003713661,0.0122775787807565,0.0165486312489472,0.0215203942952193,0.0270423957520399,0.0328872609166299,0.0387693911971199,0.0443740191727787,0.0493924204424281,0.0535575924106952,0.0566721836834493,0.0586400727067813,0.0595379885091223,0.0599876979691532,0.062414158691402,0.0783938554382763,0.107816581659037,0.195479226772319
"19",1.52759920744678e-11,1.33253474909318e-10,9.63973901248751e-10,5.57941948011033e-09,2.68344121717269e-08,1.10614233250021e-07,4.00246426151762e-07,1.29437932537404e-06,3.79260287714959e-06,1.01757834354753e-05,2.52141220252212e-05,5.81030766296448e-05,0.000125259806804568,0.000253940176971111,0.000486346175343467,0.000883500789558412,0.00152768376249526,0.00252172565055045,0.00398327081238751,0.00603270879274871,0.00877499005613954,0.0122775789536346,0.0165486445878161,0.0215205596628042,0.0270433780807451,0.0328911714604854,0.0387814662291424,0.0444055929815937,0.049465504039299,0.0537075536279869,0.0569671235827434,0.0592678951041688,0.0612789778012608,0.0658254449694785,0.0864722133624542,0.122695417468513,0.226162927713579
"20",1.15976985141605e-12,1.41204304482277e-11,1.33251387863843e-10,9.63972842135862e-10,5.57941843478242e-09,2.68344132006441e-08,1.10614232208304e-07,4.00246426150449e-07,1.29437932537174e-06,3.79260287714992e-06,1.01757834354746e-05,2.52141220252212e-05,5.81030766296448e-05,0.000125259806804568,0.000253940176971111,0.000486346175343467,0.000883500789558412,0.00152768376249526,0.00252172565062496,0.00398327081516519,0.00603270882876725,0.00877499037031269,0.0122775931596821,0.0165488214770999,0.0215216354372441,0.0270477136712738,0.0329046832591285,0.0388170536958516,0.0444890217033651,0.0496393649668753,0.0540564568404155,0.0577264560417902,0.0613832327842063,0.0682962435731467,0.0941694400145964,0.137964637757807,0.258469094890179
"21",6.22488751569836e-14,1.09762114388115e-12,1.4120380468536e-11,1.33251362778888e-10,9.63972817135003e-10,5.57941845968316e-09,2.68344131756653e-08,1.10614232208296e-07,4.00246426150435e-07,1.29437932537175e-06,3.79260287714991e-06,1.01757834354746e-05,2.52141220252212e-05,5.81030766296448e-05,0.000125259806804568,0.000253940176971111,0.000486346175343467,0.000883500789558413,0.00152768376263964,0.00252172565554048,0.00398327087700298,0.00603270935296305,0.00877500540948895,0.0122777807074863,0.0165499947929663,0.0215264324994704,0.0270628231607209,0.0329448015592683,0.0389124092653916,0.0446909681559332,0.0500524551119727,0.0549718826317241,0.0602747954186411,0.0697219975403391,0.10127612882867,0.153292325539963,0.291756638429844
"22",2.26039639971132e-15,5.99898396671908e-14,1.09762046342619e-12,1.41203801283085e-11,1.33251362438661e-10,9.63972817475231e-10,5.57941845934294e-09,2.68344131756653e-08,1.10614232208296e-07,4.00246426150435e-07,1.29437932537175e-06,3.79260287714991e-06,1.01757834354746e-05,2.52141220252212e-05,5.81030766296448e-05,0.000125259806804568,0.000253940176971111,0.000486346175343474,0.000883500789807403,0.00152768377054487,0.00252172575244031,0.00398327168048054,0.00603272526139748,0.00877520404555165,0.0122790649916861,0.0165553300497871,0.0215434317401158,0.0271083423327293,0.0330545028484976,0.0391483606206239,0.0451815923286279,0.0511531931793093,0.0580156102586906,0.0700684451032206,0.107612390818333,0.168320461286353,0.325270492631389
"23",5.23512726031551e-17,2.20805313628676e-15,5.99898356626015e-14,1.0976204614239e-12,1.41203801263062e-11,1.33251362440663e-10,9.63972817473228e-10,5.57941845934294e-09,2.68344131756653e-08,1.10614232208296e-07,4.00246426150435e-07,1.29437932537175e-06,3.79260287714991e-06,1.01757834354746e-05,2.52141220252212e-05,5.81030766296448e-05,0.000125259806804568,0.000253940176971189,0.000486346175731692,0.000883500801466853,0.00152768391033688,0.00252172688971195,0.00398328854097833,0.00603293703670745,0.00877662430168306,0.0122850645108628,0.0165746693219628,0.0215956423752465,0.0272357782503054,0.0333323116865779,0.0397331453875582,0.0465011175279738,0.0547560478750456,0.0693806822300833,0.113044474564132,0.182687871382329,0.358182762896235
"24",6.94471021774973e-19,5.16568015813801e-17,2.20805313628676e-15,5.99898356626015e-14,1.0976204614239e-12,1.41203801263062e-11,1.33251362440663e-10,9.63972817473228e-10,5.57941845934294e-09,2.68344131756653e-08,1.10614232208296e-07,4.00246426150435e-07,1.29437932537175e-06,3.79260287714991e-06,1.01757834354746e-05,2.52141220252212e-05,5.81030766296509e-05,0.000125259806805136,0.000253940177528698,0.000486346191714044,0.000883500989658722,0.00152768541368183,0.0025217448425635,0.0039835174601622,0.00603453136110956,0.0087834683876828,0.0123073642948107,0.0166353070286859,0.0217451961238972,0.0275651930627329,0.034030863220263,0.0413080400087719,0.0507247900836203,0.0677833773013618,0.117497549955436,0.196056034678997,0.389647165259222
"25",4.00458929663594e-21,6.90466432478337e-19,5.16568015813801e-17,2.20805313628676e-15,5.99898356626015e-14,1.0976204614239e-12,1.41203801268402e-11,1.3325136248734e-10,9.6397281910486e-10,5.57941849013867e-09,2.6834413542887e-08,1.10614235284878e-07,4.00246445732023e-07,1.29437942576041e-06,3.79260330991688e-06,1.01757850534962e-05,2.52141273889645e-05,5.81030926524415e-05,0.000125259851199524,0.00025394030774621,0.000486346687867925,0.000883503435743184,0.00152770588430114,0.00252199944617223,0.00398534150516327,0.00604245997495585,0.00880951936413967,0.0123785852340224,0.0168122437086861,0.0221375200227471,0.0283992284377389,0.0358987868687473,0.0462078255967499,0.0654708151699007,0.120962406459754,0.2081350438728,0.418862343796708
"26",0,4.00458929663594e-21,6.90466432478337e-19,5.16568015813801e-17,2.20805313628676e-15,5.99898356626015e-14,1.09762049185878e-12,1.41203827874204e-11,1.33251455490353e-10,9.63974574461683e-10,5.57943942177698e-09,2.68345889080898e-08,1.10615351435419e-07,4.00252167885692e-07,1.29440409347762e-06,3.79269553714484e-06,1.01760907851014e-05,2.52150405484117e-05,5.81055810068421e-05,0.000125266115642106,0.000253955127319967,0.000486380564760594,0.00088358917358883,0.00152811478302628,0.00252433461458294,0.0039950041246297,0.00607376754191361,0.0088946766156857,0.0125900255795932,0.017281347979479,0.0231315537877752,0.0305985846437614,0.0415212556071964,0.0626891798448113,0.123494396812455,0.218702725293276,0.445126713584471
"27",0,0,4.00458929663594e-21,6.90466432478337e-19,5.16568015813801e-17,2.20805313628676e-15,5.99903749472934e-14,1.09766763547287e-12,1.41220307355405e-11,1.33282559181413e-10,9.64345468403599e-10,5.58254677010641e-09,2.68543663124043e-08,1.10716743982888e-07,4.00689262523943e-07,1.29603829523623e-06,3.79811288492147e-06,1.01922712060535e-05,2.52591159333987e-05,5.82161459764159e-05,0.000125523664339366,0.000254516630738518,0.000487544060858563,0.000886107174829691,0.0015345604413586,0.00254208554196771,0.00404235800794849,0.00619050559191247,0.0091684091092825,0.0131776778045899,0.0184944229261148,0.025737860065997,0.0370182463782283,0.0597424364746338,0.125203006376735,0.22756240141357,0.467733031696763
"28",0,0,0,4.00458929663594e-21,6.90466432478337e-19,5.16568015813801e-17,2.21112599114038e-15,6.02590001939242e-14,1.10705767649425e-12,1.42992601831169e-11,1.35395920206887e-10,9.82051200716364e-10,5.69523881152247e-09,2.74321030556565e-08,1.13207317886978e-07,4.10000976504964e-07,1.32690644902484e-06,3.89030917024106e-06,1.04434076284736e-05,2.58889637415529e-05,5.96818906120996e-05,0.000128709752639335,0.000261033070626206,0.000500391192778696,0.000911620330586452,0.00158621717175791,0.00264781372166919,0.00425660952327441,0.00662385473027177,0.0100101715091435,0.0147861562249838,0.021715557454592,0.0331530341369257,0.0570404884037213,0.126233881030556,0.234414006640795,0.485628666159519
"29",0,0,0,0,4.00458929663594e-21,6.90466432478337e-19,5.19789040471396e-17,2.23928379826983e-15,6.12432820785719e-14,1.1256352028627e-12,1.45207866885239e-11,1.37251868602661e-10,9.93863793936909e-10,5.75579827118657e-09,2.76931697294433e-08,1.14183389382904e-07,4.13236634848105e-07,1.33657063817853e-06,3.91663475798235e-06,1.05094710656153e-05,2.6043163964786e-05,6.00201414257416e-05,0.000129425770736684,0.000262789132522049,0.000506095080301146,0.000930373277300557,0.00164149811242674,0.00279156649468871,0.00460401137092762,0.00738056885138369,0.0115723919552251,0.0180815880915536,0.029505672430085,0.0543086340611781,0.126783226307973,0.240199451084258,0.501200319981764
"30",0,0,0,0,0,4.00458929663594e-21,7.01812768818806e-19,5.29707870168884e-17,2.27395597406554e-15,6.18976914201874e-14,1.13343866451193e-12,1.45861640667422e-11,1.37667977356803e-10,9.95997052980195e-10,5.76499456926857e-09,2.77275526872359e-08,1.14297368230449e-07,4.13577064220649e-07,1.33750025276483e-06,3.91904645654901e-06,1.05159986281082e-05,2.6063218410754e-05,6.01004509049384e-05,0.000130046134924292,0.000266870598243056,0.000523513950004952,0.000987350370884678,0.00179672183413836,0.00317538537133032,0.00544839091896595,0.00912512314327126,0.0152196479172383,0.0265344095538276,0.051973098075695,0.126987536850822,0.244541730183155,0.513187676366411
"31",0,0,0,0,0,0,4.1380756065238e-21,7.13481980227615e-19,5.33786949674261e-17,2.28165490749631e-15,6.19894968513548e-14,1.13420781013803e-12,1.45910594638498e-11,1.37693074522019e-10,9.96105244722336e-10,5.76539907465437e-09,2.77288936148834e-08,1.14301373291117e-07,4.13592449313909e-07,1.33767995037857e-06,3.92102634987316e-06,1.05300880695545e-05,2.61503045529127e-05,6.08377739045014e-05,0.00013481603074038,0.000286985445882229,0.000588811469940812,0.00116425913647117,0.0022313682378975,0.00412558691407907,0.00739387887586761,0.0131322995402988,0.0243010266848852,0.0501459570012179,0.126991071898069,0.247591225926194,0.521809373427921
"32",0,0,0,0,0,0,0,4.1380756065238e-21,7.13481980227615e-19,5.33786949674261e-17,2.28165490749631e-15,6.19894968513548e-14,1.13420781013803e-12,1.45910594638498e-11,1.37693074522019e-10,9.96105244722336e-10,5.7653990757421e-09,2.77288938130319e-08,1.14309091703558e-07,4.13837208314217e-07,1.34067871918804e-06,3.94253862739691e-06,1.06566327150628e-05,2.70801783871952e-05,6.64406743154748e-05,0.000157835702817627,0.000360745281211768,0.000787028121005603,0.00164744529492046,0.00328033637525561,0.00625442398350779,0.0117203695691487,0.0227492475183262,0.0488328505372903,0.126906495194594,0.249594089747123,0.52759910918185
"33",0,0,0,0,0,0,0,0,4.1380756065238e-21,7.13481980227615e-19,5.33786949674261e-17,2.28165490749631e-15,6.19894968513548e-14,1.13420781013803e-12,1.45910594638498e-11,1.37693074522019e-10,9.96105264460232e-10,5.76540149237671e-09,2.77409247627534e-08,1.14668886833642e-07,4.18143255495526e-07,1.37119822294342e-06,4.11542758900197e-06,1.17971036155191e-05,3.35264219295957e-05,9.22573149228576e-05,0.000239474898059671,0.000578327728227842,0.00131331661223504,0.00278235594584962,0.00556544552000801,0.0108460722173726,0.0217656102854147,0.0479764689984136,0.126806833813247,0.250806655614782,0.531175803432049
"34",0,0,0,0,0,0,0,0,0,4.1380756065238e-21,7.13481980227615e-19,5.33786949674261e-17,2.28165490749631e-15,6.19894968513548e-14,1.13420781013803e-12,1.45910594638498e-11,1.37693264261931e-10,9.96122849668903e-10,5.78265045079737e-09,2.82290896988389e-08,1.20383746862917e-07,4.5820602467511e-07,1.592225285266e-06,5.46387762229761e-06,1.90270898220421e-05,6.18304971319755e-05,0.00018068584080456,0.000473349227064354,0.00114003933686392,0.00251741664688631,0.00519068771835436,0.0103609209544101,0.0212088799323563,0.0474801476384291,0.126728881881327,0.25146819565195,0.533162267730573
"35",0,0,0,0,0,0,0,0,0,0,4.1380756065238e-21,7.13481980227615e-19,5.33786949674261e-17,2.28165490749631e-15,6.19894968513548e-14,1.13420782669033e-12,1.45920777930601e-11,1.3777351138271e-10,1.019367776672e-09,6.39978415244702e-09,3.52878464953873e-08,1.69323840451972e-07,7.23052008759094e-07,3.12244903035748e-06,1.33458319844247e-05,4.93223177063924e-05,0.000155537117279735,0.000426936396039351,0.00106136164170819,0.00239447154459462,0.00501357451856948,0.0101279198916241,0.0209371741429507,0.0472332321749944,0.126682331877767,0.251781940540307,0.53411879431903
"36",0,0,0,0,0,0,0,0,0,0,0,4.1380756065238e-21,7.13481980227615e-19,5.33786949674261e-17,2.28167145979874e-15,6.19918873148078e-14,1.1377551574106e-12,1.483903043003e-11,1.67976368461081e-10,1.75740516028114e-09,1.46119215204346e-08,9.15185697308982e-08,4.69063361596427e-07,2.39236644655451e-06,1.14811996377902e-05,4.50447520903878e-05,0.000146643189261759,0.000410063971169268,0.00103212741019053,0.00234798017195466,0.00494563130906604,0.0100374390746226,0.0208303637440049,0.0471347282792521,0.12666145592357,0.251902678465366,0.534491393008091
"37",0,0,0,0,0,0,0,0,0,0,0,0,4.1380756065238e-21,7.21758131440662e-19,5.48139350790944e-17,2.38612326949696e-15,7.33702215503789e-14,1.71288480048863e-12,5.29849366204867e-11,1.01297399820734e-09,1.08682581411354e-08,7.61453707475055e-08,4.15497325236339e-07,2.23058140893465e-06,1.10521496841205e-05,4.40311334588888e-05,0.000144485235529231,0.00040589030847829,0.00102478561081955,0.00233616405916272,0.00492819639939547,0.0100140360474509,0.0208025170429416,0.0471087997406313,0.126655572326703,0.251933729949172,0.534588005836462
