"","X0","X1","X2","X3","X4","X5","X6","X7","X8","X9","X10","X11","X12","X13","X14","X15","X16","X17","X18","X19","X20","X21","X22","X23","X24","X25","X26","X27"
"1",0.508195820849701,0.260825160232234,0.150099301921536,0.0575989895857628,0.0179952906621736,0.0043205000127725,0.000827731197578623,0.000122490675803844,1.36014320688738e-05,1.06720464711667e-06,4.55626366239921e-08,6.63085790962299e-10,0,0,0,0,0,0,0,0,0,0,0,0,0,0,0,0
"2",0.320544535044158,0.269197031301708,0.22206295700414,0.120084427460145,0.0485562276961983,0.0150762731845317,0.00366041089983751,0.000701112749068858,0.000104399137376838,1.16577232609291e-05,9.26194199516528e-07,4.09422888369664e-08,6.63085790962299e-10,0,0,0,0,0,0,0,0,0,0,0,0,0,0,0
"3",0.150638885482103,0.192541737322772,0.2574222004497,0.213515312141855,0.118360169401728,0.0480663844950565,0.0149923379599243,0.00364644007187555,0.00069964397060771,0.000104267200791514,1.16538315282447e-05,9.26066683018266e-07,4.09422888369664e-08,6.63085790962299e-10,0,0,0,0,0,0,0,0,0,0,0,0,0,0
"4",0.0555759609634953,0.100565640424043,0.189646524847815,0.255273321218715,0.213169700163811,0.118264370075345,0.0480517561380936,0.0149899892306095,0.0036462220923141,0.000699626141382572,0.000104267200791514,1.16538315282447e-05,9.26066683018266e-07,4.09422888369664e-08,6.63085790962299e-10,0,0,0,0,0,0,0,0,0,0,0,0,0
"5",0.0163299092610439,0.0401968963148324,0.100059095069249,0.189251040442777,0.255235714551513,0.213159633677256,0.118263394361555,0.0480516027690669,0.0149899775703883,0.00364622113655827,0.000699626141382572,0.000104267200791514,1.16538315282447e-05,9.26066683018266e-07,4.09422888369664e-08,6.63085790962299e-10,0,0,0,0,0,0,0,0,0,0,0,0
"6",0.00388260341240952,0.0125909194115736,0.0401202743297372,0.0999970445107773,0.18924715405672,0.255234709646882,0.213159590528348,0.118263387978934,0.0480516025868482,0.0149899775554524,0.00364622113655827,0.000699626141382572,0.000104267200791514,1.16538315282447e-05,9.26066683018266e-07,4.09422888369664e-08,6.63085790962299e-10,0,0,0,0,0,0,0,0,0,0,0
"7",0.000747966242232765,0.0031521206456369,0.0125816371619634,0.0401125153425438,0.0999966929868105,0.189247064990727,0.255234708204272,0.213159590322261,0.118263387978934,0.0480516025868482,0.0149899775554524,0.00364622113655827,0.000699626141382572,0.000104267200791514,1.16538315282447e-05,9.26066683018266e-07,4.09422888369664e-08,6.63085790962299e-10,0,0,0,0,0,0,0,0,0,0
"8",0.000116356902636038,0.000633224627944996,0.00315127111586642,0.0125809021356785,0.0401124907895685,0.0999966868313903,0.189247064969817,0.255234708201285,0.213159590322261,0.118263387978934,0.0480516025868482,0.0149899775554524,0.00364622113655827,0.000699626141382572,0.000104267200791514,1.16538315282447e-05,9.26066683018266e-07,4.09422888369664e-08,6.63085790962299e-10,0,0,0,0,0,0,0,0,0
"9",1.43103275886815e-05,0.000102143934021768,0.000633174380385836,0.00315122512450257,0.0125809012396374,0.0401124905655582,0.0999966868313903,0.189247064969817,0.255234708201285,0.213159590322261,0.118263387978934,0.0480516025868482,0.0149899775554524,0.00364622113655827,0.000699626141382572,0.000104267200791514,1.16538315282447e-05,9.26066683018266e-07,4.09422888369664e-08,6.63085790962299e-10,0,0,0,0,0,0,0,0
"10",1.33489066984566e-06,1.29784655820774e-05,0.000102142398779803,0.00063317290190052,0.0031512251125538,0.0125809012366502,0.0401124905655582,0.0999966868313903,0.189247064969817,0.255234708201285,0.213159590322261,0.118263387978934,0.0480516025868482,0.0149899775554524,0.00364622113655827,0.000699626141382572,0.000104267200791514,1.16538315282447e-05,9.26066683018266e-07,4.09422888369664e-08,6.63085790962299e-10,0,0,0,0,0,0,0
"11",8.58807680954991e-08,1.24904574805467e-06,1.29784476589251e-05,0.000102142380856651,0.00063317290190052,0.0031512251125538,0.0125809012366502,0.0401124905655582,0.0999966868313903,0.189247064969817,0.255234708201285,0.213159590322261,0.118263387978934,0.0480516025868482,0.0149899775554524,0.00364622113655827,0.000699626141382572,0.000104267200791514,1.16538315282447e-05,9.26066683018266e-07,4.09422888369664e-08,6.63085790962299e-10,0,0,0,0,0,0
"12",2.86735487125197e-09,8.30134132242471e-08,1.24904574805467e-06,1.29784476589251e-05,0.000102142380856651,0.00063317290190052,0.0031512251125538,0.0125809012366502,0.0401124905655582,0.0999966868313903,0.189247064969817,0.255234708201285,0.213159590322261,0.118263387978934,0.0480516025868482,0.0149899775554524,0.00364622113655827,0.000699626141382572,0.000104267200791514,1.16538315282447e-05,9.26066683018266e-07,4.09422888369664e-08,6.63085790962299e-10,0,0,0,0,0
"13",3.58463045114234e-11,2.83150856674055e-09,8.30134132242471e-08,1.24904574805467e-06,1.29784476589251e-05,0.000102142380856651,0.00063317290190052,0.0031512251125538,0.0125809012366502,0.0401124905655582,0.0999966868313903,0.189247064969817,0.255234708201285,0.213159590322261,0.118263387978934,0.0480516025868482,0.0149899775554524,0.00364622113655827,0.000699626141382572,0.000104267200791514,1.16538315282447e-05,9.26066683018266e-07,4.09422888369664e-08,6.63085790962299e-10,0,0,0,0
"14",0,3.58463045114234e-11,2.83150856674055e-09,8.30134132242471e-08,1.24904574805467e-06,1.29784476589251e-05,0.000102142380856651,0.00063317290190052,0.0031512251125538,0.0125809012366502,0.0401124905655582,0.0999966868313903,0.189247064969817,0.255234708201285,0.213159590322261,0.118263387978934,0.0480516025868482,0.0149899775554524,0.00364622113655827,0.000699626141382572,0.000104267200791514,1.16538315282447e-05,9.26066683018266e-07,4.09422888369664e-08,6.63085790962299e-10,0,0,0
"15",0,0,3.58463045114234e-11,2.83150856674055e-09,8.30134132242471e-08,1.24904574805467e-06,1.29784476589251e-05,0.000102142380856651,0.00063317290190052,0.0031512251125538,0.0125809012366502,0.0401124905655582,0.0999966868313903,0.189247064969817,0.255234708201285,0.213159590322261,0.118263387978934,0.0480516025868482,0.0149899775554524,0.00364622113655827,0.000699626141382572,0.000104267200791514,1.16538315282447e-05,9.26066683018266e-07,4.09422888369664e-08,6.63085790962299e-10,0,0
"16",0,0,0,3.58463045114234e-11,2.83150856674055e-09,8.30134132242471e-08,1.24904574805467e-06,1.29784476589251e-05,0.000102142380856651,0.00063317290190052,0.0031512251125538,0.0125809012366502,0.0401124905655582,0.0999966868313903,0.189247064969817,0.255234708201285,0.213159590322261,0.118263387978934,0.0480516025868482,0.0149899775554524,0.00364622113655827,0.000699626141382572,0.000104267200791514,1.16538315282447e-05,9.26066683018266e-07,4.09422888369664e-08,6.63085790962299e-10,0
"17",0,0,0,0,3.58463045114234e-11,2.83150856674055e-09,8.30134132242471e-08,1.24904574805467e-06,1.29784476589251e-05,0.000102142380856651,0.00063317290190052,0.0031512251125538,0.0125809012366502,0.0401124905655582,0.0999966868313903,0.189247064969817,0.255234708201285,0.213159590322261,0.118263387978934,0.0480516025868482,0.0149899775554524,0.00364622113655827,0.000699626141382572,0.000104267200791514,1.16538315282447e-05,9.26066683018266e-07,4.09422888369664e-08,6.63085790962299e-10
"18",0,0,0,0,0,3.58463045114234e-11,2.83150856674055e-09,8.30134132242471e-08,1.24904574805467e-06,1.29784476589251e-05,0.000102142380856651,0.00063317290190052,0.0031512251125538,0.0125809012366502,0.0401124905655582,0.0999966868313903,0.189247064969817,0.255234708201285,0.213159590322261,0.118263387978934,0.0480516025868482,0.0149899775554524,0.00364622113655827,0.000699626141382572,0.000104267200791514,1.16538315282447e-05,9.26066683018266e-07,4.16053746279287e-08
"19",0,0,0,0,0,0,3.58463045114234e-11,2.83150856674055e-09,8.30134132242471e-08,1.24904574805467e-06,1.29784476589251e-05,0.000102142380856651,0.00063317290190052,0.0031512251125538,0.0125809012366502,0.0401124905655582,0.0999966868313903,0.189247064969817,0.255234708201285,0.213159590322261,0.118263387978934,0.0480516025868482,0.0149899775554524,0.00364622113655827,0.000699626141382572,0.000104267200791514,1.16538315282447e-05,9.67672057646195e-07
"20",0,0,0,0,0,0,0,3.58463045114234e-11,2.83150856674055e-09,8.30134132242471e-08,1.24904574805467e-06,1.29784476589251e-05,0.000102142380856651,0.00063317290190052,0.0031512251125538,0.0125809012366502,0.0401124905655582,0.0999966868313903,0.189247064969817,0.255234708201285,0.213159590322261,0.118263387978934,0.0480516025868482,0.0149899775554524,0.00364622113655827,0.000699627467554154,0.000104267863877305,1.2619514328518e-05
"21",0,0,0,0,0,0,0,0,3.58463045114234e-11,2.83150856674055e-09,8.30134132242471e-08,1.24904574805467e-06,1.29784476589251e-05,0.000102142380856651,0.00063317290190052,0.0031512251125538,0.0125809012366502,0.0401124905655582,0.0999966868313903,0.189247064969817,0.255234708201285,0.213159590322261,0.118263387978934,0.0480516025868482,0.0149899775554524,0.00364630169496436,0.0006996677467572,0.000116766540596685
"22",0,0,0,0,0,0,0,0,0,3.58463045114234e-11,2.83150856674055e-09,8.30134132242471e-08,1.24904574805467e-06,1.29784476589251e-05,0.000102142380856651,0.00063317290190052,0.0031512251125538,0.0125809012366502,0.0401124905655582,0.0999966868313903,0.189247064969817,0.255234708201285,0.213159590322261,0.118263387978934,0.0480516105438776,0.0149917252593238,0.00364725312793764,0.000813727193479646
"23",0,0,0,0,0,0,0,0,0,0,3.58463045114234e-11,2.83150856674055e-09,8.30134132242471e-08,1.24904574805467e-06,1.29784476589251e-05,0.000102142380856651,0.00063317290190052,0.0031512251125538,0.0125809012366502,0.0401124905655582,0.0999966868313903,0.189247064969817,0.255234708201285,0.213159590322261,0.118263847458282,0.0480717310611257,0.0150062654415916,0.00442586014255343
"24",0,0,0,0,0,0,0,0,0,0,0,3.58463045114234e-11,2.83150856674055e-09,8.30134132242471e-08,1.24904574805467e-06,1.29784476589251e-05,0.000102142380856651,0.00063317290190052,0.0031512251125538,0.0125809012366502,0.0401124905655582,0.0999966868313903,0.189247072926846,0.25523478777158,0.213168795581057,0.118422234223013,0.0482383975197446,0.0190977795746747
"25",0,0,0,0,0,0,0,0,0,0,0,0,3.58463045114234e-11,2.83150856674055e-09,8.30134132242471e-08,1.24904574805467e-06,1.29784476589251e-05,0.000102142380856651,0.000633172954947383,0.00315122585520988,0.0125809090478008,0.0401125458094458,0.0999973993310145,0.18925239048826,0.255335712381226,0.214108443289334,0.119728228468661,0.0649835166190688
"26",0,0,0,0,0,0,0,0,0,0,0,0,0,3.58463045114234e-11,2.83150856674055e-09,8.30134132242471e-08,1.24904574805467e-06,1.29784741823568e-05,0.000102145433442932,0.000633214398138028,0.00315164829242923,0.012583856510262,0.0401346333644132,0.100122508986969,0.190120068084585,0.259957612254505,0.221533527543301,0.171646471731256
"27",0,0,0,0,0,0,0,0,0,0,0,0,0,0,3.58463045114234e-11,2.83150856674055e-09,8.30134132242471e-08,1.25001504913086e-06,1.30303847243927e-05,0.000102824927603971,0.000639869457580017,0.00319724671691094,0.0128591368080997,0.0414199634447628,0.105653019225415,0.20910166256438,0.290254974096683,0.336756936478023
"28",0,0,0,0,0,0,0,0,0,0,0,0,0,0,0,3.70411813284709e-11,2.92465747958762e-09,9.10645803537866e-08,1.53897577845497e-06,1.66556881782189e-05,0.000137068566521584,0.000870345019430385,0.00448577905063947,0.0183911277792333,0.0611843553522472,0.159380431048818,0.28901639896538,0.466516205527495
