"","X0","X1","X2","X3","X4","X5","X6","X7","X8","X9","X10","X11","X12","X13","X14","X15","X16","X17","X18","X19","X20","X21"
"1",0.938506000404972,0.0605194684257315,0.000974531169296635,0,0,0,0,0,0,0,0,0,0,0,0,0,0,0,0,0,0,0
"2",0.0594788856994047,0.881009744228881,0.058536838902418,0.000974531169296635,0,0,0,0,0,0,0,0,0,0,0,0,0,0,0,0,0,0
"3",0.000974531169296635,0.058536838902418,0.880977259856571,0.058536838902418,0.000974531169296635,0,0,0,0,0,0,0,0,0,0,0,0,0,0,0,0,0
"4",0,0.000974531169296635,0.058536838902418,0.880977259856571,0.058536838902418,0.000974531169296635,0,0,0,0,0,0,0,0,0,0,0,0,0,0,0,0
"5",0,0,0.000974531169296635,0.058536838902418,0.880977259856571,0.058536838902418,0.000974531169296635,0,0,0,0,0,0,0,0,0,0,0,0,0,0,0
"6",0,0,0,0.000974531169296635,0.058536838902418,0.880977259856571,0.058536838902418,0.000974531169296635,0,0,0,0,0,0,0,0,0,0,0,0,0,0
"7",0,0,0,0,0.000974531169296635,0.058536838902418,0.880977259856571,0.058536838902418,0.000974531169296635,0,0,0,0,0,0,0,0,0,0,0,0,0
"8",0,0,0,0,0,0.000974531169296635,0.058536838902418,0.880977259856571,0.058536838902418,0.000974531169296635,0,0,0,0,0,0,0,0,0,0,0,0
"9",0,0,0,0,0,0,0.000974531169296635,0.058536838902418,0.880977259856571,0.058536838902418,0.000974531169296635,0,0,0,0,0,0,0,0,0,0,0
"10",0,0,0,0,0,0,0,0.000974531169296635,0.058536838902418,0.880977259856571,0.058536838902418,0.000974531169296635,0,0,0,0,0,0,0,0,0,0
"11",0,0,0,0,0,0,0,0,0.000974531169296635,0.058536838902418,0.880977259856571,0.058536838902418,0.000974531169296635,0,0,0,0,0,0,0,0,0
"12",0,0,0,0,0,0,0,0,0,0.000974531169296635,0.058536838902418,0.880977259856571,0.058536838902418,0.000974531169296635,0,0,0,0,0,0,0,0
"13",0,0,0,0,0,0,0,0,0,0,0.000974531169296635,0.058536838902418,0.880977259856571,0.058536838902418,0.000974531169296635,0,0,0,0,0,0,0
"14",0,0,0,0,0,0,0,0,0,0,0,0.000974531169296635,0.058536838902418,0.880977259856571,0.058536838902418,0.000974531169296635,0,0,0,0,0,0
"15",0,0,0,0,0,0,0,0,0,0,0,0,0.000974531169296635,0.058536838902418,0.880977259856571,0.058536838902418,0.000974531169296635,0,0,0,0,0
"16",0,0,0,0,0,0,0,0,0,0,0,0,0,0.000974531169296635,0.058536838902418,0.880977259856571,0.058536838902418,0.000974531169296635,0,0,0,0
"17",0,0,0,0,0,0,0,0,0,0,0,0,0,0,0.000974531169296635,0.058536838902418,0.880977259856571,0.058536838902418,0.000974531169296635,0,0,0
"18",0,0,0,0,0,0,0,0,0,0,0,0,0,0,0,0.000974531169296635,0.058536838902418,0.880977259856571,0.058536838902418,0.000974531169296635,0,0
"19",0,0,0,0,0,0,0,0,0,0,0,0,0,0,0,0,0.000974531169296635,0.058536838902418,0.880977259856571,0.058536838902418,0.000974531169296635,0
"20",0,0,0,0,0,0,0,0,0,0,0,0,0,0,0,0,0,0.000974531169296635,0.058536838902418,0.880977259856571,0.058536838902418,0.000974531169296635
"21",0,0,0,0,0,0,0,0,0,0,0,0,0,0,0,0,0,0,0.000974531169296635,0.058536838902418,0.880977259856571,0.0595113700717146
"22",0,0,0,0,0,0,0,0,0,0,0,0,0,0,0,0,0,0,0,0.00100701554160652,0.0604544996811117,0.938538484777282
