"","X0","X1","X2","X3","X4","X5","X6","X7","X8","X9","X10","X11","X12","X13","X14","X15","X16","X17","X18","X19","X20","X21","X22","X23","X24"
"1",0.80015223028441,0.154878040073364,0.0384134781112252,0.00598504057014799,0.000537932283092772,3.20516347340454e-05,1.19980390821118e-06,2.69671024671672e-08,2.72015990103599e-10,0,0,0,0,0,0,0,0,0,0,0,0,0,0,0,0
"2",0.766233260963453,0.169565064593345,0.0514421789028516,0.0109249712426803,0.00163866221701402,0.000181606369006348,1.36071479887237e-05,6.3228906484935e-07,1.61044813658229e-08,1.70115411595354e-10,0,0,0,0,0,0,0,0,0,0,0,0,0,0,0
"3",0.672120514220373,0.195203439960332,0.0911059531886089,0.0318754049394561,0.00806336201707306,0.00144339478610716,0.000173839369650539,1.3445276837719e-05,6.2998578491227e-07,1.60856614174476e-08,1.70115411595354e-10,0,0,0,0,0,0,0,0,0,0,0,0,0,0
"4",0.534178001215271,0.206342874454474,0.141910234518539,0.0781187215931375,0.0299098657427335,0.00791663872452004,0.00143608955230636,0.000173494560088011,1.3433569476077e-05,6.29813678394386e-07,1.60856614174476e-08,1.70115411595354e-10,0,0,0,0,0,0,0,0,0,0,0,0,0
"5",0.383499240959846,0.192597900625022,0.174321049815039,0.134003204410699,0.0763166093606717,0.0297251554081411,0.00791334196387552,0.00143592895033735,0.000173488950646943,1.34334862664847e-05,6.29813678394386e-07,1.60856614174476e-08,1.70115411595354e-10,0,0,0,0,0,0,0,0,0,0,0,0
"6",0.255763690789001,0.15751718475082,0.17357692951219,0.16787987618894,0.130214917210349,0.0757870788915903,0.0297235177012078,0.00791330865197658,0.00143592781439112,0.000173488933812895,1.34334862664847e-05,6.29813678394386e-07,1.60856614174476e-08,1.70115411595354e-10,0,0,0,0,0,0,0,0,0,0,0
"7",0.165110232873732,0.115617651433166,0.145659209793596,0.167214585900435,0.162010504273061,0.129341833818796,0.075785663322432,0.0297235137568591,0.00791330852586,0.00143592781252885,0.000173488933812895,1.34334862664847e-05,6.29813678394386e-07,1.60856614174476e-08,1.70115411595354e-10,0,0,0,0,0,0,0,0,0,0
"8",0.104823746247389,0.0798606067442625,0.108426512721008,0.14020145908054,0.161200129968643,0.16110079432053,0.129340769320798,0.0757856630206008,0.0297235137484287,0.00791330852573624,0.00143592781252885,0.000173488933812895,1.34334862664847e-05,6.29813678394386e-07,1.60856614174476e-08,1.70115411595354e-10,0,0,0,0,0,0,0,0,0
"9",0.0652173029467064,0.0532224840288989,0.0757679914846494,0.10444319639376,0.135394093594892,0.16046801646736,0.161100164182861,0.129340769304397,0.0757856630202517,0.0297235137484236,0.00791330852573624,0.00143592781252885,0.000173488933812895,1.34334862664847e-05,6.29813678394386e-07,1.60856614174476e-08,1.70115411595354e-10,0,0,0,0,0,0,0,0
"10",0.0388995618225963,0.0345397253347049,0.0511330064266281,0.0732960040503087,0.101268275801695,0.134908760910999,0.160467750570035,0.16110016418217,0.129340769304388,0.0757856630202515,0.0297235137484236,0.00791330852573624,0.00143592781252885,0.000173488933812895,1.34334862664847e-05,6.29813678394386e-07,1.60856614174476e-08,1.70115411595354e-10,0,0,0,0,0,0,0
"11",0.0218628264628828,0.0215712999424443,0.0335534542810485,0.0497418808278425,0.071425564969656,0.100981634785687,0.134908673077394,0.160467750570011,0.16110016418217,0.129340769304388,0.0757856630202515,0.0297235137484236,0.00791330852573624,0.00143592781252885,0.000173488933812895,1.34334862664847e-05,6.29813678394386e-07,1.60856614174476e-08,1.70115411595354e-10,0,0,0,0,0,0
"12",0.0116694576935733,0.0126679858760488,0.0211028788517388,0.032781317509301,0.0486720661545876,0.0712613482642335,0.100981606920079,0.134908673077393,0.160467750570011,0.16110016418217,0.129340769304388,0.0757856630202515,0.0297235137484236,0.00791330852573624,0.00143592781252885,0.000173488933812895,1.34334862664847e-05,6.29813678394386e-07,1.60856614174476e-08,1.70115411595354e-10,0,0,0,0,0
"13",0.00596110879792513,0.00700186742484084,0.0124480979196917,0.0206944895740755,0.0322046865205456,0.048583463539181,0.0712613405732231,0.100981606920079,0.134908673077393,0.160467750570011,0.16110016418217,0.129340769304388,0.0757856630202515,0.0297235137484236,0.00791330852573624,0.00143592781252885,0.000173488933812895,1.34334862664847e-05,6.29813678394386e-07,1.60856614174476e-08,1.70115411595354e-10,0,0,0,0
"14",0.00292761518776592,0.00366279824678504,0.00690273716389843,0.0122478981463163,0.0204084889818325,0.0321607140556785,0.048583461993983,0.0712613405732231,0.100981606920079,0.134908673077393,0.160467750570011,0.16110016418217,0.129340769304388,0.0757856630202515,0.0297235137484236,0.00791330852573624,0.00143592781252885,0.000173488933812895,1.34334862664847e-05,6.29813678394386e-07,1.60856614174476e-08,1.70115411595354e-10,0,0,0
"15",0.00137807611938646,0.00182770916042712,0.00362094223301723,0.00681383962850844,0.0121201321124359,0.020388838686233,0.0321607138422687,0.048583461993983,0.0712613405732231,0.100981606920079,0.134908673077393,0.160467750570011,0.16110016418217,0.129340769304388,0.0757856630202515,0.0297235137484236,0.00791330852573624,0.00143592781252885,0.000173488933812895,1.34334862664847e-05,6.29813678394386e-07,1.60856614174476e-08,1.70115411595354e-10,0,0
"16",0.000608796362364511,0.000877154646161195,0.00181186930275265,0.00358637951016106,0.00676402932062982,0.0121124701319631,0.0203888386659757,0.0321607138422687,0.048583461993983,0.0712613405732231,0.100981606920079,0.134908673077393,0.160467750570011,0.16110016418217,0.129340769304388,0.0757856630202515,0.0297235137484236,0.00791330852573624,0.00143592781252885,0.000173488933812895,1.34334862664847e-05,6.29813678394386e-07,1.60856614174476e-08,1.70115411595354e-10,0
"17",0.000249127435022222,0.000397581489680941,0.000871665056679026,0.00179970329356081,0.00356882332186785,0.0067613285465885,0.012112470130633,0.0203888386659757,0.0321607138422687,0.048583461993983,0.0712613405732231,0.100981606920079,0.134908673077393,0.160467750570011,0.16110016418217,0.129340769304388,0.0757856630202515,0.0297235137484236,0.00791330852573624,0.00143592781252885,0.000173488933812895,1.34334862664847e-05,6.29813678394386e-07,1.60856614174476e-08,1.70115411595354e-10
"18",9.35062934854854e-05,0.000167609632674309,0.000395858870827649,0.000867814495223549,0.00179414333927299,0.00356796796538709,0.00676132854652827,0.012112470130633,0.0203888386659757,0.0321607138422687,0.048583461993983,0.0712613405732231,0.100981606920079,0.134908673077393,0.160467750570011,0.16110016418217,0.129340769304388,0.0757856630202515,0.0297235137484236,0.00791330852573624,0.00143592781252885,0.000173488933812895,1.34334862664847e-05,6.29813678394386e-07,1.6255776829043e-08
"19",3.18154766939949e-05,6.4957607011305e-05,0.000167141921264634,0.000394809142393161,0.000866298389981233,0.0017939100941415,0.00356796796538524,0.00676132854652827,0.012112470130633,0.0203888386659757,0.0321607138422687,0.048583461993983,0.0712613405732231,0.100981606920079,0.134908673077393,0.160467750570011,0.16110016418217,0.129340769304388,0.0757856630202515,0.0297235137484236,0.00791330852573624,0.00143592806770197,0.0001734890188706,1.34339115550137e-05,6.4530393587125e-07
"20",9.83642371118685e-06,2.27671705091297e-05,6.48449404385782e-05,0.000166888622586275,0.000394443276989633,0.000866242103109562,0.00179391009414146,0.00356796796538524,0.00676132854652827,0.012112470130633,0.0203888386659757,0.0321607138422687,0.048583461993983,0.0712613405732231,0.100981606920079,0.134908673077393,0.160467750570011,0.16110016418217,0.129340769304388,0.0757856630202515,0.0297235137484236,0.00791333125077623,0.00143593564271529,0.000173526893937235,1.40110403709434e-05
"21",2.73640708072629e-06,7.26595297602882e-06,2.27434609559071e-05,6.47916051921984e-05,0.000166811583242147,0.000394431424787796,0.000866242103109562,0.00179391009414146,0.00356796796538524,0.00676132854652827,0.012112470130633,0.0203888386659757,0.0321607138422687,0.048583461993983,0.0712613405732231,0.100981606920079,0.13490867358774,0.160467750740127,0.161100165032747,0.129340769984849,0.0757856619145014,0.0297243339065098,0.00791360594102312,0.00143730373531432,0.000185073887625851
"22",6.72123884921178e-07,2.09217166751479e-06,7.26196873483129e-06,2.27344968635206e-05,6.47786570723614e-05,0.000166809591223858,0.000394431424787796,0.000866242103109562,0.00179391009414146,0.00356796796538524,0.00676132854652827,0.012112470130633,0.0203888386659757,0.0321607140974418,0.0485834623342138,0.0712613431249542,0.100981651264409,0.134908691076853,0.160467826915549,0.16110022244319,0.129340704341951,0.0758013589679389,0.0297297018435458,0.00793983545516923,0.00157495019477643
"23",1.45570845460329e-07,5.30029804681234e-07,2.09167498195666e-06,7.26085120484276e-06,2.27328826538009e-05,6.47784087324074e-05,0.000166809591223858,0.000394431424787796,0.00086624223069612,0.00179391026425687,0.00356796949642395,0.00676133216148077,0.0121124761484657,0.020388872576104,0.0321607580705213,0.0485836926466911,0.071262926580436,0.100982453868238,0.134911550152295,0.160469884483542,0.161099437206353,0.129517695362456,0.0758659041359479,0.0300251203153199,0.00897099386653777
"24",2.70663211730006e-08,1.18815759296669e-07,5.29985342449384e-07,2.0915749421638e-06,7.26070670292272e-06,2.27328604227364e-05,6.47791742517596e-05,0.000166811249849121,0.000394449698246382,0.00086628255780369,0.00179406328580709,0.00356833757829573,0.00676194142404826,0.0121144681500246,0.0203918743410517,0.0321701504860042,0.0486163849878568,0.0712861871896902,0.101044461589618,0.134960808598265,0.160501785187965,0.162373512870068,0.130053332295741,0.077911443229293,0.03492616509663
"25",4.05578584956416e-09,2.3030269472748e-08,1.18812940131539e-07,5.30031793768391e-07,2.09307922043904e-06,7.27467968779839e-06,2.28146125123378e-05,6.50844028839289e-05,0.000168043993063687,0.000397520998616718,0.000874264318689219,0.00181135634902641,0.00360092742197517,0.00683808233660823,0.0122461750025791,0.0206610567799854,0.032699002803043,0.0491744117515316,0.072318919114773,0.102182505192815,0.136465523107328,0.167284864081527,0.165608525338513,0.137818931385435,0.0897519473193979
