"","X0","X1","X2","X3","X4","X5","X6","X7","X8","X9","X10","X11","X12","X13","X14","X15","X16","X17","X18","X19","X20","X21","X22","X23","X24"
"1",0.727168455664041,0.169729870152763,0.0752858259509416,0.0224264479192048,0.00450992229368431,0.000780343724288742,9.16736218619063e-05,7.07326961634719e-06,3.74267529406517e-07,1.28648341784804e-08,2.68687652071186e-10,2.54749626527824e-12,0,0,0,0,0,0,0,0,0,0,0,0,0
"2",0.713782650762007,0.172869385877026,0.0795555127368219,0.0259209220370134,0.00626499916816844,0.00135362199166653,0.000222426297338904,2.77282354198683e-05,2.57914699354585e-06,1.66690233179492e-07,6.89480623671049e-09,1.60912498182458e-10,1.59317242909281e-12,0,0,0,0,0,0,0,0,0,0,0,0
"3",0.670893390257685,0.179886694094101,0.0930459345963583,0.037910261598131,0.0130606152981265,0.00401394709483516,0.000977889090459563,0.000183178296118973,2.5421047317852e-05,2.49655676038203e-06,1.65035657789076e-07,6.87211918521089e-09,1.6073624476375e-10,1.59317242909281e-12,0,0,0,0,0,0,0,0,0,0,0
"4",0.594830015733128,0.18509379921985,0.114216888643289,0.0609338080128116,0.0284654185713017,0.0115426246922915,0.00375820625240929,0.000949912155353681,0.000181331262471513,2.53308935838642e-05,2.49261486595833e-06,1.6491580729345e-07,6.87050736558451e-09,1.6073624476375e-10,1.59317242909281e-12,0,0,0,0,0,0,0,0,0,0
"5",0.493178211863051,0.182145037460172,0.134884754708251,0.091645894994847,0.0544650145746618,0.0274526584980127,0.01134119500468,0.00372998084432181,0.000947968253780232,0.000181290244999522,2.53290479613457e-05,2.49255739674254e-06,1.6491502801527e-07,6.87050736558451e-09,1.6073624476375e-10,1.59317242909281e-12,0,0,0,0,0,0,0,0,0
"6",0.384992911862532,0.167765005007964,0.144996423491007,0.119150941420158,0.0864853469873902,0.0533420821641212,0.0271110081734381,0.0112741259788739,0.00372492069368387,0.000947950815540556,0.000181289863862063,2.53290363244499e-05,2.49255723908756e-06,1.6491502801527e-07,6.87050736558451e-09,1.6073624476375e-10,1.59317242909281e-12,0,0,0,0,0,0,0,0
"7",0.287027630536566,0.143910285882899,0.140176368478857,0.133587998512183,0.114246955439526,0.0850573174553053,0.0528413340068403,0.0270041033981427,0.0112658649260585,0.00372490718871789,0.000947950770922725,0.000181289862570493,2.53290363070093e-05,2.49255723908756e-06,1.6491502801527e-07,6.87050736558451e-09,1.6073624476375e-10,1.59317242909281e-12,0,0,0,0,0,0,0
"8",0.206844831023364,0.116093410930752,0.123271054949088,0.131857884298274,0.128757922743836,0.112747804025741,0.0845526388925125,0.0527309362693368,0.0269955205689557,0.0112658549379454,0.00372490718537799,0.000947950770836431,0.000181289862569334,2.53290363070093e-05,2.49255723908756e-06,1.6491502801527e-07,6.87050736558451e-09,1.6073624476375e-10,1.59317242909281e-12,0,0,0,0,0,0
"9",0.145428676503331,0.089362416904309,0.100731705874548,0.117271872855277,0.127144410569498,0.127381746446636,0.112347491565223,0.0844641258466184,0.0527240424700458,0.0269955146665512,0.0112658549377705,0.00372490718537442,0.000947950770836383,0.000181289862569334,2.53290363070093e-05,2.49255723908756e-06,1.6491502801527e-07,6.87050736558451e-09,1.6073624476375e-10,1.59317242909281e-12,0,0,0,0,0
"10",0.0999771144285296,0.0664629929988424,0.0782621800029684,0.0965653382421037,0.112983596362982,0.126014019484053,0.127118699927052,0.112288942793101,0.084459564816051,0.0527240399798104,0.0269955146665442,0.0112658549377704,0.00372490718537442,0.000947950770836383,0.000181289862569334,2.53290363070093e-05,2.49255723908756e-06,1.6491502801527e-07,6.87050736558451e-09,1.6073624476375e-10,1.59317242909281e-12,0,0,0,0
"11",0.0670311839090987,0.0480632134966499,0.0587785505432172,0.0754752069507822,0.0929757187504119,0.112118983310895,0.125859603096237,0.127084171884729,0.112286253120195,0.0844595639934664,0.0527240399798101,0.0269955146665442,0.0112658549377704,0.00372490718537442,0.000947950770836383,0.000181289862569334,2.53290363070093e-05,2.49255723908756e-06,1.6491502801527e-07,6.87050736558451e-09,1.6073624476375e-10,1.59317242909281e-12,0,0,0
"12",0.0436856261004581,0.0337743564079938,0.0429396122173215,0.0569660518161712,0.0727188616956254,0.0923487899102524,0.112030860911089,0.125839840841752,0.127082632302327,0.112286252859227,0.0844595639934664,0.0527240399798101,0.0269955146665442,0.0112658549377704,0.00372490718537442,0.000947950770836383,0.000181289862569334,2.53290363070093e-05,2.49255723908756e-06,1.6491502801527e-07,6.87050736558451e-09,1.6073624476375e-10,1.59317242909281e-12,0,0
"13",0.0276012343577448,0.0229933090783552,0.0304345463638334,0.0418056687313392,0.0550152147540958,0.0722934543821949,0.0923013572061753,0.112020204498539,0.125839010600413,0.127082632230299,0.112286252859227,0.0844595639934664,0.0527240399798101,0.0269955146665442,0.0112658549377704,0.00372490718537442,0.000947950770836383,0.000181289862569334,2.53290363070093e-05,2.49255723908756e-06,1.6491502801527e-07,6.87050736558451e-09,1.6073624476375e-10,1.59317242909281e-12,0
"14",0.0169354422167213,0.0151508026847221,0.0208257971807672,0.0297422901295836,0.0404865065327839,0.0547383393803928,0.0722699482393713,0.0922960704284045,0.112019792594002,0.125839010585942,0.127082632230299,0.112286252859227,0.0844595639934664,0.0527240399798101,0.0269955146665442,0.0112658549377704,0.00372490718537442,0.000947950770836383,0.000181289862569334,2.53290363070093e-05,2.49255723908756e-06,1.6491502801527e-07,6.87050736558451e-09,1.6073624476375e-10,1.59317242909281e-12
"15",0.0101302948621894,0.00968536814265148,0.0137453107322806,0.0204086852680595,0.0288736371841799,0.0403105851921236,0.0547278428929842,0.0722675861343538,0.0922958863859229,0.112019792592004,0.125839010585942,0.127082632230299,0.112286252859227,0.0844595639934664,0.0527240399798101,0.0269955146665442,0.0112658549377704,0.00372490718537442,0.000947950770836383,0.000181289862569334,2.53290363070093e-05,2.49255723908756e-06,1.6491502801527e-07,6.87050736558451e-09,1.62329417192843e-10
"16",0.00592835188696671,0.00602339995678668,0.00878691921766118,0.0134966244831574,0.0198492917069994,0.0287637929814228,0.0403064938507643,0.0547269219484222,0.0722675143768315,0.0922958863857332,0.112019792592004,0.125839010585942,0.127082632230299,0.112286252859227,0.0844595639934664,0.0527240399798101,0.0269955146665442,0.0112658549377704,0.00372490718537442,0.000947950771367441,0.000181289862038276,2.53290373691243e-05,2.49255777014504e-06,1.64916621187699e-07,7.02965043791917e-09
"17",0.00339675878160522,0.00365089679788955,0.00546697573100736,0.00864102366127266,0.0131484089805622,0.0197823151130738,0.0287623510708142,0.0403061692410342,0.054726896654934,0.072267514376819,0.0922958863857332,0.112019792592004,0.125839010585942,0.127082632230299,0.112286252859227,0.0844595639934664,0.0527240399798101,0.0269955146665442,0.0112658549377704,0.00372490723665192,0.000947950720089942,0.000181289964593275,2.53290886466234e-05,2.49271160264261e-06,1.71638606630477e-07
"18",0.00189849951784128,0.00215592495429541,0.00331947969125119,0.00538473322210218,0.00843645071943794,0.0131095432896044,0.0197818584857862,0.0287622482665331,0.040306161230408,0.0547268966549334,0.072267514376819,0.0922958863857332,0.112019792592181,0.125839010585765,0.127082632230653,0.112286252859404,0.0844595639941745,0.0527240399817574,0.0269955146658361,0.0112658570062681,0.00372490517098654,0.000947954863989054,0.000181292040348743,2.5335308655243e-05,2.65190523549752e-06
"19",0.00103251184947631,0.00123711024369166,0.00196410969708689,0.00327514522853854,0.00527130953036502,0.00841505628593061,0.0131094187770565,0.0197818304525709,0.0287622460821353,0.0403061612306735,0.0547268966550219,0.0722675143777926,0.0922958864028257,0.112019792578274,0.12583901062473,0.127082632253587,0.11228625293574,0.084459564182546,0.0527240399360458,0.0269955607581662,0.0112658113082336,0.00372499801366881,0.000948001652951695,0.000181431521724685,2.77074211658334e-05
"20",0.000545554045898974,0.000689926543584839,0.00112791259290214,0.00194121366229169,0.00321551513120293,0.00526010191250698,0.00841502623881612,0.0131094120120822,0.0197818299254306,0.0287622461057826,0.0403061612385559,0.0547268967417286,0.0722675150650496,0.0922958859993361,0.11201979437844,0.125839011832227,0.127082635712034,0.112286260527097,0.0844595634514197,0.0527246761755099,0.0269949462743281,0.0112671098255886,0.00372566206019514,0.000949949164367029,0.000205193383625035
"21",0.000280029537876035,0.000373935844528954,0.000628422903589483,0.00111654866460072,0.00191129248901105,0.00320990039940055,0.00526009558751931,0.00841502481698691,0.0131094119059514,0.0197818307937426,0.0287622464082603,0.0403061643990589,0.0547269119273043,0.0722675102196472,0.0922959317748456,0.112019828547656,0.125839098353314,0.127082803766343,0.112286273058611,0.0844654122668112,0.052719458125687,0.0270072070491636,0.0112735663281497,0.00374381614089339,0.00111727869104808
"22",0.000139781363879532,0.000196853679621735,0.000339918161008394,0.000622976421743125,0.00110211534018537,0.00190858587250116,0.00320989952280168,0.00526009561135098,0.00841502532395893,0.0131094296079615,0.0197818380345021,0.0287623092934285,0.0403063717078848,0.0547269110208451,0.0722682227558267,0.0922965177802414,0.11202116224792,0.125841386065491,0.127083414028798,0.112324424199209,0.084437969651312,0.0528031493574369,0.0270534295575604,0.0113924751088577,0.00459573828567467
"23",6.75326244978474e-05,0.000100648234821906,0.000178725562052751,0.000337448082613081,0.000616409438713435,0.00110088562991495,0.0019085939285268,0.00320991167119289,0.00526012120500684,0.00841526504034308,0.0131095715748614,0.019782641743233,0.0287642498893119,0.0403071246224435,0.0547342483348407,0.0722749679848593,0.0923102541484588,0.112041968023103,0.125851381512895,0.12727107589568,0.112250189154211,0.0848746141794153,0.0530588920126112,0.0276187803229523,0.0145544991834392
"24",3.14383275341096e-05,4.97022478265229e-05,9.13953100379427e-05,0.000177705136804926,0.000334732228820312,0.000615979464592583,0.00110113462224464,0.00190899756124562,0.00321073173382722,0.00526294169999483,0.00841808332517026,0.013118070227272,0.0197983810057649,0.0287788724015109,0.0403648208041539,0.0547960648655001,0.0723830194446491,0.0924555867721154,0.112149751502917,0.126597239062919,0.127339073545826,0.114039563995748,0.0859642612637315,0.0549881527709172,0.0360243006788761
"25",1.41388039801841e-05,2.38438910534688e-05,4.5564134813548e-05,9.18966970769438e-05,0.000178510588762897,0.000337932984343077,0.000622999225247678,0.00111339762456559,0.00193156599070571,0.00325453545357628,0.00532616540655249,0.00853556259245125,0.0133051940400432,0.0200604013665122,0.0292882385842131,0.0409962220131114,0.0556996202323061,0.0735148042464076,0.0936605631416146,0.115143063458834,0.128490495229005,0.133032959729577,0.11697398827536,0.0894436279467553,0.0689147083431308
