"","X0","X1","X2","X3","X4","X5","X6","X7","X8","X9","X10","X11","X12","X13","X14","X15","X16","X17","X18","X19","X20","X21","X22","X23","X24"
"1",0.604123432512839,0.252866728798095,0.0981346261972182,0.0328284552568905,0.00954378737684254,0.00208747247727752,0.000361537036673685,4.89127672439054e-05,4.7138703911822e-06,3.18129191448847e-07,1.50912771971096e-08,4.7673436111056e-10,9.24258470735914e-12,8.21772988799432e-14,0,0,0,0,0,0,0,0,0,0,0
"2",0.595812318593932,0.252456482525678,0.101052676564638,0.0357551145398511,0.0113302756829392,0.00286422294472205,0.000606645442695031,0.000106033814421628,1.45507639872593e-05,1.54809964454637e-06,1.23760689076965e-07,7.00178381765846e-09,2.59416289211803e-10,5.55047436084216e-12,5.13926590029937e-14,0,0,0,0,0,0,0,0,0,0
"3",0.568214815179075,0.249958430841697,0.109913506556215,0.045633237045603,0.0179112430821492,0.00606242731954025,0.00177568713200878,0.000432274561416329,8.40672705385921e-05,1.27287644234312e-05,1.45432655211709e-06,1.20713326170941e-07,6.94321362264696e-09,2.58644649681785e-10,5.5447887666903e-12,5.13926590029937e-14,0,0,0,0,0,0,0,0,0
"4",0.516689075071126,0.242277699632039,0.123550434602517,0.0639716716628858,0.0319843769139787,0.0140538762543811,0.00530214296880857,0.00165687327903685,0.000416915091245907,8.27091356967219e-05,1.26471489927436e-05,1.45047769010694e-06,1.20558429346805e-07,6.93898351835628e-09,2.58592655500289e-10,5.5447887666903e-12,5.13926590029937e-14,0,0,0,0,0,0,0,0
"5",0.443824299382566,0.226563797959693,0.136977641741589,0.0880842902947505,0.0543270552709251,0.0293291600096028,0.0135263960644136,0.00521177249425912,0.00164317876590274,0.000415548085040093,8.26363820153266e-05,1.26453848441921e-05,1.45040485018289e-06,1.20556399535093e-07,6.93895838035048e-09,2.58592655500289e-10,5.5447887666903e-12,5.13926590029937e-14,0,0,0,0,0,0,0
"6",0.361256711737719,0.202445801191356,0.143412069353481,0.110384343945247,0.080918482660223,0.0521107037502663,0.0287523818131965,0.0133839187983419,0.0051834814866295,0.00163986524657619,0.000415380754607932,8.26357285176664e-05,1.26453698556358e-05,1.45040443919965e-06,1.20556394449449e-07,6.93895838035048e-09,2.58592655500289e-10,5.5447887666903e-12,5.13926590029937e-14,0,0,0,0,0,0
"7",0.281151315823386,0.172274021051962,0.139154923010984,0.123530536590145,0.104536662917948,0.0787370011268393,0.0513985705049529,0.0285468129246489,0.0133401589133542,0.00517816187433457,0.00163959569253068,0.000415380308343872,8.26357267794229e-05,1.26453698100341e-05,1.45040443863705e-06,1.20556394449449e-07,6.93895838035048e-09,2.58592655500289e-10,5.5447887666903e-12,5.13926590029937e-14,0,0,0,0,0
"8",0.210974431141454,0.139901091296022,0.125290197896465,0.124408554072952,0.118621596842187,0.102440622352929,0.0780088368720951,0.0511882931217133,0.0285020032651829,0.0133346554485936,0.00517788275207912,0.0016395953695429,0.000415380308216162,8.26357267763775e-05,1.26453698099967e-05,1.45040443863705e-06,1.20556394449449e-07,6.93895838035048e-09,2.58592655500289e-10,5.5447887666903e-12,5.13926590029937e-14,0,0,0,0
"9",0.153824353635077,0.109050697690141,0.105738378438968,0.114467565604783,0.120276424164855,0.116700590072444,0.10179215366037,0.0778355977230496,0.0511525009092129,0.0284975888660458,0.0133344317350962,0.00517788256163799,0.00163959536953643,0.000415380308216036,8.2635726776376e-05,1.26453698099967e-05,1.45040443863705e-06,1.20556394449449e-07,6.93895838035048e-09,2.58592655500289e-10,5.5447887666903e-12,5.13926590029937e-14,0,0,0
"10",0.109359221878047,0.0821195858856431,0.0847770298041172,0.097996136438391,0.111126002642516,0.118643091419261,0.116184925731494,0.10167085609862,0.0778119784887512,0.0511495812847227,0.0284974411737133,0.0133344316547644,0.00517788256163774,0.00163959536953643,0.000415380308216036,8.2635726776376e-05,1.26453698099967e-05,1.45040443863705e-06,1.20556394449449e-07,6.93895838035048e-09,2.58592655500289e-10,5.5447887666903e-12,5.13926590029937e-14,0,0
"11",0.07582062212255,0.0600235863610795,0.0653300914999883,0.0794189094186846,0.0954312356525265,0.109829732886141,0.118260363639566,0.116107166608198,0.101656950183545,0.0778102569904847,0.0511494943353356,0.0284974411471783,0.0133344316547644,0.00517788256163774,0.00163959536953643,0.000415380308216036,8.2635726776376e-05,1.26453698099967e-05,1.45040443863705e-06,1.20556394449449e-07,6.93895838035048e-09,2.58592655500289e-10,5.5447887666903e-12,5.13926590029937e-14,0
"12",0.0511932346759802,0.0426682802092255,0.048719510860535,0.0617454740737332,0.0775585526280889,0.094468493334511,0.109558325447177,0.118211656116197,0.116099215823739,0.101655964934387,0.0778102072676079,0.0511494943269173,0.0284974411471783,0.0133344316547644,0.00517788256163774,0.00163959536953643,0.000415380308216036,8.2635726776376e-05,1.26453698099967e-05,1.45040443863705e-06,1.20556394449449e-07,6.93895838035048e-09,2.58592655500289e-10,5.5447887666903e-12,5.13926590029937e-14
"13",0.0335972542329391,0.0294917763230123,0.0352382101449214,0.0464032478484611,0.0604766396064051,0.0768928538045648,0.0942874693794013,0.109529262503009,0.1182073715626,0.116098684564439,0.101655938136144,0.0778102072652845,0.0511494943269173,0.0284974411471783,0.0133344316547644,0.00517788256163774,0.00163959536953643,0.000415380308216036,8.2635726776376e-05,1.26453698099967e-05,1.45040443863705e-06,1.20556394449449e-07,6.93895838035048e-09,2.58592655500289e-10,5.59618142569329e-12
"14",0.0214455771963763,0.0198119617226376,0.0247067623540314,0.0337745574968053,0.045567938277694,0.0600352631971471,0.0767768594158094,0.0942709333163327,0.109527137714847,0.118207108004611,0.116098671273929,0.101655938135677,0.0778102072652845,0.0511494943269173,0.0284974411471783,0.0133344316547644,0.00517788256163774,0.00163959536953643,0.000415380308216036,8.2635726776376e-05,1.26453698099967e-05,1.45040443863705e-06,1.20556394449449e-07,6.93895838035048e-09,2.64188836925982e-10
"15",0.0133453336571024,0.0129431948563819,0.0167876702398154,0.0237953747280385,0.0332356876522791,0.0452823019808998,0.0599626412157313,0.0767677881777889,0.0942699841619204,0.109527019959093,0.118207102067306,0.116098671273864,0.101655938135677,0.0778102072652845,0.0511494943269173,0.0284974411471783,0.0133344316547644,0.00517788256163774,0.00163959536953643,0.000415380308216036,8.26357268277686e-05,1.2645369758604e-05,1.45040459281503e-06,1.20556548627426e-07,7.20283886132245e-09
"16",0.00811558263050791,0.00823466028603268,0.0110695553962831,0.0162290968998757,0.0234539947293037,0.0330544061460076,0.0452375525822556,0.0599577739119481,0.0767674181519108,0.0942699382506402,0.109527017644291,0.1182071020673,0.116098671273864,0.101655938135677,0.0778102072652845,0.0511494943269344,0.0284974411471611,0.0133344316548501,0.00517788256170626,0.00163959536981052,0.000415380313503861,8.26357221909168e-05,1.26453859133055e-05,1.4504205076841e-06,1.27726238672353e-07
"17",0.00482744296323894,0.00510926561251642,0.00709927228548595,0.0107353742895198,0.0160190741500982,0.0233422616619346,0.0330273796932065,0.0452349254320736,0.0599576434927822,0.0767674019691912,0.0942699374347184,0.109527017644291,0.1182071020673,0.116098671273864,0.101655938135677,0.0778102072669386,0.0511494943252803,0.0284974411554317,0.0133344316614665,0.00517788258817207,0.00163959560153578,0.000415380144634895,8.26364454866037e-05,1.26460860514121e-05,1.57661910345175e-06
"18",0.00280448735283053,0.00309296372116934,0.00443686516648025,0.00690656119781793,0.0106127570330339,0.0159538304320089,0.0233266742493268,0.0330259781899361,0.0452348841290019,0.0599576383676581,0.0767674017108123,0.0942699374347412,0.109527017644388,0.118207102067414,0.116098671274058,0.101655938202877,0.0778102072009609,0.0511494946599768,0.0284974414230084,0.0133344327306657,0.00517788832718561,0.00163959240655128,0.000415398493905855,8.26538577535935e-05,1.41827264366495e-05
"19",0.00158860075140595,0.00182613908054619,0.00270322349538162,0.00432960072860818,0.00683864484904807,0.0105767164164167,0.015945282750015,0.0233259438119798,0.033025966927895,0.0452348827312276,0.0599576383003902,0.0767674017139514,0.0942699374456735,0.109527017658285,0.118207102091517,0.116098672811879,0.101655936799229,0.0778102147445582,0.0511495006938324,0.0284974653871987,0.0133345229907187,0.00517785543794774,0.00163988807374622,0.000415673028830535,9.61712797171509e-05
"20",0.000876586257881816,0.00105097920990265,0.00160473410209341,0.0026452871238875,0.00429372984037106,0.00681973496832995,0.0105722481519581,0.0159449114952564,0.0233259411215936,0.0330259665974557,0.0452348828642289,0.0599576384722154,0.0767674022296667,0.0942699381446083,0.109527018889064,0.118207124919237,0.116098656169407,0.101656044120302,0.0778103013614968,0.0511498371372827,0.0284984334439999,0.0133343725058945,0.00518108377332459,0.00164281431243471,0.000504332788105068
"21",0.000471129739348623,0.000589290491075773,0.000927753007690282,0.00157420999221676,0.00262710216057583,0.0042842509693453,0.00681749899840651,0.0105720651725439,0.0159449116128496,0.0233259416239898,0.0330259704748595,0.0452348878583791,0.0599576518468503,0.0767674213162575,0.0942699721271713,0.109527265078994,0.118207035809713,0.11609971123176,0.101656925444701,0.0778135245383118,0.0511573656300225,0.0284989728121717,0.0133593871823962,0.00520307913948754,0.00208667574088085
"22",0.000246622456440824,0.000321857029282687,0.000522283783488946,0.000912049018042187,0.00156530618267713,0.00262253270078646,0.00428317412640645,0.00681741534002393,0.0105720761765446,0.0159449266093776,0.0233260038925247,0.0330260579920687,0.0452351010300475,0.0599579687245413,0.0767679887785016,0.094272088946386,0.109527596276488,0.118214825112739,0.116106746154434,0.101679759353091,0.0778588036126868,0.0511719082605486,0.0286418279003815,0.0134791536254696,0.00692592691701903
"23",0.000125517561244967,0.000171102798608177,0.000286387526299436,0.000514502497947727,0.000907916181086964,0.00156323841830916,0.00262205597212922,0.00428319544998108,0.00681755181122324,0.0105723124171617,0.0159456211426703,0.0233270467714343,0.0330283567492319,0.045238624936997,0.0599642355634442,0.0767832242459755,0.0942822087093655,0.109573821363491,0.118261545317004,0.116234496227215,0.101902588131779,0.0779871637855509,0.0517907827116804,0.0291179999215067,0.0186985037886598
"24",6.19489509845753e-05,8.84312705330164e-05,0.000152872749108005,0.000282740823371013,0.000512802020337196,0.000907267932111296,0.00156340653110562,0.00262297341441025,0.00428496487974072,0.00682077241394572,0.0105791868401963,0.015956367936624,0.0233475562663611,0.0330601543445422,0.0452925276548453,0.0600626960428789,0.0768851089138825,0.0945203102973401,0.109841413311809,0.118851911004632,0.117157833854311,0.102620487474954,0.0800372011808613,0.0531219736431305,0.0413670902479828
"25",2.9819307422452e-05,4.47692513899523e-05,8.01061602557619e-05,0.000152764838932928,0.000285085169057323,0.000518300751407624,0.000917557436562819,0.00158263424444658,0.00265606591798514,0.00434088393674768,0.00691518260354749,0.0107260837856199,0.0161925603309126,0.0236996787234978,0.0335874793908903,0.0460617469425272,0.0609973505105892,0.0782906950902683,0.0961675621133395,0.11243496934555,0.122195899254103,0.119812252259316,0.107218998504053,0.0815518158394742,0.0735397382921016
