"","X0","X1","X2","X3","X4","X5","X6","X7","X8","X9","X10","X11","X12","X13","X14","X15","X16","X17","X18","X19","X20","X21","X22","X23"
"1",0.196221986417606,0.236775357454347,0.228977016814279,0.159518925992206,0.0948846041082513,0.0486879133505274,0.0220036117270035,0.00873176325784506,0.00300989351009794,0.0008969018587134,0.000230164911631784,5.06456742300273e-05,9.49216721393875e-06,1.50133051758072e-06,1.97975616490237e-07,2.14409380229362e-08,1.8727691457591e-09,1.29086578224607e-10,6.84103235534001e-12,2.69965949951937e-13,7.60399855616113e-15,1.43430914544346e-16,1.61493726904888e-18,8.17379359255409e-21
"2",0.137459513944491,0.187968367433758,0.208915660486594,0.177149619507831,0.129312159101127,0.081405004104641,0.0443488220593515,0.0208633949183985,0.00845201228914087,0.00294918116068466,0.000885920185837269,0.000228645185645798,5.0494801757382e-05,9.48242858587886e-06,1.50097333919865e-06,1.97968956415359e-07,2.14408842022602e-08,1.8727691457591e-09,1.29086578224607e-10,6.84103235534001e-12,2.69965949951937e-13,7.60399855616113e-15,1.43430914544346e-16,1.62311106264143e-18
"3",0.0783467262139999,0.127487637984991,0.170479111487293,0.180568054454465,0.162227167448189,0.12352561521486,0.0799022001217183,0.0440809614390172,0.020815314222611,0.00844343629246184,0.00294772052708265,0.000885728473021485,0.000228627519999054,5.04938064049834e-05,9.48240194557935e-06,1.50097312391595e-06,1.97968956415359e-07,2.14408842022602e-08,1.8727691457591e-09,1.29086578224607e-10,6.84103235534001e-12,2.69965949951937e-13,7.60399855616113e-15,1.45054025606988e-16
"4",0.0364950851508865,0.0724537985491094,0.118953480879711,0.157750512042248,0.174097302691567,0.159947099164643,0.123001437847121,0.07984437521432,0.0440749977588,0.0208147874315893,0.00844335861204287,0.00294771093793919,0.000885727643005468,0.000228627477588361,5.04938055438526e-05,9.48240194557935e-06,1.50097312391595e-06,1.97968956415359e-07,2.14408842022602e-08,1.8727691457591e-09,1.29086578224607e-10,6.84103235534001e-12,2.69965951995385e-13,7.74905053831972e-15
"5",0.0139677147087287,0.0340820579710842,0.0690578290835301,0.114227063201857,0.155313967276546,0.173296115074503,0.159766437548306,0.122988489765367,0.0798434296568942,0.0440749854280942,0.0208147870358586,0.00844335859169866,0.00294771093750862,0.000885727643005468,0.000228627477588361,5.04938055438526e-05,9.48240194557935e-06,1.50097312391595e-06,1.97968956415359e-07,2.14408842022602e-08,1.8727691457591e-09,1.29086578224607e-10,6.8410327580526e-12,2.77714599821112e-13
"6",0.00442160975476703,0.0132133815363441,0.0329593970535027,0.0675979293593857,0.113443140570324,0.155071642968222,0.173240196052106,0.159764052788801,0.122988325315357,0.0798434288887239,0.0440749854273766,0.0208147870358586,0.00844335859169866,0.00294771093750862,0.000885727643005468,0.000228627477588361,5.04938055438526e-05,9.48240194557935e-06,1.50097312391595e-06,1.97968956415359e-07,2.14408842022602e-08,1.87276914576046e-09,1.29086613899711e-10,7.11871168140747e-12
"7",0.00116180703238196,0.00422689383473599,0.0129083689581347,0.0325851391282181,0.0673872284700887,0.1133811814961,0.155056811287999,0.173239887870397,0.15976403204316,0.122988325277594,0.0798434288887239,0.0440749854273766,0.0208147870358586,0.00844335859169866,0.00294771093750862,0.000885727643005468,0.000228627477588361,5.04938055438526e-05,9.48240194557935e-06,1.50097312391595e-06,1.97968956415378e-07,2.14408842026413e-08,1.87277103252831e-09,1.36203438412082e-10
"8",0.000251506659442476,0.0011159533910124,0.00416083973325618,0.0128303245195627,0.0325397410627405,0.067374303898021,0.113377977052066,0.155056785601227,0.173239886161445,0.159764032042443,0.122988325277594,0.0798434288887239,0.0440749854273766,0.0208147870358586,0.00844335859169866,0.00294771093750862,0.000885727643005468,0.000228627477588361,5.04938055438526e-05,9.48240194557948e-06,1.50097312391961e-06,1.97968956460343e-07,2.14409510609512e-08,2.00890756387798e-09
"9",4.38924376787932e-05,0.00024134099065989,0.00110501894718715,0.00414809149825036,0.0128228914355772,0.0325376605832144,0.0673737746438977,0.113377975858751,0.155056785522112,0.173239886161445,0.159764032042443,0.122988325277594,0.0798434288887239,0.0440749854273766,0.0208147870358586,0.00844335859169866,0.00294771093750862,0.000885727643005468,0.000228627477588361,5.04938055438635e-05,9.48240194588695e-06,1.5009731269498e-06,1.97970649111661e-07,2.34481626249814e-08
"10",5.96805228972505e-06,4.19605046850076e-05,0.00024002688556293,0.00110346923836502,0.00414722293349173,0.0128226500748557,0.0325375982264008,0.0673737746222498,0.113377975857316,0.155056785522112,0.173239886161445,0.159764032042443,0.122988325277594,0.0798434288887239,0.0440749854273766,0.0208147870358586,0.00844335859169866,0.00294771093750862,0.000885727643005471,0.000228627477588923,5.04938055591829e-05,9.48240207797824e-06,1.50100508890531e-06,2.21386701805308e-07
"11",6.04593281661015e-07,5.69124224552534e-06,4.1853531765475e-05,0.000239895776864573,0.00110340276336467,0.00414720450384286,0.0128226452778853,0.0325375982264008,0.0673737746222498,0.113377975857316,0.155056785522112,0.173239886161445,0.159764032042443,0.122988325277594,0.0798434288887239,0.0440749854273766,0.0208147870358586,0.00844335859169873,0.00294771093750926,0.000885727643026801,0.000228627478100613,5.04938095525638e-05,9.48286720840661e-06,1.72192213317095e-06
"12",4.30894814304421e-08,5.77703604008713e-07,5.68594045458376e-06,4.1846513313436e-05,0.00023989290183291,0.00110340196666915,0.00414720429600925,0.0128226452778853,0.0325375982264008,0.0673737746222498,0.113377975857316,0.155056785522112,0.173239886161445,0.159764032042443,0.122988325277594,0.0798434288887239,0.0440749854273774,0.0208147870358664,0.00844335859175609,0.00294771093820476,0.000885727655473565,0.000228627566066709,5.04991688112186e-05,1.11993289085542e-05
"13",1.9962153586912e-09,4.14972461494434e-08,5.77570638337429e-07,5.68573641701856e-06,4.18464636788126e-05,0.000239892888078737,0.0011034019630811,0.00414720429600925,0.0128226452778853,0.0325375982264008,0.0673737746222498,0.113377975857316,0.155056785522112,0.173239886161445,0.159764032042443,0.122988325277597,0.0798434288887702,0.0440749854278239,0.0208147870388081,0.00844335861218657,0.00294771117538267,0.000885729130539067,0.000228677609052106,6.16467186230671e-05
"14",5.28781647714667e-11,1.94692523898444e-09,4.14960501344218e-08,5.77568246307386e-07,5.68573641701856e-06,4.18464636788126e-05,0.000239892888078737,0.0011034019630811,0.00414720429600925,0.0128226452778853,0.0325375982264008,0.0673737746222498,0.113377975857316,0.155056785522112,0.173239886161448,0.159764032042548,0.12298832527927,0.0798434289040022,0.0440749855219781,0.020814787537245,0.00844336235883754,0.00294773081428578,0.000886115962582074,0.000289913500474224
"15",5.98007510783748e-13,5.22801572606829e-11,1.94692523898444e-09,4.14960501344218e-08,5.77568246307386e-07,5.68573641701856e-06,4.18464636788126e-05,0.000239892888078737,0.0011034019630811,0.00414720429600925,0.0128226452778853,0.0325375982264008,0.0673737746222498,0.113377975857316,0.155056785522174,0.173239886163914,0.159764032080799,0.122988325614822,0.0798434308916641,0.0440749947524978,0.0208148373411113,0.00844357689375519,0.00295025742537084,0.00117322691867453
"16",0,5.98007510783748e-13,5.22801572606829e-11,1.94692523898444e-09,4.14960501344218e-08,5.77568246307386e-07,5.68573641701856e-06,4.18464636788126e-05,0.000239892888078737,0.0011034019630811,0.00414720429600925,0.0128226452778853,0.0325375982264008,0.0673737746222537,0.113377975858348,0.155056785560998,0.173239886751553,0.159764037090825,0.122988354395396,0.0798435557700412,0.044075537649558,0.0208167830938609,0.00845778877413187,0.00410662451738288
"17",0,0,5.98007510783748e-13,5.22801572606829e-11,1.94692523898444e-09,4.14960501344218e-08,5.77568246307386e-07,5.68573641701856e-06,4.18464636788126e-05,0.000239892888078737,0.0011034019630811,0.00414720429600926,0.0128226452778858,0.0325375982264964,0.0673737746350652,0.113377976295374,0.15505679194302,0.173239939714788,0.159764333841092,0.122989591354676,0.0798482604067049,0.0440900814058666,0.0208865813084089,0.0124737731792563
"18",0,0,0,5.98007510783748e-13,5.22801572606829e-11,1.94692523898444e-09,4.14960501344218e-08,5.77568246307386e-07,5.68573641701856e-06,4.18464636788126e-05,0.000239892888078746,0.0011034019630819,0.00414720429604068,0.0128226452797573,0.0325375983544066,0.0673737783697778,0.113378027882189,0.155057206699092,0.173242207520176,0.159773518697089,0.12302164171149,0.0799368835471674,0.0443907357356848,0.0329271037917722
"19",0,0,0,0,5.98007510783748e-13,5.22801572606829e-11,1.94692523898444e-09,4.14960501344218e-08,5.77568246307386e-07,5.68573641701901e-06,4.18464636791763e-05,0.000239892888108253,0.00110340196414479,0.00414720432871078,0.0128226464100076,0.0325376242321299,0.0673741050730353,0.113380540878858,0.155070552100101,0.173294846046132,0.159946138086592,0.123459806881461,0.0810669122839385,0.0755081755625813
"20",0,0,0,0,0,5.98007510783748e-13,5.22801572606829e-11,1.94692523898444e-09,4.14960501344218e-08,5.77568246348403e-07,5.68573642650647e-06,4.18464643112769e-05,0.000239892908710498,0.00110340242681326,0.0041472137582675,0.0128228026923124,0.0325393352738174,0.0673863932371305,0.11344315043992,0.155309811622519,0.174038599294732,0.161704058631671,0.127121638644568,0.150095547804698
"21",0,0,0,0,0,0,5.98007510783748e-13,5.22801572606829e-11,1.94692523898444e-09,4.14960515122708e-08,5.77568423971967e-07,5.68574567874256e-06,4.18467266044574e-05,0.00023989779453107,0.00110347384283841,0.00414807496068068,0.0128306005088219,0.0325898842078534,0.067628386531117,0.114327292063268,0.157906348338826,0.179771254085804,0.171774210717294,0.257632423412401
"22",0,0,0,0,0,0,0,5.98007510783748e-13,5.22801572606829e-11,1.94694685408066e-09,4.14982364968876e-08,5.77663153354924e-07,5.68808449076454e-06,4.18845673060872e-05,0.000240348444398829,0.00110772859113367,0.00417971474402287,0.0130108517868062,0.0333813101810475,0.070338835339509,0.121750216893479,0.173106402146471,0.202845486556016,0.379990911504104
"23",0,0,0,0,0,0,0,0,5.98007510783748e-13,5.24488651281454e-11,1.96243382960959e-09,4.21072027352291e-08,5.91369815255351e-07,5.88960842660109e-06,4.40068014338397e-05,0.000257478512300179,0.00121675986204185,0.00472771234253474,0.0151942098968443,0.0402815297009304,0.0877050135556546,0.154321129094556,0.216216595084479,0.480029040048298
"24",0,0,0,0,0,0,0,0,0,1.2594222050566e-12,1.1082915404498e-10,4.15623181312933e-09,8.91273982786593e-08,1.24669487278405e-06,1.23511674658627e-05,9.19483897988612e-05,0.000535369730107856,0.002495974596799,0.00943978288699875,0.0290341094337481,0.0723900641277199,0.142819651056837,0.218548205372373,0.524631203147559
