"","X0","X1","X2","X3","X4","X5","X6","X7","X8","X9","X10","X11","X12","X13","X14","X15","X16","X17","X18","X19","X20","X21","X22","X23"
"1",0.381410595421108,0.265271604563941,0.193911822683255,0.101274411526773,0.0412641819236259,0.0129565767830643,0.0032002661558146,0.000611656962045083,8.86293940345803e-05,9.48592600670438e-06,7.28279260879733e-07,3.89467883710945e-08,1.40167853137565e-09,3.21772673809656e-11,4.24120584183495e-13,2.43759136462567e-15,0,0,0,0,0,0,0,0
"2",0.198967341638873,0.228460804708351,0.240303598929705,0.177876169037956,0.0972890665056445,0.0403019482015903,0.012891887577357,0.00319865850852382,0.000611640911625716,8.86293940345803e-05,9.48592600670438e-06,7.28279260879733e-07,3.89467883710945e-08,1.40167853137565e-09,3.21772673809656e-11,4.24120584183495e-13,2.43759136462567e-15,0,0,0,0,0,0,0
"3",0.0690736712139344,0.137546240544641,0.224003374729993,0.237792477366382,0.177328164977573,0.097159546778845,0.0402955176124273,0.0128918233756795,0.00319865850852382,0.000611640911625716,8.86293940345803e-05,9.48592600670438e-06,7.28279260879733e-07,3.89467883710945e-08,1.40167853137565e-09,3.21772673809656e-11,4.24120584183495e-13,2.43759136462567e-15,0,0,0,0,0,0
"4",0.0159337786736925,0.0537358316724983,0.137155326030069,0.223834639971067,0.237763035686554,0.177321573605353,0.0971592899721351,0.0402955176124273,0.0128918233756795,0.00319865850852382,0.000611640911625716,8.86293940345803e-05,9.48592600670438e-06,7.28279260879733e-07,3.89467883710945e-08,1.40167853137565e-09,3.21772673809656e-11,4.24120584183495e-13,2.43759136462567e-15,0,0,0,0,0
"5",0.00240537954477978,0.0135465947219494,0.0537208033622168,0.137152287150669,0.223834511567712,0.237763035686554,0.177321573605353,0.0971592899721351,0.0402955176124273,0.0128918233756795,0.00319865850852382,0.000611640911625716,8.86293940345803e-05,9.48592600670438e-06,7.28279260879733e-07,3.89467883710945e-08,1.40167853137565e-09,3.21772673809656e-11,4.24120584183495e-13,2.43759136462567e-15,0,0,0,0
"6",0.000224251049857673,0.00218134250051367,0.0135463807163579,0.0537208033622168,0.137152287150669,0.223834511567712,0.237763035686554,0.177321573605353,0.0971592899721351,0.0402955176124273,0.0128918233756795,0.00319865850852382,0.000611640911625716,8.86293940345803e-05,9.48592600670438e-06,7.28279260879733e-07,3.89467883710945e-08,1.40167853137565e-09,3.21772673809656e-11,4.24120584183495e-13,2.43759136462567e-15,0,0,0
"7",1.12618118699655e-05,0.000212989237987707,0.00218134250051367,0.0135463807163579,0.0537208033622168,0.137152287150669,0.223834511567712,0.237763035686554,0.177321573605353,0.0971592899721351,0.0402955176124273,0.0128918233756795,0.00319865850852382,0.000611640911625716,8.86293940345803e-05,9.48592600670438e-06,7.28279260879733e-07,3.89467883710945e-08,1.40167853137565e-09,3.21772673809656e-11,4.24120584183495e-13,2.43759136462567e-15,0,0
"8",2.14005591567026e-07,1.10478062783985e-05,0.000212989237987707,0.00218134250051367,0.0135463807163579,0.0537208033622168,0.137152287150669,0.223834511567712,0.237763035686554,0.177321573605353,0.0971592899721351,0.0402955176124273,0.0128918233756795,0.00319865850852382,0.000611640911625716,8.86293940345803e-05,9.48592600670438e-06,7.28279260879733e-07,3.89467883710945e-08,1.40167853137565e-09,3.21772673809656e-11,4.24120584183495e-13,2.43759136462567e-15,0
"9",0,2.14005591567026e-07,1.10478062783985e-05,0.000212989237987707,0.00218134250051367,0.0135463807163579,0.0537208033622168,0.137152287150669,0.223834511567712,0.237763035686554,0.177321573605353,0.0971592899721351,0.0402955176124273,0.0128918233756795,0.00319865850852382,0.000611640911625716,8.86293940345803e-05,9.48592600670438e-06,7.28279260879733e-07,3.89467883710945e-08,1.40167853137565e-09,3.21772673809656e-11,4.24120584183495e-13,2.43759136462567e-15
"10",0,0,2.14005591567026e-07,1.10478062783985e-05,0.000212989237987707,0.00218134250051367,0.0135463807163579,0.0537208033622168,0.137152287150669,0.223834511567712,0.237763035686554,0.177321573605353,0.0971592899721351,0.0402955176124273,0.0128918233756795,0.00319865850852382,0.000611640911625716,8.86293940345803e-05,9.48592600670438e-06,7.28279260879733e-07,3.89467883710945e-08,1.40167853137565e-09,3.21772673809656e-11,4.2655817554812e-13
"11",0,0,0,2.14005591567026e-07,1.10478062783985e-05,0.000212989237987707,0.00218134250051367,0.0135463807163579,0.0537208033622168,0.137152287150669,0.223834511567712,0.237763035686554,0.177321573605353,0.0971592899721351,0.0402955176124273,0.0128918233756795,0.00319865850852382,0.000611640911625716,8.86293940345803e-05,9.48592600670438e-06,7.28279260879733e-07,3.89467908086859e-08,1.40169315692384e-09,3.25867624169613e-11
"12",0,0,0,0,2.14005591567026e-07,1.10478062783985e-05,0.000212989237987707,0.00218134250051367,0.0135463807163579,0.0537208033622168,0.137152287150669,0.223834511567712,0.237763035686554,0.177321573605353,0.0971592899721351,0.0402955176124273,0.0128918233756795,0.00319865850852382,0.000611640911625716,8.86293940345803e-05,9.48592600670438e-06,7.28279633810898e-07,3.89490283956791e-08,1.43166940118212e-09
"13",0,0,0,0,0,2.14005591567026e-07,1.10478062783985e-05,0.000212989237987707,0.00218134250051367,0.0135463807163579,0.0537208033622168,0.137152287150669,0.223834511567712,0.237763035686554,0.177321573605353,0.0971592899721351,0.0402955176124273,0.0128918233756795,0.00319865850852382,0.000611640911625716,8.86293940386429e-05,9.48595041335707e-06,7.28425988411334e-07,4.02099324810835e-08
"14",0,0,0,0,0,0,2.14005591567026e-07,1.10478062783985e-05,0.000212989237987707,0.00218134250051367,0.0135463807163579,0.0537208033622168,0.137152287150669,0.223834511567712,0.237763035686554,0.177321573605353,0.0971592899721351,0.0402955176124273,0.0128918233756795,0.00319865850852382,0.000611640912236434,8.86302929582016e-05,9.49133110562695e-06,7.62355698345649e-07
"15",0,0,0,0,0,0,0,2.14005591567026e-07,1.10478062783985e-05,0.000212989237987707,0.00218134250051367,0.0135463807163579,0.0537208033622168,0.137152287150669,0.223834511567712,0.237763035686554,0.177321573605353,0.0971592899721351,0.0402955176124273,0.0128918233756815,0.00319865854753034,0.000611661659939139,8.87539600680929e-05,1.01092329828301e-05
"16",0,0,0,0,0,0,0,0,2.14005591567026e-07,1.10478062783985e-05,0.000212989237987707,0.00218134250051367,0.0135463807163579,0.0537208033622168,0.137152287150669,0.223834511567712,0.237763035686554,0.177321573605353,0.0971592899721433,0.0402955176129967,0.0128918247654972,0.00319897788975439,0.000613548538538884,9.66555818338633e-05
"17",0,0,0,0,0,0,0,0,0,2.14005591567026e-07,1.10478062783985e-05,0.000212989237987707,0.00218134250051367,0.0135463807163579,0.0537208033622168,0.137152287150669,0.223834511567712,0.237763035686587,0.177321573607631,0.0971592900390482,0.0402955484145714,0.012895273728244,0.0032190265442416,0.000686675632348882
"18",0,0,0,0,0,0,0,0,0,0,2.14005591567026e-07,1.10478062783985e-05,0.000212989237987707,0.00218134250051367,0.0135463807163579,0.0537208033622168,0.137152287150669,0.223834511570843,0.23776303585981,0.17732157736174,0.0971597468105656,0.0403229977550633,0.0130504858684515,0.00372257999391063
"19",0,0,0,0,0,0,0,0,0,0,0,2.14005591567026e-07,1.10478062783985e-05,0.000212989237987707,0.00218134250051367,0.0135463807163579,0.0537208033623793,0.137152287274992,0.223834517612528,0.237763148307567,0.177326466840225,0.0973278489843259,0.0412323918086776,0.0156905615425748
"20",0,0,0,0,0,0,0,0,0,0,0,0,2.14005591567026e-07,1.10478062783985e-05,0.000212989237987707,0.00218134250051367,0.0135463807310362,0.0537208062321161,0.137152404692836,0.223836470159324,0.237803718347336,0.178148002660922,0.101467727374857,0.0519188962511998
"21",0,0,0,0,0,0,0,0,0,0,0,0,0,2.14005591567026e-07,1.10478062783985e-05,0.000212989237987707,0.00218134299359676,0.0135464266438095,0.053722270302478,0.13717380078018,0.22410585198107,0.241105984419093,0.193016949253592,0.134923122576322
"22",0,0,0,0,0,0,0,0,0,0,0,0,0,0,2.14005591567026e-07,1.10478062783985e-05,0.000212996973260879,0.0021818479989988,0.0135590584698979,0.0538811545241772,0.138593713272281,0.235211931060157,0.283424644216157,0.2729233916732
"23",0,0,0,0,0,0,0,0,0,0,0,0,0,0,0,2.14005591567026e-07,1.11081808160544e-05,0.000216377801824686,0.00225384924443122,0.0143547848346671,0.0595393436979321,0.169408356313054,0.329783647327679,0.424432318594004
"24",0,0,0,0,0,0,0,0,0,0,0,0,0,0,0,0,4.50702356016479e-07,2.35266629840602e-05,0.000459288235898594,0.004723972519501,0.0297097719868498,0.125192990608002,0.331417627100523,0.508472372183885
