"","X0","X1","X2","X3","X4","X5","X6","X7","X8","X9","X10","X11","X12","X13","X14","X15","X16","X17","X18","X19","X20","X21","X22","X23","X24"
"1",0.879057433453056,0.115974623208352,0.00490080896915175,6.71343694404349e-05,0,0,0,0,0,0,0,0,0,0,0,0,0,0,0,0,0,0,0,0,0
"2",0.0584404685978986,0.822630995938371,0.113960592125138,0.00490080896915175,6.71343694404349e-05,0,0,0,0,0,0,0,0,0,0,0,0,0,0,0,0,0,0,0,0
"3",0.00100701554160652,0.0574334530562921,0.822630995938371,0.113960592125138,0.00490080896915175,6.71343694404349e-05,0,0,0,0,0,0,0,0,0,0,0,0,0,0,0,0,0,0,0
"4",0,0.00100701554160652,0.0574334530562921,0.822630995938371,0.113960592125138,0.00490080896915175,6.71343694404349e-05,0,0,0,0,0,0,0,0,0,0,0,0,0,0,0,0,0,0
"5",0,0,0.00100701554160652,0.0574334530562921,0.822630995938371,0.113960592125138,0.00490080896915175,6.71343694404349e-05,0,0,0,0,0,0,0,0,0,0,0,0,0,0,0,0,0
"6",0,0,0,0.00100701554160652,0.0574334530562921,0.822630995938371,0.113960592125138,0.00490080896915175,6.71343694404349e-05,0,0,0,0,0,0,0,0,0,0,0,0,0,0,0,0
"7",0,0,0,0,0.00100701554160652,0.0574334530562921,0.822630995938371,0.113960592125138,0.00490080896915175,6.71343694404349e-05,0,0,0,0,0,0,0,0,0,0,0,0,0,0,0
"8",0,0,0,0,0,0.00100701554160652,0.0574334530562921,0.822630995938371,0.113960592125138,0.00490080896915175,6.71343694404349e-05,0,0,0,0,0,0,0,0,0,0,0,0,0,0
"9",0,0,0,0,0,0,0.00100701554160652,0.0574334530562921,0.822630995938371,0.113960592125138,0.00490080896915175,6.71343694404349e-05,0,0,0,0,0,0,0,0,0,0,0,0,0
"10",0,0,0,0,0,0,0,0.00100701554160652,0.0574334530562921,0.822630995938371,0.113960592125138,0.00490080896915175,6.71343694404349e-05,0,0,0,0,0,0,0,0,0,0,0,0
"11",0,0,0,0,0,0,0,0,0.00100701554160652,0.0574334530562921,0.822630995938371,0.113960592125138,0.00490080896915175,6.71343694404349e-05,0,0,0,0,0,0,0,0,0,0,0
"12",0,0,0,0,0,0,0,0,0,0.00100701554160652,0.0574334530562921,0.822630995938371,0.113960592125138,0.00490080896915175,6.71343694404349e-05,0,0,0,0,0,0,0,0,0,0
"13",0,0,0,0,0,0,0,0,0,0,0.00100701554160652,0.0574334530562921,0.822630995938371,0.113960592125138,0.00490080896915175,6.71343694404349e-05,0,0,0,0,0,0,0,0,0
"14",0,0,0,0,0,0,0,0,0,0,0,0.00100701554160652,0.0574334530562921,0.822630995938371,0.113960592125138,0.00490080896915175,6.71343694404349e-05,0,0,0,0,0,0,0,0
"15",0,0,0,0,0,0,0,0,0,0,0,0,0.00100701554160652,0.0574334530562921,0.822630995938371,0.113960592125138,0.00490080896915175,6.71343694404349e-05,0,0,0,0,0,0,0
"16",0,0,0,0,0,0,0,0,0,0,0,0,0,0.00100701554160652,0.0574334530562921,0.822630995938371,0.113960592125138,0.00490080896915175,6.71343694404349e-05,0,0,0,0,0,0
"17",0,0,0,0,0,0,0,0,0,0,0,0,0,0,0.00100701554160652,0.0574334530562921,0.822630995938371,0.113960592125138,0.00490080896915175,6.71343694404349e-05,0,0,0,0,0
"18",0,0,0,0,0,0,0,0,0,0,0,0,0,0,0,0.00100701554160652,0.0574334530562921,0.822630995938371,0.113960592125138,0.00490080896915175,6.71343694404349e-05,0,0,0,0
"19",0,0,0,0,0,0,0,0,0,0,0,0,0,0,0,0,0.00100701554160652,0.0574334530562921,0.822630995938371,0.113960592125138,0.00490080896915175,6.71343694404349e-05,0,0,0
"20",0,0,0,0,0,0,0,0,0,0,0,0,0,0,0,0,0,0.00100701554160652,0.0574334530562921,0.822630995938371,0.113960592125138,0.00490080896915175,6.71343694404349e-05,0,0
"21",0,0,0,0,0,0,0,0,0,0,0,0,0,0,0,0,0,0,0.00100701554160652,0.0574334530562921,0.822630995938371,0.113960592125138,0.00490080896915175,6.71343694404349e-05,0
"22",0,0,0,0,0,0,0,0,0,0,0,0,0,0,0,0,0,0,0,0.00100701554160652,0.0574334530562921,0.822630995938371,0.113960592125138,0.00490080896915175,6.71343694404349e-05
"23",0,0,0,0,0,0,0,0,0,0,0,0,0,0,0,0,0,0,0,0,0.00100701554160652,0.0574334530562921,0.822630995938371,0.113960592125138,0.00496794333859219
"24",0,0,0,0,0,0,0,0,0,0,0,0,0,0,0,0,0,0,0,0,0,0.00100701554160652,0.0574334530562921,0.822664563123091,0.11889496827901
"25",0,0,0,0,0,0,0,0,0,0,0,0,0,0,0,0,0,0,0,0,0,0,0.00104058272632674,0.060353798126951,0.938605619146722
