"","X0","X1","X2","X3","X4","X5","X6","X7","X8","X9","X10","X11","X12","X13","X14","X15","X16","X17","X18","X19","X20","X21","X22","X23","X24"
"1",0.0525035241829117,0.0837848071377447,0.11660846876825,0.136168965936273,0.13932923336957,0.127821595332878,0.10684873421383,0.0822970373627429,0.0588614070461864,0.0393549318584399,0.0247331472355939,0.0146863407650144,0.00827498298301674,0.00443916237388814,0.00227203978121377,0.00111015574041229,0.000517530380675125,0.000229786732472004,9.69553861720476e-05,3.87752776267963e-05,1.46612022655613e-05,5.22804720582601e-06,1.75411396734426e-06,5.55799592328529e-07,2.18972056700978e-07
"2",0.0310617712265453,0.0554535108599896,0.0873674940454615,0.11539685537213,0.131911905677203,0.133360637013451,0.12144064330526,0.101007455445168,0.0775434089281743,0.0553705992915745,0.0370002028856833,0.0232582618977543,0.0138174010143658,0.00778964418100263,0.00418055109388881,0.00214023918429868,0.00104594670423597,0.000487684853798507,0.000216598589477026,9.14289783123959e-05,3.65854834280184e-05,1.38422768827363e-05,4.94015952773218e-06,1.67188140892765e-06,7.19650978135866e-07
"3",0.0138836821566533,0.0288137456307075,0.0543155823856657,0.0852160265061817,0.113242288829695,0.130062512127157,0.131912502700662,0.120371412316241,0.100266530732205,0.0770672990726647,0.0550857545433856,0.0368411796500275,0.0231742723759072,0.01377508009519,0.00776909020709949,0.00417090201813431,0.00213587203082512,0.00104405174574514,0.00048690322579615,0.000216293266193783,9.13164627586724e-05,3.65464311464209e-05,1.3831737643606e-05,4.98589730959025e-06,2.33785500275581e-06
"4",0.00508842913000363,0.012324846544829,0.0280154152685568,0.0534068140848933,0.0845149672009948,0.112773824138471,0.129778046471919,0.131745916902828,0.120276161166201,0.100213828955209,0.0770393387140293,0.0550717228682697,0.0368344963066567,0.0231712438638334,0.0137737561771376,0.00776852838058119,0.00417067032307929,0.00213577990746737,0.00104401695954409,0.000486890862081576,0.000216289198206583,9.13155821622884e-05,3.65549610485662e-05,1.40056259614169e-05,7.14040603438099e-06
"5",0.00156763727688038,0.00443880946152405,0.0120335624956185,0.0277505788563573,0.0532339204653404,0.0844169483158316,0.112724772548867,0.129755001663143,0.131735464080903,0.120271463895289,0.100211714588209,0.0770383981821552,0.0550713160872236,0.0368343279742273,0.0231711767739109,0.0137737302869481,0.00776851862138056,0.00417066674957872,0.00213577866044961,0.00104401656575766,0.000486890899792047,0.000216290832095544,9.13476433220816e-05,3.71245805654614e-05,2.0542494631094e-05
"6",0.000410377989801551,0.00136063053630364,0.0043583926249568,0.0119723541423612,0.0277166917484605,0.0532174163050031,0.0844099315582867,0.112722009447293,0.129753984968885,0.131735105983606,0.12027133774515,0.100211668325262,0.0770383806937576,0.0550713095246821,0.0368343255765058,0.0231711759293416,0.0137737299962469,0.00776851852367576,0.0041706667232124,0.00213577872081784,0.00104401726215269,0.00048689746826365,0.000216398804568751,9.309677007053e-05,5.5802631334911e-05
"7",9.19113601973186e-05,0.000357212657467384,0.00134268179439701,0.00434662825475503,0.0119668234817608,0.0277143973970704,0.0532165993968291,0.0844096590017675,0.112721924387771,0.129753960634028,0.131735099487791,0.120271335971845,0.100211667799322,0.0770383805251611,0.0550713094691789,0.0368343255587879,0.0231711759238846,0.0137737299958972,0.00776851854736995,0.00417066701234282,0.00213578147244116,0.00104404114020171,0.000487237982016499,0.00022144957233156,0.000143481175385668
"8",1.76346065036931e-05,8.06367787353718e-05,0.00035391523339311,0.00134077651536799,0.00434585537133982,0.0119665484083645,0.0277143174689106,0.0532165775421156,0.0844096532061013,0.112721922975243,0.129753960334942,0.131735099428627,0.120271335959842,0.100211667796562,0.077038380524406,0.0550713094689726,0.0368343255588498,0.0231711759293522,0.0137737300918479,0.0077685196373466,0.00417067693819,0.00213586196119047,0.00104504980684363,0.000500988005438588,0.000350080451513344
"9",2.88787160757877e-06,1.56388533760036e-05,8.01343050280182e-05,0.000353655739744797,0.00134068401110989,0.00434582641779088,0.01196654156896,0.0277143160071975,0.0532165772293448,0.0844096531401746,0.112721922963767,0.129753960333202,0.131735099428379,0.120271335959812,0.100211667796562,0.0770383805244739,0.0550713094697771,0.0368343255808515,0.0231711762812597,0.013773733874912,0.00776855261568657,0.00417092906738755,0.00213867436189282,0.00108042988653725,0.000812586711165943
"10",4.00354457185534e-07,2.59240335372212e-06,1.5575558472198e-05,8.0105118355507e-05,0.000353646543873073,0.00134068141445716,0.00434582590546652,0.0119665414851152,0.0277143159940538,0.0532165772269377,0.0844096531398359,0.112721922963728,0.129753960333197,0.131735099428381,0.120271335959851,0.100211667797048,0.0770383805294592,0.0550713095568701,0.0368343267998736,0.0231711885395911,0.0137738357043345,0.00776929007031142,0.00417833138240306,0.00222495695763483,0.00179847883293882
"11",4.62836952572275e-08,3.64108014218929e-07,2.58594177622643e-06,1.55729290637296e-05,8.01043953025716e-05,0.000353646357219486,0.00134068138250841,0.00434582590134438,0.0119665414847018,0.0277143159939864,0.0532165772269301,0.0844096531398353,0.112721922963729,0.129753960333214,0.131735099428638,0.1202713359628,0.100211667824731,0.0770383808718784,0.0550713136015472,0.0368343642216162,0.023171482489499,0.0137758561183402,0.00778772467792703,0.00437828499854289,0.00380269136316012
"12",4.35929290843554e-09,4.26807461126809e-08,3.63590075839311e-07,2.58575805777448e-06,1.55728862026986e-05,8.01043851933042e-05,0.000353646355680311,0.00134068138234144,0.00434582590133538,0.0119665414847004,0.0277143159939863,0.0532165772269301,0.0844096531398379,0.112721922963822,0.129753960334634,0.131735099444144,0.120271336100023,0.100211669155032,0.0770383939350325,0.0550714227457245,0.0368351653428109,0.023176698131717,0.0138194424735677,0.00822921316197524,0.00768976106713629
"13",3.24866398135037e-10,4.07785747980355e-09,4.26492754282978e-08,3.63580403657675e-07,2.5857562197719e-06,1.55728858110204e-05,8.01043851402041e-05,0.000353646355675126,0.00134068138234132,0.00434582590133537,0.0119665414847004,0.0277143159939863,0.0532165772269421,0.0844096531402701,0.112721922970411,0.129753960404503,0.131735100039387,0.120271341035188,0.100211710155343,0.0770387004035543,0.0550735018152106,0.0368479302711265,0.0232748512610973,0.0147500088329915,0.0148750576663623
"14",1.85481493232069e-11,3.08155293445519e-10,4.07645955336473e-09,4.26489026150066e-08,3.63580348996294e-07,2.58575620945042e-06,1.55728858098112e-05,8.01043851400921e-05,0.000353646355675125,0.00134068138234132,0.00434582590133537,0.0119665414847004,0.0277143159940343,0.0532165772286733,0.0844096531666701,0.112721923245258,0.129753962687514,0.131735117188206,0.120271465441713,0.100212543095746,0.0770438797333765,0.0551033097897933,0.0370591444320555,0.0251497522155022,0.027502986997832
"15",7.8319147852433e-13,1.78198632519284e-11,3.0811178304083e-10,4.07644941128977e-09,4.26489015525307e-08,3.63580348823401e-07,2.58575620943432e-06,1.55728858098097e-05,8.01043851400921e-05,0.000353646355675125,0.00134068138234132,0.00434582590133537,0.0119665414848662,0.0277143160000029,0.0532165773197094,0.0844096541036363,0.112721930900827,0.129754016866523,0.131735473959019,0.120273639589738,0.100224954405915,0.0771106048903635,0.0555386579834132,0.0406704741277821,0.048524331069279
"16",2.34205162039248e-14,7.608607316554e-13,1.78189710309761e-11,3.0811159932297e-10,4.07644939919297e-09,4.26489015508998e-08,3.63580348823307e-07,2.58575620943432e-06,1.55728858098097e-05,8.01043851400921e-05,0.000353646355675125,0.00134068138234132,0.00434582590184034,0.0119665415030528,0.0277143162775,0.0532165801537905,0.0844096769933394,0.112722086855541,0.129754975791922,0.131740887616511,0.120302196393285,0.100368240330253,0.0779704931217661,0.0621820841380203,0.0815130935255883
"17",4.65552654756931e-16,2.29677882498539e-14,7.60849958031025e-13,1.78189690473831e-11,3.08111599261913e-10,4.07644939918654e-09,4.26489015508998e-08,3.63580348823307e-07,2.58575620943432e-06,1.55728858098097e-05,8.01043851400921e-05,0.000353646355675126,0.00134068138367617,0.00434582594993458,0.011966542237406,0.0277143237460883,0.0532166400692941,0.0844100763259044,0.112724438702264,0.12976755682598,0.131803190540402,0.120595952847344,0.101992763978407,0.0896195563233309,0.13005013105472
"18",5.48803704071401e-18,4.60132100951623e-16,2.29677304070807e-14,7.60849948390562e-13,1.78189690473831e-11,3.08111599261913e-10,4.07644939918654e-09,4.26489015508998e-08,3.63580348823307e-07,2.58575620943432e-06,1.55728858098098e-05,8.01043851401098e-05,0.000353646358767239,0.00134068149515898,0.00434582765426264,0.0119665595455939,0.0277144621673849,0.0532175514530238,0.0844153056041455,0.112751422307042,0.129895021021413,0.132373649356554,0.123518979488396,0.121410184444759,0.196598035443925
"19",2.89213866026864e-20,5.45911565411132e-18,4.60132100951623e-16,2.29677304070807e-14,7.60849948390562e-13,1.78189690473831e-11,3.08111599261913e-10,4.07644939918654e-09,4.26489015508998e-08,3.63580348823307e-07,2.58575620943576e-06,1.55728858100143e-05,8.01043911060057e-05,0.000353646574076135,0.00134068479451314,0.004345861279198,0.011966829401971,0.0277162383907425,0.0532276807136974,0.0844668896165763,0.112989507901059,0.130927018532537,0.137343122714859,0.154193370718074,0.281030475697157
"20",0,2.89213866026864e-20,5.45911565411132e-18,4.60132100951623e-16,2.29677304070807e-14,7.60849948390562e-13,1.78189690473831e-11,3.08111599261913e-10,4.07644939918654e-09,4.26489015509001e-08,3.63580348838036e-07,2.58575621115397e-06,1.55728949015036e-05,8.01047194232799e-05,0.000353651629784061,0.00134073697181072,0.00434628625050586,0.0119696706810179,0.0277327366879805,0.0533128653318762,0.0848624585816065,0.114696266717346,0.13882816384038,0.183126558195319,0.379331931109423
"21",0,0,2.89213866026864e-20,5.45911565411132e-18,4.60132100951623e-16,2.29677304070807e-14,7.60849948390562e-13,1.78189690473831e-11,3.08111599261913e-10,4.07644939921309e-09,4.26489016587358e-08,3.63580359855535e-07,2.58576659273773e-06,1.55732676660118e-05,8.01105284178256e-05,0.00035371374602616,0.00134126374309701,0.00434996835552554,0.0119922246988136,0.0278546867775943,0.0538997825116636,0.0874475394123737,0.126428105861177,0.203292889679175,0.482941145019452
"22",0,0,0,2.89213866026864e-20,5.45911565411132e-18,4.60132100951623e-16,2.29677304070807e-14,7.60849948390562e-13,1.78189690473831e-11,3.08111600137861e-10,4.07645007581332e-09,4.26489610686407e-08,3.63587145423906e-07,2.58598921869031e-06,1.55769007839262e-05,8.01557462471384e-05,0.000354157038042338,0.00134481387036292,0.00437493288123637,0.0121419146189718,0.0286316521686856,0.0574878886344816,0.103691947557796,0.211921064178948,0.579952899775954
"23",0,0,0,0,2.89213866026864e-20,5.45911565411132e-18,4.60132100951623e-16,2.29677304070807e-14,7.60849950318655e-13,1.7818982361886e-11,3.08115068067101e-10,4.07670306474207e-09,4.26604848883085e-08,3.63886787332517e-07,2.59086183798166e-06,1.5641372596328e-05,8.08162105783157e-05,0.00035957129950795,0.0013830773465075,0.00460188308260809,0.0132930753211858,0.0337819415457608,0.079490750051617,0.210926434814311,0.656063807142796
"24",0,0,0,0,0,2.89213866026864e-20,5.45911565411132e-18,4.60133064997843e-16,2.29679991096275e-14,7.60962803997937e-13,1.7835271315499e-11,3.0908148739282e-10,4.10909087838547e-09,4.33547619799782e-08,3.74244898720266e-07,2.71674562718768e-06,1.68503845917709e-05,9.02027783362823e-05,0.000422098572341208,0.00173408594060061,0.0062869984938555,0.020415355355286,0.062050308238359,0.205867638986857,0.703113322467693
"25",0,0,0,0,0,0,2.9885432822776e-20,5.66997542764372e-18,4.81818487629687e-16,2.44998431199703e-14,8.45556124530173e-13,2.11440055343847e-11,3.97588808985897e-10,5.76399727185061e-09,6.59404152276545e-08,6.22116468977413e-07,4.90597301055941e-06,3.27158311270573e-05,0.000188671571840951,0.000940461514339909,0.00407374171198462,0.0155617302267873,0.0545452642495645,0.202251420141305,0.722400394539555
