"","X0","X1","X2","X3","X4","X5","X6","X7","X8","X9","X10","X11","X12","X13","X14","X15","X16","X17","X18","X19","X20","X21","X22","X23","X24"
"1",0.41043185186269,0.303823233058567,0.183285586347616,0.072614838520078,0.0230565260047774,0.00553615690366149,0.001073267461863,0.00015874985672993,1.8252394874154e-05,1.46407447749312e-06,7.1657453668843e-08,1.83845289863122e-09,1.87597234554206e-11,0,0,0,0,0,0,0,0,0,0,0,0
"2",0.0805844396093264,0.360548855971854,0.289886583336389,0.172072651032111,0.0686582095676563,0.0217883988624813,0.00526687997622527,0.00102241676922337,0.000152456375189656,1.76013105320484e-05,1.43423713733728e-06,7.10946619651804e-08,1.83845289863122e-09,1.87597234554206e-11,0,0,0,0,0,0,0,0,0,0,0
"3",0.00664906077453334,0.0753191635038654,0.359850440859195,0.289396033661656,0.171928346482529,0.0686167785085306,0.021780867579213,0.00526549186573046,0.00102226709007985,0.000152441456519578,1.76010291361966e-05,1.43423713733728e-06,7.10946619651804e-08,1.83845289863122e-09,1.87597234554206e-11,0,0,0,0,0,0,0,0,0,0
"4",0.000272361478550616,0.00640589571956657,0.0753028309837796,0.359840607087199,0.289393655514963,0.171927788589458,0.0686167002804838,0.021780853263199,0.0052654904587512,0.00102226694938193,0.000152441456519578,1.76010291361966e-05,1.43423713733728e-06,7.10946619651804e-08,1.83845289863122e-09,1.87597234554206e-11,0,0,0,0,0,0,0,0,0
"5",5.50289285965754e-06,0.000267094536112719,0.00640574939372362,0.0753027569063216,0.359840593369151,0.28939365368589,0.171927788589458,0.0686167002804838,0.021780853263199,0.0052654904587512,0.00102226694938193,0.000152441456519578,1.76010291361966e-05,1.43423713733728e-06,7.10946619651804e-08,1.83845289863122e-09,1.87597234554206e-11,0,0,0,0,0,0,0,0
"6",4.38977528856842e-08,5.45899510677185e-06,0.000267094536112719,0.00640574939372362,0.0753027569063216,0.359840593369151,0.28939365368589,0.171927788589458,0.0686167002804838,0.021780853263199,0.0052654904587512,0.00102226694938193,0.000152441456519578,1.76010291361966e-05,1.43423713733728e-06,7.10946619651804e-08,1.83845289863122e-09,1.87597234554206e-11,0,0,0,0,0,0,0
"7",0,4.38977528856842e-08,5.45899510677185e-06,0.000267094536112719,0.00640574939372362,0.0753027569063216,0.359840593369151,0.28939365368589,0.171927788589458,0.0686167002804838,0.021780853263199,0.0052654904587512,0.00102226694938193,0.000152441456519578,1.76010291361966e-05,1.43423713733728e-06,7.10946619651804e-08,1.83845289863122e-09,1.87597234554206e-11,0,0,0,0,0,0
"8",0,0,4.38977528856842e-08,5.45899510677185e-06,0.000267094536112719,0.00640574939372362,0.0753027569063216,0.359840593369151,0.28939365368589,0.171927788589458,0.0686167002804838,0.021780853263199,0.0052654904587512,0.00102226694938193,0.000152441456519578,1.76010291361966e-05,1.43423713733728e-06,7.10946619651804e-08,1.83845289863122e-09,1.87597234554206e-11,0,0,0,0,0
"9",0,0,0,4.38977528856842e-08,5.45899510677185e-06,0.000267094536112719,0.00640574939372362,0.0753027569063216,0.359840593369151,0.28939365368589,0.171927788589458,0.0686167002804838,0.021780853263199,0.0052654904587512,0.00102226694938193,0.000152441456519578,1.76010291361966e-05,1.43423713733728e-06,7.10946619651804e-08,1.83845289863122e-09,1.87597234554206e-11,0,0,0,0
"10",0,0,0,0,4.38977528856842e-08,5.45899510677185e-06,0.000267094536112719,0.00640574939372362,0.0753027569063216,0.359840593369151,0.28939365368589,0.171927788589458,0.0686167002804838,0.021780853263199,0.0052654904587512,0.00102226694938193,0.000152441456519578,1.76010291361966e-05,1.43423713733728e-06,7.10946619651804e-08,1.83845289863122e-09,1.87597234554206e-11,0,0,0
"11",0,0,0,0,0,4.38977528856842e-08,5.45899510677185e-06,0.000267094536112719,0.00640574939372362,0.0753027569063216,0.359840593369151,0.28939365368589,0.171927788589458,0.0686167002804838,0.021780853263199,0.0052654904587512,0.00102226694938193,0.000152441456519578,1.76010291361966e-05,1.43423713733728e-06,7.10946619651804e-08,1.83845289863122e-09,1.87597234554206e-11,0,0
"12",0,0,0,0,0,0,4.38977528856842e-08,5.45899510677185e-06,0.000267094536112719,0.00640574939372362,0.0753027569063216,0.359840593369151,0.28939365368589,0.171927788589458,0.0686167002804838,0.021780853263199,0.0052654904587512,0.00102226694938193,0.000152441456519578,1.76010291361966e-05,1.43423713733728e-06,7.10946619651804e-08,1.83845289863122e-09,1.87597234554206e-11,0
"13",0,0,0,0,0,0,0,4.38977528856842e-08,5.45899510677185e-06,0.000267094536112719,0.00640574939372362,0.0753027569063216,0.359840593369151,0.28939365368589,0.171927788589458,0.0686167002804838,0.021780853263199,0.0052654904587512,0.00102226694938193,0.000152441456519578,1.76010291361966e-05,1.43423713733728e-06,7.10946619651804e-08,1.83845289863122e-09,1.87597234554206e-11
"14",0,0,0,0,0,0,0,0,4.38977528856842e-08,5.45899510677185e-06,0.000267094536112719,0.00640574939372362,0.0753027569063216,0.359840593369151,0.28939365368589,0.171927788589458,0.0686167002804838,0.021780853263199,0.0052654904587512,0.00102226694938193,0.000152441456519578,1.76010291361966e-05,1.43423713733728e-06,7.10946619651804e-08,1.85721262208664e-09
"15",0,0,0,0,0,0,0,0,0,4.38977528856842e-08,5.45899510677185e-06,0.000267094536112719,0.00640574939372362,0.0753027569063216,0.359840593369151,0.28939365368589,0.171927788589458,0.0686167002804838,0.021780853263199,0.0052654904587512,0.00102226694938193,0.000152441456519578,1.76010291361966e-05,1.43423713733728e-06,7.29518745872671e-08
"16",0,0,0,0,0,0,0,0,0,0,4.38977528856842e-08,5.45899510677185e-06,0.000267094536112719,0.00640574939372362,0.0753027569063216,0.359840593369151,0.28939365368589,0.171927788589458,0.0686167002804838,0.021780853263199,0.0052654904587512,0.00102226694938193,0.000152441456519578,1.76010666556435e-05,1.50715149247763e-06
"17",0,0,0,0,0,0,0,0,0,0,0,4.38977528856842e-08,5.45899510677185e-06,0.000267094536112719,0.00640574939372362,0.0753027569063216,0.359840593369151,0.28939365368589,0.171927788589458,0.0686167002804838,0.021780853263199,0.0052654904587512,0.00102226694938193,0.000152444945828141,1.91047288395584e-05
"18",0,0,0,0,0,0,0,0,0,0,0,0,4.38977528856842e-08,5.45899510677185e-06,0.000267094536112719,0.00640574939372362,0.0753027569063216,0.359840593369151,0.28939365368589,0.171927788589458,0.0686167002804838,0.021780853263199,0.0052654904587512,0.0010223910918519,0.000171425532197733
"19",0,0,0,0,0,0,0,0,0,0,0,0,0,4.38977528856842e-08,5.45899510677185e-06,0.000267094536112719,0.00640574939372362,0.0753027569063216,0.359840593369151,0.28939365368589,0.171927788589458,0.0686167002804838,0.021780853263199,0.00526768314212798,0.00119162394067285
"20",0,0,0,0,0,0,0,0,0,0,0,0,0,0,4.38977528856842e-08,5.45899510677185e-06,0.000267094536112719,0.00640574939372362,0.0753027569063216,0.359840593369151,0.28939365368589,0.171927788589458,0.0686167007307172,0.0218031799886118,0.00643697990715465
"21",0,0,0,0,0,0,0,0,0,0,0,0,0,0,0,4.38977528856842e-08,5.45899510677185e-06,0.000267094536112719,0.00640574939372362,0.0753027569063216,0.359840593369151,0.28939365368589,0.171927828885344,0.0687777819309748,0.0280790383996228
"22",0,0,0,0,0,0,0,0,0,0,0,0,0,0,0,0,4.38977528856842e-08,5.45899510677185e-06,0.000267094536112719,0.00640574939372362,0.0753027569063216,0.359840593369151,0.289394983225011,0.172869170804482,0.0959141488723393
"23",0,0,0,0,0,0,0,0,0,0,0,0,0,0,0,0,0,4.38977528856842e-08,5.45899510677185e-06,0.000267094536112719,0.00640574939372362,0.0753027598328384,0.359860614055558,0.293364062046799,0.264794217242109
"24",0,0,0,0,0,0,0,0,0,0,0,0,0,0,0,0,0,0,4.38977528856842e-08,5.45899510677185e-06,0.000267095999371149,0.00640606300471056,0.0754511977181512,0.374410773043316,0.543459367341592
"25",0,0,0,0,0,0,0,0,0,0,0,0,0,0,0,0,0,0,0,4.5361011315207e-08,5.68481058793562e-06,0.000282809985579999,0.00726435216928704,0.112633206263051,0.879813901410482
