"","X0","X1","X2","X3","X4","X5","X6","X7","X8","X9","X10","X11","X12","X13","X14","X15","X16","X17","X18","X19","X20","X21","X22","X23","X24"
"1",0.160056791537051,0.202064670564614,0.216870400559413,0.16415000537542,0.111205829769239,0.0676642825123571,0.0378189344203275,0.0207641265353688,0.0104410856310221,0.0051504918713083,0.0023108574711689,0.000957444988805459,0.000365621729689071,0.000125380885770557,3.93900596192354e-05,1.10937591677122e-05,2.81644709136027e-06,6.28794565934394e-07,1.23206808865876e-07,2.0596487890375e-08,2.91598137206972e-09,3.35906399852232e-10,3.06790780234286e-11,2.04685054719152e-12,9.03889347895258e-14
"2",0.0680302063311517,0.141830632012465,0.197529771487605,0.195785100555946,0.155378553099461,0.104218810010023,0.0635503185090343,0.0359232971711702,0.0194326084058692,0.0099032284671679,0.00482032551170856,0.00217699676151672,0.000905920099304974,0.00034438021257557,0.000118650488091921,3.72698259702754e-05,1.05198856370627e-05,2.67267746665447e-06,5.98203767948351e-07,1.1742540926985e-07,1.97042343518497e-08,2.79818488871459e-09,3.24346348790527e-10,2.97905962842839e-11,2.10127485272213e-12
"3",0.0160132994435131,0.0600118374244511,0.140548485816525,0.193246039530258,0.194928345240824,0.154478582987511,0.103850445774902,0.0634271540556476,0.0358085327845121,0.0194029312657504,0.00987780316640804,0.00481298549630764,0.00217480866783643,0.00090487615998393,0.00034412327086304,0.000118572788099415,3.72507266883877e-05,1.05153256821036e-05,2.67177460972555e-06,5.98041900588836e-07,1.17402263635226e-07,1.97013107263498e-08,2.79793107451375e-09,3.24328671174818e-10,3.18915664380855e-11
"4",0.00229430862359275,0.014571190830995,0.0598638564212139,0.140035433261527,0.193189832894072,0.194833077766717,0.154454848174401,0.103844752652954,0.0634197928995738,0.0358074955595935,0.0194014154814175,0.00987754178337392,0.00481293755112151,0.00217477436553628,0.000904871291733858,0.000344121882728439,0.000118572507713922,3.72506647844372e-05,1.05153147653634e-05,2.67177281974381e-06,5.98041669208093e-07,1.17402235051928e-07,1.97013087458069e-08,2.79793106435712e-09,3.56219770407892e-10
"5",0.000210027858626306,0.00214324467045444,0.0145612328422376,0.0598259803530399,0.140032979269091,0.193182826063768,0.194832032927331,0.154454651419766,0.10384442359705,0.0634197683908302,0.035807429544099,0.0194014090604765,0.00987754124787297,0.0048129367134225,0.00217477432113096,0.000904871280160418,0.000344121881448018,0.00011857250748814,3.72506647596804e-05,1.05153147633828e-05,2.67177281974381e-06,5.98041671280046e-07,1.17402266131218e-07,1.97013232494755e-08,3.15410317985383e-09
"6",1.2533728904752e-05,0.000200087380835995,0.00214282720676472,0.0145594969964232,0.0598259133619244,0.140032651262439,0.193182797317786,0.19483202828478,0.15445464218269,0.103844423237327,0.0634197665466227,0.035807429446086,0.0194014090578146,0.00987754123448224,0.00481293671323237,0.00217477432108343,0.000904871280160418,0.000344121881448018,0.00011857250748814,3.72506647596804e-05,1.05153147633828e-05,2.67177290521693e-06,5.98042953376929e-07,1.17402864443097e-07,2.28534605474419e-08
"7",4.84912436028632e-07,1.21185362432389e-05,0.000200076661504244,0.00214277918680006,0.0145594959728475,0.0598259040846896,0.140032650822596,0.193182797253956,0.1948320281407,0.154454642180313,0.10384442320855,0.0634197665459573,0.035807429446086,0.0194014090577195,0.00987754123448224,0.00481293671323237,0.00217477432108343,0.000904871280160418,0.000344121881448018,0.00011857250748814,3.72506647596804e-05,1.05153166768108e-05,2.67180160663646e-06,5.98056347413333e-07,1.40212316106644e-07
"8",1.17137765220057e-08,4.74242008941072e-07,1.2118382086914e-05,0.000200075927798384,0.00214277918014544,0.0145594958283879,0.0598259040818376,0.140032650822215,0.193182797253006,0.1948320281407,0.154454642180123,0.10384442320855,0.0634197665459573,0.035807429446086,0.0194014090577195,0.00987754123448224,0.00481293671323237,0.00217477432108343,0.000904871280160418,0.000344121881448018,0.00011857250748814,3.72506921066624e-05,1.05157268815414e-05,2.67199303983745e-06,7.37639678606387e-07
"9",1.6043068506068e-10,1.15600004613705e-08,4.7424105828044e-07,1.21183773336108e-05,0.000200075927798384,0.00214277917919478,0.0145594958283879,0.0598259040818376,0.140032650822215,0.193182797253006,0.1948320281407,0.154454642180123,0.10384442320855,0.0634197665459573,0.035807429446086,0.0194014090577195,0.00987754123448224,0.00481293671323237,0.00217477432108343,0.000904871280160418,0.000344121881448018,0.000118572792257293,3.72549636443068e-05,1.05177204604692e-05,3.40308283271839e-06
"10",9.50660632204015e-13,1.59480024428476e-10,1.15600004613705e-08,4.7424105828044e-07,1.21183773336108e-05,0.000200075927798384,0.00214277917919478,0.0145594958283879,0.0598259040818376,0.140032650822215,0.193182797253006,0.1948320281407,0.154454642180123,0.10384442320855,0.0634197665459573,0.035807429446086,0.0194014090577195,0.00987754123448224,0.00481293671323237,0.00217477432108343,0.000904871280160418,0.000344124213199378,0.00011860776856291,3.72712910367566e-05,1.38671678437611e-05
"11",0,9.50660632204015e-13,1.59480024428476e-10,1.15600004613705e-08,4.7424105828044e-07,1.21183773336108e-05,0.000200075927798384,0.00214277917919478,0.0145594958283879,0.0598259040818376,0.140032650822215,0.193182797253006,0.1948320281407,0.154454642180123,0.10384442320855,0.0634197665459573,0.035807429446086,0.0194014090577195,0.00987754123448224,0.00481293671323237,0.00217477432108343,0.000904886675955762,0.000344355151582208,0.000118715633196655,5.07842600685971e-05
"12",0,0,9.50660632204015e-13,1.59480024428476e-10,1.15600004613705e-08,4.7424105828044e-07,1.21183773336108e-05,0.000200075927798384,0.00214277917919478,0.0145594958283879,0.0598259040818376,0.140032650822215,0.193182797253006,0.1948320281407,0.154454642180123,0.10384442320855,0.0634197665459573,0.035807429446086,0.0194014090577195,0.00987754123448224,0.00481293671323237,0.00217485937417092,0.000906162504751472,0.00034495183465215,0.000167542328312111
"13",0,0,0,9.50660632204015e-13,1.59480024428476e-10,1.15600004613705e-08,4.7424105828044e-07,1.21183773336108e-05,0.000200075927798384,0.00214277917919478,0.0145594958283879,0.0598259040818376,0.140032650822215,0.193182797253006,0.1948320281407,0.154454642180123,0.10384442320855,0.0634197665459573,0.035807429446086,0.0194014090577195,0.00987754123448224,0.00481333127240462,0.00218077822446733,0.000908938718302662,0.000503404539944408
"14",0,0,0,0,9.50660632204015e-13,1.59480024428476e-10,1.15600004613705e-08,4.7424105828044e-07,1.21183773336108e-05,0.000200075927798384,0.00214277917919478,0.0145594958283879,0.0598259040818376,0.140032650822215,0.193182797253006,0.1948320281407,0.154454642180123,0.10384442320855,0.0634197665459573,0.035807429446086,0.01940140905772,0.00987912180494514,0.004837044611039,0.00219196725036652,0.0013758603232502
"15",0,0,0,0,0,9.50660632204015e-13,1.59480024428476e-10,1.15600004613705e-08,4.7424105828044e-07,1.21183773336108e-05,0.000200075927798384,0.00214277917919478,0.0145594958283879,0.0598259040818376,0.140032650822215,0.193182797253006,0.1948320281407,0.154454642180123,0.10384442320855,0.0634197665459573,0.0358074294461262,0.0194068576807482,0.00996088975784057,0.00487608713287123,0.00344156847582061
"16",0,0,0,0,0,0,9.50660632204015e-13,1.59480024428476e-10,1.15600004613705e-08,4.7424105828044e-07,1.21183773336108e-05,0.000200075927798384,0.00214277917919478,0.0145594958283879,0.0598259040818376,0.140032650822215,0.193182797253006,0.1948320281407,0.154454642180123,0.10384442320855,0.0634197665475716,0.0358240281311602,0.0196560869462657,0.0100824855537801,0.00793023186058568
"17",0,0,0,0,0,0,0,9.50660632204015e-13,1.59480024428476e-10,1.15600004613705e-08,4.7424105828044e-07,1.21183773336108e-05,0.000200075927798384,0.00214277917919478,0.0145594958283879,0.0598259040818376,0.140032650822215,0.193182797253006,0.1948320281407,0.154454642180199,0.103844423244394,0.0634636429139684,0.0364834983268097,0.0199906469536514,0.0169748108090149
"18",0,0,0,0,0,0,0,0,9.50660632204015e-13,1.59480024428476e-10,1.15600004613705e-08,4.7424105828044e-07,1.21183773336108e-05,0.000200075927798384,0.00214277917919478,0.0145594958283879,0.0598259040818376,0.140032650822215,0.193182797253006,0.194832028143389,0.154454642707926,0.103946050871471,0.0649938343823235,0.0373124071233324,0.0345047293402951
"19",0,0,0,0,0,0,0,0,0,9.50660632204015e-13,1.59480024428476e-10,1.15600004613705e-08,4.7424105828044e-07,1.21183773336108e-05,0.000200075927798384,0.00214277917919478,0.0145594958283879,0.0598259040818376,0.140032650822215,0.193182797300491,0.194832033869199,0.154650613713366,0.106906584466628,0.0667991655170951,0.0668552949549638
"20",0,0,0,0,0,0,0,0,0,0,9.50660632204015e-13,1.59480024428476e-10,1.15600004613705e-08,4.7424105828044e-07,1.21183773336108e-05,0.000200075927798384,0.00214277917919478,0.0145594958283879,0.0598259040818474,0.140032651306151,0.193182843614155,0.195129793325371,0.15917820823467,0.110360173989615,0.125375470173985
"21",0,0,0,0,0,0,0,0,0,0,0,9.50660632204015e-13,1.59480024428476e-10,1.15600004613705e-08,4.7424105828044e-07,1.21183773336108e-05,0.000200075927798384,0.00214277917919478,0.0145594958292605,0.0598259076081352,0.140032939206897,0.193517243911442,0.20028842710167,0.165339801497014,0.224080725399765
"22",0,0,0,0,0,0,0,0,0,0,0,0,9.50660632204015e-13,1.59480024428476e-10,1.15600004613705e-08,4.7424105828044e-07,1.21183773336108e-05,0.000200075927798384,0.00214277920798761,0.0145595174648036,0.0598273995626348,0.140219690590089,0.196534029933544,0.210939295564601,0.37556460740972
"23",0,0,0,0,0,0,0,0,0,0,0,0,0,9.50660632204015e-13,1.59480024428476e-10,1.15600004613705e-08,4.7424105828044e-07,1.21183773969882e-05,0.000200076364121916,0.00214288402340514,0.0145655330999777,0.0600552678482792,0.143717960765185,0.219018881473622,0.560286792086522
"24",0,0,0,0,0,0,0,0,0,0,0,0,0,0,9.50660632204015e-13,1.59480024428476e-10,1.15600321500582e-08,4.74249225206861e-07,1.21219082593436e-05,0.0002005357299991,0.00216418728630641,0.0150718489278324,0.0665096635762921,0.188274857650738,0.727766298950884
"25",0,0,0,0,0,0,0,0,0,0,0,0,0,0,0,9.82349319944149e-13,1.65745629585372e-10,1.21340754606044e-08,5.11066020877361e-07,1.39870548907355e-05,0.000260625046602183,0.00331239372045282,0.0277633436707938,0.144969744932782,0.823679382207654
