"","X0","X1","X2","X3","X4","X5","X6","X7","X8","X9","X10","X11","X12","X13","X14","X15","X16","X17","X18","X19","X20","X21","X22","X23","X24","X25","X26","X27"
"1",0.783363760380678,0.131273182314799,0.0746034338888685,0.00901775597092701,0.00151137832566115,0.000209480094720862,1.92493078362792e-05,1.59678117284401e-06,1.47902484229708e-07,1.37742208653779e-08,1.17149465716704e-09,8.25188475245598e-11,4.44169291736975e-12,1.71101720688406e-13,4.43578848046051e-15,7.00666984144458e-17,5.09325393380388e-19,0,0,0,0,0,0,0,0,0,0,0
"2",0.783122562816701,0.131328191428638,0.0746726798052103,0.00908286179584162,0.00154479486920481,0.0002225483878285,2.3320630926568e-05,2.62351842470042e-06,3.60107343415506e-07,4.98112333460618e-08,6.14694788964883e-09,6.28071437845263e-10,5.04500235575748e-11,3.04400051457809e-12,1.31175551198359e-13,3.76369180286636e-15,6.37106271649837e-17,4.76995685788085e-19,0,0,0,0,0,0,0,0,0,0
"3",0.782334243889249,0.131485453791715,0.0748917063125914,0.00930056879560906,0.00166440782847627,0.00027337036063057,4.08007464129592e-05,7.58124901016837e-06,1.53361858084812e-06,2.8239253662898e-07,4.45317256565457e-08,5.8194847222365e-09,6.11017736775931e-10,4.97968056274173e-11,3.0288519028361e-12,1.31019634431471e-13,3.76342423822396e-15,6.37100971697772e-17,4.76995685788085e-19,0,0,0,0,0,0,0,0,0
"4",0.780502032059639,0.131790621430538,0.0753700442801613,0.00981382044868809,0.00197238244243682,0.000418999473985322,9.75562808658471e-05,2.61004986529382e-05,6.63962934624295e-06,1.47371674968077e-06,2.78912868244964e-07,4.43509905644443e-08,5.8113866994805e-09,6.10735897217489e-10,4.97908147612661e-11,3.0288014431737e-12,1.31019627888771e-13,3.76342423822396e-15,6.37100971697772e-17,4.76995685788085e-19,0,0,0,0,0,0,0,0
"5",0.77695574257193,0.13227298507605,0.0762212707596699,0.0107991539352379,0.00262027240258211,0.000762381354892523,0.000250539336535818,8.39695959418239e-05,2.52912673550985e-05,6.59275175111583e-06,1.47131907806842e-06,2.78807049507763e-07,4.43469754962071e-08,5.81126091552073e-09,6.10733366326448e-10,4.97907954805037e-11,3.0288014431006e-12,1.31019627888771e-13,3.76342423822396e-15,6.37100971697772e-17,4.76995685788085e-19,0,0,0,0,0,0,0
"6",0.770968151659782,0.132905583362071,0.0775186205781285,0.0124182093531571,0.00378105384755103,0.00145178181320899,0.000601746825375671,0.000237952483210991,8.32562064065335e-05,2.52520955045518e-05,6.5909011671839e-06,1.47124765271855e-06,2.78804908063183e-07,4.43469264097413e-08,5.81126015828387e-09,6.10733362087574e-10,4.97907954805037e-11,3.0288014431006e-12,1.31019627888771e-13,3.76342423822396e-15,6.37100971697772e-17,4.76995685788085e-19,0,0,0,0,0,0
"7",0.761726715043446,0.13362605139231,0.079300539702963,0.0148118458456573,0.00562730046040988,0.0026628249287092,0.0013002865462992,0.000590238325040017,0.000237331745906155,8.32236443059217e-05,2.52506430556609e-05,6.59084885952656e-06,1.47124627656328e-06,2.78804885652657e-07,4.43469262091823e-08,5.8112601575135e-09,6.10733362087574e-10,4.97907954805037e-11,3.0288014431006e-12,1.31019627888771e-13,3.76342423822396e-15,6.37100971697772e-17,4.76995685788085e-19,0,0,0,0,0
"8",0.748445787777098,0.134324062398294,0.0815459477140756,0.0180646938371296,0.00829844024315227,0.00456610448947407,0.00252126615642672,0.00128983454239043,0.000589694384901615,0.000237303722844811,8.32224150511941e-05,2.52505984726306e-05,6.59084766681477e-06,1.47124626014256e-06,2.78804885598892e-07,4.43469262090829e-08,5.8112601575135e-09,6.10733362087574e-10,4.97907954805037e-11,3.0288014431006e-12,1.31019627888771e-13,3.76342423822396e-15,6.37100971697772e-17,4.76995685788085e-19,0,0,0,0
"9",0.730454368721364,0.134837140920597,0.084165977855776,0.0221870869355661,0.0118758825616485,0.00729948521179099,0.00443502609971619,0.00251183766902017,0.00128935660608784,0.000589670040981182,0.000237302682005782,8.32223773550065e-05,2.52505974164395e-05,6.59084765283144e-06,1.4712462601324e-06,2.78804885598884e-07,4.43469262090829e-08,5.8112601575135e-09,6.10733362087574e-10,4.97907954805037e-11,3.0288014431006e-12,1.31019627888771e-13,3.76342423822396e-15,6.37100971697772e-17,4.76995685788085e-19,0,0,0
"10",0.707266441108207,0.13496508189769,0.0870022842277773,0.0271052784115248,0.0163667283493402,0.0109435485955799,0.00717941957625927,0.00442662263364841,0.00251142280931769,0.00128933584972019,0.000589669194180621,0.000237302652191976,8.32223764827477e-05,2.52505974047057e-05,6.59084765282976e-06,1.4712462601324e-06,2.78804885598884e-07,4.43469262090829e-08,5.8112601575135e-09,6.10733362087574e-10,4.97907954805037e-11,3.0288014431006e-12,1.31019627888771e-13,3.76342423822396e-15,6.37100971697772e-17,4.76995685788085e-19,0,0
"11",0.678648570600015,0.134490769239727,0.0898358384506995,0.0326527362903733,0.0216905728844552,0.0155038400384385,0.01083479847131,0.00717202873734609,0.00442626799043848,0.00251140557684621,0.00128933520115586,0.00058966917308329,0.000237302651557262,8.3222376474064e-05,2.52505974047054e-05,6.59084765282976e-06,1.4712462601324e-06,2.78804885598884e-07,4.43469262090829e-08,5.8112601575135e-09,6.10733362087574e-10,4.97907954805037e-11,3.0288014431006e-12,1.31019627888771e-13,3.76342423822396e-15,6.37100971697772e-17,4.76995685788085e-19,0
"12",0.644670481166307,0.133198974700692,0.0924058523390144,0.0385776722351861,0.0276715062112927,0.0208981440049265,0.0154064222422845,0.0108283861060034,0.00717173014124977,0.00442625403746333,0.00251140510873887,0.00128933518805191,0.000589669172682612,0.000237302651551717,8.3222376474064e-05,2.52505974047054e-05,6.59084765282976e-06,1.4712462601324e-06,2.78804885598884e-07,4.43469262090829e-08,5.8112601575135e-09,6.10733362087574e-10,4.97907954805037e-11,3.0288014431006e-12,1.31019627888771e-13,3.76342423822396e-15,6.37100971697772e-17,4.76995685788085e-19
"13",0.605724144996487,0.130901043900939,0.0944316527631089,0.0445642024465633,0.0340467521301753,0.026948797696214,0.02081178626812,0.0154009322564997,0.010828137992404,0.0071717190307383,0.00442625371068704,0.00251140510145029,0.00128933518782685,0.000589669172679473,0.000237302651551717,8.3222376474064e-05,2.52505974047054e-05,6.59084765282976e-06,1.4712462601324e-06,2.78804885598884e-07,4.43469262090829e-08,5.8112601575135e-09,6.10733362087574e-10,4.97907954805037e-11,3.0288014431006e-12,1.31019627888771e-13,3.76342423822396e-15,6.41870928555653e-17
"14",0.562492435520571,0.127462489365962,0.0956477535114494,0.0502630452527835,0.0404906222184662,0.0333920335310893,0.0268730589744923,0.0208071542491367,0.0154007288082217,0.0108281292469483,0.00717171880585956,0.00442625370707084,0.00251140510133807,0.00128933518782528,0.000589669172679473,0.000237302651551717,8.3222376474064e-05,2.52505974047054e-05,6.59084765282976e-06,1.4712462601324e-06,2.78804885598884e-07,4.43469262090829e-08,5.8112601575135e-09,6.10733362087574e-10,4.97907954805037e-11,3.0288014431006e-12,1.31019627888771e-13,3.82761133107953e-15
"15",0.515913650886004,0.122812935317332,0.0958298199459336,0.0553257556049268,0.0466429125637079,0.0399010538887548,0.0333262728550211,0.0268692088014571,0.0208069897180578,0.0154007220067875,0.0108281290927706,0.00717171880427702,0.0044262537070217,0.00251140510133738,0.00128933518782528,0.000589669172679473,0.000237302651551717,8.3222376474064e-05,2.52505974047054e-05,6.59084765282976e-06,1.4712462601324e-06,2.78804885599123e-07,4.43469262088444e-08,5.8112601575135e-09,6.1073336256457e-10,4.97907959574994e-11,3.02880168159844e-12,1.34846046730636e-13
"16",0.467107188705793,0.116960711594311,0.0948163599994393,0.0594398216634332,0.0521457940518394,0.0461150209229509,0.0398445155261529,0.0333231248117522,0.026869077906182,0.0208069845059786,0.0154007219007914,0.0108281290921476,0.00717171880425771,0.00442625370702142,0.00251140510133738,0.00128933518782528,0.000589669172679473,0.000237302651551717,8.3222376474064e-05,2.52505974047059e-05,6.59084765283167e-06,1.47124626016294e-06,2.78804885569534e-07,4.43469262169533e-08,5.81126022551656e-09,6.10733431760117e-10,4.9790838425702e-11,3.16345637512628e-12
"17",0.417286373760995,0.109994022646666,0.0925287976926146,0.0623566613254124,0.0566789696646809,0.0516758272361906,0.0460668786937953,0.0398419876287378,0.0333230226209238,0.0268690739845875,0.0208069844334535,0.0154007219005735,0.0108281290921409,0.00717171880425762,0.00442625370702143,0.00251140510133739,0.00128933518782528,0.000589669172679512,0.000237302651551738,8.32223764741445e-05,2.52505974049565e-05,6.59084765459106e-06,1.471246258577e-06,2.78804886594173e-07,4.43469305517412e-08,5.81126464457211e-09,6.10736459909476e-10,5.29409179247133e-11
"18",0.367679460438286,0.102069325514798,0.0889750221600864,0.0639140247886718,0.0599868679651782,0.0562628498795301,0.0516351781074329,0.0460648835018067,0.0398419092351724,0.0333230197279029,0.0268690739358056,0.0208069844333876,0.0154007219005715,0.0108281290921409,0.00717171880425785,0.00442625370702178,0.00251140510133736,0.0012893351878279,0.000589669172681822,0.000237302651557285,8.32223764884566e-05,2.52505974660512e-05,6.59084760595502e-06,1.47124631498051e-06,2.78805050512847e-07,4.43470954550993e-08,5.8113824823675e-09,6.63136421220351e-10
"19",0.319441127374649,0.093402273738574,0.0842464157778045,0.0640470504688739,0.0619028937691352,0.0596205907312737,0.056228805621727,0.0516336324808464,0.0460648245147248,0.039841907145366,0.0333230196959096,0.0268690739357892,0.0208069844333871,0.0154007219005741,0.0108281290921522,0.00717171880427477,0.00442625370702097,0.00251140510143594,0.00128933518793722,0.00058966917289325,0.000237302652030325,8.32223779292458e-05,2.52505965116662e-05,6.59084940328669e-06,1.47125042802196e-06,2.78809083961247e-07,4.43499478012242e-08,6.46031263538968e-09
"20",0.273584954712029,0.0842461812372001,0.0785089010502916,0.0627871939607454,0.062359456897298,0.0615825886610648,0.0595922949357658,0.0562276310453745,0.0516335889618379,0.0460648230363213,0.0398419071250668,0.0333230196959486,0.0268690739358088,0.0208069844334824,0.015400721900911,0.0108281290926508,0.00717171880431413,0.00442625370940586,0.00251140510445695,0.00128933519306611,0.000589669183116832,0.000237302676581992,8.32223652162115e-05,2.52506337510214e-05,6.59092204603868e-06,1.4713192985518e-06,2.78855382064186e-07,5.05515629165182e-08
"21",0.230935789047135,0.0748705844155289,0.0719824609385245,0.0602540776090508,0.0613867049858756,0.0620813345978011,0.0615592331822416,0.0595914192208904,0.0562275995417714,0.0516335879367912,0.0460648230247452,0.0398419071267771,0.0333230196977615,0.0268690739394704,0.020806984441802,0.0154007219125784,0.0108281290969888,0.00717171884620426,0.00442625376649165,0.00251140519194064,0.00128933534931551,0.000589669497014905,0.000237302556869014,8.32228998917045e-05,2.52515701661078e-05,6.59177559451363e-06,1.47184724281779e-06,3.2598353028776e-07
"22",0.192097040740764,0.0655426734258495,0.0649206458084094,0.0566371829654523,0.0591047048113653,0.0611471760189608,0.0620621906156902,0.0615585934985428,0.0595913969115091,0.0562275988830725,0.0516335879810781,0.0460648230972256,0.0398419072168211,0.0333230198267636,0.0268690741378145,0.0208069846934184,0.0154007220849897,0.0108281296955603,0.00717171966740138,0.00442625489887241,0.00251140697698431,0.00128933842483672,0.000589668635658755,0.000237308071879118,8.32319067608455e-05,2.52594123724802e-05,6.59607573517436e-06,1.76351620664117e-06
"23",0.157444250754242,0.0565065230476373,0.0575890949664464,0.0521737714747211,0.0557043471841408,0.0589003201470469,0.0611315925214285,0.0620617337721699,0.0615585792150265,0.0595913980185442,0.0562276008025549,0.0516335903220702,0.0460648258967773,0.0398419106183602,0.0333230239994293,0.0268690788649786,0.0208069886132414,0.0154007293618951,0.0108281389955059,0.00717173097560217,0.00442627025458326,0.00251142966360838,0.00128933198581377,0.00058970959225952,0.000237372802144195,8.32849742055605e-05,2.52830758242378e-05,8.08809973724103e-06
"24",0.127136024434327,0.0479697640145783,0.0502427805644915,0.0471256476054488,0.0514250782929517,0.0555317487672056,0.0588877551184489,0.0611313104713398,0.0620617675993046,0.0615586291602243,0.0595914528804479,0.0562276593214457,0.0516336521347529,0.0460648897925609,0.0398419755442523,0.0333230863651253,0.0268691260415413,0.0208070469145511,0.0154007925063569,0.0108282022114794,0.00717180301671201,0.00442636296322494,0.0025113416620301,0.00128952092760058,0.000590029927961808,0.000237609228252649,8.33360688495024e-05,3.1606464529328e-05
"25",0.101138546889537,0.040095286687421,0.0431107863622831,0.0417560401832799,0.0465323768588445,0.0512819410427708,0.0555227627589874,0.0588887530373092,0.0611325865980747,0.0620630799921464,0.0615599133921609,0.0595926511188205,0.0562287224129016,0.0516345201924541,0.0460655166298327,0.0398423113186634,0.0333230412350421,0.0268688515086778,0.0208065522331264,0.0154000783633983,0.0108273526119986,0.00717090130941809,0.00442458386339463,0.00251095559872908,0.00128984898728106,0.000590043939660005,0.000236867841719826,0.000105127032062367
"26",0.079281320555501,0.0330048118942422,0.0363939613403058,0.0363209135905068,0.0413051943715553,0.0464305900275469,0.0512925461245705,0.0555423318513859,0.0589088606093232,0.0611522853090611,0.0620813566341552,0.061575748731115,0.0596050968088837,0.0562368627875318,0.0516377011240054,0.0460632796928318,0.0398343155273483,0.0333102977841837,0.0268520639935401,0.0207865436859099,0.0153781679377447,0.0108048346421498,0.00714595567720553,0.00440675760353089,0.00249802586667378,0.00127813713243206,0.000578127287088421,0.00029391140966627
"27",0.0613877226942573,0.0268197707795518,0.0303012307954195,0.0310987990452427,0.0360669033913103,0.0413275987663533,0.0465528637051506,0.0514267104282841,0.0556772647330955,0.0590385628612888,0.061269798395126,0.0621797295011394,0.0616485335458634,0.0596464732908894,0.0562429048360832,0.0516062195137814,0.0459938432148342,0.039732458079837,0.0331817669964235,0.0267037469072057,0.0206275160264855,0.0152172991568404,0.0106424479994562,0.00701485325747385,0.00430194952026393,0.00240937074922044,0.00120215690972016,0.000681504899397574
"28",0.0481056773310117,0.0219661496893223,0.0253615953999723,0.0266704482728451,0.0314776619315196,0.0366921798301909,0.0420536848839116,0.047284997212016,0.0521280143110825,0.0563126764508607,0.0595704481179369,0.0616632348702105,0.0624058268254933,0.0616848581571069,0.0594830642787052,0.0558815016356201,0.0510595171853251,0.0452973554124063,0.0389261709670205,0.0323095538637263,0.0258149388695707,0.0197665672636192,0.0144073059314873,0.00997405264226766,0.00647947172487306,0.00387383618321535,0.00207620658707732,0.00127300417160091
