"","X0","X1","X2","X3","X4","X5","X6","X7","X8","X9","X10","X11","X12","X13","X14","X15","X16","X17","X18","X19","X20","X21","X22","X23","X24","X25","X26","X27"
"1",0.89063860144579,0.0994161486532207,0.0087957566565268,0.00103946668882727,0.000104581516051597,5.2960343087326e-06,1.47253666217568e-07,1.75160912562599e-09,0,0,0,0,0,0,0,0,0,0,0,0,0,0,0,0,0,0,0,0
"2",0.868479087331559,0.11269681661737,0.0154011902662796,0.00285792367082226,0.000502031016608599,5.88501646677043e-05,3.96794925665704e-06,1.31343011793759e-07,1.64042477946243e-09,0,0,0,0,0,0,0,0,0,0,0,0,0,0,0,0,0,0,0
"3",0.822678216097485,0.126563528175336,0.0369429873319842,0.0107389222111999,0.00253673151875307,0.000477154424360202,5.83601326727675e-05,3.96712659545221e-06,1.3134118909956e-07,1.64042477946243e-09,0,0,0,0,0,0,0,0,0,0,0,0,0,0,0,0,0,0
"4",0.752315896036236,0.13897826694958,0.0615752695724973,0.03348345930592,0.0105822909218385,0.00252537490204282,0.000476982093502984,5.83601101719218e-05,3.96712659545221e-06,1.3134118909956e-07,1.64042477946243e-09,0,0,0,0,0,0,0,0,0,0,0,0,0,0,0,0,0
"5",0.658131854160786,0.149184855493357,0.0866053050839659,0.0590305674950191,0.0334055327962392,0.0105771340515277,0.00252530860747108,0.000476982093251578,5.83601101719218e-05,3.96712659545221e-06,1.3134118909956e-07,1.64042477946243e-09,0,0,0,0,0,0,0,0,0,0,0,0,0,0,0,0
"6",0.551999306539574,0.149196640773703,0.108277630743638,0.0845041700984998,0.0589766729382601,0.033403708513504,0.0105771194737155,0.00252530860747108,0.000476982093251578,5.83601101719218e-05,3.96712659545221e-06,1.3134118909956e-07,1.64042477946243e-09,0,0,0,0,0,0,0,0,0,0,0,0,0,0,0
"7",0.442799822437388,0.140870445755926,0.119227402342837,0.106621064399765,0.084459563865887,0.0589761249412375,0.0334037058641396,0.0105771194737155,0.00252530860747108,0.000476982093251578,5.83601101719218e-05,3.96712659545221e-06,1.3134118909956e-07,1.64042477946243e-09,0,0,0,0,0,0,0,0,0,0,0,0,0,0
"8",0.340114371215649,0.125315358832354,0.119664114212689,0.11785114547061,0.106573912156869,0.0844593972555569,0.0589761245993123,0.0334037058641396,0.0105771194737155,0.00252530860747108,0.000476982093251578,5.83601101719218e-05,3.96712659545221e-06,1.3134118909956e-07,1.64042477946243e-09,0,0,0,0,0,0,0,0,0,0,0,0,0
"9",0.250665384814201,0.10504001630009,0.110887605314057,0.118547134852593,0.117804882037907,0.106573878595218,0.0844593972296614,0.0589761245993123,0.0334037058641396,0.0105771194737155,0.00252530860747108,0.000476982093251578,5.83601101719218e-05,3.96712659545221e-06,1.3134118909956e-07,1.64042477946243e-09,0,0,0,0,0,0,0,0,0,0,0,0
"10",0.177312369271003,0.0836156018735839,0.0956679895683527,0.110037096777212,0.118507089528946,0.117804876300828,0.10657387859414,0.0844593972296614,0.0589761245993123,0.0334037058641396,0.0105771194737155,0.00252530860747108,0.000476982093251578,5.83601101719218e-05,3.96712659545221e-06,1.3134118909956e-07,1.64042477946243e-09,0,0,0,0,0,0,0,0,0,0,0
"11",0.120386287339445,0.063287139622743,0.0778706667077042,0.0950816936500571,0.110007270883072,0.1185070888161,0.117804876300805,0.10657387859414,0.0844593972296614,0.0589761245993123,0.0334037058641396,0.0105771194737155,0.00252530860747108,0.000476982093251578,5.83601101719218e-05,3.96712659545221e-06,1.3134118909956e-07,1.64042477946243e-09,0,0,0,0,0,0,0,0,0,0
"12",0.0784167879840433,0.0456182285092051,0.0600152325163047,0.0775129128712727,0.0950626254920456,0.11000727083015,0.1185070888161,0.117804876300805,0.10657387859414,0.0844593972296614,0.0589761245993123,0.0334037058641396,0.0105771194737155,0.00252530860747108,0.000476982093251578,5.83601101719218e-05,3.96712659545221e-06,1.3134118909956e-07,1.64042477946243e-09,0,0,0,0,0,0,0,0,0
"13",0.0489709320435044,0.0313857417013237,0.0438855430430412,0.0598188282308597,0.0775021168642748,0.0950626254898676,0.11000727083015,0.1185070888161,0.117804876300805,0.10657387859414,0.0844593972296614,0.0589761245993123,0.0334037058641396,0.0105771194737155,0.00252530860747108,0.000476982093251578,5.83601101719218e-05,3.96712659545221e-06,1.3134118909956e-07,1.64042477946243e-09,0,0,0,0,0,0,0,0
"14",0.0293202864899659,0.0206012360265987,0.0305370132584522,0.0437890913480764,0.0598134178956817,0.0775021168642289,0.0950626254898676,0.11000727083015,0.1185070888161,0.117804876300805,0.10657387859414,0.0844593972296614,0.0589761245993123,0.0334037058641396,0.0105771194737155,0.00252530860747108,0.000476982093251578,5.83601101719218e-05,3.96712659545221e-06,1.3134118909956e-07,1.64042477946243e-09,0,0,0,0,0,0,0
"15",0.0168127369878285,0.0129326496432858,0.0202203251284266,0.0304952016627404,0.0437867137008122,0.0598134178956813,0.0775021168642289,0.0950626254898676,0.11000727083015,0.1185070888161,0.117804876300805,0.10657387859414,0.0844593972296614,0.0589761245993123,0.0334037058641396,0.0105771194737155,0.00252530860747108,0.000476982093251578,5.83601101719218e-05,3.96712659545221e-06,1.3134118909956e-07,1.64042477946243e-09,0,0,0,0,0,0
"16",0.00922127152011201,0.00776657015106815,0.0127747828815624,0.0202040237461071,0.0304942651234316,0.0437867137008122,0.0598134178956813,0.0775021168642289,0.0950626254898676,0.11000727083015,0.1185070888161,0.117804876300805,0.10657387859414,0.0844593972296614,0.0589761245993123,0.0334037058641396,0.0105771194737155,0.00252530860747108,0.000476982093251578,5.83601101719218e-05,3.96712659545221e-06,1.3134118909956e-07,1.64042477946243e-09,0,0,0,0,0
"17",0.00483165285261044,0.00445576531800017,0.00770638702645357,0.0127691455886382,0.0202036975131474,0.0304942651234316,0.0437867137008122,0.0598134178956813,0.0775021168642289,0.0950626254898676,0.11000727083015,0.1185070888161,0.117804876300805,0.10657387859414,0.0844593972296614,0.0589761245993123,0.0334037058641396,0.0105771194737155,0.00252530860747108,0.000476982093251578,5.83601101719218e-05,3.96712659545221e-06,1.3134118909956e-07,1.64042477946243e-09,0,0,0,0
"18",0.00241329548166254,0.00244103150144634,0.00443486956012517,0.00770470642664241,0.0127690478158259,0.0202036975131474,0.0304942651234316,0.0437867137008122,0.0598134178956813,0.0775021168642289,0.0950626254898676,0.11000727083015,0.1185070888161,0.117804876300805,0.10657387859414,0.0844593972296614,0.0589761245993123,0.0334037058641396,0.0105771194737155,0.00252530860747108,0.000476982093251578,5.83601101719218e-05,3.96712659545221e-06,1.3134118909956e-07,1.64042477946243e-09,0,0,0
"19",0.00114666950216801,0.00127376877560462,0.00243435485260998,0.00443442914369947,0.00770468069579438,0.0127690478158259,0.0202036975131474,0.0304942651234316,0.0437867137008122,0.0598134178956813,0.0775021168642289,0.0950626254898676,0.11000727083015,0.1185070888161,0.117804876300805,0.10657387859414,0.0844593972296614,0.0589761245993123,0.0334037058641396,0.0105771194737155,0.00252530860747108,0.000476982093251578,5.83601101719218e-05,3.96712659545221e-06,1.3134118909956e-07,1.64042477946243e-09,0,0
"20",0.000517000462297247,0.000631718878336714,0.00127182120293851,0.0024342582465005,0.0044344234840091,0.00770468069579438,0.0127690478158259,0.0202036975131474,0.0304942651234316,0.0437867137008122,0.0598134178956813,0.0775021168642289,0.0950626254898676,0.11000727083015,0.1185070888161,0.117804876300805,0.10657387859414,0.0844593972296614,0.0589761245993123,0.0334037058641396,0.0105771194737155,0.00252530860747108,0.000476982093251578,5.83601101719218e-05,3.96712659545221e-06,1.3134118909956e-07,1.64042477946243e-09,0
"21",0.000220290387960398,0.000297240775918021,0.00063120574963567,0.00127180460425333,0.00243425727230556,0.0044344234840091,0.00770468069579438,0.0127690478158259,0.0202036975131474,0.0304942651234316,0.0437867137008122,0.0598134178956813,0.0775021168642289,0.0950626254898676,0.11000727083015,0.1185070888161,0.117804876300805,0.10657387859414,0.0844593972296614,0.0589761245993123,0.0334037058641396,0.0105771194737155,0.00252530860747108,0.000476982093251578,5.83601101719218e-05,3.96712659545221e-06,1.3134118909956e-07,1.64042477946243e-09
"22",8.8395951235299e-05,0.000132019696959509,0.000297117956567252,0.000631203444228517,0.00127180446877684,0.00243425727230556,0.0044344234840091,0.00770468069579438,0.0127690478158259,0.0202036975131474,0.0304942651234316,0.0437867137008122,0.0598134178956813,0.0775021168642289,0.0950626254898676,0.11000727083015,0.1185070888161,0.117804876300805,0.10657387859414,0.0844593972296614,0.0589761245993123,0.0334037058641396,0.0105771194737155,0.00252530860747108,0.000476982093251578,5.83601101719218e-05,3.96712659545221e-06,1.32981613879022e-07
"23",3.32630763824578e-05,5.51594388006534e-05,0.000131993378851992,0.000297117724380066,0.000631203430575408,0.00127180446877684,0.00243425727230556,0.0044344234840091,0.00770468069579438,0.0127690478158259,0.0202036975131474,0.0304942651234316,0.0437867137008122,0.0598134178956813,0.0775021168642289,0.0950626254898676,0.11000727083015,0.1185070888161,0.117804876300805,0.10657387859414,0.0844593972296614,0.0589761254195246,0.0334037058641396,0.0105771194737155,0.00252531024789586,0.000476982093251578,5.83609303843116e-05,4.09682735977231e-06
"24",1.1655722053428e-05,2.16122205606375e-05,5.5154588329269e-05,0.000131993363967245,0.000297117723504589,0.000631203430575408,0.00127180446877684,0.00243425727788524,0.00443442351748716,0.0077046807850692,0.0127690480306434,0.0202036981310965,0.030494266511376,0.0437867163121006,0.0598134229620273,0.0775021255727084,0.095062639695723,0.110007295213335,0.118507121506027,0.117804916033679,0.106573934021248,0.0844595041215082,0.0589761780846926,0.0334037698895282,0.0105772190274897,0.00252526096261668,0.000477014048653169,6.19667773377334e-05
"25",3.78071452314442e-06,7.87574596535618e-06,2.16114827161907e-05,5.51545877714551e-05,0.000131993363934433,0.000297117723504589,0.000631203430575408,0.00127180481826979,0.00243425937484296,0.00443442910937444,0.00770469424054795,0.0127690867369881,0.020203785067469,0.0304944300740788,0.0437870336517034,0.0598139684331562,0.0775030153817709,0.0950641669799347,0.110009342805183,0.118509610245357,0.117808387809317,0.106578430424514,0.0844628028981337,0.0589801884289736,0.0334056077015463,0.0105741319562216,0.00252506358812867,0.000517023225498708
"26",1.1269132816632e-06,2.65389220390885e-06,7.87565501462899e-06,2.16114827051402e-05,5.5154587770805e-05,0.000131993369514109,0.000297117768141998,0.000631210424167767,0.00127184633066002,0.00243437029448247,0.00443469601503154,0.00770545947400198,0.0127708057162027,0.0202070194922074,0.0305006987145543,0.0437978152928437,0.059831548421404,0.0775331506537262,0.0951046238884084,0.110058490130923,0.118578078757025,0.117884190173948,0.106643462351814,0.0845417302513729,0.0589908048137963,0.0333444087015462,0.0105568082225555,0.00266124821069495
"27",3.04438102165524e-07,8.22871687099467e-07,2.65498968995653e-06,7.87924846705681e-06,2.16222159112159e-05,5.51842002247057e-05,0.00013206898803946,0.000297339222742919,0.000631860798246114,0.00127335699723073,0.00243764797382384,0.00444243205005016,0.00772141486883064,0.0127997290937952,0.0202597987063385,0.0305886657775125,0.0439366380331235,0.0600571649467804,0.0778335852664381,0.0954643944034246,0.110538049966718,0.119086496601844,0.118317393447152,0.107134975544687,0.0845605917145342,0.0585294645765702,0.0331356356245626,0.0107328274334734
"28",7.73204536418775e-08,2.43467381168067e-07,8.68713576816335e-07,2.80294385322387e-06,8.31831337919263e-06,2.28195740995675e-05,5.81913368096312e-05,0.000139183447192156,0.00031316014987546,0.000664698886047139,0.00133786854690296,0.00255840722502683,0.00465632255586814,0.00807909343829542,0.0133683281274564,0.0211184828499286,0.0318113075105347,0.0455806216638271,0.0621095526482627,0.0801424232272681,0.0979158211283084,0.112954330404417,0.120547591120497,0.118879631769845,0.106384444066832,0.0813845836090757,0.0556168041651963,0.0343440217897878
