"","X0","X1","X2","X3","X4","X5","X6","X7","X8","X9","X10","X11","X12","X13","X14","X15","X16","X17","X18","X19","X20","X21","X22","X23","X24","X25","X26","X27"
"1",0.916986774401534,0.0488860878713176,0.0315899872870499,0.00244410944480607,9.16654444330563e-05,1.37555085995514e-06,0,0,0,0,0,0,0,0,0,0,0,0,0,0,0,0,0,0,0,0,0,0
"2",0.730172439321994,0.203952536282922,0.052858386063053,0.0113348130400209,0.00159984460288242,8.06924521097562e-05,1.28823701764789e-06,0,0,0,0,0,0,0,0,0,0,0,0,0,0,0,0,0,0,0,0,0
"3",0.518134149954181,0.219531480430343,0.209800341001894,0.0398918914896185,0.0109609343580969,0.00159922350811411,8.06910207352921e-05,1.28823701764789e-06,0,0,0,0,0,0,0,0,0,0,0,0,0,0,0,0,0,0,0,0
"4",0.309140387559478,0.211694715010668,0.223529206623277,0.203236704522771,0.0397568668299125,0.010960916688026,0.00159922350811411,8.06910207352921e-05,1.28823701764789e-06,0,0,0,0,0,0,0,0,0,0,0,0,0,0,0,0,0,0,0
"5",0.166045592026856,0.144135963636036,0.213848015469579,0.220386796406894,0.203184646374261,0.0397568666324815,0.010960916688026,0.00159922350811411,8.06910207352921e-05,1.28823701764789e-06,0,0,0,0,0,0,0,0,0,0,0,0,0,0,0,0,0,0
"6",0.0778411409087536,0.0884334122690299,0.145151549206277,0.212614916805957,0.220375348349347,0.203184646374261,0.0397568666324815,0.010960916688026,0.00159922350811411,8.06910207352921e-05,1.28823701764789e-06,0,0,0,0,0,0,0,0,0,0,0,0,0,0,0,0,0
"7",0.0317711891530556,0.0461115630417185,0.0887879661666625,0.144757464586925,0.212612836241656,0.220375348349347,0.203184646374261,0.0397568666324815,0.010960916688026,0.00159922350811411,8.06910207352921e-05,1.28823701764789e-06,0,0,0,0,0,0,0,0,0,0,0,0,0,0,0,0
"8",0.0118529750163058,0.0199235844631159,0.0462326216297932,0.08866180576854,0.144757196070606,0.212612836241656,0.220375348349347,0.203184646374261,0.0397568666324815,0.010960916688026,0.00159922350811411,8.06910207352921e-05,1.28823701764789e-06,0,0,0,0,0,0,0,0,0,0,0,0,0,0,0
"9",0.00371506606823261,0.00813831566568571,0.0199491998545494,0.0462066198566279,0.0886617854326594,0.144757196070606,0.212612836241656,0.220375348349347,0.203184646374261,0.0397568666324815,0.010960916688026,0.00159922350811411,8.06910207352921e-05,1.28823701764789e-06,0,0,0,0,0,0,0,0,0,0,0,0,0,0
"10",0.00102174855464403,0.00269333443516171,0.00814279021276059,0.0199447092319801,0.0462066190105492,0.0886617854326594,0.144757196070606,0.212612836241656,0.220375348349347,0.203184646374261,0.0397568666324815,0.010960916688026,0.00159922350811411,8.06910207352921e-05,1.28823701764789e-06,0,0,0,0,0,0,0,0,0,0,0,0,0
"11",0.000242657212459846,0.000779091700736967,0.00269389358547446,0.0081422307218227,0.0199447092140524,0.0462066190105492,0.0886617854326594,0.144757196070606,0.212612836241656,0.220375348349347,0.203184646374261,0.0397568666324815,0.010960916688026,0.00159922350811411,8.06910207352921e-05,1.28823701764789e-06,0,0,0,0,0,0,0,0,0,0,0,0
"12",4.36856185001807e-05,0.000198971596985427,0.00077913325518859,0.00269385202814836,0.00814223072167141,0.0199447092140524,0.0462066190105492,0.0886617854326594,0.144757196070606,0.212612836241656,0.220375348349347,0.203184646374261,0.0397568666324815,0.010960916688026,0.00159922350811411,8.06910207352921e-05,1.28823701764789e-06,0,0,0,0,0,0,0,0,0,0,0
"13",6.45356624096587e-06,3.72320522592149e-05,0.000198973307372955,0.000779131544801061,0.00269385202814836,0.00814223072167141,0.0199447092140524,0.0462066190105492,0.0886617854326594,0.144757196070606,0.212612836241656,0.220375348349347,0.203184646374261,0.0397568666324815,0.010960916688026,0.00159922350811411,8.06910207352921e-05,1.28823701764789e-06,0,0,0,0,0,0,0,0,0,0
"14",6.95163905456261e-07,5.75840233550962e-06,3.72320882657809e-05,0.000198973271366389,0.000779131544801061,0.00269385202814836,0.00814223072167141,0.0199447092140524,0.0462066190105492,0.0886617854326594,0.144757196070606,0.212612836241656,0.220375348349347,0.203184646374261,0.0397568666324815,0.010960916688026,0.00159922350811411,8.06910207352921e-05,1.28823701764789e-06,0,0,0,0,0,0,0,0,0
"15",4.69107308895264e-08,6.48253174566734e-07,5.7584026380858e-06,3.72320879632047e-05,0.000198973271366389,0.000779131544801061,0.00269385202814836,0.00814223072167141,0.0199447092140524,0.0462066190105492,0.0886617854326594,0.144757196070606,0.212612836241656,0.220375348349347,0.203184646374261,0.0397568666324815,0.010960916688026,0.00159922350811411,8.06910207352921e-05,1.28823701764789e-06,0,0,0,0,0,0,0,0
"16",1.82022268349914e-09,4.50905082060273e-08,6.48253174566734e-07,5.7584026380858e-06,3.72320879632047e-05,0.000198973271366389,0.000779131544801061,0.00269385202814836,0.00814223072167141,0.0199447092140524,0.0462066190105492,0.0886617854326594,0.144757196070606,0.212612836241656,0.220375348349347,0.203184646374261,0.0397568666324815,0.010960916688026,0.00159922350811411,8.06910207352921e-05,1.28823701764789e-06,0,0,0,0,0,0,0
"17",3.69142945413115e-11,1.78330838895783e-09,4.50905082060273e-08,6.48253174566734e-07,5.7584026380858e-06,3.72320879632047e-05,0.000198973271366389,0.000779131544801061,0.00269385202814836,0.00814223072167141,0.0199447092140524,0.0462066190105492,0.0886617854326594,0.144757196070606,0.212612836241656,0.220375348349347,0.203184646374261,0.0397568666324815,0.010960916688026,0.00159922350811411,8.06910207352921e-05,1.28823701764789e-06,0,0,0,0,0,0
"18",3.02576184764848e-13,3.66117183565467e-11,1.78330838895783e-09,4.50905082060273e-08,6.48253174566734e-07,5.7584026380858e-06,3.72320879632047e-05,0.000198973271366389,0.000779131544801061,0.00269385202814836,0.00814223072167141,0.0199447092140524,0.0462066190105492,0.0886617854326594,0.144757196070606,0.212612836241656,0.220375348349347,0.203184646374261,0.0397568666324815,0.010960916688026,0.00159922350811411,8.06910207352921e-05,1.28823701764789e-06,0,0,0,0,0
"19",0,3.02576184764848e-13,3.66117183565467e-11,1.78330838895783e-09,4.50905082060273e-08,6.48253174566734e-07,5.7584026380858e-06,3.72320879632047e-05,0.000198973271366389,0.000779131544801061,0.00269385202814836,0.00814223072167141,0.0199447092140524,0.0462066190105492,0.0886617854326594,0.144757196070606,0.212612836241656,0.220375348349347,0.203184646374261,0.0397568666324815,0.010960916688026,0.00159922350811411,8.06910207352921e-05,1.28823701764789e-06,0,0,0,0
"20",0,0,3.02576184764848e-13,3.66117183565467e-11,1.78330838895783e-09,4.50905082060273e-08,6.48253174566734e-07,5.7584026380858e-06,3.72320879632047e-05,0.000198973271366389,0.000779131544801061,0.00269385202814836,0.00814223072167141,0.0199447092140524,0.0462066190105492,0.0886617854326594,0.144757196070606,0.212612836241656,0.220375348349347,0.203184646374261,0.0397568666324815,0.010960916688026,0.00159922350811411,8.06910207352921e-05,1.28823701764789e-06,0,0,0
"21",0,0,0,3.02576184764848e-13,3.66117183565467e-11,1.78330838895783e-09,4.50905082060273e-08,6.48253174566734e-07,5.7584026380858e-06,3.72320879632047e-05,0.000198973271366389,0.000779131544801061,0.00269385202814836,0.00814223072167141,0.0199447092140524,0.0462066190105492,0.0886617854326594,0.144757196070606,0.212612836241656,0.220375348349347,0.203184646374261,0.0397568666324815,0.010960916688026,0.00159922350811411,8.06910207352921e-05,1.28823701764789e-06,0,0
"22",0,0,0,0,3.02576184764848e-13,3.66117183565467e-11,1.78330838895783e-09,4.50905082060273e-08,6.48253174566734e-07,5.7584026380858e-06,3.72320879632047e-05,0.000198973271366389,0.000779131544801061,0.00269385202814836,0.00814223072167141,0.0199447092140524,0.0462066190105492,0.0886617854326594,0.144757196070606,0.212612836241656,0.220375348349347,0.203184646374261,0.0397568666324815,0.010960916688026,0.00159922350811411,8.06910207352921e-05,1.28823701764789e-06,0
"23",0,0,0,0,0,3.02576184764848e-13,3.66117183565467e-11,1.78330838895783e-09,4.50905082060273e-08,6.48253174566734e-07,5.7584026380858e-06,3.72320879632047e-05,0.000198973271366389,0.000779131544801061,0.00269385202814836,0.00814223072167141,0.0199447092140524,0.0462066190105492,0.0886617854326594,0.144757196070606,0.212612836241656,0.220375348349347,0.203184646374261,0.0397568666324815,0.010960916688026,0.00159922350811411,8.06910207352921e-05,1.28823701764789e-06
"24",0,0,0,0,0,0,3.02576184764848e-13,3.66117183565467e-11,1.78330838895783e-09,4.50905082060273e-08,6.48253174566734e-07,5.7584026380858e-06,3.72320879632047e-05,0.000198973271366389,0.000779131544801061,0.00269385202814836,0.00814223072167141,0.0199447092140524,0.0462066190105492,0.0886617854326594,0.144757196070606,0.212612836241656,0.220375348349347,0.203184646374261,0.0397568666324815,0.010960916688026,0.00160051174513176,8.06910207352921e-05
"25",0,0,0,0,0,0,0,3.02576184764848e-13,3.66117183565467e-11,1.78330838895783e-09,4.50905082060273e-08,6.48253174566734e-07,5.7584026380858e-06,3.72320879632047e-05,0.000198973271366389,0.000779131544801061,0.00269385202814836,0.00814223072167141,0.0199447092140524,0.0462066190105492,0.0886617854326594,0.144757196070606,0.212612836241656,0.220375348349347,0.203184646374261,0.0397568666324815,0.0110416077087612,0.00160051174513176
"26",0,0,0,0,0,0,0,0,3.02576184764848e-13,3.66117183565467e-11,1.78330838895783e-09,4.50905082060273e-08,6.48253174566734e-07,5.7584026380858e-06,3.72320879632047e-05,0.000198973271366389,0.000779131544801061,0.00269385202814836,0.00814223072167141,0.0199447092140524,0.0462066190105492,0.0886617854326594,0.144757196070606,0.212612836241656,0.220376636586365,0.203187222848296,0.0413341901112956,0.011060931264026
"27",0,0,0,0,0,0,0,0,0,3.02576184764848e-13,3.66117183565467e-11,1.78330838895783e-09,4.50905082060273e-08,6.48253174566734e-07,5.7584026380858e-06,3.72380108920214e-05,0.000198999924546065,0.000779409922455449,0.0026948915021557,0.00814574301845976,0.019957621198873,0.0462315634252611,0.0887285546092109,0.144871872856892,0.212803776659386,0.220716023369031,0.21265949429923,0.0421683576370633
"28",0,0,0,0,0,0,0,0,0,0,3.02576184764848e-13,3.66117183565467e-11,1.78330838895783e-09,4.52266674891715e-08,6.54516501591367e-07,6.01610450532864e-06,3.85439213846215e-05,0.0002106884569359,0.000822698559980024,0.0028417269257638,0.00866348219100974,0.0209752278006807,0.0488905125355314,0.0932426917755708,0.150893001615752,0.22275414002885,0.229202160604522,0.221458407916121
