"","X0","X1","X2","X3","X4","X5","X6","X7","X8","X9","X10","X11","X12","X13","X14","X15","X16","X17","X18","X19","X20","X21","X22","X23","X24","X25","X26","X27"
"1",0.969823100936524,0.0301768990634755,0,0,0,0,0,0,0,0,0,0,0,0,0,0,0,0,0,0,0,0,0,0,0,0,0,0
"2",0.176554729129062,0.795183866961336,0.0282614039096025,0,0,0,0,0,0,0,0,0,0,0,0,0,0,0,0,0,0,0,0,0,0,0,0,0
"3",0.0125736177087473,0.164012512980214,0.795152465401437,0.0282614039096025,0,0,0,0,0,0,0,0,0,0,0,0,0,0,0,0,0,0,0,0,0,0,0,0
"4",0.000387646842897996,0.0121859708658493,0.164012512980214,0.795152465401437,0.0282614039096025,0,0,0,0,0,0,0,0,0,0,0,0,0,0,0,0,0,0,0,0,0,0,0
"5",4.33124964131838e-06,0.000383315593256677,0.0121859708658493,0.164012512980214,0.795152465401437,0.0282614039096025,0,0,0,0,0,0,0,0,0,0,0,0,0,0,0,0,0,0,0,0,0,0
"6",0,4.33124964131838e-06,0.000383315593256677,0.0121859708658493,0.164012512980214,0.795152465401437,0.0282614039096025,0,0,0,0,0,0,0,0,0,0,0,0,0,0,0,0,0,0,0,0,0
"7",0,0,4.33124964131838e-06,0.000383315593256677,0.0121859708658493,0.164012512980214,0.795152465401437,0.0282614039096025,0,0,0,0,0,0,0,0,0,0,0,0,0,0,0,0,0,0,0,0
"8",0,0,0,4.33124964131838e-06,0.000383315593256677,0.0121859708658493,0.164012512980214,0.795152465401437,0.0282614039096025,0,0,0,0,0,0,0,0,0,0,0,0,0,0,0,0,0,0,0
"9",0,0,0,0,4.33124964131838e-06,0.000383315593256677,0.0121859708658493,0.164012512980214,0.795152465401437,0.0282614039096025,0,0,0,0,0,0,0,0,0,0,0,0,0,0,0,0,0,0
"10",0,0,0,0,0,4.33124964131838e-06,0.000383315593256677,0.0121859708658493,0.164012512980214,0.795152465401437,0.0282614039096025,0,0,0,0,0,0,0,0,0,0,0,0,0,0,0,0,0
"11",0,0,0,0,0,0,4.33124964131838e-06,0.000383315593256677,0.0121859708658493,0.164012512980214,0.795152465401437,0.0282614039096025,0,0,0,0,0,0,0,0,0,0,0,0,0,0,0,0
"12",0,0,0,0,0,0,0,4.33124964131838e-06,0.000383315593256677,0.0121859708658493,0.164012512980214,0.795152465401437,0.0282614039096025,0,0,0,0,0,0,0,0,0,0,0,0,0,0,0
"13",0,0,0,0,0,0,0,0,4.33124964131838e-06,0.000383315593256677,0.0121859708658493,0.164012512980214,0.795152465401437,0.0282614039096025,0,0,0,0,0,0,0,0,0,0,0,0,0,0
"14",0,0,0,0,0,0,0,0,0,4.33124964131838e-06,0.000383315593256677,0.0121859708658493,0.164012512980214,0.795152465401437,0.0282614039096025,0,0,0,0,0,0,0,0,0,0,0,0,0
"15",0,0,0,0,0,0,0,0,0,0,4.33124964131838e-06,0.000383315593256677,0.0121859708658493,0.164012512980214,0.795152465401437,0.0282614039096025,0,0,0,0,0,0,0,0,0,0,0,0
"16",0,0,0,0,0,0,0,0,0,0,0,4.33124964131838e-06,0.000383315593256677,0.0121859708658493,0.164012512980214,0.795152465401437,0.0282614039096025,0,0,0,0,0,0,0,0,0,0,0
"17",0,0,0,0,0,0,0,0,0,0,0,0,4.33124964131838e-06,0.000383315593256677,0.0121859708658493,0.164012512980214,0.795152465401437,0.0282614039096025,0,0,0,0,0,0,0,0,0,0
"18",0,0,0,0,0,0,0,0,0,0,0,0,0,4.33124964131838e-06,0.000383315593256677,0.0121859708658493,0.164012512980214,0.795152465401437,0.0282614039096025,0,0,0,0,0,0,0,0,0
"19",0,0,0,0,0,0,0,0,0,0,0,0,0,0,4.33124964131838e-06,0.000383315593256677,0.0121859708658493,0.164012512980214,0.795152465401437,0.0282614039096025,0,0,0,0,0,0,0,0
"20",0,0,0,0,0,0,0,0,0,0,0,0,0,0,0,4.33124964131838e-06,0.000383315593256677,0.0121859708658493,0.164012512980214,0.795152465401437,0.0282614039096025,0,0,0,0,0,0,0
"21",0,0,0,0,0,0,0,0,0,0,0,0,0,0,0,0,4.33124964131838e-06,0.000383315593256677,0.0121859708658493,0.164012512980214,0.795152465401437,0.0282614039096025,0,0,0,0,0,0
"22",0,0,0,0,0,0,0,0,0,0,0,0,0,0,0,0,0,4.33124964131838e-06,0.000383315593256677,0.0121859708658493,0.164012512980214,0.795152465401437,0.0282614039096025,0,0,0,0,0
"23",0,0,0,0,0,0,0,0,0,0,0,0,0,0,0,0,0,0,4.33124964131838e-06,0.000383315593256677,0.0121859708658493,0.164012512980214,0.795152465401437,0.0282614039096025,0,0,0,0
"24",0,0,0,0,0,0,0,0,0,0,0,0,0,0,0,0,0,0,0,4.33124964131838e-06,0.000383315593256677,0.0121859708658493,0.164012512980214,0.795152465401437,0.0282614039096025,0,0,0
"25",0,0,0,0,0,0,0,0,0,0,0,0,0,0,0,0,0,0,0,0,4.33124964131838e-06,0.000383315593256677,0.0121859708658493,0.164012512980214,0.795152465401437,0.0282614039096025,0,0
"26",0,0,0,0,0,0,0,0,0,0,0,0,0,0,0,0,0,0,0,0,0,4.33124964131838e-06,0.000383315593256677,0.0121859708658493,0.164012512980214,0.795152465401437,0.0282614039096025,0
"27",0,0,0,0,0,0,0,0,0,0,0,0,0,0,0,0,0,0,0,0,0,0,4.33124964131838e-06,0.000383315593256677,0.0121859708658493,0.164012512980214,0.795152465401437,0.0282614039096025
"28",0,0,0,0,0,0,0,0,0,0,0,0,0,0,0,0,0,0,0,0,0,0,0,4.33124964131838e-06,0.000383315593256677,0.0121859708658493,0.165961575318807,0.821464806972446
