"","X0","X1","X2","X3","X4","X5","X6","X7","X8","X9","X10","X11","X12","X13","X14","X15","X16","X17","X18","X19","X20","X21","X22","X23","X24","X25","X26","X27"
"1",0.957679340046416,0.0265657571077095,0.0145968658169435,0.0011158410244941,4.1574787919439e-05,6.21216517399093e-07,0,0,0,0,0,0,0,0,0,0,0,0,0,0,0,0,0,0,0,0,0,0
"2",0.867212127359262,0.10107108290112,0.0256078261691591,0.00533864363401538,0.000733130175286488,3.66079766970057e-05,5.81784459582917e-07,0,0,0,0,0,0,0,0,0,0,0,0,0,0,0,0,0,0,0,0,0
"3",0.737505008050103,0.134873083891783,0.10197850757631,0.019703647046002,0.00516971482489018,0.000732849496181515,3.66073302698284e-05,5.81784459582917e-07,0,0,0,0,0,0,0,0,0,0,0,0,0,0,0,0,0,0,0,0
"4",0.57398223307967,0.165628690116511,0.135809806197126,0.0989968592635073,0.019642665887416,0.00516970684485813,0.000732849496181515,3.66073302698284e-05,5.81784459582917e-07,0,0,0,0,0,0,0,0,0,0,0,0,0,0,0,0,0,0,0
"5",0.40474879354043,0.170124230526703,0.166187279588514,0.134383935983882,0.098973349106447,0.0196426657982536,0.00516970684485813,0.000732849496181515,3.66073302698284e-05,5.81784459582917e-07,0,0,0,0,0,0,0,0,0,0,0,0,0,0,0,0,0,0
"6",0.256293017663639,0.148721610821481,0.170421926108676,0.165628919152356,0.134378765893377,0.098973349106447,0.0196426657982536,0.00516970684485813,0.000732849496181515,3.66073302698284e-05,5.81784459582917e-07,0,0,0,0,0,0,0,0,0,0,0,0,0,0,0,0,0
"7",0.145365560799976,0.11099770272045,0.14883054673335,0.170243683949704,0.165627979542671,0.134378765893377,0.098973349106447,0.0196426657982536,0.00516970684485813,0.000732849496181515,3.66073302698284e-05,5.81784459582917e-07,0,0,0,0,0,0,0,0,0,0,0,0,0,0,0,0
"8",0.0743863251888805,0.0709980176371756,0.111036052270739,0.148773536422415,0.17024356268427,0.165627979542671,0.134378765893377,0.098973349106447,0.0196426657982536,0.00516970684485813,0.000732849496181515,3.66073302698284e-05,5.81784459582917e-07,0,0,0,0,0,0,0,0,0,0,0,0,0,0,0
"9",0.0341882110406242,0.0402016587986485,0.0710062275309822,0.111024306910487,0.148773527238469,0.17024356268427,0.165627979542671,0.134378765893377,0.098973349106447,0.0196426657982536,0.00516970684485813,0.000732849496181515,3.66073302698284e-05,5.81784459582917e-07,0,0,0,0,0,0,0,0,0,0,0,0,0,0
"10",0.0140415508140174,0.0201472475494136,0.0402030999902091,0.0710041993987149,0.111024306528387,0.148773527238469,0.17024356268427,0.165627979542671,0.134378765893377,0.098973349106447,0.0196426657982536,0.00516970684485813,0.000732849496181515,3.66073302698284e-05,5.81784459582917e-07,0,0,0,0,0,0,0,0,0,0,0,0,0
"11",0.00518757462298832,0.00885404855054005,0.020147427873639,0.0402028473145691,0.0710041993906185,0.111024306528387,0.148773527238469,0.17024356268427,0.165627979542671,0.134378765893377,0.098973349106447,0.0196426657982536,0.00516970684485813,0.000732849496181515,3.66073302698284e-05,5.81784459582917e-07,0,0,0,0,0,0,0,0,0,0,0,0
"12",0.00170002520349159,0.00348755478314275,0.00885406195480657,0.0201474091057948,0.0402028473145008,0.0710041993906185,0.111024306528387,0.148773527238469,0.17024356268427,0.165627979542671,0.134378765893377,0.098973349106447,0.0196426657982536,0.00516970684485813,0.000732849496181515,3.66073302698284e-05,5.81784459582917e-07,0,0,0,0,0,0,0,0,0,0,0
"13",0.000485174672659039,0.00121485075152771,0.00348755533488067,0.00885406118237349,0.0201474091057948,0.0402028473145008,0.0710041993906185,0.111024306528387,0.148773527238469,0.17024356268427,0.165627979542671,0.134378765893377,0.098973349106447,0.0196426657982536,0.00516970684485813,0.000732849496181515,3.66073302698284e-05,5.81784459582917e-07,0,0,0,0,0,0,0,0,0,0
"14",0.000121080946089071,0.000364093731215977,0.00121485076314273,0.00348755531861964,0.00885406118237349,0.0201474091057948,0.0402028473145008,0.0710041993906185,0.111024306528387,0.148773527238469,0.17024356268427,0.165627979542671,0.134378765893377,0.098973349106447,0.0196426657982536,0.00516970684485813,0.000732849496181515,3.66073302698284e-05,5.81784459582917e-07,0,0,0,0,0,0,0,0,0
"15",2.52624844309271e-05,9.58184616971858e-05,0.000364093731313582,0.00121485076300609,0.00348755531861964,0.00885406118237349,0.0201474091057948,0.0402028473145008,0.0710041993906185,0.111024306528387,0.148773527238469,0.17024356268427,0.165627979542671,0.134378765893377,0.098973349106447,0.0196426657982536,0.00516970684485813,0.000732849496181515,3.66073302698284e-05,5.81784459582917e-07,0,0,0,0,0,0,0,0
"16",4.18650496268239e-06,2.10759794682447e-05,9.58184616971858e-05,0.000364093731313582,0.00121485076300609,0.00348755531861964,0.00885406118237349,0.0201474091057948,0.0402028473145008,0.0710041993906185,0.111024306528387,0.148773527238469,0.17024356268427,0.165627979542671,0.134378765893377,0.098973349106447,0.0196426657982536,0.00516970684485813,0.000732849496181515,3.66073302698284e-05,5.81784459582917e-07,0,0,0,0,0,0,0
"17",5.58724769842803e-07,3.62778019283959e-06,2.10759794682447e-05,9.58184616971858e-05,0.000364093731313582,0.00121485076300609,0.00348755531861964,0.00885406118237349,0.0201474091057948,0.0402028473145008,0.0710041993906185,0.111024306528387,0.148773527238469,0.17024356268427,0.165627979542671,0.134378765893377,0.098973349106447,0.0196426657982536,0.00516970684485813,0.000732849496181515,3.66073302698284e-05,5.81784459582917e-07,0,0,0,0,0,0
"18",5.42272646100622e-08,5.04497505232741e-07,3.62778019283959e-06,2.10759794682447e-05,9.58184616971858e-05,0.000364093731313582,0.00121485076300609,0.00348755531861964,0.00885406118237349,0.0201474091057948,0.0402028473145008,0.0710041993906185,0.111024306528387,0.148773527238469,0.17024356268427,0.165627979542671,0.134378765893377,0.098973349106447,0.0196426657982536,0.00516970684485813,0.000732849496181515,3.66073302698284e-05,5.81784459582917e-07,0,0,0,0,0
"19",3.3847928921772e-09,5.0842471717885e-08,5.04497505232741e-07,3.62778019283959e-06,2.10759794682447e-05,9.58184616971858e-05,0.000364093731313582,0.00121485076300609,0.00348755531861964,0.00885406118237349,0.0201474091057948,0.0402028473145008,0.0710041993906185,0.111024306528387,0.148773527238469,0.17024356268427,0.165627979542671,0.134378765893377,0.098973349106447,0.0196426657982536,0.00516970684485813,0.000732849496181515,3.66073302698284e-05,5.81784459582917e-07,0,0,0,0
"20",1.24627226295806e-10,3.2601656658814e-09,5.0842471717885e-08,5.04497505232741e-07,3.62778019283959e-06,2.10759794682447e-05,9.58184616971858e-05,0.000364093731313582,0.00121485076300609,0.00348755531861964,0.00885406118237349,0.0201474091057948,0.0402028473145008,0.0710041993906185,0.111024306528387,0.148773527238469,0.17024356268427,0.165627979542671,0.134378765893377,0.098973349106447,0.0196426657982536,0.00516970684485813,0.000732849496181515,3.66073302698284e-05,5.81784459582917e-07,0,0,0
"21",2.44013052229717e-12,1.22187095773508e-10,3.2601656658814e-09,5.0842471717885e-08,5.04497505232741e-07,3.62778019283959e-06,2.10759794682447e-05,9.58184616971858e-05,0.000364093731313582,0.00121485076300609,0.00348755531861964,0.00885406118237349,0.0201474091057948,0.0402028473145008,0.0710041993906185,0.111024306528387,0.148773527238469,0.17024356268427,0.165627979542671,0.134378765893377,0.098973349106447,0.0196426657982536,0.00516970684485813,0.000732849496181515,3.66073302698284e-05,5.81784459582917e-07,0,0
"22",1.95210441783773e-14,2.42060947811879e-12,1.22187095773508e-10,3.2601656658814e-09,5.0842471717885e-08,5.04497505232741e-07,3.62778019283959e-06,2.10759794682447e-05,9.58184616971858e-05,0.000364093731313582,0.00121485076300609,0.00348755531861964,0.00885406118237349,0.0201474091057948,0.0402028473145008,0.0710041993906185,0.111024306528387,0.148773527238469,0.17024356268427,0.165627979542671,0.134378765893377,0.098973349106447,0.0196426657982536,0.00516970684485813,0.000732849496181515,3.66073302698284e-05,5.81784459582917e-07,0
"23",0,1.95210441783773e-14,2.42060947811879e-12,1.22187095773508e-10,3.2601656658814e-09,5.0842471717885e-08,5.04497505232741e-07,3.62778019283959e-06,2.10759794682447e-05,9.58184616971858e-05,0.000364093731313582,0.00121485076300609,0.00348755531861964,0.00885406118237349,0.0201474091057948,0.0402028473145008,0.0710041993906185,0.111024306528387,0.148773527238469,0.17024356268427,0.165627979542671,0.134378765893377,0.098973349106447,0.0196426657982536,0.00516970684485813,0.000732849496181515,3.66073302698284e-05,5.81784459582917e-07
"24",0,0,1.95210441783773e-14,2.42060947811879e-12,1.22187095773508e-10,3.2601656658814e-09,5.0842471717885e-08,5.04497505232741e-07,3.62778019283959e-06,2.10759794682447e-05,9.58184616971858e-05,0.000364093731313582,0.00121485076300609,0.00348755531861964,0.00885406118237349,0.0201474091057948,0.0402028473145008,0.0710041993906185,0.111024306528387,0.148773527238469,0.17024356268427,0.165627979542671,0.134378849005443,0.0989735984426439,0.0196427904663521,0.00516962373279247,0.000733223500476961,3.6441106138519e-05
"25",0,0,0,1.95210441783773e-14,2.42060947811879e-12,1.22187095773508e-10,3.2601656658814e-09,5.0842471717885e-08,5.04497505232741e-07,3.62778019283959e-06,2.10759794682447e-05,9.58184616971858e-05,0.000364093731313582,0.00121485076300609,0.00348755531861964,0.00885406118237349,0.0201474091057948,0.0402028473145008,0.0710041993906185,0.111024306528387,0.148773527238469,0.17024356268427,0.165633185414977,0.134394466622359,0.0989814072511022,0.0196375845940466,0.00519305015816724,0.000722811755865956
"26",0,0,0,0,1.95210441783773e-14,2.42060947811879e-12,1.22187095773508e-10,3.2601656658814e-09,5.0842471717885e-08,5.04497505232741e-07,3.62778019283959e-06,2.10759794682447e-05,9.58184616971858e-05,0.000364093731313582,0.00121485076300609,0.00348755531861964,0.00885406118237349,0.0201474091057948,0.0402028473145008,0.0710041993906185,0.111024389640452,0.148773942798797,0.170346031941913,0.165940302295676,0.134550269088481,0.0988794366658533,0.0200942705359433,0.00499525928052785
"27",0,0,0,0,0,1.95210441783773e-14,2.42060947811879e-12,1.22187095773508e-10,3.2601656658814e-09,5.0842471717885e-08,5.04497505232741e-07,3.62816231727938e-06,2.10788454015432e-05,9.58425355368926e-05,0.000364219736847604,0.00121532956492915,0.00348928376299193,0.00885899593738896,0.0201595499634959,0.0402304444370736,0.0710585327094014,0.111121618624817,0.149526492518261,0.172364358856409,0.167045954323421,0.133919486856408,0.101480850023789,0.0190437744167382
"28",0,0,0,0,0,0,1.95210441783773e-14,2.42060947811879e-12,1.22187095773508e-10,3.26895013576167e-09,5.12729107420182e-08,5.22357650169812e-07,3.76332017085722e-06,2.21281356147544e-05,0.000101144358630392,0.000384241569183881,0.00128623185366551,0.00368969083913747,0.00934949968945068,0.0212626678545957,0.0422865928528853,0.0743966125155393,0.116349422969698,0.156157102287891,0.176718704298557,0.165892214271051,0.132085931617026,0.100013474542764
