"","X0","X1","X2","X3","X4","X5","X6","X7","X8","X9","X10","X11","X12","X13","X14","X15","X16","X17","X18","X19","X20","X21","X22","X23","X24","X25","X26","X27"
"1",0.22483900656824,0.208598565949128,0.199317209380354,0.153281986640538,0.101561602422563,0.0591043461662682,0.0304470784157541,0.0140016123912719,0.0057554165233271,0.00211923701401366,0.000698340284907772,0.000205763014372658,5.40592506440078e-05,1.26186423457863e-05,2.60204821406279e-06,4.70407601098701e-07,7.37689068117019e-08,9.89073457952225e-09,1.11141821511867e-09,1.01723924757439e-10,7.2786860844494e-12,3.81296361025483e-13,1.32921654191801e-14,2.66334124126635e-16,2.28286392108544e-18,0,0,0
"2",0.168281327700015,0.170506425773493,0.183473381395197,0.1637864096502,0.127135399706531,0.0865018071395864,0.0517681826067123,0.0273940380182764,0.0128567422429037,0.00536923586920462,0.00199895473052885,0.000664117381204529,0.000196817588573952,5.19412174051377e-05,1.21651642647957e-05,2.51553128368242e-06,4.5582383676652e-07,7.16406735597345e-08,9.62790964112576e-09,1.0849796462831e-09,9.96667047183537e-11,7.1636759708211e-12,3.77415492359638e-13,1.32236795015475e-14,2.66334124126635e-16,2.28286392108544e-18,0,0
"3",0.108606604604566,0.122900316448733,0.153109072417408,0.162627611199939,0.150156324756328,0.120189706142527,0.0835482669344254,0.0507364327439042,0.027078960069458,0.012774545805147,0.00534993830971886,0.00199499633869446,0.000663382680702525,0.000196700287786349,5.19245291806359e-05,1.21631643514156e-05,2.51530869929381e-06,4.55800468055067e-07,7.16380933233007e-08,9.62768355769734e-09,1.084965660888e-09,9.96662081954509e-11,7.1636759708211e-12,3.77415492359638e-13,1.32236795015475e-14,2.66334124126635e-16,2.28286392108544e-18,0
"4",0.0615791131823053,0.078628128702876,0.113313113644567,0.142547735147102,0.15613562454328,0.147028467257764,0.118926871259854,0.0831334669375248,0.0506178313614094,0.0270504618575746,0.0127683960914386,0.00534879340081783,0.00199480300847165,0.000663355591347515,0.000196697039857102,5.1924257097483e-05,1.2163149589717e-05,2.51530869134944e-06,4.55800468055067e-07,7.16380933233007e-08,9.62768355769734e-09,1.084965660888e-09,9.96662081954509e-11,7.1636759708211e-12,3.77415492359638e-13,1.32236795015475e-14,2.66334124126635e-16,2.28286392108544e-18
"5",0.0307065051063059,0.0445328904924314,0.0740602844049092,0.108693104706101,0.139898749266452,0.154943526118184,0.146577786193027,0.118790657388195,0.0830980814225221,0.0506103977798138,0.02704908125921,0.0127681816024895,0.00534876195831302,0.0019947991795387,0.000663355146753221,0.000196697003889175,5.19242551532707e-05,1.2163149589717e-05,2.51530869134944e-06,4.55800468055067e-07,7.16380933233007e-08,9.62768355769734e-09,1.084965660888e-09,9.96662081954509e-11,7.1636759708211e-12,3.77415492359638e-13,1.32236795015475e-14,2.6861698804772e-16
"6",0.0135690047353102,0.0223677058561071,0.0426480400580114,0.0722826894205088,0.107732728471259,0.139491150393614,0.154797308881181,0.146536370026102,0.118780685680535,0.0830962298965189,0.0506101074541952,0.0270490471930964,0.0127681779593885,0.00534876169939204,0.00199479915402531,0.00066335514509117,0.000196697003799334,5.19242551532707e-05,1.2163149589717e-05,2.51530869134944e-06,4.55800468055067e-07,7.16380933233007e-08,9.62768355769734e-09,1.084965660888e-09,9.96662081954509e-11,7.1636759708211e-12,3.77415492359638e-13,1.34922964895952e-14
"7",0.00531576626720721,0.0100047387073021,0.021693140265225,0.0420519652460209,0.0719792634745987,0.107611206863205,0.139449535157274,0.154786096504652,0.146533797068196,0.118780243230287,0.08309616725388,0.0506101013676552,0.0270490466759517,0.012768177945391,0.00534876169839896,0.00199479915400082,0.000663355145089846,0.000196697003799334,5.19242551532707e-05,1.2163149589717e-05,2.51530869134944e-06,4.55800468055067e-07,7.16380933233007e-08,9.62768355769734e-09,1.084965660888e-09,9.96662116197467e-11,7.16367368795718e-12,3.90906647417273e-13
"8",0.00185277218478704,0.0039794175856069,0.009792827065278,0.0215175060066903,0.0419680074248291,0.0719478247960793,0.107601003923917,0.139446932377768,0.154785525423279,0.146533705648685,0.118780231403197,0.0830961662733889,0.0506101012925387,0.027049046675443,0.0127681779453601,0.00534876169839896,0.00199479915400082,0.000663355145089846,0.000196697003799334,5.19242551532707e-05,1.2163149589717e-05,2.51530869134944e-06,4.55800468055067e-07,7.16380933233007e-08,9.62768355769734e-09,1.08496605696489e-09,9.96659475684865e-11,7.55444830974435e-12
"9",0.000573456674647371,0.00141200971796197,0.00392163970610751,0.00974776661321352,0.0214973807088222,0.0419610343284769,0.0719457014487364,0.1076004950192,0.139446825209245,0.154785509401844,0.146533703751269,0.118780231270467,0.0830961662635215,0.0506101012925314,0.0270490466754426,0.0127681779453601,0.00534876169839896,0.00199479915400082,0.000663355145089846,0.000196697003799334,5.19242551532707e-05,1.2163149589717e-05,2.51530869134944e-06,4.55800468055067e-07,7.16380933369979e-08,9.62770295890173e-09,1.08495320805555e-09,1.07213829885997e-10
"10",0.000157225242582819,0.000445663923891522,0.00139841873654133,0.00391166682672401,0.00974364587639199,0.0214960888986024,0.0419606749813105,0.0719456228730965,0.107600479254911,0.1394468230501,0.154785509176316,0.146533703739897,0.118780231269625,0.0830961662635215,0.0506101012925314,0.0270490466754426,0.0127681779453601,0.00534876169839896,0.00199479915400082,0.000663355145089846,0.000196697003799334,5.19242551532707e-05,1.2163149589717e-05,2.51530869134944e-06,4.55800469557191e-07,7.16386357023765e-08,9.62735072853487e-09,1.19197540080536e-09
"11",3.80624876335067e-05,0.000124802966630914,0.000442924205638912,0.00139651164388699,0.003910938586589,0.00974344249137753,0.0214960387837935,0.0419606654007724,0.0719456210414642,0.107600479027013,0.139446823029826,0.154785509175875,0.146533703739865,0.118780231269625,0.0830961662635215,0.0506101012925314,0.0270490466754426,0.0127681779453601,0.00534876169839896,0.00199479915400082,0.000663355145089846,0.000196697003799334,5.19242551532707e-05,1.2163149589717e-05,2.5153087597041e-06,4.55810463588252e-07,7.16323983328431e-08,1.08155011131597e-08
"12",8.05859879534573e-06,3.09037317266041e-05,0.000124346585502255,0.000442619550307069,0.00139640517272146,0.00391091259161204,0.00974343711962827,0.0214960379806358,0.0419606652537036,0.0719456210245425,0.107600479025631,0.13944682302982,0.154785509175875,0.146533703739865,0.118780231269625,0.0830961662635215,0.0506101012925314,0.0270490466754426,0.0127681779453601,0.00534876169839896,0.00199479915400082,0.000663355145089846,0.000196697003799348,5.19242551533301e-05,1.21631513230799e-05,2.51544256937109e-06,4.55732042084543e-07,8.23907778466872e-08
"13",1.48001486467227e-06,6.69660937137572e-06,3.08419784564649e-05,0.000124306413536906,0.000442606679422891,0.00139640242966316,0.00391091214843321,0.0097434370833776,0.0214960379744745,0.0419606652530814,0.0719456210244927,0.107600479025631,0.13944682302982,0.154785509175875,0.146533703739865,0.118780231269625,0.0830961662635215,0.0506101012925314,0.0270490466754426,0.0127681779453601,0.00534876169839896,0.00199479915400082,0.000663355145091321,0.000196697003805739,5.19242835519876e-05,1.21645431823197e-05,2.51469131981536e-06,5.37453803724503e-07
"14",2.31967018321852e-07,1.26003793441592e-06,6.69026316535393e-06,3.0837826137818e-05,0.000124305196063608,0.000442606438621742,0.00139640239726769,0.00391091214766266,0.00974343708326361,0.0214960379744663,0.0419606652530807,0.0719456210244927,0.107600479025631,0.13944682302982,0.154785509175875,0.146533703739865,0.118780231269625,0.0830961662635215,0.0506101012925314,0.0270490466754426,0.0127681779453601,0.00534876169839897,0.00199479915406618,0.000663355145374668,0.000196697338967161,5.19360148300292e-05,1.2158805733386e-05,3.04581578428019e-06
"15",3.02455734466699e-08,2.02539742261051e-07,1.25960582598191e-06,6.68996730018559e-06,3.08377519832186e-05,0.000124305181714539,0.000442606436808248,0.00139640239726173,0.003910912147662,0.00974343708326361,0.0214960379744663,0.0419606652530807,0.0719456210244927,0.107600479025631,0.13944682302982,0.154785509175875,0.146533703739865,0.118780231269625,0.0830961662635215,0.0506101012925314,0.0270490466754426,0.0127681779453616,0.00534876169999722,0.00199479916100058,0.00066335821932455,0.000196779813476189,5.19001086083086e-05,1.51549707464083e-05
"16",3.18059087513493e-09,2.70974769154348e-08,2.0252277055413e-07,1.25959311788462e-06,6.68996498724703e-06,3.08377515373509e-05,0.000124305181658806,0.000442606436808248,0.00139640239726173,0.003910912147662,0.00974343708326361,0.0214960379744663,0.0419606652530807,0.0719456210244927,0.107600479025631,0.13944682302982,0.154785509175875,0.146533703739865,0.118780231269625,0.0830961662635215,0.0506101012925317,0.0270490466755046,0.0127681779703514,0.00534876180864746,0.00199482200491304,0.000663851722223232,0.000196592169599737,6.67262427175849e-05
"17",2.50733075622884e-10,2.93051948914148e-09,2.70971374642231e-08,2.02522481748254e-07,1.25959309041036e-06,6.68996498195078e-06,3.08377515366889e-05,0.000124305181658806,0.000442606436808248,0.00139640239726173,0.003910912147662,0.00974343708326361,0.0214960379744663,0.0419606652530807,0.0719456210244927,0.107600479025631,0.13944682302982,0.154785509175875,0.146533703739865,0.118780231269627,0.0830961662635547,0.0506101012940913,0.0270490469553272,0.0127681791908477,0.00534890356497227,0.00199737269298408,0.000663024555979734,0.000261451632251193
"18",1.29233674210581e-11,2.37815004446123e-10,2.93051684101933e-09,2.7097134816101e-08,2.02522481748254e-07,1.25959309041036e-06,6.68996498195078e-06,3.08377515366889e-05,0.000124305181658806,0.000442606436808248,0.00139640239726173,0.003910912147662,0.00974343708326361,0.0214960379744663,0.0419606652530807,0.0719456210244927,0.107600479025631,0.13944682302982,0.154785509175878,0.146533703739975,0.118780231271114,0.0830961662912723,0.050610103734738,0.0270490576316354,0.012768928787649,0.00536041463548968,0.00199428675782294,0.000915288309800621
"19",3.5955791616272e-13,1.25638095048954e-11,2.37815004446123e-10,2.93051684101933e-09,2.7097134816101e-08,2.02522481748254e-07,1.25959309041036e-06,6.68996498195078e-06,3.08377515366889e-05,0.000124305181658806,0.000442606436808248,0.00139640239726173,0.003910912147662,0.00974343708326361,0.0214960379744663,0.0419606652530807,0.0719456210244947,0.107600479025672,0.139446823030162,0.154785509180003,0.146533703781299,0.118780231679344,0.083096183825753,0.0506101803105643,0.0270524884554875,0.012814653000629,0.00535073824928639,0.0028700018526246
"20",3.97218322268866e-15,3.55585732940031e-13,1.25638095048954e-11,2.37815004446123e-10,2.93051684101933e-09,2.7097134816101e-08,2.02522481748254e-07,1.25959309041036e-06,6.68996498195078e-06,3.08377515366889e-05,0.000124305181658806,0.000442606436808248,0.00139640239726173,0.003910912147662,0.00974343708326362,0.0214960379744664,0.0419606652531636,0.071945621026106,0.107600479039253,0.139446823142923,0.154785510022291,0.146533709210419,0.118780342219461,0.0830966574769564,0.0506239531620399,0.0272133109651229,0.0127898156831498,0.00807039146751387
"21",0,3.97218322268866e-15,3.55585732940031e-13,1.25638095048954e-11,2.37815004446123e-10,2.93051684101933e-09,2.7097134816101e-08,2.02522481748254e-07,1.25959309041036e-06,6.68996498195078e-06,3.08377515366889e-05,0.000124305181658807,0.000442606436808273,0.00139640239726202,0.00391091214766514,0.00974343708329456,0.0214960379763571,0.041960665287244,0.0719456213092712,0.107600481072299,0.139446835829795,0.154785573574216,0.146534363502244,0.118782988137576,0.0831458372508185,0.0511271390572632,0.0271652963885769,0.0203524772571704
"22",0,0,3.97218322268866e-15,3.55585732940031e-13,1.25638095048954e-11,2.37815004446123e-10,2.93051684101933e-09,2.7097134816101e-08,2.02522481748254e-07,1.25959309041036e-06,6.68996498195078e-06,3.08377515367979e-05,0.000124305181661278,0.000442606436835864,0.00139640239752373,0.00391091214978668,0.00974343711688545,0.021496038441881,0.0419606689325468,0.071945645353989,0.107600616547498,0.139447430768761,0.154789318807246,0.146548115197233,0.118942038100421,0.0845521577783395,0.0510813280435761,0.0459799586353362
"23",0,0,0,3.97218322268866e-15,3.55585732940031e-13,1.25638095048954e-11,2.37815004446123e-10,2.93051684101933e-09,2.7097134816101e-08,2.02522481748254e-07,1.25959309041378e-06,6.6899649860295e-06,3.08377516283562e-05,0.000124305182681468,0.000442606446045298,0.00139640246598783,0.00391091271790586,0.00974344228454558,0.0214960734154406,0.0419608758142061,0.0719467078730883,0.107604899733424,0.139467273281657,0.154854683112902,0.147022778689912,0.122466305085713,0.0846798473281402,0.0928438664577753
"24",0,0,0,0,3.97218322268866e-15,3.55585732940031e-13,1.25638095048954e-11,2.37815004446123e-10,2.93051684101933e-09,2.7097134816101e-08,2.02522482065002e-07,1.25959316995247e-06,6.68996670634096e-06,3.08377706339554e-05,0.000124305349398089,0.000442607627337834,0.00139641017748869,0.00391096365545822,0.0097437287094613,0.0214975387773793,0.0419675872135907,0.0719716029586803,0.107698973840497,0.139745566914289,0.156183905837533,0.154972581153652,0.12336017871869,0.166945028935163
"25",0,0,0,0,0,3.97218322268866e-15,3.55585732940031e-13,1.25638095048954e-11,2.37815004446123e-10,2.93051684101933e-09,2.70971457869743e-08,2.02523442806666e-07,1.25961208702255e-06,6.69017086231231e-06,3.08395101785502e-05,0.000124317254151015,0.000442678165508333,0.00139680235273953,0.00391287014235331,0.00975222204020976,0.0215319530797931,0.0420845217398812,0.0723529262309053,0.108719697932955,0.143225874424028,0.172343527304451,0.158103528801081,0.265970058436972
"26",0,0,0,0,0,0,3.97218322268866e-15,3.55585732940031e-13,1.25638095048954e-11,2.37815013577578e-10,2.93069368373882e-09,2.71054090344738e-08,2.02664667557364e-07,1.26107494278693e-06,6.70215836171379e-06,3.09187182243358e-05,0.000124761880456701,0.000444923378235897,0.00140670300974278,0.00395243783183337,0.00989560337760176,0.0219782608471206,0.0433759494557511,0.0754973366427182,0.1170355891838,0.172693289605034,0.180373417531906,0.373182612352764
"27",0,0,0,0,0,0,0,3.97218322268866e-15,3.55585732940031e-13,1.25644897983439e-11,2.39179083363934e-10,2.97933061442677e-09,2.7853878586659e-08,2.10145094668294e-07,1.3202544509359e-06,7.08084866543504e-06,3.29654751861854e-05,0.000134478109981577,0.000484966420725017,0.00155418373202803,0.00443875413256039,0.0112891627384551,0.025610018883939,0.0514303778771151,0.093079510128034,0.164692513262367,0.188752261393815,0.45849216551227
"28",0,0,0,0,0,0,0,0,4.10458933011162e-15,3.79898614176912e-13,1.77469635450365e-11,3.97309933185836e-10,5.26699185910651e-09,5.01696223176272e-08,3.82753752226279e-07,2.40289118816464e-06,1.28109083777723e-05,5.93280430796258e-05,0.000239367544071403,0.00085458794669201,0.00270761775182399,0.00757224627430802,0.0189104526205342,0.0413875108065232,0.0818411453318885,0.159458262899579,0.189705068764272,0.497248759611855
