"","X0","X1","X2","X3","X4","X5","X6","X7","X8","X9","X10","X11","X12","X13","X14","X15","X16","X17","X18","X19","X20","X21","X22","X23","X24","X25","X26","X27"
"1",0.199943198232165,0.214650531306997,0.180300781432323,0.148531838033745,0.105880288202999,0.0685612577349489,0.0400060909729749,0.0216062434540938,0.0109777238970691,0.00532092440482136,0.0024657860350195,0.00108075287990661,0.000439251213545449,0.000162018856612367,5.32125449713703e-05,1.53154496619294e-05,3.80986926633539e-06,8.07923226948844e-07,1.43785678165365e-07,2.10578601969886e-08,2.47227527517757e-09,2.24248334611895e-10,1.49001773262755e-11,6.70997627875285e-13,1.78832609730009e-14,2.05549803862249e-16,0,0
"2",0.15930826358189,0.180528103628464,0.167618828933381,0.153074973234403,0.122953482921719,0.0889821736373281,0.0576234630228954,0.0339411487470953,0.0184401677086892,0.00939834602917449,0.00455096999259504,0.00209953700380062,0.000914275210299685,0.000369258959205973,0.000135625254058277,4.44952280669919e-05,1.28394157967436e-05,3.21401056219928e-06,6.88357203466665e-07,1.24178056272252e-07,1.85045655528089e-08,2.21942924328532e-09,2.06529205605515e-10,1.41201783595321e-11,6.52253184103344e-13,1.76777111691386e-14,2.05549803862249e-16,0
"3",0.106745963898932,0.132091849474473,0.142403069794851,0.150337179286191,0.14066551216158,0.116835171957329,0.0857906753267418,0.056260903677504,0.0333600457011586,0.0181877486863305,0.00928308650768924,0.00449758399852596,0.002075665502726,0.000904435615194263,0.000365649863667518,0.000134475637382564,4.41830016954897e-05,1.27681677750269e-05,3.20057405030801e-06,6.86309055693636e-07,1.23934418078083e-07,1.84832354128225e-08,2.218207250164e-09,2.06494360799082e-10,1.4119904293127e-11,6.52253184103344e-13,1.76777111691386e-14,2.05549803862249e-16
"4",0.0626615657262493,0.0859642164395383,0.108541616587434,0.133088104440757,0.144907023792896,0.138477999993616,0.11587278991225,0.0854895113031325,0.0561710510517162,0.033333338463438,0.0181779902147559,0.00927891115882368,0.00449576903415903,0.00207493385547112,0.000904175214400682,0.000365570164026749,0.000134455057122249,4.41785818069041e-05,1.27673906055334e-05,3.20046451757602e-06,6.86297123402806e-07,1.23933477157116e-07,1.84831895238886e-08,2.21820642796478e-09,2.06494360799082e-10,1.4119904293127e-11,6.52253184103344e-13,1.78832609730009e-14
"5",0.0327798991359719,0.0501189253968632,0.0735632714395069,0.103994382273944,0.130960459638689,0.144153108191251,0.138171952449833,0.115793370269041,0.0854714387772319,0.0561679486810078,0.0333327489423117,0.0181778129248703,0.00927884124714345,0.00449574166699557,0.00207492447331315,0.000904172487852737,0.000365569507977586,0.000134454928729509,4.41785617476376e-05,1.27673881585323e-05,3.20046429256386e-06,6.86297108731237e-07,1.23933476608983e-07,1.84831895238886e-08,2.21820642796478e-09,2.06494379485428e-10,1.41199416658186e-11,6.70080386038928e-13
"6",0.0154130888379343,0.0262881392834437,0.0443346207297022,0.0715006511244531,0.103263252144435,0.130730636167727,0.144064590520983,0.138151680039281,0.115789277055097,0.0854709268853752,0.0561679004738865,0.033332743640516,0.0181778118153153,0.0092788408322151,0.00449574153101971,0.00207492443623307,0.000904172479755379,0.000365569506613515,0.000134454928561833,4.41785617340623e-05,1.27673881579842e-05,3.20046429256386e-06,6.86297108731237e-07,1.23933476608983e-07,1.84831895238886e-08,2.21820802653564e-09,2.06497576627144e-10,1.4785226339283e-11
"7",0.00655279031707258,0.0124583193533428,0.0238713134569815,0.0434596728878479,0.0712818272545004,0.103203069845994,0.130708678204751,0.144060204712561,0.138150867198314,0.1157891979738,0.0854709218921161,0.0561679001658179,0.0333327436397759,0.0181778118152736,0.0092788408322151,0.00449574153101971,0.00207492443623307,0.000904172479755379,0.000365569506613515,0.000134454928561833,4.41785617340623e-05,1.27673881579842e-05,3.20046429258255e-06,6.8629710876861e-07,1.23933476926651e-07,1.84832481711524e-08,2.21832597508533e-09,2.2110583342603e-10
"8",0.00252855183862531,0.00535375540143703,0.0115500172295825,0.0235255317664526,0.0434030975485301,0.0712684770853447,0.103198487068297,0.13070789871589,0.144060069171187,0.138150857785713,0.115789197615886,0.0854709218703361,0.0561679001658179,0.0333327436397759,0.0181778118152736,0.0092788408322151,0.00449574153101971,0.00207492443623307,0.000904172479755379,0.000365569506613515,0.000134454928561833,4.41785617340623e-05,1.2767388159508e-05,3.2004642956302e-06,6.86297134673643e-07,1.23934740311297e-07,1.84858282743358e-08,2.4355578441726e-09
"9",0.00088731383183821,0.00209091680640303,0.00504628194645063,0.0114236790820369,0.0235130434829497,0.0434006341386733,0.0712676916598146,0.103198376452018,0.130707880095358,0.144060068344667,0.138150857771703,0.115789197615034,0.0854709218703361,0.0561679001658179,0.0333327436397759,0.0181778118152736,0.0092788408322151,0.00449574153101971,0.00207492443623307,0.000904172479755379,0.000365569506613523,0.000134454928561866,4.41785617863302e-05,1.27673882642121e-05,3.20046518248828e-06,6.86315557919968e-07,1.23973407425057e-07,2.08632518872668e-08
"10",0.000283295735135733,0.000742782448900233,0.00199721345212068,0.00500403918039865,0.0114213534681708,0.0235126727529802,0.0434005263655855,0.0712676796038187,0.103198374443004,0.13070788004567,0.144060068344439,0.138150857771689,0.115789197615034,0.0854709218703361,0.0561679001658179,0.0333327436397759,0.0181778118152736,0.0092788408322151,0.00449574153101971,0.00207492443623307,0.000904172479755983,0.000365569506616239,0.000134454929593525,4.41785638632267e-05,1.27674056653972e-05,3.20066316091053e-06,6.86746915745552e-07,1.44186810005015e-07
"11",8.22016649456963e-05,0.000239897799481766,0.000717145768418847,0.00198446490037707,0.00500367791171492,0.0114213089586298,0.0235126611551017,0.0434005254060918,0.0712676794441235,0.103198374441229,0.13070788004567,0.144060068344439,0.138150857771689,0.115789197615034,0.0854709218703361,0.0561679001658179,0.0333327436397759,0.0181778118152736,0.0092788408322151,0.00449574153101973,0.00207492443625351,0.000904172479847982,0.000365569520159217,0.000134454957138549,4.4178789462919e-05,1.27690639297911e-05,3.20442980160386e-06,8.25242020506424e-07
"12",2.16041972090091e-05,7.03114144865835e-05,0.000233645002193294,0.000713736060881989,0.00198441862132782,0.00500367377122886,0.0114213079966349,0.023512661103352,0.0434005253974749,0.0712676794440957,0.103198374441229,0.13070788004567,0.144060068344439,0.138150857771689,0.115789197615034,0.0854709218703361,0.0561679001658179,0.0333327436397759,0.0181778118152738,0.00927884083221688,0.00449574153141832,0.00207492443804722,0.000904172609355643,0.000365569788057849,0.000134457069127896,4.4190049014908e-05,1.2795653904922e-05,3.98931070507656e-06
"13",5.10868847932359e-06,1.86320815825381e-05,6.89703293761201e-05,0.000232854680950716,0.000713731242017579,0.00198441833566868,0.00500367371119507,0.0114213079949698,0.0235126611030747,0.0434005253974749,0.0712676794440957,0.103198374441229,0.13070788004567,0.144060068344439,0.138150857771689,0.115789197615034,0.0854709218703361,0.0561679001658182,0.0333327436397836,0.0181778118153421,0.00927884083743028,0.00449574155484046,0.002074925399529,0.00090417464611389,0.000365584981810373,0.000134520878965409,4.43454094326813e-05,1.65475736501816e-05
"14",1.07517429684435e-06,4.43622901428247e-06,1.83845300652492e-05,6.88155809229484e-05,0.000232854282408603,0.00071373122839902,0.0019844183329958,0.00500367371117125,0.0114213079949658,0.0235126611030747,0.0434005253974749,0.0712676794440957,0.103198374441229,0.13070788004567,0.144060068344439,0.138150857771689,0.115789197615035,0.0854709218703477,0.0561679001660047,0.0333327436412885,0.0181778118660636,0.00927884106397197,0.00449574735892647,0.00207493806646367,0.00090426250186617,0.000365893723641376,0.000135286461103614,5.97120533737078e-05
"15",1.98345908105397e-07,9.39942899415512e-07,4.39802075822704e-06,1.8359649399166e-05,6.8815555805253e-05,0.000232854282013041,0.00071373122832374,0.0019844183329958,0.00500367371117125,0.0114213079949658,0.0235126611030747,0.0434005253974749,0.0712676794440957,0.103198374441229,0.13070788004567,0.14406006834444,0.138150857771708,0.115789197615277,0.085470921873323,0.0561679001879805,0.0333327440372838,0.0181778136102048,0.00927887059874361,0.00449581405906875,0.00207536040617209,0.000905561553173208,0.000369126158629536,0.00018994628821001
"16",3.14554029642088e-08,1.74831724761869e-07,9.35183610196079e-07,4.39483995542503e-06,1.83596482777704e-05,6.88155558000412e-05,0.000232854282012049,0.00071373122832374,0.0019844183329958,0.00500367371117125,0.0114213079949658,0.0235126611030747,0.0434005253974749,0.0712676794440958,0.103198374441231,0.130707880045691,0.144060068344778,0.138150857775285,0.115789197650037,0.0854709221061952,0.0561679027996358,0.0333327552463593,0.0181779442565473,0.00927917631533812,0.00449754866458304,0.00208018849779964,0.000917420048158292,0.000540200799475029
"17",4.18770925476134e-09,2.80371701005077e-08,1.74373331706261e-07,9.34872557964509e-07,4.39483992432115e-06,1.83596482777704e-05,6.88155558000412e-05,0.000232854282012049,0.00071373122832374,0.0019844183329958,0.00500367371117125,0.0114213079949658,0.0235126611030749,0.0434005253974776,0.0712676794441315,0.103198374441635,0.130707880050192,0.144060068384135,0.138150858088496,0.115789199544024,0.0854709370550824,0.0561679645105773,0.0333332709996713,0.0181791898072809,0.00928540825659184,0.00451361427345952,0.00211849181506561,0.00139517976486402
"18",4.54564611230468e-10,3.78761780475227e-09,2.80048241340949e-08,1.74351204908196e-07,9.34872557567765e-07,4.39483992432115e-06,1.83596482777704e-05,6.88155558000419e-05,0.000232854282012067,0.000713731228323986,0.00198441833299808,0.00500367371118772,0.0114213079950654,0.0235126611036021,0.0434005254000987,0.0712676794571931,0.103198374513412,0.130707880463481,0.144060070837853,0.138150870826486,0.115789275362288,0.085471232673369,0.0561698182893439,0.03333783997494,0.0181991737774667,0.0093338044835192,0.00462400325782707,0.00332809251475936
"19",3.87558642011354e-11,4.18425550330371e-10,3.78606629831809e-09,2.8003758837228e-08,1.74351204908196e-07,9.34872557567765e-07,4.39483992432115e-06,1.83596482778133e-05,6.88155558011461e-05,0.000232854282026936,0.000713731228461348,0.00198441833397509,0.00500367371688845,0.0114213080234809,0.0235126612285106,0.0434005258974747,0.0712676813171869,0.103198381274204,0.130707905573095,0.144060163965509,0.13815125733573,0.115790596320861,0.0854774867624691,0.056185128914663,0.0333960508645993,0.0183322996452414,0.00962145459791747,0.0074497092029312
"20",2.46722327515971e-12,3.6364012992165e-11,4.18380885402259e-10,3.78603559118002e-09,2.8003758837228e-08,1.74351204908196e-07,9.34872557567765e-07,4.39483992523908e-06,1.835964830145e-05,6.88155561194391e-05,0.000232854284967474,0.000713731249318309,0.00198441845484606,0.00500367431211059,0.0114213105825908,0.0235126710133747,0.0434005596720001,0.0712677879738674,0.103198695963248,0.130708786078309,0.144062659559433,0.138157884518565,0.115812445112193,0.0855268920355774,0.0563430891291036,0.0337332412923826,0.0190176706220485,0.0158089166309479
"21",1.08877024466546e-13,2.35932007625744e-12,3.63634359103492e-11,4.18380488658511e-10,3.78603559118002e-09,2.8003758837228e-08,1.74351204908196e-07,9.3487256658653e-07,4.39484015747229e-06,1.8359651428707e-05,6.88155850104908e-05,0.000232854489724287,0.00071373243359275,0.00198442426602742,0.00500369914645876,0.0114214045720378,0.0235129894313915,0.0434015319461421,0.0712704844265959,0.103205531326115,0.13072502277669,0.144098285895331,0.138242116666867,0.115975299032727,0.0859396331948174,0.0571365299514556,0.0352340494081366,0.0318096994885135
"22",2.93582846097957e-15,1.05941196005567e-13,2.35932007625744e-12,3.63634359103492e-11,4.18380488658511e-10,3.78603559118002e-09,2.8003758837228e-08,1.7435124975277e-07,9.34873721334313e-07,4.39485570732836e-06,1.83597950855058e-05,6.88166028608344e-05,0.000232860372868698,0.000713761267244646,0.00198454724494225,0.0050041630933022,0.0114229677239176,0.0235177171182276,0.0434144183722905,0.0713022127847009,0.103276791821981,0.130869810078077,0.144388276035697,0.138736782946096,0.116994999000879,0.0876764483209768,0.0601827037188766,0.0601888273742896
"23",3.60676134915578e-17,2.89976084748801e-15,1.05941196005567e-13,2.35932007625744e-12,3.63634359103492e-11,4.18380488658511e-10,3.78603559118002e-09,2.80038903400912e-08,1.74354635951496e-07,9.34919319952103e-07,4.39527696906808e-06,1.83627795054504e-05,6.88338478108854e-05,0.00023294484770656,0.000714121263425599,0.00198590359956951,0.00500872344931853,0.0114367130646738,0.0235549637316272,0.0435052443772564,0.0715026081117708,0.103673457512937,0.131618530972371,0.145595711837068,0.140976294503559,0.120519882033649,0.0935497919241005,0.106032375345588
"24",0,3.60676134915578e-17,2.89976084748801e-15,1.05941196005567e-13,2.35932007625744e-12,3.63634359103492e-11,4.18380488658511e-10,3.78630806315336e-09,2.80109064934048e-08,1.74449115608254e-07,9.35792179255734e-07,4.40146031441432e-06,1.83985022406719e-05,6.90087740798881e-05,0.000233689900026011,0.000716926208900582,0.00199532455604579,0.00503707915177825,0.0115134053813114,0.0237415084375095,0.0439154085417355,0.0723109383805907,0.10518377653082,0.134036429153732,0.149977321697956,0.147712687648548,0.131458038827628,0.172074514351059
"25",0,0,3.60676134915578e-17,2.89976084748801e-15,1.05941196005567e-13,2.35932007625744e-12,3.63634359103492e-11,4.18501537388373e-10,3.78942506794732e-09,2.80528801540099e-08,1.74837026015988e-07,9.38544521999547e-07,4.41741364290888e-06,1.84770463329044e-05,6.9346015353644e-05,0.000234974406409005,0.000721316488248981,0.00200889941119344,0.00507543013777592,0.0116132007430291,0.0239872677187313,0.0444780153390551,0.0736681036292499,0.107905500983312,0.140595415510628,0.161858034703894,0.168354901991222,0.259405552780733
"26",0,0,0,3.60676134915578e-17,2.89976084748801e-15,1.05941196005567e-13,2.35932007625744e-12,3.63864483678358e-11,4.19094117185557e-10,3.7974057713214e-09,2.81274720647011e-08,1.75388468362711e-07,9.41993423054911e-07,4.43637527934503e-06,1.85705517653367e-05,6.97648404804815e-05,0.000236698980125435,0.000727906516713963,0.00203254855323433,0.00515463719610963,0.0118662526419394,0.0247126781353675,0.0465850381709795,0.0784501542502215,0.119793921050849,0.162062843133193,0.196880532800263,0.35140286703876
"27",0,0,0,0,3.60676134915578e-17,2.89976084748801e-15,1.05941196005567e-13,2.36153407241985e-12,3.64445675208405e-11,4.19915785392403e-10,3.80878720136879e-09,2.8290188598493e-08,1.77216085517855e-07,9.5771333692232e-07,4.54366955004322e-06,1.91781127806122e-05,7.27239752397373e-05,0.000249413132077636,0.000777041207551688,0.00220359455538452,0.00570100437778648,0.0134116804887861,0.0289132508704073,0.0558417620976763,0.099281595215765,0.154919577748327,0.213663845372265,0.424939621689173
"28",0,0,0,0,0,3.85550351116653e-17,3.09708538627259e-15,1.13562756764707e-13,2.54534391564679e-12,3.95915557461441e-11,4.67495369411709e-10,4.41876859286063e-09,3.4383694922708e-08,2.25168476812381e-07,1.26423596581992e-06,6.19038550498983e-06,2.68234815679453e-05,0.00010404617716999,0.00036436188829391,0.00115621208150717,0.00333990519238824,0.00873281748948453,0.0209696001485971,0.0446793812737314,0.0878388038855965,0.149145344011303,0.220431411322594,0.463203573945606
