"","X0","X1","X2","X3","X4","X5","X6","X7","X8","X9","X10","X11","X12","X13","X14","X15","X16","X17","X18"
"1",0.493601125123938,0.323767056667074,0.12037478928497,0.02621967053505,0.0236708992881128,0.0101056771212656,0.00204089834174206,0.000209305592582627,1.03810681685261e-05,1.96977096281917e-07,0,0,0,0,0,0,0,0,0
"2",0.175367561546626,0.372054345504776,0.282392505368145,0.109179025101951,0.0306000340527736,0.0190479247088158,0.00913825691425342,0.00200046316481315,0.000209305592582627,1.03810681685261e-05,1.96977096281917e-07,0,0,0,0,0,0,0,0
"3",0.0279416051298916,0.151986730955614,0.368444261401608,0.281511784517503,0.10965923940134,0.0301130041207364,0.0189859066951682,0.00913712097547875,0.00200046316481315,0.000209305592582627,1.03810681685261e-05,1.96977096281917e-07,0,0,0,0,0,0,0
"4",0.00207707544602091,0.0260152055971568,0.151864196864608,0.368417255518102,0.28153197476836,0.109639049150483,0.0301118681819617,0.0189859066951682,0.00913712097547875,0.00200046316481315,0.000209305592582627,1.03810681685261e-05,1.96977096281917e-07,0,0,0,0,0,0
"5",6.96582627697149e-05,0.0020091210914132,0.0260137856736885,0.151863912879915,0.368417539502796,0.281531690783666,0.109639049150483,0.0301118681819617,0.0189859066951682,0.00913712097547875,0.00200046316481315,0.000209305592582627,1.03810681685261e-05,1.96977096281917e-07,0,0,0,0,0
"6",8.51954081004473e-07,6.88063086887104e-05,0.0020091210914132,0.0260137856736885,0.151863912879915,0.368417539502796,0.281531690783666,0.109639049150483,0.0301118681819617,0.0189859066951682,0.00913712097547875,0.00200046316481315,0.000209305592582627,1.03810681685261e-05,1.96977096281917e-07,0,0,0,0
"7",0,8.51954081004473e-07,6.88063086887104e-05,0.0020091210914132,0.0260137856736885,0.151863912879915,0.368417539502796,0.281531690783666,0.109639049150483,0.0301118681819617,0.0189859066951682,0.00913712097547875,0.00200046316481315,0.000209305592582627,1.03810681685261e-05,1.96977096281917e-07,0,0,0
"8",0,0,8.51954081004473e-07,6.88063086887104e-05,0.0020091210914132,0.0260137856736885,0.151863912879915,0.368417539502796,0.281531690783666,0.109639049150483,0.0301118681819617,0.0189859066951682,0.00913712097547875,0.00200046316481315,0.000209305592582627,1.03810681685261e-05,1.96977096281917e-07,0,0
"9",0,0,0,8.51954081004473e-07,6.88063086887104e-05,0.0020091210914132,0.0260137856736885,0.151863912879915,0.368417539502796,0.281531690783666,0.109639049150483,0.0301118681819617,0.0189859066951682,0.00913712097547875,0.00200046316481315,0.000209305592582627,1.03810681685261e-05,1.96977096281917e-07,0
"10",0,0,0,0,8.51954081004473e-07,6.88063086887104e-05,0.0020091210914132,0.0260137856736885,0.151863912879915,0.368417539502796,0.281531690783666,0.109639049150483,0.0301118681819617,0.0189859066951682,0.00913712097547875,0.00200046316481315,0.000209305592582627,1.03810681685261e-05,1.96977096281917e-07
"11",0,0,0,0,0,8.51954081004473e-07,6.88063086887104e-05,0.0020091210914132,0.0260137856736885,0.151863912879915,0.368417539502796,0.281531690783666,0.109639049150483,0.0301118681819617,0.0189859066951682,0.00913712097547875,0.00200046316481315,0.000209502569678909,1.03810681685261e-05
"12",0,0,0,0,0,0,8.51954081004473e-07,6.88063086887104e-05,0.0020091210914132,0.0260137856736885,0.151863912879915,0.368417539502796,0.281531690783666,0.109639049150483,0.0301118681819617,0.0189859066951682,0.00913712097547875,0.00201084423298168,0.000209502569678909
"13",0,0,0,0,0,0,0,8.51954081004473e-07,6.88063086887104e-05,0.0020091210914132,0.0260137856736885,0.151863912879915,0.368417539502796,0.281531690783666,0.109639049150483,0.0301118681819617,0.0189859066951682,0.0093462295909651,0.00201123818717425
"14",0,0,0,0,0,0,0,0,8.51954081004473e-07,6.88063086887104e-05,0.0020091210914132,0.0260137856736885,0.151863912879915,0.368417539502796,0.281531690783666,0.109639049150483,0.0301118681819617,0.0209748069292351,0.0093685675440724
"15",0,0,0,0,0,0,0,0,0,8.51954081004473e-07,6.88063086887104e-05,0.0020091210914132,0.0260137856736885,0.151863912879915,0.368417539502796,0.281531690783666,0.109639049150483,0.0389742455223062,0.021480997132963
"16",0,0,0,0,0,0,0,0,0,0,8.51954081004473e-07,6.88063086887104e-05,0.0020091210914132,0.0260137856736885,0.151863912879915,0.368417539502796,0.281531838516489,0.12520576291246,0.0448883811604696
"17",0,0,0,0,0,0,0,0,0,0,0,8.51954081004473e-07,6.88063086887104e-05,0.00200912227327578,0.0260138794347863,0.15186656422446,0.368454634937747,0.287426951083371,0.16415918978359
"18",0,0,0,0,0,0,0,0,0,0,0,0,8.51954081004473e-07,6.88458166663075e-05,0.00201225657283182,0.0261025100953063,0.152992212901553,0.379376250186453,0.439447072473109
"19",0,0,0,0,0,0,0,0,0,0,0,0,0,1.25745957328598e-06,0.000101015919053974,0.00292195182455812,0.0372929675769987,0.22235846253352,0.737324344686295
