"","X0","X1","X2","X3","X4","X5","X6","X7","X8","X9","X10","X11","X12","X13","X14","X15","X16","X17","X18"
"1",0.686909122802839,0.282655185967617,0.0295261288048675,0.000909562424676862,0,0,0,0,0,0,0,0,0,0,0,0,0,0,0
"2",0.0218554856900926,0.665053637112746,0.282655185967617,0.0295261288048675,0.000909562424676862,0,0,0,0,0,0,0,0,0,0,0,0,0,0
"3",0,0.0218554856900926,0.665053637112746,0.282655185967617,0.0295261288048675,0.000909562424676862,0,0,0,0,0,0,0,0,0,0,0,0,0
"4",0,0,0.0218554856900926,0.665053637112746,0.282655185967617,0.0295261288048675,0.000909562424676862,0,0,0,0,0,0,0,0,0,0,0,0
"5",0,0,0,0.0218554856900926,0.665053637112746,0.282655185967617,0.0295261288048675,0.000909562424676862,0,0,0,0,0,0,0,0,0,0,0
"6",0,0,0,0,0.0218554856900926,0.665053637112746,0.282655185967617,0.0295261288048675,0.000909562424676862,0,0,0,0,0,0,0,0,0,0
"7",0,0,0,0,0,0.0218554856900926,0.665053637112746,0.282655185967617,0.0295261288048675,0.000909562424676862,0,0,0,0,0,0,0,0,0
"8",0,0,0,0,0,0,0.0218554856900926,0.665053637112746,0.282655185967617,0.0295261288048675,0.000909562424676862,0,0,0,0,0,0,0,0
"9",0,0,0,0,0,0,0,0.0218554856900926,0.665053637112746,0.282655185967617,0.0295261288048675,0.000909562424676862,0,0,0,0,0,0,0
"10",0,0,0,0,0,0,0,0,0.0218554856900926,0.665053637112746,0.282655185967617,0.0295261288048675,0.000909562424676862,0,0,0,0,0,0
"11",0,0,0,0,0,0,0,0,0,0.0218554856900926,0.665053637112746,0.282655185967617,0.0295261288048675,0.000909562424676862,0,0,0,0,0
"12",0,0,0,0,0,0,0,0,0,0,0.0218554856900926,0.665053637112746,0.282655185967617,0.0295261288048675,0.000909562424676862,0,0,0,0
"13",0,0,0,0,0,0,0,0,0,0,0,0.0218554856900926,0.665053637112746,0.282655185967617,0.0295261288048675,0.000909562424676862,0,0,0
"14",0,0,0,0,0,0,0,0,0,0,0,0,0.0218554856900926,0.665053637112746,0.282655185967617,0.0295261288048675,0.000909562424676862,0,0
"15",0,0,0,0,0,0,0,0,0,0,0,0,0,0.0218554856900926,0.665053637112746,0.282655185967617,0.0295261288048675,0.000909562424676862,0
"16",0,0,0,0,0,0,0,0,0,0,0,0,0,0,0.0218554856900926,0.665053637112746,0.282655185967617,0.0295261288048675,0.000909562424676862
"17",0,0,0,0,0,0,0,0,0,0,0,0,0,0,0,0.0218554856900926,0.665053637112746,0.282685504715107,0.0304053724820551
"18",0,0,0,0,0,0,0,0,0,0,0,0,0,0,0,0,0.0218554856900926,0.666067149528815,0.312077364781093
"19",0,0,0,0,0,0,0,0,0,0,0,0,0,0,0,0,0,0.032258064516129,0.967741935483871
