"","0","1","2","3","4","5","6","7","8","9","10","11","12","13","14","15","16","17","18","19","20","21","22","23","24","25","26","27"
"0",0.870967741935484,0.0645161290322581,0,0.032258064516129,0.032258064516129,0,0,0,0,0,0,0,0,0,0,0,0,0,0,0,0,0,0,0,0,0,0,0
"1",0.516129032258065,0.354838709677419,0.0645161290322581,0,0.032258064516129,0.032258064516129,0,0,0,0,0,0,0,0,0,0,0,0,0,0,0,0,0,0,0,0,0,0
"2",0.451612903225806,0.0645161290322581,0.354838709677419,0.0645161290322581,0,0.032258064516129,0.032258064516129,0,0,0,0,0,0,0,0,0,0,0,0,0,0,0,0,0,0,0,0,0
"3",0.32258064516129,0.129032258064516,0.0645161290322581,0.354838709677419,0.0645161290322581,0,0.032258064516129,0.032258064516129,0,0,0,0,0,0,0,0,0,0,0,0,0,0,0,0,0,0,0,0
"4",0.225806451612903,0.0967741935483871,0.129032258064516,0.0645161290322581,0.354838709677419,0.0645161290322581,0,0.032258064516129,0.032258064516129,0,0,0,0,0,0,0,0,0,0,0,0,0,0,0,0,0,0,0
"5",0.129032258064516,0.0967741935483871,0.0967741935483871,0.129032258064516,0.0645161290322581,0.354838709677419,0.0645161290322581,0,0.032258064516129,0.032258064516129,0,0,0,0,0,0,0,0,0,0,0,0,0,0,0,0,0,0
"6",0,0.129032258064516,0.0967741935483871,0.0967741935483871,0.129032258064516,0.0645161290322581,0.354838709677419,0.0645161290322581,0,0.032258064516129,0.032258064516129,0,0,0,0,0,0,0,0,0,0,0,0,0,0,0,0,0
"7",0.0967741935483871,0,0.032258064516129,0.0967741935483871,0.0967741935483871,0.129032258064516,0.0645161290322581,0.354838709677419,0.0645161290322581,0,0.032258064516129,0.032258064516129,0,0,0,0,0,0,0,0,0,0,0,0,0,0,0,0
"8",0.0645161290322581,0.032258064516129,0,0.032258064516129,0.0967741935483871,0.0967741935483871,0.129032258064516,0.0645161290322581,0.354838709677419,0.0645161290322581,0,0.032258064516129,0.032258064516129,0,0,0,0,0,0,0,0,0,0,0,0,0,0,0
"9",0.032258064516129,0.032258064516129,0.032258064516129,0,0.032258064516129,0.0967741935483871,0.0967741935483871,0.129032258064516,0.0645161290322581,0.354838709677419,0.0645161290322581,0,0.032258064516129,0.032258064516129,0,0,0,0,0,0,0,0,0,0,0,0,0,0
"10",0,0.032258064516129,0.032258064516129,0.032258064516129,0,0.032258064516129,0.0967741935483871,0.0967741935483871,0.129032258064516,0.0645161290322581,0.354838709677419,0.0645161290322581,0,0.032258064516129,0.032258064516129,0,0,0,0,0,0,0,0,0,0,0,0,0
"11",0,0,0.032258064516129,0.032258064516129,0.032258064516129,0,0.032258064516129,0.0967741935483871,0.0967741935483871,0.129032258064516,0.0645161290322581,0.354838709677419,0.0645161290322581,0,0.032258064516129,0.032258064516129,0,0,0,0,0,0,0,0,0,0,0,0
"12",0,0,0,0.032258064516129,0.032258064516129,0.032258064516129,0,0.032258064516129,0.0967741935483871,0.0967741935483871,0.129032258064516,0.0645161290322581,0.354838709677419,0.0645161290322581,0,0.032258064516129,0.032258064516129,0,0,0,0,0,0,0,0,0,0,0
"13",0,0,0,0,0.032258064516129,0.032258064516129,0.032258064516129,0,0.032258064516129,0.0967741935483871,0.0967741935483871,0.129032258064516,0.0645161290322581,0.354838709677419,0.0645161290322581,0,0.032258064516129,0.032258064516129,0,0,0,0,0,0,0,0,0,0
"14",0,0,0,0,0,0.032258064516129,0.032258064516129,0.032258064516129,0,0.032258064516129,0.0967741935483871,0.0967741935483871,0.129032258064516,0.0645161290322581,0.354838709677419,0.0645161290322581,0,0.032258064516129,0.032258064516129,0,0,0,0,0,0,0,0,0
"15",0,0,0,0,0,0,0.032258064516129,0.032258064516129,0.032258064516129,0,0.032258064516129,0.0967741935483871,0.0967741935483871,0.129032258064516,0.0645161290322581,0.354838709677419,0.0645161290322581,0,0.032258064516129,0.032258064516129,0,0,0,0,0,0,0,0
"16",0,0,0,0,0,0,0,0.032258064516129,0.032258064516129,0.032258064516129,0,0.032258064516129,0.0967741935483871,0.0967741935483871,0.129032258064516,0.0645161290322581,0.354838709677419,0.0645161290322581,0,0.032258064516129,0.032258064516129,0,0,0,0,0,0,0
"17",0,0,0,0,0,0,0,0,0.032258064516129,0.032258064516129,0.032258064516129,0,0.032258064516129,0.0967741935483871,0.0967741935483871,0.129032258064516,0.0645161290322581,0.354838709677419,0.0645161290322581,0,0.032258064516129,0.032258064516129,0,0,0,0,0,0
"18",0,0,0,0,0,0,0,0,0,0.032258064516129,0.032258064516129,0.032258064516129,0,0.032258064516129,0.0967741935483871,0.0967741935483871,0.129032258064516,0.0645161290322581,0.354838709677419,0.0645161290322581,0,0.032258064516129,0.032258064516129,0,0,0,0,0
"19",0,0,0,0,0,0,0,0,0,0,0.032258064516129,0.032258064516129,0.032258064516129,0,0.032258064516129,0.0967741935483871,0.0967741935483871,0.129032258064516,0.0645161290322581,0.354838709677419,0.0645161290322581,0,0.032258064516129,0.032258064516129,0,0,0,0
"20",0,0,0,0,0,0,0,0,0,0,0,0.032258064516129,0.032258064516129,0.032258064516129,0,0.032258064516129,0.0967741935483871,0.0967741935483871,0.129032258064516,0.0645161290322581,0.354838709677419,0.0645161290322581,0,0.032258064516129,0.032258064516129,0,0,0
"21",0,0,0,0,0,0,0,0,0,0,0,0,0.032258064516129,0.032258064516129,0.032258064516129,0,0.032258064516129,0.0967741935483871,0.0967741935483871,0.129032258064516,0.0645161290322581,0.354838709677419,0.0645161290322581,0,0.032258064516129,0.032258064516129,0,0
"22",0,0,0,0,0,0,0,0,0,0,0,0,0,0.032258064516129,0.032258064516129,0.032258064516129,0,0.032258064516129,0.0967741935483871,0.0967741935483871,0.129032258064516,0.0645161290322581,0.354838709677419,0.0645161290322581,0,0.032258064516129,0.032258064516129,0
"23",0,0,0,0,0,0,0,0,0,0,0,0,0,0,0.032258064516129,0.032258064516129,0.032258064516129,0,0.032258064516129,0.0967741935483871,0.0967741935483871,0.129032258064516,0.0645161290322581,0.354838709677419,0.0645161290322581,0,0.032258064516129,0.032258064516129
"24",0,0,0,0,0,0,0,0,0,0,0,0,0,0,0,0.032258064516129,0.032258064516129,0.032258064516129,0,0.032258064516129,0.0967741935483871,0.0967741935483871,0.129032258064516,0.0645161290322581,0.354838709677419,0.0645161290322581,0,0.0645161290322581
"25",0,0,0,0,0,0,0,0,0,0,0,0,0,0,0,0,0.032258064516129,0.032258064516129,0.032258064516129,0,0.032258064516129,0.0967741935483871,0.0967741935483871,0.129032258064516,0.0645161290322581,0.354838709677419,0.129032258064516,0
"26",0,0,0,0,0,0,0,0,0,0,0,0,0,0,0,0,0,0.032258064516129,0.032258064516129,0.032258064516129,0,0.032258064516129,0.0967741935483871,0.0967741935483871,0.129032258064516,0.0645161290322581,0.354838709677419,0.129032258064516
"27",0,0,0,0,0,0,0,0,0,0,0,0,0,0,0,0,0,0,0.032258064516129,0.032258064516129,0.032258064516129,0,0.032258064516129,0.0967741935483871,0.0967741935483871,0.129032258064516,0.0645161290322581,0.483870967741935
