"","s_i","b_i","a_i"
"1",0,-7.61909454622099,156.967113273875
"2",1,-15.436829441703,164.784848169357
"3",2,-17.914370303647,169.739929893245
"4",3,-18.1719618965058,170.512704671821
"5",4,-16.2784451788979,162.93863780139
"6",5,-13.9444754011412,151.268788912606
"7",6,-12.1418567955663,140.453077279157
"8",7,-10.5664180720116,129.425006214274
"9",8,-9.1468706383324,118.06862674484
"10",9,-7.7762127916029,105.732706124275
"11",10,-6.456346697406,92.5340451823059
"12",11,-5.2392327836696,79.1457921312055
"13",12,-4.1309619529311,65.8465421623435
"14",13,-3.14039281984927,52.9691434322797
"15",14,-2.26106992888567,40.6586229587893
"16",15,-1.46665834165718,28.742449150362
"17",16,-0.71538983294142,16.7221530109098
"18",17,0.0483669663609305,3.73828742276984
"19",18,0.891422775249779,-11.4367171372294
"20",19,1.90182317079398,-30.6343246525693
"21",20,3.22314419146555,-57.0607450660006
"22",21,5.1764985735413,-98.0811870895914
"23",22,9.0639763351926,-183.60569784592
"24",23,26.0315559941862,-573.860030002773
