"","s_i","b_i","a_i"
"1",0,-30.1861445164239,118.508522871381
"2",1,-16.4920105788512,104.814388933808
"3",2,-15.1542352735966,102.138838323299
"4",3,-11.3730367745017,90.7952428260144
"5",4,-8.9157193029816,80.965972939934
"6",5,-7.3497492315089,73.1361225825705
"7",6,-5.9906633461374,64.9816072703415
"8",7,-4.8426045534405,56.9451957214632
"9",8,-3.7760131954277,48.4124648573608
"10",9,-2.7853421217548,39.4964251943047
"11",10,-1.82393276980009,29.8823316747576
"12",11,-0.839790099965539,19.0567623065775
"13",12,0.22416779379337,6.28926758147063
"14",13,1.42218296680136,-9.28492966763324
"15",14,2.7968949107074,-28.5308968823178
"16",15,4.3672341930933,-52.0859861181063
"17",16,6.1128269716293,-80.0154705746823
"18",17,7.9621006572772,-111.453123230697
"19",18,9.8063268569666,-144.649194825106
"20",19,11.57528849222,-178.25946589492
"21",20,13.3847448899836,-214.448593850192
"22",21,15.3370638609233,-255.447292239926
"23",22,16.3543359435815,-277.827278058407
"24",23,16.698884121048,-285.751886140136
