"","s_i","b_i","a_i"
"1",0,-31.756248939435,112.106697975145
"2",1,-23.926678914609,104.277127950319
"3",2,-15.7682372761586,87.9602446734182
"4",3,-9.9699950106968,70.5655178770328
"5",4,-6.7826077021682,57.8159686429184
"6",5,-4.8075582763203,47.9407215136789
"7",6,-3.3201814971471,39.0164608386397
"8",7,-2.0129794924388,29.8660468056816
"9",8,-0.7516784848999,19.7756387453704
"10",9,0.539043871369099,8.15913753894941
"11",10,1.9116804736462,-5.5672284838216
"12",11,3.4028279552845,-21.9698507818429
"13",12,5.0289941114573,-41.4838446559165
"14",13,6.7771117528529,-64.2093739940593
"15",14,8.5943711072903,-89.6510049561828
"16",15,10.3874437601074,-116.547094748439
"17",16,12.0338388028861,-142.889415432899
"18",17,13.4042863827051,-166.187024289822
"19",18,14.3996225735335,-184.103075724733
"20",19,15.2576784268663,-200.406136938056
"21",20,13.076622978696,-156.78502797465
"22",21,13.306429589796,-161.61096680775
"23",22,11.54683594138,-122.899906542598
"24",23,25.061101947344,-433.72802467977
