"","s_i","b_i","a_i"
"1",0,-33.6454052027444,103.750555323919
"2",1,-17.6253450851026,87.7304952062772
"3",2,-11.993197086679,76.46619920943
"4",3,-8.8301116624771,66.9769429368243
"5",4,-6.7722542461541,58.7455132715323
"6",5,-5.4157701198374,51.9630926399488
"7",6,-4.3594896948088,45.6254100897772
"8",7,-3.5022937467621,39.6250384534503
"9",8,-2.79434387604221,33.9614394876912
"10",9,-2.20609771127927,28.6672240048247
"11",10,-1.72011615790868,23.8074084711188
"12",11,-1.32295961493182,19.4386864983734
"13",12,-1.0024969208875,15.5931341698415
"14",13,-0.74731585910364,12.2757803666513
"15",14,-0.54660170843421,9.46578225727932
"16",15,-0.390022937824811,7.11710069813833
"17",16,-0.267490614029301,5.15658351741018
"18",17,-0.168718883400001,3.47746409671207
"19",18,-0.08250510349156,1.92561605836014
"20",19,0.00435823313015404,0.27521266254757
"21",20,0.108598392728257,-1.80959052941449
"22",21,0.252371057393354,-4.82881648738153
"23",22,0.465345580313748,-9.5142559916302
"24",23,0.7864717517393,-16.9001579344179
"25",24,1.26455264009689,-28.3740992550001
"26",25,1.95639911819934,-45.6702612075613
"27",26,2.92208854149995,-70.7781862133772
"28",27,4.21387331886561,-105.65637520225
"29",28,5.8570490192671,-151.665294813492
"30",29,7.8263075103646,-208.773791055319
"31",30,9.9267231981546,-271.786261689019
"32",31,9.4625965280247,-257.398334914992
"33",32,13.6241578608513,-390.568297565443
"34",33,15.0066964299221,-436.19207034478
"35",34,16.4251166817049,-484.418358905395
"36",35,19.8919706816796,-605.758248904509
