"","X0","X1","X2","X3","X4","X5","X6","X7","X8","X9","X10","X11","X12","X13","X14","X15","X16","X17","X18","X19","X20","X21","X22","X23","X24","X25","X26","X27","X28","X29","X30","X31","X32","X33","X34","X35","X36"
"1",0.362860927641123,0.244205121813516,0.182772113964933,0.108484375310209,0.057857234296906,0.0269461268727665,0.0110764015074301,0.00402794877041329,0.00129283311228383,0.000363781727770107,8.96638784090145e-05,1.92212585931878e-05,3.58169902342093e-06,5.77193055773816e-07,8.02677120429639e-08,9.58525476797666e-09,9.91180783591532e-10,9.75917678215073e-11,1.04633406569171e-11,1.21428055550135e-12,1.36427716774941e-13,1.34418079303005e-14,1.09143695126823e-15,6.98005875429887e-17,3.34419479643268e-18,1.11894425101876e-19,2.31712718204597e-21,2.22479672401638e-23,0,0,0,0,0,0,0,0,0
"2",0.362745381576909,0.244152713772384,0.182764403615554,0.108514268709108,0.057900871824035,0.0269862426020408,0.0111052114142696,0.00404529061103579,0.00130187739071485,0.000367948514697023,9.13795000337171e-05,1.9857683198238e-05,3.79546740229663e-06,6.42409681982786e-07,9.83596473012067e-08,1.414564157175e-08,2.03274264548173e-09,3.1205911444067e-10,4.99836713615762e-11,7.66445673553238e-12,1.05583167441696e-12,1.2578589056619e-13,1.25829222893983e-14,1.02512686715382e-15,6.55669713351168e-17,3.13895579243463e-18,1.04938946253687e-19,2.17145847018005e-21,2.0835765365398e-23,0,0,0,0,0,0,0,0
"3",0.362418430666042,0.244001287944999,0.182737754919673,0.10859505804644,0.0580234093895927,0.0271014823622699,0.0111897518080635,0.00409733324328297,0.00132970180481964,0.000381133336114166,9.69871802446261e-05,2.20178024596056e-05,4.55362897957765e-06,8.85848259395126e-07,1.70014879265862e-07,3.34829975704887e-08,6.80820848321954e-09,1.38695707720532e-09,2.69147357181264e-10,4.77954324852881e-11,7.57975688478502e-12,1.05333417899614e-12,1.25718175421169e-13,1.25809497272391e-14,1.02505140660428e-15,6.55636033943773e-17,3.13884176819122e-18,1.04936558242017e-19,2.17143531932964e-21,2.0835765365398e-23,0,0,0,0,0,0,0
"4",0.361722099185741,0.243667716093546,0.182662998240712,0.108751668179325,0.0582791194592598,0.0273522822869576,0.0113810907374697,0.00422003278817603,0.00139824330063265,0.000415186428369311,0.000112232066920399,2.82251590319025e-05,6.86705139931163e-06,1.67839911367415e-06,4.20183777605769e-07,1.06277813843553e-07,2.63099679598631e-08,6.18219508111523e-09,1.34598746399096e-09,2.67112077994882e-10,4.77203400093566e-11,7.57776268767994e-12,1.05329139991234e-12,1.25717530889797e-13,1.25809466052906e-14,1.02505140652987e-15,6.55636033943773e-17,3.13884176819122e-18,1.04936558242017e-19,2.17143531932964e-21,2.0835765365398e-23,0,0,0,0,0,0
"5",0.36044222056912,0.243033493161156,0.182489188181308,0.109004777698259,0.0587327428008787,0.0278195464926754,0.0117544104220823,0.00447146852225905,0.00154636769981105,0.000493111254657578,0.000149311269656333,4.43263174026793e-05,1.32861882245935e-05,4.03753029922266e-06,1.22127689503517e-06,3.57813297765522e-07,9.92878174238398e-08,2.57037439205714e-08,6.14287589174559e-09,1.34405052537401e-09,2.67040425823976e-10,4.7718350895431e-11,7.57771295378247e-12,1.0532902558494e-12,1.25717503428207e-13,1.25809458301505e-14,1.02505139611199e-15,6.55636033943773e-17,3.13884176819122e-18,1.04936558242017e-19,2.17143531932964e-21,2.0835765365398e-23,0,0,0,0,0
"6",0.358314372182328,0.241947154171654,0.182142008410317,0.109364228632437,0.0594499141319789,0.0285960934998625,0.0124049781941314,0.00493301513210521,0.00183441411881546,0.000654466129932107,0.000231399229597221,8.25494818674489e-05,2.96600768020939e-05,1.05128356166907e-05,3.59026641925608e-06,1.16034796735451e-06,3.50990096679238e-07,9.86949391267458e-08,2.56647913557067e-08,6.14085332859523e-09,1.34396139405395e-09,2.67036461610139e-10,4.77181364089162e-11,7.57770114553119e-12,1.05328972384517e-12,1.25717487683586e-13,1.25809456185429e-14,1.02505139611199e-15,6.55636033943773e-17,3.13884176819122e-18,1.04936558242017e-19,2.17143531932964e-21,2.0835765365398e-23,0,0,0,0
"7",0.355140746432135,0.240274496576229,0.18152695883739,0.109793514747304,0.0604473444756058,0.0297405054667453,0.0134153083620499,0.00569186176588019,0.00233896759646634,0.00095724862329246,0.00039707484293803,0.000165713322959789,6.81035769082445e-05,2.69215658105932e-05,1.00688753491281e-05,3.52913036164036e-06,1.15334077729004e-06,3.50346374387116e-07,9.86461489127454e-08,2.56612505789625e-08,6.14056511955017e-09,1.34393437639923e-09,2.67033866902786e-10,4.77179118705924e-11,7.57768506230591e-12,1.05328883601947e-12,1.25717452640456e-13,1.25809447405262e-14,1.0250513856941e-15,6.55636033943773e-17,3.13884176819122e-18,1.04936558242017e-19,2.17143531932964e-21,2.0835765365398e-23,0,0,0
"8",0.35082688037914,0.237923120145036,0.180543701186058,0.1102087176746,0.0616782492302372,0.0312542159971801,0.0148309707583991,0.00682200946649371,0.00314256377410476,0.00147583451317357,0.00070340724269129,0.000332047461529599,0.000151316870681662,6.53421251892578e-05,2.64641354054259e-05,1.00032642871505e-05,3.520972832619e-06,1.15244918440394e-06,3.5025124897359e-07,9.863490551224e-08,2.56598051966089e-08,6.14038120166983e-09,1.34391303400337e-09,2.67031752516688e-10,4.77177435781835e-11,7.57767496025079e-12,1.05328841282017e-12,1.25717441720591e-13,1.25809446109593e-14,1.0250513856941e-15,6.55636033943773e-17,3.13884176819122e-18,1.04936558242017e-19,2.17143531932964e-21,2.0835765365398e-23,0,0
"9",0.345237814816337,0.234785400506947,0.179090840258439,0.110529597923878,0.0630927118739878,0.0331264653019836,0.0166822880275176,0.0083879983755562,0.0043297896232337,0.00229788573421369,0.00122695873957029,0.000639450952532353,0.000317812272140748,0.000148561686125399,6.48787952996e-05,2.63960178845612e-05,9.99446168196312e-06,3.51995758485759e-06,1.1523361066644e-06,3.50238170980653e-07,9.86333759329538e-08,2.56596341163567e-08,6.1403637450079e-09,1.3439114901881e-09,2.67031640966823e-10,4.77177373906209e-11,7.57767471512682e-12,1.05328840666691e-12,1.25717441647581e-13,1.25809446109593e-14,1.0250513856941e-15,6.55636033943773e-17,3.13884176819122e-18,1.04936558242017e-19,2.17143531932964e-21,2.0835765365398e-23,0
"10",0.338310518241813,0.230795076231664,0.177085160465607,0.110665289365594,0.0646067638937194,0.0352982468918619,0.0189489593056174,0.0104125895895441,0.00596014279622348,0.00350504652323965,0.00205386439214243,0.00116377669589392,0.000625192575118624,0.000314981158775192,0.000148062298172323,6.47986453909609e-05,2.6383933689829e-05,9.99267979080986e-06,3.51968855300074e-06,1.1522952760344e-06,3.5023233998275e-07,9.86326317265531e-08,2.56595523337312e-08,6.14035627771401e-09,1.34391094533225e-09,2.6703161064411e-10,4.77177361863674e-11,7.57767468485822e-12,1.05328840630777e-12,1.25717441647581e-13,1.25809446109593e-14,1.0250513856941e-15,6.55636033943773e-17,3.13884176819122e-18,1.04936558242017e-19,2.17143531932964e-21,2.0835765365398e-23
"11",0.330198456514511,0.225999011966686,0.174484163131721,0.110493986023025,0.0660636562762595,0.0376210269126033,0.021522528090868,0.0128432414240461,0.00803776659136228,0.00514707602776976,0.00326110048777728,0.00198909811400695,0.00114847102640934,0.000621888583811064,0.000314307349213356,0.00014792663701825,6.47709731372423e-05,2.63782588394918e-05,9.99154626016002e-06,3.51947790304723e-06,1.15226023000167e-06,3.50227260825974e-07,9.86320069022491e-08,2.56594890769688e-08,6.14035121112756e-09,1.34391064054233e-09,2.67031597857472e-10,4.77177358562097e-11,7.57767468094082e-12,1.05328840630777e-12,1.25717441647581e-13,1.25809446109593e-14,1.0250513856941e-15,6.55636033943773e-17,3.13884176819122e-18,1.04936558242017e-19,2.19227108469504e-21
"12",0.320713190748933,0.220284438565277,0.171217249933949,0.109981866947319,0.0674409352234307,0.040069586920546,0.0243755713706207,0.0156621291403982,0.0105684071779698,0.00726119492868234,0.00491522547763449,0.00320008581475161,0.00197491237387985,0.00114549784286691,0.000621311699202493,0.000314199311166819,0.000147906395542491,6.47671358932733e-05,2.63775350215635e-05,9.9914166618021e-06,3.51945687572462e-06,1.15225723682219e-06,3.5022689755211e-07,9.86319705130885e-08,2.56594861870431e-08,6.14035103840818e-09,1.34391063332778e-09,2.67031597671581e-10,4.77177358540043e-11,7.57767468094082e-12,1.05328840630777e-12,1.25717441647581e-13,1.25809446109593e-14,1.0250513856941e-15,6.55636033943773e-17,3.13884176819122e-18,1.07128829326712e-19
"13",0.309895665482383,0.213662563684632,0.167265469768538,0.109075113744339,0.0686561080965657,0.0425438890923047,0.0274054734321918,0.0187808091307215,0.0134934559828355,0.00982931849820418,0.00704108846671075,0.00485754154694483,0.00318677380872077,0.00197215975440377,0.00114497637173792,0.00062121769164656,0.000314182576896941,0.000147903393428124,6.47665954283775e-05,2.63774415526953e-05,9.99140189169547e-06,3.51945481737937e-06,1.15225699141862e-06,3.50226873346046e-07,9.8631968616131e-08,2.56594860749186e-08,6.14035103376529e-09,1.34391063320893e-09,2.67031597670178e-10,4.77177358540043e-11,7.57767468094082e-12,1.05328840630777e-12,1.25717441647581e-13,1.25809446109593e-14,1.0250513856941e-15,6.55636763195561e-17,3.24589767233915e-18
"14",0.297820592451291,0.206165883613258,0.162625815749007,0.107731702415213,0.0696366826171466,0.0449504365650077,0.0305081331896008,0.0220966515546879,0.0167259104349529,0.012794284655115,0.0096215810965751,0.00698684250286427,0.00484509936187932,0.00318422821371904,0.00197168619911106,0.0011448934105991,0.000621203480866901,0.000314180130474369,0.000147902967155883,6.47665231763344e-05,2.63774302582311e-05,9.99140032538462e-06,3.51945463091881e-06,1.15225697303625e-06,3.50226871909307e-07,9.86319685320181e-08,2.5659486071515e-08,6.14035103368195e-09,1.34391063320802e-09,2.67031597670178e-10,4.77177358540043e-11,7.57767468094082e-12,1.05328840630777e-12,1.25717441647581e-13,1.25809447568097e-14,1.02505902738925e-15,6.88017864463893e-17
"15",0.284581910808952,0.197843520541395,0.157312732721832,0.10592638693346,0.0703256460012515,0.0472083677991642,0.0335864268134249,0.0255043934017543,0.020162954858931,0.016069169367231,0.0125996359372753,0.00957093775802778,0.00697529323178178,0.00484275800990304,0.00318379883811915,0.00197161247065714,0.0011448810646829,0.000621201391046617,0.000314179766769739,0.000147902904552604,6.47665131259869e-05,2.63774288179024e-05,9.99140014790082e-06,3.51945461287639e-06,1.15225697160093e-06,3.50226871826222e-07,9.86319685288749e-08,2.56594860714505e-08,6.14035103368149e-09,1.34391063320802e-09,2.67031597670178e-10,4.77177358540043e-11,7.57767468094082e-12,1.05328840630777e-12,1.25717455486359e-13,1.25813144086543e-14,1.09347732321375e-15
"16",0.270299024445551,0.188764148672071,0.151358276925548,0.103647991685866,0.0706774716367476,0.0492465741986715,0.0365510362691587,0.0289023373845816,0.0236970520946679,0.0195501074245905,0.0158878796782629,0.0125525817679849,0.00956023961380425,0.00697313179987214,0.00484236262579491,0.00318373080485815,0.00197160092585516,0.00114487905019638,0.000621201024326177,0.00031417970037745,0.000147902893347945,6.47665114440654e-05,2.63774286020599e-05,9.99140012523715e-06,3.51945461103878e-06,1.15225697149508e-06,3.50226871822424e-07,9.863196852881e-08,2.56594860714504e-08,6.14035103368149e-09,1.34391063320802e-09,2.67031597670178e-10,4.77177358541501e-11,7.57767468190621e-12,1.05328901029766e-12,1.25728460986971e-13,1.36631811301266e-14
"17",0.255181051632483,0.179045957671542,0.144818066355955,0.100884514513893,0.0706343954061907,0.0509804246644087,0.0393032635415235,0.03218384807226,0.02721653601007,0.0231242090529008,0.0193797521292522,0.0158431311981699,0.0125421367254163,0.00955800916700751,0.0069726772311484,0.00484226887937894,0.00318371054135564,0.0019715964023912,0.00114487805597124,0.000621200820970032,0.000314179663248245,0.000147902887472263,6.47665106618466e-05,2.63774285177791e-05,9.99140011828858e-06,3.51945461063598e-06,1.15225697148077e-06,3.50226871822194e-07,9.86319685288099e-08,2.56594860714504e-08,6.14035103368149e-09,1.34391063320802e-09,2.67031597683823e-10,4.77177359444625e-11,7.57769089186387e-12,1.0535162978875e-12,1.39148040612936e-13
"18",0.239525516056826,0.168861511425245,0.137780241065259,0.0976316298766438,0.0701301435075341,0.0523095635572187,0.0417289554813659,0.035231164328128,0.030603080423488,0.026673003369164,0.0229586493701856,0.0193341486887186,0.0158314724719519,0.0125392228349736,0.00955726316046436,0.00697247867189515,0.00484221569320507,0.00318369688304493,0.00197159316780371,0.00114487736950807,0.000621200693175859,0.000314179642799287,0.000147902884731333,6.47665103652111e-05,2.63774284932524e-05,9.99140011686461e-06,3.51945461058542e-06,1.15225697147996e-06,3.50226871822194e-07,9.86319685288109e-08,2.5659486071453e-08,6.14035103368755e-09,1.34391063380196e-09,2.67031601560382e-10,4.77180386051885e-11,7.58117856308916e-12,1.18886952620919e-12
"19",0.223500767304668,0.158322848566641,0.130323095705039,0.093922092317535,0.0691582590868423,0.0531959519242044,0.0437668383849063,0.03796640027138,0.0337663520614687,0.0300961035878849,0.0265164984965613,0.022914426556789,0.0193223289364527,0.0158283208047318,0.0125383551663928,0.0095570179471577,0.00697241044007643,0.00484219781198535,0.00318369260747729,0.00197159225633074,0.00114487719943429,0.000621200665926438,0.000314179639144014,0.000147902884335548,6.47665103324761e-05,2.63774284913516e-05,9.99140011679712e-06,3.51945461058434e-06,1.15225697147997e-06,3.50226871822274e-07,9.86319685290348e-08,2.56594860719589e-08,6.14035104977359e-09,1.34391073570334e-09,2.67035832434865e-10,4.77597428711327e-11,8.72399413890395e-12
"20",0.207289069855749,0.14755272298273,0.122535687393762,0.0897995742056353,0.0677235600577828,0.0536124084796554,0.0453653516368369,0.0403202260929319,0.0366239993976296,0.0333008506596435,0.0299517713578814,0.0264753650453489,0.0229032713583282,0.0193192945441364,0.0158274680521282,0.0125381103730901,0.00955694919623531,0.00697239233740572,0.0048421934741077,0.00318369168182234,0.00197159208352905,0.00114487717174114,0.000621200662211202,0.000314179638741714,0.000147902884302273,6.47665103305439e-05,2.6377428491283e-05,9.99140011679603e-06,3.51945461058482e-06,1.15225697148305e-06,3.50226871830798e-07,9.86319685482863e-08,2.56594863780889e-08,6.14035290186048e-09,1.34395738457555e-09,2.67439197271443e-10,5.60315337502159e-11
"21",0.191119825973111,0.136702865226688,0.114525403416697,0.0853150787270477,0.0658320383483141,0.0535303121108737,0.0464710155182303,0.0422220798036106,0.0390939866174558,0.0361970560866297,0.033167378678155,0.0299131535947069,0.0264646333318985,0.0229002585236508,0.0193184214423998,0.015827211791165,0.0125380374750249,0.00955692987806534,0.00697238769469424,0.00484219248208212,0.00318369149650602,0.0019715920538193,0.0011448771677545,0.000621200661779455,0.000314179638706001,0.0001479028843002,6.47665103304704e-05,2.63774284912822e-05,9.99140011680768e-06,3.51945461065676e-06,1.1522569716812e-06,3.50226872278125e-07,9.86319729376791e-08,2.56595113755309e-08,6.14077514971852e-09,1.34721190382917e-09,3.19763847490493e-10
"22",0.175155442919308,0.125892679506149,0.106393413587867,0.080539194085913,0.0635240117463014,0.0529596806305977,0.0470655738255803,0.0436292649827495,0.0411142325974322,0.0387083224099824,0.0360764255083803,0.033132419130759,0.0299034076058099,0.0264618849867344,0.0228994584508299,0.0193181858153137,0.0158271446241243,0.0125380196555373,0.00955692559297437,0.00697238677877034,0.00484219231094435,0.0031836914690653,0.00197159205013677,0.00114487716735566,0.000621200661746462,0.000314179638704085,0.000147902884300135,6.47665103304835e-05,2.63774284914862e-05,9.9914001179772e-06,3.51945461384872e-06,1.15225697888139e-06,3.50226922007874e-07,9.86322365887676e-08,2.56627473215292e-08,6.16324607057138e-09,1.64094371992282e-09
"23",0.159546062088274,0.115234640396376,0.0982387510060948,0.0755471639434627,0.0608511235793148,0.0519271109995966,0.0471499960696153,0.0445179514354717,0.0426388107232479,0.0407708088139976,0.0386016159480133,0.0360458387511129,0.0331240323288674,0.0299010901208508,0.0264612229617344,0.0228992660197834,0.0193181313596469,0.0158271302273386,0.0125380161985222,0.00955692485443591,0.00697238664079786,0.00484219228882183,0.00318369146609641,0.00197159204981522,0.00114487716732906,0.000621200661744926,0.000314179638704101,0.000147902884300428,6.47665103331984e-05,2.63774285057306e-05,9.99140015639443e-06,3.51945470041157e-06,1.15225744027035e-06,3.50229184770642e-07,9.86537262335888e-08,2.57982547004508e-08,7.64432630229328e-09
"24",0.144447743609205,0.104842283604391,0.0901585466689,0.0704119684518031,0.0578660422055369,0.0504656517738719,0.0467370772098065,0.0448796029890962,0.0436377795620215,0.0423349357855102,0.0406770930314682,0.0385750958879774,0.0360387135579817,0.0331221147899705,0.0299005564388048,0.0264610707720252,0.0228992234272679,0.0193181201614265,0.0158271275448831,0.0125380156260058,0.00955692474751617,0.00697238662365599,0.00484219228652139,0.00318369146584725,0.00197159204979461,0.00114487716732798,0.000621200661745869,0.000314179638708165,0.000147902884328852,6.47665104698272e-05,2.63774288694541e-05,9.99140097488958e-06,3.51945830277505e-06,1.15227376641903e-06,3.50355026523712e-07,9.93788444540092e-08,3.25703400786399e-08
"25",0.129990099036075,0.094813570952214,0.0822416652577737,0.0652069052860701,0.0546288123475536,0.0486215282498179,0.0458572686307589,0.0447261737200626,0.0441024026090989,0.043370742324966,0.0422532896015758,0.0406543428997744,0.0385691387527841,0.0360371663911011,0.0331217001224986,0.0299004416296387,0.0264610392160844,0.0228992152082052,0.0193181182009948,0.0158271271272144,0.012538015548059,0.0095569247350223,0.0069723866219794,0.0048421922863398,0.00318369146583225,0.00197159204979495,0.00114487716733795,0.000621200661786864,0.000314179638948242,0.000147902885399297,6.47665132843641e-05,2.63774351936322e-05,9.9914251321606e-06,3.51955985389397e-06,1.15293230864741e-06,3.53840735575225e-07,1.27668723395601e-07
"26",0.11627567053363,0.0852296981668397,0.0745667497426085,0.0600028959106957,0.0512034629306436,0.0464502958338697,0.0445549774332258,0.0440874419330304,0.0440443599068787,0.0438693474376191,0.0433001549941718,0.0422339581444055,0.0406494307566586,0.0385679184232946,0.0360368556415374,0.0331216177405123,0.0299004196147571,0.0264610335681386,0.0228992138704363,0.0193181179168246,0.0158271270742439,0.012538015539572,0.00955692473388357,0.0069723866218562,0.00484219228633011,0.00318369146584218,0.00197159204987574,0.00114487716766376,0.000621200663475058,0.000314179646019488,0.000147902903777975,6.47665544940503e-05,2.63775766635842e-05,9.99198007291708e-06,3.52267165571734e-06,1.16812930403475e-06,4.62435485435883e-07
"27",0.103395103964074,0.0761621415619068,0.0672032456093647,0.0548638149747722,0.0476501942874692,0.0440080074819612,0.0428802087452336,0.0430041303433553,0.0434911054704999,0.043841055078029,0.0438080522621492,0.0432835090206815,0.0422297917739435,0.0406484199507791,0.0385676685423894,0.0360367911843788,0.0331216008403369,0.0299004153253376,0.0264610325573506,0.0228992136561934,0.0193181178769226,0.0158271270678525,0.0125380155387151,0.00955692473379345,0.00697238662185832,0.00484219228641648,0.00318369146641026,0.0019715920520795,0.00114487717794959,0.000621200704112781,0.000314179750321737,0.000147903136762701,6.47672893693856e-05,2.63802805153804e-05,1.00053658534336e-05,3.58320702751933e-06,1.55281382736754e-06
"28",0.0914116702288576,0.0676645760396843,0.0602082371629269,0.0498477467010264,0.0440284493344837,0.0413539779574872,0.0408898128941652,0.0415274779159103,0.0424844446887084,0.0433140784998526,0.0437877439434018,0.0437936031226328,0.0432799055896095,0.0422289228437977,0.0406482069247464,0.038567614058884,0.0360367769931606,0.0331215972533464,0.0299004144819308,0.0264610323787698,0.0228992136229479,0.019318117871601,0.0158271270671504,0.0125380155386821,0.00955692473393088,0.00697238662258649,0.00484219229016868,0.00318369147994849,0.00197159210858268,0.00114487738709673,0.000621201231992916,0.000314180920727061,0.000147906571117881,6.47791753005523e-05,2.64330300608022e-05,1.02268857010698e-05,4.84444901608634e-06
"29",0.0803531155749794,0.0597683036892688,0.0536243079410474,0.04500723778972,0.0403982443253403,0.0385519366766008,0.0386475589868103,0.0397179138048106,0.041078087273207,0.0423317462777965,0.0432682928830369,0.0437754331931183,0.0437905775342174,0.0432791932683749,0.0422287537052418,0.04064816502087,0.0385676033991,0.0360367743361292,0.0331215966328763,0.0299004143509719,0.0264610323544762,0.0228992136191833,0.0193181178713842,0.015827127067854,0.0125380155406392,0.00955692474041099,0.00697238664736251,0.00484219236961607,0.00318369176970746,0.00197159309706814,0.00114487981986915,0.000621206551263712,0.000314195524042531,0.000147954142534407,6.49704972983158e-05,2.7180499131993e-05,1.40612246336923e-05
"30",0.0702330327033621,0.0524932387573738,0.0474830790415325,0.040385541613684,0.0368124192499654,0.0356610737034399,0.0362156704208949,0.0376376253729573,0.0393311832637004,0.040946902131857,0.0422925173008576,0.0432577953835282,0.0437728755845114,0.0437899840738698,0.0432790551703416,0.0422287202090802,0.0406481566403497,0.0385676013329571,0.0360367738588388,0.0331215965364714,0.02990041433915,0.0264610323615701,0.0228992136336585,0.019318117894344,0.0158271271063315,0.0125380156171867,0.00955692493006483,0.00697238713424149,0.004842193830331,0.00318369619468428,0.00197160352763675,0.00114490204546169,0.000621263594034977,0.000314370059519095,0.00014859484159846,6.73014385404302e-05,3.79991020667202e-05
"31",0.0610442054201141,0.0458444779036504,0.0418040126644016,0.0360174736933287,0.0333183789689355,0.0327376718273524,0.0336556646523131,0.0353502407244798,0.037306714424291,0.0392191276583353,0.040913485561791,0.0422836184390851,0.0432556464428425,0.0437723845109433,0.0437898724069014,0.0432790289206236,0.0422287140014787,0.0406481553958143,0.0385676013525748,0.0360367742157546,0.0331215970096586,0.0299004148858302,0.0264610329841703,0.0228992143549929,0.0193181187681726,0.0158271282755637,0.0125380174780337,0.00955692837197647,0.00697239491387965,0.00484221340946609,0.00318373884538367,0.00197169017847511,0.00114510820391596,0.00062185274764891,0.000316353030227983,0.000155316749206104,9.56306083807199e-05
"32",0.0527626322811858,0.0398146120436073,0.0365955191040698,0.0319291476575636,0.0299568266737364,0.0298332149746067,0.0310261412659269,0.0329184181298515,0.0350688157813651,0.0372116185950517,0.0391908705035657,0.0409060134756433,0.0422818428070672,0.0432552581827272,0.0437723092308102,0.0437898663470603,0.0432790390822215,0.0422287284396047,0.0406481711251137,0.0385676174636533,0.036036790282888,0.0331216126974822,0.0299004298703656,0.0264610470030523,0.0228992273659219,0.0193181313155889,0.0158271422119549,0.0125380368767089,0.0095569638697448,0.00697247229702427,0.00484237032354248,0.00318404260747015,0.00197236480295972,0.00114691817277548,0.000627492804791417,0.000334229717152633,0.000224064616138058
"33",0.0453538042059022,0.0343872437512074,0.0318565897750934,0.028137651895211,0.0267602479195998,0.0269923194674682,0.0283805778563459,0.0304016751434689,0.032680597257967,0.0349888142833544,0.0371881517087803,0.0391849537478806,0.0409048967731821,0.0422818944425251,0.0432555749271972,0.0437726839359693,0.0437902491358666,0.0432794125362156,0.0422290814782115,0.040648493664947,0.0385678993105576,0.0360370210263413,0.0331217821495889,0.0299005291624111,0.0264610704665945,0.0228991752326895,0.0193180129233663,0.0158269787678212,0.0125378726379757,0.00955688757211889,0.0069726040102176,0.00484290906481253,0.00318559406885272,0.00197694996825143,0.00116112932539592,0.000670708161290075,0.000487962245315031
"34",0.0387821315347421,0.0295443805560735,0.0275837928577886,0.0246570745937934,0.0237580714547808,0.0242571515857802,0.0257712369041151,0.0278600450116921,0.0302077450181534,0.0326199829903754,0.0349760485028388,0.037190310655019,0.0391912014407425,0.0409120514557074,0.0422890476183158,0.0432623854269197,0.0437789309626339,0.0437957338990769,0.0432839425781545,0.04223247269772,0.0406505771830261,0.0385685311148428,0.0360360943458035,0.0331192417778057,0.0298963857020647,0.026455411043034,0.0228921674160428,0.0193099010849494,0.0158180991146972,0.0125286941920565,0.00954796905241579,0.00696471140595873,0.00483777799400486,0.00318830050684408,0.00200234844382663,0.00124990279430829,0.000980149083889631
"35",0.0333722974393088,0.0255373768724674,0.0240171790904713,0.0217079909914803,0.0211668589569216,0.0218497408780214,0.0234314246645038,0.0255397931785922,0.0279080161245269,0.0303707686105943,0.0328230585902922,0.0351874119225893,0.0373961182674464,0.0393836094636609,0.0410848770035449,0.0424365174608348,0.0433789561224768,0.0438594299659552,0.0438356123299826,0.0432795872363627,0.042181543050698,0.0405523127541576,0.0384239588336326,0.0358480730525567,0.0328923232974264,0.0296365382477202,0.0261697066955803,0.0225885381699699,0.0189970591740066,0.0155055771983635,0.012226641877162,0.00926703628049634,0.00671674779206651,0.004639216589795,0.0030697895756698,0.00203394649838827,0.00168436574226982
"36",0.028266229699382,0.0217321337000418,0.0205944650421143,0.0188281522957375,0.0185828027502764,0.019396389843919,0.0209981497745229,0.0230797851253494,0.0254207883024966,0.0278841259785061,0.0303812206328361,0.0328442992921039,0.0352114694964646,0.037420377863722,0.0394070146102168,0.0411067373417255,0.042456209489418,0.0433958723519791,0.0438729872327031,0.0438452727640868,0.0432848828227925,0.0421821013455488,0.0405478860317677,0.0384144604496512,0.0358336241454468,0.0328733085664066,0.0296136558916269,0.0261439948494455,0.0225614674866116,0.0189706862018917,0.0154822608509348,0.0122094330009517,0.00926245171562337,0.00674405345180091,0.00475006971051446,0.00339291911366649,0.0030082607777107
"37",0.0240672659280847,0.0185877487990163,0.0177430196668576,0.016396964270359,0.0163672093388481,0.0172598864806028,0.0188487917270804,0.0208776436143708,0.0231639348838643,0.025594364984499,0.0280948459972449,0.0306069455444693,0.033075119301297,0.0354412661414409,0.0376437482332478,0.0396183986579588,0.0413003156584124,0.0426260228023121,0.0435359913233845,0.0439777065258694,0.043909351318158,0.0433038485577313,0.042152634208277,0.0404682556633017,0.0382849522430254,0.0356568252312423,0.0326541146797434,0.0293589943294626,0.0258625232421363,0.0222633472311685,0.0186666606991239,0.0151842286308258,0.0119351909547407,0.00905135273515687,0.00668563124642222,0.00504645122173682,0.00468844792852106
