"","X0","X1","X2","X3","X4","X5","X6","X7","X8","X9","X10","X11","X12","X13","X14","X15","X16","X17","X18","X19","X20","X21","X22","X23","X24","X25","X26","X27","X28","X29","X30","X31","X32","X33","X34","X35","X36"
"1",0.967741935483871,0,0,0.032258064516129,0,0,0,0,0,0,0,0,0,0,0,0,0,0,0,0,0,0,0,0,0,0,0,0,0,0,0,0,0,0,0,0,0
"2",0.061427948037998,0.906313987445873,0,0.00204759826793326,0.0302104662481957,0,0,0,0,0,0,0,0,0,0,0,0,0,0,0,0,0,0,0,0,0,0,0,0,0,0,0,0,0,0,0,0
"3",0.00100701554160652,0.0604209324963915,0.906313987445873,3.35671847202174e-05,0.00201403108321305,0.0302104662481957,0,0,0,0,0,0,0,0,0,0,0,0,0,0,0,0,0,0,0,0,0,0,0,0,0,0,0,0,0,0,0
"4",0,0.00100701554160652,0.0604209324963915,0.906313987445873,3.35671847202174e-05,0.00201403108321305,0.0302104662481957,0,0,0,0,0,0,0,0,0,0,0,0,0,0,0,0,0,0,0,0,0,0,0,0,0,0,0,0,0,0
"5",0,0,0.00100701554160652,0.0604209324963915,0.906313987445873,3.35671847202174e-05,0.00201403108321305,0.0302104662481957,0,0,0,0,0,0,0,0,0,0,0,0,0,0,0,0,0,0,0,0,0,0,0,0,0,0,0,0,0
"6",0,0,0,0.00100701554160652,0.0604209324963915,0.906313987445873,3.35671847202174e-05,0.00201403108321305,0.0302104662481957,0,0,0,0,0,0,0,0,0,0,0,0,0,0,0,0,0,0,0,0,0,0,0,0,0,0,0,0
"7",0,0,0,0,0.00100701554160652,0.0604209324963915,0.906313987445873,3.35671847202174e-05,0.00201403108321305,0.0302104662481957,0,0,0,0,0,0,0,0,0,0,0,0,0,0,0,0,0,0,0,0,0,0,0,0,0,0,0
"8",0,0,0,0,0,0.00100701554160652,0.0604209324963915,0.906313987445873,3.35671847202174e-05,0.00201403108321305,0.0302104662481957,0,0,0,0,0,0,0,0,0,0,0,0,0,0,0,0,0,0,0,0,0,0,0,0,0,0
"9",0,0,0,0,0,0,0.00100701554160652,0.0604209324963915,0.906313987445873,3.35671847202174e-05,0.00201403108321305,0.0302104662481957,0,0,0,0,0,0,0,0,0,0,0,0,0,0,0,0,0,0,0,0,0,0,0,0,0
"10",0,0,0,0,0,0,0,0.00100701554160652,0.0604209324963915,0.906313987445873,3.35671847202174e-05,0.00201403108321305,0.0302104662481957,0,0,0,0,0,0,0,0,0,0,0,0,0,0,0,0,0,0,0,0,0,0,0,0
"11",0,0,0,0,0,0,0,0,0.00100701554160652,0.0604209324963915,0.906313987445873,3.35671847202174e-05,0.00201403108321305,0.0302104662481957,0,0,0,0,0,0,0,0,0,0,0,0,0,0,0,0,0,0,0,0,0,0,0
"12",0,0,0,0,0,0,0,0,0,0.00100701554160652,0.0604209324963915,0.906313987445873,3.35671847202174e-05,0.00201403108321305,0.0302104662481957,0,0,0,0,0,0,0,0,0,0,0,0,0,0,0,0,0,0,0,0,0,0
"13",0,0,0,0,0,0,0,0,0,0,0.00100701554160652,0.0604209324963915,0.906313987445873,3.35671847202174e-05,0.00201403108321305,0.0302104662481957,0,0,0,0,0,0,0,0,0,0,0,0,0,0,0,0,0,0,0,0,0
"14",0,0,0,0,0,0,0,0,0,0,0,0.00100701554160652,0.0604209324963915,0.906313987445873,3.35671847202174e-05,0.00201403108321305,0.0302104662481957,0,0,0,0,0,0,0,0,0,0,0,0,0,0,0,0,0,0,0,0
"15",0,0,0,0,0,0,0,0,0,0,0,0,0.00100701554160652,0.0604209324963915,0.906313987445873,3.35671847202174e-05,0.00201403108321305,0.0302104662481957,0,0,0,0,0,0,0,0,0,0,0,0,0,0,0,0,0,0,0
"16",0,0,0,0,0,0,0,0,0,0,0,0,0,0.00100701554160652,0.0604209324963915,0.906313987445873,3.35671847202174e-05,0.00201403108321305,0.0302104662481957,0,0,0,0,0,0,0,0,0,0,0,0,0,0,0,0,0,0
"17",0,0,0,0,0,0,0,0,0,0,0,0,0,0,0.00100701554160652,0.0604209324963915,0.906313987445873,3.35671847202174e-05,0.00201403108321305,0.0302104662481957,0,0,0,0,0,0,0,0,0,0,0,0,0,0,0,0,0
"18",0,0,0,0,0,0,0,0,0,0,0,0,0,0,0,0.00100701554160652,0.0604209324963915,0.906313987445873,3.35671847202174e-05,0.00201403108321305,0.0302104662481957,0,0,0,0,0,0,0,0,0,0,0,0,0,0,0,0
"19",0,0,0,0,0,0,0,0,0,0,0,0,0,0,0,0,0.00100701554160652,0.0604209324963915,0.906313987445873,3.35671847202174e-05,0.00201403108321305,0.0302104662481957,0,0,0,0,0,0,0,0,0,0,0,0,0,0,0
"20",0,0,0,0,0,0,0,0,0,0,0,0,0,0,0,0,0,0.00100701554160652,0.0604209324963915,0.906313987445873,3.35671847202174e-05,0.00201403108321305,0.0302104662481957,0,0,0,0,0,0,0,0,0,0,0,0,0,0
"21",0,0,0,0,0,0,0,0,0,0,0,0,0,0,0,0,0,0,0.00100701554160652,0.0604209324963915,0.906313987445873,3.35671847202174e-05,0.00201403108321305,0.0302104662481957,0,0,0,0,0,0,0,0,0,0,0,0,0
"22",0,0,0,0,0,0,0,0,0,0,0,0,0,0,0,0,0,0,0,0.00100701554160652,0.0604209324963915,0.906313987445873,3.35671847202174e-05,0.00201403108321305,0.0302104662481957,0,0,0,0,0,0,0,0,0,0,0,0
"23",0,0,0,0,0,0,0,0,0,0,0,0,0,0,0,0,0,0,0,0,0.00100701554160652,0.0604209324963915,0.906313987445873,3.35671847202174e-05,0.00201403108321305,0.0302104662481957,0,0,0,0,0,0,0,0,0,0,0
"24",0,0,0,0,0,0,0,0,0,0,0,0,0,0,0,0,0,0,0,0,0,0.00100701554160652,0.0604209324963915,0.906313987445873,3.35671847202174e-05,0.00201403108321305,0.0302104662481957,0,0,0,0,0,0,0,0,0,0
"25",0,0,0,0,0,0,0,0,0,0,0,0,0,0,0,0,0,0,0,0,0,0,0.00100701554160652,0.0604209324963915,0.906313987445873,3.35671847202174e-05,0.00201403108321305,0.0302104662481957,0,0,0,0,0,0,0,0,0
"26",0,0,0,0,0,0,0,0,0,0,0,0,0,0,0,0,0,0,0,0,0,0,0,0.00100701554160652,0.0604209324963915,0.906313987445873,3.35671847202174e-05,0.00201403108321305,0.0302104662481957,0,0,0,0,0,0,0,0
"27",0,0,0,0,0,0,0,0,0,0,0,0,0,0,0,0,0,0,0,0,0,0,0,0,0.00100701554160652,0.0604209324963915,0.906313987445873,3.35671847202174e-05,0.00201403108321305,0.0302104662481957,0,0,0,0,0,0,0
"28",0,0,0,0,0,0,0,0,0,0,0,0,0,0,0,0,0,0,0,0,0,0,0,0,0,0.00100701554160652,0.0604209324963915,0.906313987445873,3.35671847202174e-05,0.00201403108321305,0.0302104662481957,0,0,0,0,0,0
"29",0,0,0,0,0,0,0,0,0,0,0,0,0,0,0,0,0,0,0,0,0,0,0,0,0,0,0.00100701554160652,0.0604209324963915,0.906313987445873,3.35671847202174e-05,0.00201403108321305,0.0302104662481957,0,0,0,0,0
"30",0,0,0,0,0,0,0,0,0,0,0,0,0,0,0,0,0,0,0,0,0,0,0,0,0,0,0,0.00100701554160652,0.0604209324963915,0.906313987445873,3.35671847202174e-05,0.00201403108321305,0.0302104662481957,0,0,0,0
"31",0,0,0,0,0,0,0,0,0,0,0,0,0,0,0,0,0,0,0,0,0,0,0,0,0,0,0,0,0.00100701554160652,0.0604209324963915,0.906313987445873,3.35671847202174e-05,0.00201403108321305,0.0302104662481957,0,0,0
"32",0,0,0,0,0,0,0,0,0,0,0,0,0,0,0,0,0,0,0,0,0,0,0,0,0,0,0,0,0,0.00100701554160652,0.0604209324963915,0.906313987445873,3.35671847202174e-05,0.00201403108321305,0.0302104662481957,0,0
"33",0,0,0,0,0,0,0,0,0,0,0,0,0,0,0,0,0,0,0,0,0,0,0,0,0,0,0,0,0,0,0.00100701554160652,0.0604209324963915,0.906313987445873,3.35671847202174e-05,0.00201403108321305,0.0302104662481957,0
"34",0,0,0,0,0,0,0,0,0,0,0,0,0,0,0,0,0,0,0,0,0,0,0,0,0,0,0,0,0,0,0,0.00100701554160652,0.0604209324963915,0.906313987445873,3.35671847202174e-05,0.00201403108321305,0.0302104662481957
"35",0,0,0,0,0,0,0,0,0,0,0,0,0,0,0,0,0,0,0,0,0,0,0,0,0,0,0,0,0,0,0,0,0.00100701554160652,0.0604209324963915,0.936524453694069,3.35671847202174e-05,0.00201403108321305
"36",0,0,0,0,0,0,0,0,0,0,0,0,0,0,0,0,0,0,0,0,0,0,0,0,0,0,0,0,0,0,0,0,0,0.00100701554160652,0.0624349635796045,0.936524453694069,3.35671847202174e-05
"37",0,0,0,0,0,0,0,0,0,0,0,0,0,0,0,0,0,0,0,0,0,0,0,0,0,0,0,0,0,0,0,0,0,0,0.00104058272632674,0.0624349635796045,0.936524453694069
