"","X0","X1","X2","X3","X4","X5","X6","X7","X8","X9","X10","X11","X12","X13","X14","X15","X16","X17","X18","X19","X20","X21","X22","X23","X24","X25","X26","X27","X28","X29","X30","X31","X32","X33","X34","X35","X36"
"1",0.00524524239146144,0.00608758093155427,0.00886555199500488,0.0124301029969537,0.016697431048678,0.0217633901589696,0.0274902377655213,0.0336341695219753,0.0398702104155572,0.0458234134888642,0.0511230652814617,0.0554462734352852,0.0585471913647674,0.0602758114601151,0.0605845133625939,0.0595235751071813,0.0572274642417331,0.0538945278076931,0.0497632055200951,0.0450880433881246,0.0401181404166647,0.0350798923992887,0.0301649880154532,0.0255237900057304,0.0212635929987149,0.0174507984395253,0.0141158593957952,0.0112597368815759,0.00886079245885892,0.00688212067393399,0.00527759824675217,0.00400066038478367,0.00300849518812589,0.00226030830031248,0.00181892280492977,0.0014003787024845,0.00213292300347284
"2",0.00524460719811304,0.00608685588182489,0.00886451906305696,0.0124286935381143,0.0166956018053376,0.0217611048761292,0.0274874971224493,0.0336310215112517,0.0398667541218123,0.0458197953923841,0.0511194668384158,0.0554428927845971,0.0585442227165148,0.0602734251784802,0.0605828395057812,0.0595226923971737,0.0572273954387127,0.0538952414594882,0.0497646231795286,0.0450900507509408,0.0401206005402657,0.0350826591870167,0.0301679184355759,0.0255267539606445,0.0212664802659728,0.0174535225716077,0.0141183588407001,0.0112619737778282,0.00886274963692363,0.00688379793605025,0.00527900814450822,0.00400182635929845,0.00300944997278284,0.00226109078998951,0.00181962395350154,0.0014009663419045,0.00213391852531511
"3",0.00524276547693999,0.00608475318769152,0.00886152266309221,0.0124246034962184,0.0166902913384709,0.0217544670208162,0.0274795316062825,0.0336218651066209,0.0398566919774982,0.0458092507658882,0.0511089655042202,0.0554330102949095,0.0585355247510995,0.0602664096818722,0.0605778886287983,0.0595200400115097,0.0572271131314395,0.0538972430150506,0.0497686850067249,0.0450958438345408,0.040127728617682,0.0350906978880821,0.0301764509192185,0.025535399856658,0.0212749161888356,0.0174614938231642,0.0141256830153306,0.0112685375474799,0.0088685002312484,0.00688873246174934,0.00528316135364125,0.00400526540711728,0.00301226986144418,0.00226340517932617,0.00182170179406442,0.00140271044872999,0.00213687890653525
"4",0.0052386703381453,0.00608007597557198,0.00885485411988187,0.0124154953555962,0.0166784561179604,0.0217396593073634,0.0274617415573679,0.0336013869969742,0.0398341509275581,0.0457855817595365,0.0510853359838987,0.0554107041574171,0.0585158102112909,0.0602504101826781,0.0605664746453998,0.059513754768512,0.0572261390218329,0.0539014091211417,0.0497775104330318,0.0451086073014955,0.0401435526829277,0.0351086361083746,0.0301955679147691,0.0255548369895871,0.0212939387727669,0.0174795187827088,0.0141422883885982,0.0112834565110724,0.0088816028990248,0.00690000259757809,0.00529266923848206,0.00401315684330934,0.00301875637929604,0.00226874314874343,0.00182651131197816,0.00140675872170136,0.00214377442641893
"5",0.00523076490474234,0.00607104262190316,0.00884196674873005,0.0123978797769941,0.0166555440122292,0.0217109587079971,0.0274272111382381,0.0335615708513397,0.0397902337908516,0.0457393529370291,0.0510390441566618,0.0553668366164469,0.0584768391662547,0.0602185427417465,0.0605434409277205,0.0595006596992399,0.0572233916669035,0.0539087312459789,0.0497940149590276,0.0451329289206781,0.0401740085772685,0.035143394287187,0.0302328035697099,0.0255928623605657,0.0213312980988823,0.0175150456926474,0.0141751279361182,0.0113130566120327,0.00890768112734481,0.00692250249615997,0.00531170821161985,0.004029006785916,0.00303182577262964,0.00227953566893654,0.0018362805664162,0.00141501137931462,0.00215789526652949
"6",0.00521695309271944,0.00605525191869538,0.00881942341626489,0.012367039275153,0.016615387313978,0.0216605905173792,0.0273665151073803,0.033491449675103,0.0397127126565584,0.0456575251698001,0.0509568259960382,0.055288588068555,0.058406923977392,0.0601608905107445,0.0605011714688778,0.0594758150053692,0.0572168010779464,0.0539200145236736,0.049821708736666,0.0451747069777409,0.0402269583032834,0.0352043103033729,0.0302984639213934,0.0256602611409499,0.0213978187413463,0.0175785692007608,0.0142340789128071,0.0113663945066155,0.00895484638875534,0.00696334313702342,0.00534638960998166,0.00405798223221051,0.00305580768783636,0.00229942128462682,0.00185438067452709,0.00143036727915515,0.0021843121893106
"7",0.00519515576022807,0.00603031597328894,0.00878379453337748,0.0123182473353964,0.0165517745969193,0.0215806759492121,0.0272700304670591,0.0333797269564066,0.039588860329525,0.0455263588203318,0.0508244976192376,0.0551620007305283,0.0582930442852059,0.060066056454794,0.0604304901324194,0.0594327228695545,0.0572028298351597,0.0539347730901394,0.0498630619100393,0.04523910696158,0.0403098715767515,0.0353006789166084,0.0304031461554838,0.0257684088951959,0.0215051648523559,0.0176816135322568,0.0143301757798831,0.0114537513150966,0.00903244723444175,0.0070308391799034,0.00540395891064993,0.00410629313367219,0.00309597924004308,0.00233290236541885,0.00188506663460169,0.00145653971496009,0.00222963795226495
"8",0.00516358032475331,0.00599416736129647,0.00873209445680521,0.0122473618092097,0.0164592171865557,0.0214641836118747,0.0271290677787254,0.0332160611597265,0.0394068385433684,0.0453328356675192,0.0506283266597755,0.054973209954058,0.0581218535676724,0.0599218748205438,0.0603210287175412,0.0593633305634008,0.0571761177658641,0.0539505489110222,0.0499185513922274,0.0453294045842236,0.0404285403309918,0.0354404126148046,0.0305564140135888,0.0259280185073042,0.0216647015875264,0.0178357365521481,0.0144747709242191,0.0115859517697005,0.00915053887741177,0.00713411410016954,0.00549251732536108,0.00418101059895355,0.00315846177600583,0.00238530571334011,0.00193350256770302,0.00149811926500147,0.00230222863959696
"9",0.00512005130201521,0.0059442952740859,0.00866069382720163,0.0121493415877609,0.0163310251242046,0.0213025269002196,0.0269329903858447,0.0329877557768367,0.0391520598442336,0.0450608413932257,0.0503512188951927,0.0547048346627771,0.0578764686363001,0.0597127710858374,0.0601592892148688,0.0592568771323662,0.0571291414816211,0.0539633608946152,0.0499878315232311,0.0454487755463368,0.0405893627805576,0.0356326849097748,0.0307696659044826,0.0261521081783324,0.0218904539031079,0.0180553899498216,0.0146822280398584,0.0117768433712494,0.00932211925624558,0.00728508027421604,0.00562274566972601,0.00429154841753066,0.00325148888922883,0.00246387829529346,0.00200682239008425,0.00156151796474962,0.00241391131695587
"10",0.00506276559204304,0.00587860884372561,0.00856655171213605,0.0120199315235529,0.0161614996644655,0.0210883114115946,0.0266725204516812,0.0326835705807653,0.0388113876731482,0.0446955781336314,0.0499771207544611,0.0543401227115699,0.0575401114218154,0.0594226798092417,0.0599306653974061,0.0591009102584936,0.0570521898848937,0.0539666739854211,0.0500677954733591,0.0455975981449439,0.0407960691435967,0.0358842758263833,0.0310522943736366,0.0264521522823484,0.0221953989149787,0.0183544697396415,0.0149668118538425,0.0120405722719475,0.00956080781131799,0.00749651278558638,0.00580634693670681,0.00444843608258951,0.00338446460780765,0.00257708338419659,0.00211359842732476,0.00165459475977465,0.0025795173699616
"11",0.00499127563608431,0.00579656202783499,0.00844882313805129,0.0118578642642574,0.01594880443753,0.0208189423530158,0.0263440943597378,0.0322987636589134,0.0383787220946541,0.0442294720746567,0.0494969645935529,0.0538686139195565,0.0571011658327993,0.0590391997910041,0.0596224578775972,0.0588830014007066,0.0569337101764376,0.0539503991683186,0.0501503368717766,0.0457701530846103,0.0410455844867252,0.0361948481591837,0.0314066295614503,0.0268329300241874,0.022586427201552,0.0187415575205874,0.0153383321182186,0.0123877084434166,0.00987748976700366,0.00777921647929678,0.00605371297088523,0.00466144235315303,0.0035664875435925,0.00273346236468992,0.00226293369423154,0.00178597689390295,0.00281593365681718
"12",0.00490316847864335,0.00569536107727658,0.00830345269540993,0.0116574773602984,0.0156853742589768,0.0204846278229881,0.0259354545542521,0.0318185123591646,0.0378367578634678,0.04364302628113,0.0488895599901835,0.0532681049707788,0.0565372355920747,0.058540644199755,0.0592146093323636,0.0585855938486674,0.0567594061543594,0.0539040971517589,0.0502292683890339,0.045964678070887,0.0413405202143978,0.0365711261643556,0.0318430679639626,0.0273079307039354,0.0230794505148761,0.0192342764275928,0.0158154196013575,0.0128372336817709,0.010290912865771,0.00815121451245709,0.00638175291193208,0.00494615360724743,0.00381184768083631,0.00294626196377016,0.00246879331050427,0.0019688241160611,0.00314880330769173
"13",0.00479768818904546,0.0055741063167812,0.00812908816173687,0.011416804600758,0.0153684527061757,0.0200815993117028,0.0254415859831031,0.0312363318496238,0.0371773568169993,0.0429263376649366,0.0481432284131436,0.0525252557640584,0.0558335717748496,0.0579112489431824,0.0586908624565726,0.0581925596169148,0.0565139612280663,0.0538139539269297,0.0502929245788584,0.0461722050273508,0.0416750136476646,0.0370105894377062,0.0323624831166995,0.0278812914775159,0.0236815768789651,0.0198422829582823,0.0164097688407511,0.0134023246987417,0.0108151678622375,0.00862696991904333,0.00680480966772208,0.00531646322266537,0.00413390316344852,0.0032284711222605,0.00274567507635535,0.00221729444782937,0.00360679113131164
"14",0.00467450044937708,0.00543238210638007,0.00792507201178629,0.0111348360149693,0.0149965373949712,0.0196076734406775,0.0248593984905767,0.0305479758029518,0.0363948652383828,0.0420721224514462,0.047248896028476,0.0516291394955468,0.0549774589774972,0.0571367223115015,0.0580357160899717,0.0576876992569653,0.0561811054854358,0.0536643306763847,0.0503270192665166,0.0463804835599318,0.0420394387368833,0.0375066828999844,0.0329616623291987,0.0285532224716914,0.0243963316962247,0.0205721427204432,0.0171305774678147,0.0140943098613098,0.0114631524691132,0.00922037351000979,0.0073372058526371,0.00578672874626603,0.00454692192904876,0.00359443639212165,0.00311025120073219,0.00254806992299882,0.004224557243765
"15",0.0045336704606049,0.00527023388622926,0.00769141304714522,0.0108114865949199,0.0145693519559285,0.0190622369245994,0.0241877392463189,0.0297514951009634,0.0354862404503178,0.0410759323933358,0.0462004178290151,0.0505716856804814,0.053958777358076,0.0562049128389113,0.0572351715513884,0.0570555263430777,0.0557443882334415,0.0534384693715838,0.0503152301991264,0.0465743977095989,0.0424206203472609,0.0380488102458811,0.0336330789248128,0.0293195750422826,0.0252230544544683,0.0214265992927397,0.0179837373943083,0.014921834209949,0.0122457578932004,0.0099439921378393,0.00799258363497823,0.00637122654668907,0.00506567049928253,0.00405960259652963,0.00358131197925599,0.00298045291989157,0.00504331470555592
"16",0.00437571359524823,0.00508822758367421,0.00742887409618133,0.0104477212896508,0.0140880174008832,0.018446475485957,0.0234276904599439,0.0288476146199429,0.0344515147845635,0.0399367105222727,0.0449952249238185,0.0493484125852267,0.052770806464642,0.0551066625895718,0.0562776050700221,0.0562821211323815,0.0551879692720245,0.0531191753873617,0.0502397280164178,0.0467363019929211,0.0428019480563741,0.0386222096645702,0.0343645297103728,0.0301712569818371,0.0261561225726052,0.022403649701489,0.0189708130389554,0.0158897949674358,0.0131708143660332,0.0108080710895609,0.00878300131896776,0.00708337333788675,0.00570478636494723,0.00464005906088174,0.00417952972984164,0.00353631378083811,0.00611115898468693
"17",0.004201980631301,0.004887890924285,0.00713960377757702,0.0100464223736876,0.0135561869477258,0.0177648063999177,0.0225843105726368,0.0278417682277211,0.0332960807681601,0.0386592549415923,0.0436368728443826,0.047960951963111,0.0514126140327446,0.0538379528349148,0.0551555763711966,0.0553565271388026,0.0544975510042392,0.0526892563340897,0.0500811160016059,0.0468454774234789,0.0431623823820332,0.0392065598694405,0.0351374029669349,0.031092233971537,0.0271827637949095,0.0234942477172891,0.0200867143833797,0.0169970584800354,0.0142409176320506,0.0118185245065072,0.00971712840400147,0.00793415528411956,0.00647746015468815,0.0053514861514409,0.0049266564246563,0.00423954954225853,0.00748255682153617
"18",0.00401474932693743,0.00467181997988262,0.00682729217436073,0.0096126085565193,0.0129803417329936,0.0170252660443328,0.0216671269162479,0.0267447059733053,0.0320314168588204,0.0372550605479004,0.0421359896979481,0.0464180871956723,0.0498901611649763,0.0524010473665939,0.0538669759247129,0.0542718636481475,0.0536614141891374,0.0521324372155201,0.0498191811285879,0.0468786779472707,0.0434767622446061,0.039776023605966,0.0359264453209935,0.0320590215607639,0.028282290392618,0.0246813122679417,0.021318524495932,0.0182351612885468,0.015452062850954,0.0129755615437168,0.0107989186803533,0.00893089769654443,0.0073943448565686,0.00620824049028711,0.0058447951871478,0.00511557461318938,0.00921783931399091
"19",0.00381573141443283,0.0044419718177706,0.00649473259901964,0.00915009818982201,0.0123654444315065,0.0162340563906471,0.0206835624515056,0.0255649002483347,0.0306666962560282,0.0357334728796938,0.0405014106416403,0.0447273559845955,0.0482088640739644,0.0507984577895104,0.0524107482415677,0.0530230388974798,0.0526702123304357,0.0514351845627924,0.0494365662330749,0.0468153632458015,0.0437222378776279,0.0403064831556844,0.0367074006979444,0.0330483577628365,0.0294334889446721,0.0259465869632591,0.0226516574511555,0.0195936700859188,0.0167981767835229,0.014277415766634,0.0120306017106967,0.0100796192654928,0.00846540307225804,0.00722484520573506,0.0069578229234894,0.00619261264340586,0.0113857510100313
"20",0.00360697598301118,0.0042006974166066,0.00614529645502986,0.0086635274612299,0.0117175681439866,0.0153988444569958,0.0196429157228945,0.0243131510586543,0.0292138909677161,0.034107097140601,0.0387456469466393,0.0429003080139336,0.0463783702935048,0.0490369967122731,0.0507900313154977,0.051608850753901,0.051517980363061,0.0505866391213046,0.0489177021857649,0.0466357508593067,0.04387559176972,0.0407722912994223,0.0374533512481753,0.0340332826648638,0.0306105701206339,0.0272665718519211,0.0240658643983705,0.0210563368305271,0.0182674815524225,0.0157169641058387,0.0134095920469979,0.0113822544811106,0.00969745058814301,0.00841384979702311,0.0082894234557204,0.0075000549688371,0.0140608274483484
"21",0.00339110740694989,0.00395101409015097,0.00578332296165156,0.00815888498870997,0.0110445949844952,0.0145296427011982,0.0185574285190814,0.0230038301437094,0.0276891637204905,0.0323932924370159,0.0368864245491297,0.0409540236097892,0.0444139941632305,0.0471290743663487,0.0490132714109149,0.0500328922580313,0.0502028193129056,0.0495790815697459,0.0482490662273933,0.0463208835074314,0.0439131315603493,0.0411460031306297,0.0381342964457766,0.0349825684161338,0.0317824503237983,0.0286116577122443,0.0255342251483894,0.0225999589119137,0.0198412431599972,0.0172803921477029,0.0149271071210618,0.0128352638127688,0.0110927968299916,0.00978453518838438,0.00986178914086051,0.00906731383208814,0.0173214541895239
"22",0.00317050602905657,0.00369566779155315,0.00541277861910982,0.00764167483733159,0.0103538192555908,0.0136357953570732,0.0174386439928256,0.0216506602292401,0.0261081858088683,0.0306092121109431,0.034941684137716,0.0389063429096405,0.0423324508509124,0.045089193257151,0.0470916902684413,0.0483021408925933,0.0487266831754159,0.0484089147596012,0.0474212830986056,0.0458557082834041,0.0438145566470387,0.0414028069405445,0.0387219109506305,0.0358655702512468,0.0329174811786496,0.0299505510256462,0.0270271262548421,0.0241978133213866,0.0214966106329895,0.0189494300098745,0.0165698285573666,0.0144307797827804,0.0126499574775632,0.0113432889125202,0.0116957478634449,0.0109238116504783,0.0212496928779117
"23",0.00294759418960432,0.00343745907036548,0.00503772057840092,0.0071175471319238,0.00965276316184414,0.0127269933955806,0.0162986179908519,0.0202680986091949,0.0244876466001574,0.0287733732594825,0.0329311318597095,0.0367773152354343,0.0401531281547566,0.042934981572702,0.0450400415576396,0.0464274253235579,0.0470955688012965,0.0470766114421033,0.0464288805210323,0.04522869669505,0.0435624978349301,0.0415200291495667,0.0391890456560122,0.0366517370504901,0.0339829660184156,0.0312497790288107,0.0285117286975177,0.0258190587993665,0.0232059289388749,0.0207005615807971,0.0183190062355839,0.0161556121341226,0.0143625686454008,0.0130924358381453,0.0138093698310107,0.0130975896593474,0.0259284897509076
"24",0.00272489974180084,0.00317931454332127,0.00466239651141286,0.00659243103761546,0.00894934393534958,0.011813474861093,0.0151501468392035,0.0188715813582946,0.0228454985267677,0.026905883995366,0.0308764302771089,0.0345893384369073,0.037898165409606,0.0406872118456705,0.0428765798508802,0.0444233654243785,0.0453194560714888,0.0455866887250415,0.0452703326241311,0.0444319872611001,0.0431427798962209,0.0414775241678529,0.039510236213771,0.0373112134039548,0.034945815540895,0.0324743479163252,0.0299525718064521,0.0274292292961451,0.0249370736266013,0.0225051650155412,0.0201503869783792,0.0179909577440767,0.0162188751963887,0.0150295036778181,0.0162168581490368,0.0156140634163011,0.0314388706776896
"25",0.00250479832088797,0.00292399085720341,0.00429081935753596,0.00607194854142471,0.0082511031206072,0.01090504660949,0.0140055712645101,0.0174761170864754,0.0211993693477924,0.0250267245670365,0.028799417712554,0.0323653996642913,0.0355908060657853,0.0383683556322878,0.0406219006093616,0.0423075676418493,0.0434119109381183,0.0439477502624831,0.0439485504598813,0.0434623111316565,0.0425457477177856,0.041259347089723,0.0396636516427829,0.0378169803370059,0.0357747878770264,0.0335899853503412,0.0313137225442048,0.0289922014860703,0.0266551618705552,0.0243309110590066,0.0220352669685912,0.0199130878681777,0.0182020405712726,0.0171471468687573,0.0189279405266855,0.0184951150192098,0.037857446011559
"26",0.00228945645216813,0.00267400811489403,0.00392666936339853,0.00556127546427227,0.00756501726960798,0.0100108337802576,0.0128764548147787,0.016095887165627,0.0195660813243842,0.023155188412897,0.0267214809238598,0.0301283967278585,0.0332546921048333,0.0360018820553978,0.0382982794165288,0.0401000451853563,0.0413896282262805,0.0421721919796135,0.0424707865811284,0.0423211239074408,0.0417666431301691,0.0408543799666672,0.0396319591077168,0.0381459312512255,0.0364417321766849,0.0345644937059468,0.0325601691848295,0.0304715534615801,0.0283238020806481,0.0261428368500946,0.0239413377873461,0.0218939185710742,0.020290391719527,0.019433012840693,0.0219471298043063,0.0217579962402498,0.0452533328506447
"27",0.00208088398238953,0.00243170828640277,0.0035733745425306,0.00506524651654767,0.00689762627757533,0.0091394273898778,0.0117737413998764,0.014744398212227,0.0179617786081699,0.021309961222669,0.0246635623299939,0.0279010532557195,0.0309136737766874,0.0336119587555224,0.0359292728789776,0.0378227404808251,0.039271909357207,0.0402756786392337,0.0408481603206394,0.0410142312591758,0.0408053791755585,0.0402562945846515,0.0394025019525694,0.0382792751264891,0.0369222076676323,0.0353685557420081,0.0336587656016233,0.0318315845841886,0.0299061184982845,0.0279043029686903,0.025833510932595,0.0239016323469171,0.0224577562360869,0.02186970211413,0.0252730192797093,0.0254142018162092,0.0536848038803964
"28",0.00188079778280808,0.00219909791723244,0.00323388330732369,0.00458803940658646,0.00625461386735984,0.00829834506717422,0.0107070854170239,0.0134336787469924,0.0164009974981254,0.0195080826991955,0.0226450414720072,0.0257047566533121,0.0285906471112648,0.0312223355677754,0.0335386959313685,0.0354986419359534,0.0370799606755609,0.0382766604268761,0.0390954226223468,0.0395518242347521,0.0396668594143486,0.0394641596234316,0.0389681878707933,0.0382036871263435,0.0371968654527808,0.0359773031366047,0.0345799290875258,0.0330390741207934,0.0313664966207618,0.0295786504114282,0.0276754173497098,0.0259019418828426,0.024674396341818,0.0244352625104435,0.0288980492167189,0.0294687088146489,0.0631964026779546
"29",0.00169053738812512,0.00197775033716903,0.00291052227449502,0.00413297584639596,0.00564054088160211,0.00749368433023455,0.00968441508586742,0.0121737467399169,0.0148960377612607,0.0177642275367762,0.0206829379924083,0.0235587014701431,0.0263066613449199,0.0288554439961564,0.0311497445959716,0.0331509633786031,0.0348361640228087,0.0361957690700875,0.0372305109048372,0.0379482235588569,0.0383609383617378,0.0384826382247103,0.0383279369560451,0.0379120107426373,0.0372523964639981,0.0363714881260371,0.0352989983757932,0.0340647736212836,0.0326721474699399,0.0311307671241031,0.0294309063851507,0.0278594335630622,0.0269080843408366,0.0271038592001176,0.0328084574899814,0.0339193688889264,0.0738162361489908
"30",0.00151118701580105,0.00176894408985799,0.00260519181788558,0.00370278547050091,0.00505918272853304,0.00673053579239335,0.00871241463498721,0.0109731429146256,0.0134575176102416,0.0160912423881318,0.0187923840915831,0.0214802489485415,0.024081120888144,0.0265324062172559,0.0287847906922906,0.0308027205419004,0.0325634500039589,0.0340550214103676,0.0352736327008015,0.0362209055029697,0.036901459184334,0.037321108930491,0.0374859533232777,0.0374027379862756,0.0370812634586495,0.0365374915885987,0.0357965199711254,0.0348839506972531,0.0337938686356263,0.0325280095672858,0.0310650614597468,0.0297385818676226,0.0291249844883538,0.0298463573985526,0.0369842136523891,0.0387563154750069,0.0855532968546267
"31",0.00134351767277127,0.00157359581702164,0.00231926845125913,0.00329946914599915,0.00451334597829789,0.00601274428008727,0.00779622249103235,0.00983856084762095,0.0120939335378984,0.0144996366593372,0.0169860508757304,0.0194842965995677,0.0219311085562237,0.0242723248835324,0.0264646535062076,0.0284760023012208,0.0302845890258632,0.0318771531125538,0.0332466674973288,0.0343899995734885,0.0353058764760243,0.0359934430956095,0.0364516852834229,0.0366801767660395,0.0366820935688637,0.0364679490923574,0.0360591031838432,0.0354774537268958,0.0347072860454825,0.0337415760600384,0.0325456505930805,0.031505193108333,0.0312909685229755,0.0326313492505183,0.04139945851379,0.0439618622816333,0.0983957336180371
"32",0.00118800915988754,0.00139228475505413,0.00205363850826963,0.00292434276872553,0.00400492141091545,0.00534296879213634,0.00693949297400109,0.00877490185458869,0.0108116963557938,0.012997584571842,0.0152740992297343,0.0175831601166526,0.0198711820912886,0.0220919812394493,0.0242081919483144,0.0261914565636784,0.0280215791499203,0.0296849259148157,0.031172419930114,0.0324775224399275,0.0335945123373598,0.0345173288900921,0.0352392645786895,0.0357540509466974,0.0360594794000032,0.0361617839791113,0.0360797029944662,0.0358322464705739,0.0353936271058345,0.0347474895509597,0.0338442769406348,0.0331276478836203,0.0333728317510006,0.0354261801487901,0.0460230585856374,0.0495105771585024,0.112309581502905
"33",0.00104489544683436,0.00122530434298293,0.00180877128360209,0.00257813635262717,0.00353501129211389,0.00472283915140391,0.00614458007730224,0.00778547921942902,0.00961534427714122,0.011591130751401,0.0136643577873285,0.0157867014808896,0.0179134301612633,0.0200057991601136,0.022032161555902,0.0239680320832266,0.0257952731792511,0.0275006500956044,0.0290740576669738,0.0305067606790627,0.0317899215332633,0.0329136625359499,0.0338669708823025,0.034639085690093,0.0352237295039808,0.0356241598273264,0.035857799564282,0.0359418248807997,0.0358403715275564,0.0355274643086316,0.0349374307056639,0.0345780603825438,0.0353394172863291,0.0381978235447792,0.0508187870296877,0.0553688316718052,0.127235943080539
"34",0.000914367289998181,0.00107289888605926,0.00158506658345205,0.00226148628349506,0.00310459900629823,0.00415384212130093,0.00541367713753476,0.00687344253532461,0.00850927377330323,0.0102862376038934,0.0121646841509588,0.0141049892407555,0.0160704063693177,0.0180290193298521,0.0199545897931312,0.0218265132054473,0.0236290312083918,0.0253499154343913,0.0269788851800642,0.0285060563294807,0.0299206623483634,0.031210281727042,0.0323609071579172,0.0333586033782182,0.034194357455059,0.0348698213244815,0.0354025256660254,0.0358090408273073,0.0360436851052972,0.0360708664738623,0.0358079207572354,0.0358328575560314,0.0371605748574342,0.0409089441288525,0.0557342897491445,0.0614792578099067,0.143046422215359
"35",0.000804298103684169,0.000944301010214927,0.00139615230613689,0.00199381350312758,0.00274030438820315,0.0036715216143335,0.00479298455843779,0.00609724402319807,0.00756551579423226,0.00916945706209538,0.0108766446070187,0.0126546235606817,0.0144732900258987,0.0163064895725283,0.0181326562997385,0.0199346846113067,0.0216991641599872,0.0234151659384677,0.0250728087510571,0.0266618666247714,0.0281706312727082,0.0295852553975896,0.0308899413188031,0.0320688286834309,0.0331114219380755,0.0340189860092336,0.0348103071389364,0.0355024397156617,0.0360410335330422,0.0363818334468399,0.0364261028810617,0.0368210031624567,0.0387035854592526,0.0433304251956648,0.0603103697438746,0.0672518309586061,0.15817301762963
"36",0.000697327281789234,0.000819226775264496,0.00121222870165529,0.00173289066806505,0.00238464933188574,0.00319976265344262,0.00418452383624347,0.00533431022147235,0.00663495511110892,0.00806420178140352,0.00959635902296608,0.0112057040616366,0.0128684361885054,0.0145639545597053,0.0162753127282481,0.0179890201074222,0.0196943032147576,0.0213819885912917,0.0230432046906938,0.0246681281250958,0.0262449633157827,0.0277593757467431,0.0291947800927498,0.0305344634354176,0.0317676617564196,0.0328966985432391,0.0339433601886615,0.0349267711051452,0.0357838353096727,0.0364613622648508,0.036842825380486,0.0376571070851208,0.0401843707431956,0.0458439668949364,0.0653341936720668,0.0737091187298408,0.175364658083006
"37",0.000607319061774522,0.00071392242849538,0.00105725474215444,0.0015128255214131,0.00208432576982473,0.00280082051836742,0.00366908459217359,0.0046866755899683,0.00584309586867569,0.00712099141960853,0.00850013228410638,0.0099602903276427,0.0114828497723763,0.0130518309623057,0.0146542023303621,0.0162796314492778,0.0179197729481577,0.0195672332140047,0.021214382466894,0.0228522102806728,0.0244693929696137,0.0260517901514731,0.0275828086742336,0.0290457369044646,0.0304304354500236,0.0317411832137168,0.0330036326844907,0.0342398849504639,0.0353793400906739,0.0363610182780486,0.0370519647370703,0.038260555528375,0.0414053075382453,0.0480631129547943,0.06996724631243,0.0797463410589043,0.19162139695471
