"","X0","X1","X2","X3","X4","X5","X6","X7","X8","X9","X10","X11","X12","X13","X14","X15","X16","X17","X18","X19","X20","X21","X22","X23","X24","X25","X26","X27","X28","X29","X30","X31","X32","X33","X34","X35","X36"
"1",0.955080712442592,0.042283585620996,0.00214371979930843,0.000383271005515403,9.25897989874737e-05,1.47396720975822e-05,1.31906401130019e-06,6.14333507027673e-08,1.16314189632444e-09,0,0,0,0,0,0,0,0,0,0,0,0,0,0,0,0,0,0,0,0,0,0,0,0,0,0,0,0
"2",0.948188258354958,0.0461273548575678,0.00427294069765193,0.000984929866133376,0.000324303869991996,8.70301311893827e-05,1.38842903113115e-05,1.23923521806768e-06,5.76076662728058e-08,1.08931082902393e-09,0,0,0,0,0,0,0,0,0,0,0,0,0,0,0,0,0,0,0,0,0,0,0,0,0,0,0
"3",0.933342121370228,0.0514937642649666,0.010412091294581,0.00337225319946831,0.000953667989687967,0.00032390509864389,8.70159325126822e-05,1.38829816425699e-05,1.23917250192948e-06,5.76064559274402e-08,1.08931082902393e-09,0,0,0,0,0,0,0,0,0,0,0,0,0,0,0,0,0,0,0,0,0,0,0,0,0,0
"4",0.910756308801164,0.0567082943136054,0.0181402449117811,0.00966861567207931,0.00334692945281215,0.000953504971379825,0.000323905094753494,8.70159325126822e-05,1.38829816425699e-05,1.23917250192948e-06,5.76064559274402e-08,1.08931082902393e-09,0,0,0,0,0,0,0,0,0,0,0,0,0,0,0,0,0,0,0,0,0,0,0,0,0
"5",0.878828447794328,0.0633418284903676,0.0259937273360484,0.0174692580902884,0.00964036082653176,0.00334678372451141,0.000953492405401333,0.00032390455009808,8.70159325126822e-05,1.38829816425699e-05,1.23917250192948e-06,5.76064559274402e-08,1.08931082902393e-09,0,0,0,0,0,0,0,0,0,0,0,0,0,0,0,0,0,0,0,0,0,0,0,0
"6",0.833888221190112,0.0742263779084247,0.0348502429389989,0.0252466118954153,0.017423685541487,0.00963874936589538,0.0033465284847657,0.000953481342378299,0.00032390455009808,8.70159325126822e-05,1.38829816425699e-05,1.23917250192948e-06,5.76064559274402e-08,1.08931082902393e-09,0,0,0,0,0,0,0,0,0,0,0,0,0,0,0,0,0,0,0,0,0,0,0
"7",0.781002427739375,0.0833401767423541,0.0456402947679715,0.033142149589399,0.0250990038221558,0.0174136870743344,0.0096364335963351,0.00334626248227953,0.000953463397927589,0.000323904005442665,8.70159325126822e-05,1.38829816425699e-05,1.23917250192948e-06,5.76064559274402e-08,1.08931082902393e-09,0,0,0,0,0,0,0,0,0,0,0,0,0,0,0,0,0,0,0,0,0,0
"8",0.727305517190429,0.0885108760791848,0.0537968670366617,0.0408666532818483,0.0326908622105914,0.0250697204832455,0.0174001213090365,0.00963378568933772,0.0033460393077307,0.000953456624065944,0.000323904005442665,8.70159325126822e-05,1.38829816425699e-05,1.23917250192948e-06,5.76064559274402e-08,1.08931082902393e-09,0,0,0,0,0,0,0,0,0,0,0,0,0,0,0,0,0,0,0,0,0
"9",0.671633809961847,0.0936220803258497,0.0588197020648954,0.0463497966576746,0.040138714784444,0.0326243125552048,0.0250540494905059,0.0173982813246102,0.0096336599323185,0.00334603549071548,0.000953456624065944,0.000323904005442665,8.70159325126822e-05,1.38829816425699e-05,1.23917250192948e-06,5.76064559274402e-08,1.08931082902393e-09,0,0,0,0,0,0,0,0,0,0,0,0,0,0,0,0,0,0,0,0
"10",0.614673164190974,0.0976318285431325,0.0635932972668551,0.0496796169566932,0.0452480940320161,0.0398229395254493,0.0325490837673328,0.0250450789483157,0.0173976627106221,0.00963364115595897,0.00334603549071548,0.000953456624065944,0.000323904005442665,8.70159325126822e-05,1.38829816425699e-05,1.23917250192948e-06,5.76064559274402e-08,1.08931082902393e-09,0,0,0,0,0,0,0,0,0,0,0,0,0,0,0,0,0,0,0
"11",0.563534736234863,0.097648878536397,0.0657502678965881,0.0521060669117423,0.0478447321213818,0.0444276324085218,0.039423186338358,0.0324694762327436,0.0250383313551681,0.0173974579056269,0.00963364115595897,0.00334603549071548,0.000953456624065944,0.000323904005442665,8.70159325126822e-05,1.38829816425699e-05,1.23917250192948e-06,5.76064559274402e-08,1.08931082902393e-09,0,0,0,0,0,0,0,0,0,0,0,0,0,0,0,0,0,0
"12",0.512476122831818,0.0970771851432265,0.0660757044297699,0.05378179508681,0.0504939360474325,0.0472722422300364,0.0441848411771449,0.0393775886093264,0.0324656764248897,0.0250382160553099,0.0173974579056269,0.00963364115595897,0.00334603549071548,0.000953456624065944,0.000323904005442665,8.70159325126822e-05,1.38829816425699e-05,1.23917250192948e-06,5.76064559274402e-08,1.08931082902393e-09,0,0,0,0,0,0,0,0,0,0,0,0,0,0,0,0,0
"13",0.461187203032298,0.0959693026836081,0.0660743105895493,0.0545577321536336,0.0523142561566874,0.0500086414254373,0.0470982571685516,0.044154645756175,0.0393751399270944,0.0324656030874192,0.0250382160553099,0.0173974579056269,0.00963364115595897,0.00334603549071548,0.000953456624065944,0.000323904005442665,8.70159325126822e-05,1.38829816425699e-05,1.23917250192948e-06,5.76064559274402e-08,1.08931082902393e-09,0,0,0,0,0,0,0,0,0,0,0,0,0,0,0,0
"14",0.411510370703931,0.0930013270996589,0.0651421308445176,0.0553896163113959,0.0532768883851295,0.0519329541691141,0.0498836656094038,0.0470747040781343,0.0441527395092139,0.0393750921825359,0.0324656030874192,0.0250382160553099,0.0173974579056269,0.00963364115595897,0.00334603549071548,0.000953456624065944,0.000323904005442665,8.70159325126822e-05,1.38829816425699e-05,1.23917250192948e-06,5.76064559274402e-08,1.08931082902393e-09,0,0,0,0,0,0,0,0,0,0,0,0,0,0,0
"15",0.363987480396077,0.0885338887392003,0.0631517479085607,0.0554084953002632,0.0543294123922805,0.0530154029911943,0.0518545808811913,0.0498581251037363,0.0470725471937702,0.0441527158042251,0.0393750921825359,0.0324656030874192,0.0250382160553099,0.0173974579056269,0.00963364115595897,0.00334603549071548,0.000953456624065944,0.000323904005442665,8.70159325126822e-05,1.38829816425699e-05,1.23917250192948e-06,5.76064559274402e-08,1.08931082902393e-09,0,0,0,0,0,0,0,0,0,0,0,0,0,0
"16",0.317718531545104,0.0842199167517409,0.0603817326194863,0.0544566894842207,0.0545685616908522,0.0541519767469522,0.0529666798596382,0.0518199572021059,0.0498550949119955,0.0470725400941783,0.0441527158042251,0.0393750921825359,0.0324656030874192,0.0250382160553099,0.0173974579056269,0.00963364115595897,0.00334603549071548,0.000953456624065944,0.000323904005442665,8.70159325126822e-05,1.38829816425699e-05,1.23917250192948e-06,5.76064559274402e-08,1.08931082902393e-09,0,0,0,0,0,0,0,0,0,0,0,0,0
"17",0.275061550698996,0.0785003792072147,0.0573641116162884,0.0524955999101337,0.0537578575591167,0.0543887826483633,0.0540738493560856,0.0528338914719306,0.0518080255375156,0.0498550928064513,0.0470725400941783,0.0441527158042251,0.0393750921825359,0.0324656030874192,0.0250382160553099,0.0173974579056269,0.00963364115595897,0.00334603549071548,0.000953456624065944,0.000323904005442665,8.70159325126822e-05,1.38829816425699e-05,1.23917250192948e-06,5.76064559274402e-08,1.08931082902393e-09,0,0,0,0,0,0,0,0,0,0,0,0
"18",0.238133718411168,0.0715773344110545,0.053312458712267,0.0496757457022324,0.0517986977413384,0.0534149150228883,0.0541668775941257,0.0536047203346588,0.0527915552265368,0.0518080248493746,0.0498550928064513,0.0470725400941783,0.0441527158042251,0.0393750921825359,0.0324656030874192,0.0250382160553099,0.0173974579056269,0.00963364115595897,0.00334603549071548,0.000953456624065944,0.000323904005442665,8.70159325126822e-05,1.38829816425699e-05,1.23917250192948e-06,5.76064559274402e-08,1.08931082902393e-09,0,0,0,0,0,0,0,0,0,0,0
"19",0.20501734080738,0.0650649123215048,0.0487700134010389,0.0461964919508337,0.0490370024933284,0.0513834121672955,0.0531264115354138,0.0535406987078695,0.0535481846309133,0.0527915551406921,0.0518080248493746,0.0498550928064513,0.0470725400941783,0.0441527158042251,0.0393750921825359,0.0324656030874192,0.0250382160553099,0.0173974579056269,0.00963364115595897,0.00334603549071548,0.000953456624065944,0.000323904005442665,8.70159325126822e-05,1.38829816425699e-05,1.23917250192948e-06,5.76064559274402e-08,1.08931082902393e-09,0,0,0,0,0,0,0,0,0,0
"20",0.175597056568279,0.0583587021256847,0.0444733422496299,0.042383957761529,0.0456411509714427,0.0486181740045805,0.0510907699256585,0.0524899016030034,0.0534832281785587,0.0535481846272106,0.0527915551406921,0.0518080248493746,0.0498550928064513,0.0470725400941783,0.0441527158042251,0.0393750921825359,0.0324656030874192,0.0250382160553099,0.0173974579056269,0.00963364115595897,0.00334603549071548,0.000953456624065944,0.000323904005442665,8.70159325126822e-05,1.38829816425699e-05,1.23917250192948e-06,5.76064559274402e-08,1.08931082902393e-09,0,0,0,0,0,0,0,0,0
"21",0.150236545598016,0.0516070677622455,0.0399013509236443,0.0386769515954901,0.0418846277180048,0.045204553964763,0.0483061315635882,0.0504076147602506,0.0524282113238564,0.0534832281785075,0.0535481846272106,0.0527915551406921,0.0518080248493746,0.0498550928064513,0.0470725400941783,0.0441527158042251,0.0393750921825359,0.0324656030874192,0.0250382160553099,0.0173974579056269,0.00963364115595897,0.00334603549071548,0.000953456624065944,0.000323904005442665,8.70159325126822e-05,1.38829816425699e-05,1.23917250192948e-06,5.76064559274402e-08,1.08931082902393e-09,0,0,0,0,0,0,0,0
"22",0.127649173490945,0.045471124952713,0.0355734179348504,0.0348436213078416,0.0382577224968555,0.0414869564695507,0.0449171800776882,0.0476750260557832,0.0503506210997754,0.0524282113238564,0.0534832281785075,0.0535481846272106,0.0527915551406921,0.0518080248493746,0.0498550928064513,0.0470725400941783,0.0441527158042251,0.0393750921825359,0.0324656030874192,0.0250382160553099,0.0173974579056269,0.00963364115595897,0.00334603549071548,0.000953456624065944,0.000323904005442665,8.70159325126822e-05,1.38829816425699e-05,1.23917250192948e-06,5.76064559274402e-08,1.08931082902393e-09,0,0,0,0,0,0,0
"23",0.10730209534544,0.0400349420344579,0.0316002913363281,0.0311876206578535,0.0345175688592222,0.0379387447794356,0.0412555243394126,0.0444083606981805,0.0476290747358967,0.0503506210997754,0.0524282113238564,0.0534832281785075,0.0535481846272106,0.0527915551406921,0.0518080248493746,0.0498550928064513,0.0470725400941783,0.0441527158042251,0.0393750921825359,0.0324656030874192,0.0250382160553099,0.0173974579056269,0.00963364115595897,0.00334603549071548,0.000953456624065944,0.000323904005442665,8.70159325126822e-05,1.38829816425699e-05,1.23917250192948e-06,5.76064559274402e-08,1.08931082902393e-09,0,0,0,0,0,0
"24",0.0895719531363955,0.0348512398374232,0.0278887713560791,0.0277348159501618,0.0309337388731247,0.0342710890775157,0.0377595250907094,0.0408612603223971,0.0443727544065241,0.0476290747358967,0.0503506210997754,0.0524282113238564,0.0534832281785075,0.0535481846272106,0.0527915551406921,0.0518080248493746,0.0498550928064513,0.0470725400941783,0.0441527158042251,0.0393750921825359,0.0324656030874192,0.0250382160553099,0.0173974579056269,0.00963364115595897,0.00334603549071548,0.000953456624065944,0.000323904005442665,8.70159325126822e-05,1.38829816425699e-05,1.23917250192948e-06,5.76064559274402e-08,1.08931082902393e-09,0,0,0,0,0
"25",0.0743859599200854,0.029970044144585,0.0244229698049981,0.0243617524606134,0.0275287026067742,0.0307548808692894,0.0341405944114887,0.0374721799588603,0.0408353094671117,0.0443727544065241,0.0476290747358967,0.0503506210997754,0.0524282113238564,0.0534832281785075,0.0535481846272106,0.0527915551406921,0.0518080248493746,0.0498550928064513,0.0470725400941783,0.0441527158042251,0.0393750921825359,0.0324656030874192,0.0250382160553099,0.0173974579056269,0.00963364115595897,0.00334603549071548,0.000953456624065944,0.000323904005442665,8.70159325126822e-05,1.38829816425699e-05,1.23917250192948e-06,5.76064559274402e-08,1.08931082902393e-09,0,0,0,0
"26",0.0612345851929827,0.0257273168048698,0.0211668742518575,0.0212322888656569,0.0242026572137627,0.0274071381753576,0.0306662366660083,0.033945432547681,0.0374545544585181,0.0408353094671117,0.0443727544065241,0.0476290747358967,0.0503506210997754,0.0524282113238564,0.0534832281785075,0.0535481846272106,0.0527915551406921,0.0518080248493746,0.0498550928064513,0.0470725400941783,0.0441527158042251,0.0393750921825359,0.0324656030874192,0.0250382160553099,0.0173974579056269,0.00963364115595897,0.00334603549071548,0.000953456624065944,0.000323904005442665,8.70159325126822e-05,1.38829816425699e-05,1.23917250192948e-06,5.76064559274402e-08,1.08931082902393e-09,0,0,0
"27",0.0501506931725533,0.0218675058320813,0.0182542745820406,0.0183008888747563,0.0211054148747945,0.0241118341879677,0.0273404961663123,0.0305192634170015,0.033932158610669,0.0374545544585181,0.0408353094671117,0.0443727544065241,0.0476290747358967,0.0503506210997754,0.0524282113238564,0.0534832281785075,0.0535481846272106,0.0527915551406921,0.0518080248493746,0.0498550928064513,0.0470725400941783,0.0441527158042251,0.0393750921825359,0.0324656030874192,0.0250382160553099,0.0173974579056269,0.00963364115595897,0.00334603549071548,0.000953456624065944,0.000323904005442665,8.70159325126822e-05,1.38829816425699e-05,1.23917250192948e-06,5.76064559274402e-08,1.08931082902393e-09,0,0
"28",0.0410406726334461,0.0183572415319926,0.0155906873009978,0.015657677071835,0.0181911507482705,0.0210302868723276,0.0240563990191066,0.0272180514829872,0.0305082044465441,0.033932158610669,0.0374545544585181,0.0408353094671117,0.0443727544065241,0.0476290747358967,0.0503506210997754,0.0524282113238564,0.0534832281785075,0.0535481846272106,0.0527915551406921,0.0518080248493746,0.0498550928064513,0.0470725400941783,0.0441527158042251,0.0393750921825359,0.0324656030874192,0.0250382160553099,0.0173974579056269,0.00963364115595897,0.00334603549071548,0.000953456624065944,0.000323904005442665,8.70159325126822e-05,1.38829816425699e-05,1.23917250192948e-06,5.76064559274402e-08,1.08931082902393e-09,0
"29",0.0333545948146827,0.0153769288632812,0.0132048988949072,0.0133316084819882,0.0155713725386118,0.0181363561471918,0.0209897253639392,0.0239667290365125,0.0272099525198489,0.0305082044465441,0.033932158610669,0.0374545544585181,0.0408353094671117,0.0443727544065241,0.0476290747358967,0.0503506210997754,0.0524282113238564,0.0534832281785075,0.0535481846272106,0.0527915551406921,0.0518080248493746,0.0498550928064513,0.0470725400941783,0.0441527158042251,0.0393750921825359,0.0324656030874192,0.0250382160553099,0.0173974579056269,0.00963364115595897,0.00334603549071548,0.000953456624065944,0.000323904005442665,8.70159325126822e-05,1.38829816425699e-05,1.23917250192948e-06,5.76064559274402e-08,1.08931082902393e-09
"30",0.0269629085543468,0.0127887207932983,0.011111449239826,0.0112884008792882,0.0132654924954442,0.0155292186214893,0.0181050612622555,0.0209204869475872,0.0239604753475791,0.0272099525198489,0.0305082044465441,0.033932158610669,0.0374545544585181,0.0408353094671117,0.0443727544065241,0.0476290747358967,0.0503506210997754,0.0524282113238564,0.0534832281785075,0.0535481846272106,0.0527915551406921,0.0518080248493746,0.0498550928064513,0.0470725400941783,0.0441527158042251,0.0393750921825359,0.0324656030874192,0.0250382160553099,0.0173974579056269,0.00963364115595897,0.00334603549071548,0.000953456624065944,0.000323904005442665,8.70159325126822e-05,1.38829816425699e-05,1.23917250192948e-06,5.86957667564641e-08
"31",0.021657248398041,0.0105820811672894,0.00926026851846908,0.00952634247796514,0.0112387958692363,0.0132334896148433,0.0155054149649148,0.0180523700142983,0.0209157277684781,0.023960475425387,0.027209952442041,0.03050820460216,0.0339321585328611,0.0374545545363261,0.0408353098561513,0.0443727539396766,0.0476290750471284,0.050350621488815,0.0524282110126248,0.0534832285675471,0.0535481849384423,0.0527915556853476,0.0518080248493746,0.0498550922617959,0.0470725425062237,0.0441527146371064,0.0393750941277338,0.0324656022315321,0.0250382176114682,0.0173974580612427,0.00963363905514522,0.00334603409017299,0.00095346207062009,0.00032390027066268,8.70198229085001e-05,1.38811142525773e-05,1.29242171454083e-06
"32",0.0172310660118927,0.00868376123640371,0.0077271952937896,0.00797487024390491,0.0094909450872086,0.0112156690501688,0.0132162757501727,0.0154673069216606,0.0180489260983307,0.0209157342897126,0.0239604733392037,0.0272099607382272,0.030508204072135,0.0339321620973948,0.0374545719699551,0.0408352984283623,0.0443727681978116,0.0476290993278541,0.0503506103429967,0.0524282438522213,0.0534832342668112,0.0535482109016813,0.0527915655669529,0.0518080092345884,0.049855193970047,0.0470725077899256,0.0441527936354205,0.0393750662000107,0.0324656666751101,0.0250382259854624,0.0173973555941987,0.00963360453835423,0.00334624096879586,0.000953304278154788,0.000324055699629644,8.69565271630795e-05,1.48658182846422e-05
"33",0.0136009322376455,0.00708578343494106,0.00637145455244817,0.00666390949353389,0.00795102502109409,0.0094751455764978,0.0112039395298198,0.0131903507806857,0.0154649640007696,0.0180491235098861,0.0209157903764182,0.0239606999489901,0.0272100740348059,0.0305083864124128,0.0339325682712325,0.0374546555603871,0.0408357037778578,0.0443733959309074,0.047629146563467,0.050351489004496,0.0524284156925606,0.0534838681785258,0.053548696014188,0.0527916721719819,0.0518097322230738,0.0498549822663119,0.0470737460682621,0.0441524722429513,0.039375997138482,0.0324656632360244,0.0250364635679479,0.0173971954401293,0.00963632039262876,0.00334352177396999,0.000955245405881765,0.000322757327522605,9.47128412588031e-05
"34",0.0106793859087988,0.00574543113159898,0.00519752001456569,0.00549684199664883,0.00664867576684095,0.00794194074833259,0.00946947691230305,0.011189620350948,0.0131912087080457,0.0154692515950181,0.0180528066303472,0.0209210862341327,0.0239658402773029,0.0272163730140429,0.0305166055109177,0.0339396100057573,0.0374639298973643,0.0408463933391194,0.0443807766767924,0.0476424952780223,0.0503587489479264,0.0524400570917536,0.0534944433066254,0.0535563463201315,0.0528070707258721,0.0518117234670991,0.0498629096124433,0.0470703327587679,0.0441564508171635,0.0393715556827496,0.0324496140539416,0.0250341198275819,0.0174036235619419,0.00960499071919107,0.00333996396113104,0.000930378074891845,0.000332401073885951
"35",0.00846270875505022,0.00467560353602621,0.00430283213433597,0.00454532258922931,0.00556050430988438,0.00673130545107295,0.00804066266097331,0.00957745353162207,0.0113231172965036,0.0133483057826565,0.0156469910258411,0.0182574656597713,0.021150430796452,0.024218794170258,0.0274892326729267,0.0307992270089257,0.0342353380073748,0.0377664294728178,0.0411479362813523,0.0446910113066499,0.0479383304518309,0.0506417187002295,0.0526745944349427,0.0536610854317044,0.0536483035292856,0.0527980764680553,0.0517567912351129,0.0497397483018626,0.0468997935356364,0.0439211716481601,0.0390557845893325,0.0320232758681736,0.024461953411337,0.0167171628582548,0.00893797999978552,0.00267454816696539,0.000479008919604223
"36",0.00657182477838485,0.00372744962670888,0.0034778660295209,0.00371240404695964,0.0045437681461243,0.00556301139597098,0.00673670179809236,0.00804667095133881,0.00958620190022975,0.0113396824610762,0.0133618858005758,0.0156676251158066,0.0182762514609061,0.0211729186096588,0.0242495128769234,0.0275106655187155,0.0308314477542509,0.0342748786927211,0.0377879950467434,0.0411957449024439,0.0447160247813832,0.0479767540531459,0.0506723374102143,0.052689015394993,0.0537203675336708,0.0536412060540957,0.0528326116439821,0.0517386862736387,0.0497570919659448,0.0468839991601636,0.0438457500839312,0.0390224762463964,0.0320688749105915,0.0243323240736979,0.016732561764632,0.00885358272890863,0.00288182900745601
"37",0.00516282478311751,0.00298189915406591,0.00280873549036604,0.00303282253096325,0.0037595162080738,0.00459062037412517,0.00563191809151139,0.00683437241097219,0.00812231965422719,0.00971921897156467,0.0114541288440511,0.0135261393890757,0.0158273021198889,0.0184717279272555,0.021427650826981,0.0244685547105051,0.0277982079303402,0.0311627968322468,0.0345043061449693,0.0382017859804971,0.0414208416763544,0.0450767142846456,0.048304842499365,0.0509101885522137,0.0531642249060243,0.0537831725700943,0.0538850804150768,0.052727459390388,0.0518603828515277,0.0496190007351201,0.0463880821225202,0.0437739242867267,0.0392160394073258,0.0311003733824631,0.0242176676105327,0.01596267583888,0.00910248109594152
