"","X0","X1","X2","X3","X4","X5","X6","X7","X8","X9","X10","X11","X12","X13","X14","X15","X16","X17","X18","X19","X20","X21","X22","X23","X24","X25","X26","X27","X28","X29","X30","X31","X32","X33","X34","X35","X36"
"1",0.00539184176624724,0.00672702839113198,0.0090745113941206,0.0124639740585832,0.0166656281395424,0.0215870690427195,0.0271240505690996,0.0330623479461835,0.0391031637086443,0.0449008832166414,0.0501055553652502,0.0544043222877222,0.0575527415194578,0.0593944186482124,0.0598692394632917,0.0590109210552623,0.0569355312911918,0.0538233795616533,0.0498971413508369,0.0453991815327306,0.0405706612671965,0.0356343209723039,0.030782020782283,0.0261673373909727,0.0219028727941098,0.0180614718800092,0.0146803006492805,0.0117666968766997,0.00930481845731508,0.00726265819559098,0.00559882687406737,0.00426940098681563,0.00323699502573949,0.00246483817460586,0.00198926550312413,0.00162328925904052,0.00219129460231636
"2",0.00539119635659871,0.00672623441618896,0.00907346535636588,0.0124625779105765,0.0166638254893827,0.0215848318214496,0.0271213815650509,0.033059292070738,0.0390998127013653,0.0448973725971444,0.0501020540782485,0.0544010166595308,0.0575498164063125,0.0593920387775227,0.0598675335763497,0.0590099707980852,0.0569353659223266,0.0538239766129954,0.0498984325436985,0.0454010626282459,0.0405730041952459,0.0356369865456346,0.0307848705144812,0.0261702433168135,0.021905724645047,0.0180641814064543,0.0146828032430644,0.0117689509088173,0.00930680289844453,0.00726436936104695,0.0056002750444536,0.00427060797480463,0.00323799447758128,0.00246567186854647,0.00199001360364049,0.00162395819261391,0.00219228351512576
"3",0.00538932474533539,0.00672393158260662,0.00907043055559312,0.0124585259259508,0.0166585914930937,0.0215783326889025,0.027113623311365,0.0330504027381858,0.0390900563371587,0.0448871408114434,0.0500918363991718,0.0543913542951895,0.0575412476997356,0.0593850450196824,0.0598624927420154,0.0590071248880073,0.0569348050792587,0.053825640489101,0.0499021269769669,0.0454064878616805,0.0405797898747887,0.0356447285939987,0.030793165565498,0.026178717476434,0.0219140546518369,0.0180721075355781,0.0146901343525908,0.0117755627977294,0.00931263160196926,0.00726940183869831,0.0056045394594593,0.00427416673513781,0.00324094534183765,0.0024681370566087,0.00199222983982436,0.00162594308664737,0.00219522255091075
"4",0.00538516204692471,0.00671880815197204,0.00906367498241666,0.0124495002009032,0.0166469236900365,0.0215638308222764,0.02709629222319,0.0330305181281483,0.0390681972131356,0.0448641723457266,0.0500688455800149,0.0543695482869908,0.0575218330630393,0.0593691069028346,0.0598508908635125,0.0590004191011983,0.0569332178392651,0.0538290576238408,0.049910132777445,0.0454184263841151,0.0405948420201661,0.0356619940987423,0.0308117402301393,0.0261977582801921,0.02193282826145,0.0180900205351575,0.0147067458893891,0.0117905820993358,0.00932590389383476,0.00728088818278887,0.00561429548600956,0.00428232759627845,0.00324772917194766,0.00247382011082777,0.00199735655665478,0.00163054817702005,0.00220206118307133
"5",0.00537712357855512,0.00670891053398875,0.00905061567073243,0.0124320384214034,0.0166243284478325,0.0215357142715694,0.0270626430528831,0.0329918465798056,0.0390256009716953,0.044819307350942,0.0500238056304384,0.0543266717669138,0.0574834711624712,0.0593373898210583,0.0598275244221554,0.0589865367927621,0.0569293030788858,0.0538349397168491,0.0499250497217093,0.0454411395232342,0.0406237828218528,0.0356954222052429,0.0308478939543075,0.0262349829891851,0.0219696734900579,0.0181253020785018,0.0147395737392087,0.0118203585938093,0.00935229866285766,0.0073038006906184,0.00563381496483364,0.00429870522856299,0.00326138748701117,0.0024853034104376,0.00200776198414978,0.00163993055147262,0.00221604663199704
"6",0.00536307425870887,0.00669160427399739,0.00902776425317232,0.0124014562273278,0.01658471284465,0.0214863537309959,0.0270034768784476,0.0329237222472192,0.0389503955017658,0.0447398839625922,0.0499438110301007,0.0542502045295522,0.0574146799076502,0.0592800640744946,0.0597847346368584,0.0589603678089086,0.0569207080000235,0.0538437218883982,0.04994996239733,0.0454800784081284,0.040674037937222,0.035753952981557,0.0309115944491731,0.0263009111411281,0.0220352274814011,0.0181883362280636,0.0147984544611691,0.0118739672749937,0.00939999244306788,0.00734535029792286,0.00566933708875103,0.00432861688859206,0.00328642864452709,0.00250644720380683,0.00202702322323354,0.00165737687467554,0.00224216852038592
"7",0.00534089251607144,0.00666426598781668,0.00899163459420747,0.0123530521419487,0.0165219301033984,0.0214080046860877,0.0269093871413207,0.0328151441045481,0.0388302111495649,0.0446125516052717,0.0498150597009516,0.0541265227381541,0.0573026881546792,0.0591858687303724,0.0597133518109159,0.0589152879763385,0.0569036460618272,0.0538545676685584,0.0499869182099282,0.0455399472302735,0.0407526111045314,0.0358464412666582,0.0310130500377673,0.0264065982124403,0.0221409129834602,0.0182904869354124,0.0148943392536491,0.0119616738682882,0.00947837481547786,0.00741393757313456,0.00572823215475193,0.00437843114996905,0.00332833123944991,0.00254201726981382,0.00205964157307902,0.00168708813098075,0.00228690011889256
"8",0.00530874386431322,0.00662461933149587,0.00893918409822308,0.0122826943307027,0.0164305334019463,0.0212937367521037,0.0267718586148228,0.0326560195085998,0.0386535230027667,0.0444246472066172,0.0496241847625559,0.0539421021807847,0.0571344299489191,0.0590428287932873,0.0596030871855664,0.0588432020077162,0.0568725936226432,0.0538647469569849,0.0500360350316623,0.0456236037261182,0.0408648484186931,0.0359803565738251,0.0311614118059723,0.0265623967640877,0.0222978024338408,0.0184430950253643,0.01503844016363,0.0120942344851586,0.00959749588835652,0.00751873526320005,0.0058187020981476,0.0044553679870266,0.0033934269922302,0.00259763676568946,0.00211106007538182,0.0017342445827742,0.00235837034878291
"9",0.00526440085678278,0.0065698986779689,0.00886671241265197,0.0121853514274888,0.0163038797889844,0.0211350812278931,0.0265804609951944,0.0324339494404652,0.0384061210908625,0.044160487872216,0.0493545405888745,0.0536799856713288,0.0568933794601464,0.0588356238086893,0.0594405660686405,0.0587333263398213,0.0568198572804434,0.0538699731656927,0.050096549656157,0.0457337258382314,0.0410166065632245,0.0361643242090201,0.0313675574813767,0.0267808603512883,0.0225195331441489,0.0186603140547942,0.0152449160968636,0.0122853813182196,0.0097703197277604,0.00767169391729256,0.00595153726159534,0.00456902003374546,0.00349021849519659,0.00268094720372807,0.00218878382553469,0.00180607238181405,0.00246804226585443
"10",0.00520601124530611,0.00649779516759134,0.00877111015908155,0.0120567628805244,0.0161362923528068,0.0209247222778688,0.0263260697024288,0.0321379285895028,0.03807518167195,0.0438056499851122,0.0489904824964351,0.0533238311629442,0.0565631334851389,0.058548492518162,0.0592113851924129,0.0585732881659573,0.0567356705517076,0.053863521449242,0.0501650432152046,0.0458702797669041,0.0412111331399582,0.0364046046298814,0.0316403572258597,0.0270729696797773,0.0228186436035323,0.0189556756943876,0.0155277525608831,0.0125490689973291,0.0100103597835382,0.0078855640128354,0.00613850378960864,0.00473007056817598,0.00362838415692426,0.00280085256725412,0.00230179982484407,0.00191140747468372,0.00263020025423627
"11",0.00513309856984761,0.00640769003483857,0.00865148913611455,0.0118956233380534,0.0159258938620726,0.0206600333544644,0.0260051124135861,0.0317632440756537,0.0376546853583614,0.0433527011496361,0.0485231477452082,0.0528634411501783,0.0561323816561011,0.0581693595609153,0.0589031622493196,0.0583509359242552,0.0566086877992718,0.0538354160437744,0.0502334134214966,0.0460274366314926,0.0414451365905288,0.0367005535955325,0.0319817680288625,0.0274430935557352,0.0232016067512294,0.0193373644459194,0.0158964051041508,0.0128955714441241,0.0103282741422009,0.00817100024965398,0.00638993991613014,0.00494834379654205,0.00381722779187597,0.0029663035817914,0.00245959559647539,0.00205991310995279,0.0028609488246431
"12",0.00504318669938783,0.00629650050428665,0.0085037057394839,0.0116962671112772,0.0156651519361954,0.0203313290192637,0.0256055332682132,0.0312953771979326,0.0371277267079513,0.0427826184431203,0.0479318609110167,0.0522771283665071,0.0555792023963369,0.05767693084961,0.0584961157703633,0.0580488458464105,0.056424588065012,0.0537750328357203,0.0502951380317254,0.0462029701816626,0.0417206651821038,0.0370582687532373,0.0324015345798912,0.0279040818630093,0.023683741180545,0.0198224840177884,0.0163690773009032,0.0133435443429762,0.0107425899003071,0.00854591394258187,0.00672277558091875,0.00523959558394529,0.00407141862898421,0.00319121954459542,0.00267675788353641,0.00226634765219419,0.00318477418099573
"13",0.00493548476503437,0.00616321930547794,0.00832635575141652,0.0114566922998095,0.0153512754202348,0.0199348219828679,0.0251223288092792,0.0307278986310004,0.0364862788654584,0.0420856732044027,0.0472051823538978,0.0515518504226231,0.0548891899288927,0.0570558099661123,0.0579743535579861,0.0576512216863132,0.0561683219367017,0.0536687325260267,0.0503386126754469,0.0463878480572706,0.042031665833013,0.0374749235396557,0.0329001288107631,0.0284596026853608,0.0242716508095473,0.0204201848491168,0.0169569848951996,0.0139057355233426,0.0112670391691281,0.00902449984579538,0.00715121994247547,0.0056177519630759,0.00440459287905515,0.00348921050191929,0.00296834717635672,0.00254653467406469,0.00362877475586744
"14",0.00480963197170537,0.00600737071111277,0.00811874060963612,0.0111758471502292,0.0149827121875681,0.0194682795551493,0.0245523713572408,0.0300565501648034,0.0357247173346866,0.0412546663024497,0.046334189140348,0.0506769026745285,0.0540499193246774,0.0562920519055938,0.0573227562414026,0.0571422521973984,0.0558239807723512,0.0535011764007379,0.0503497591257253,0.0465699117648668,0.0423684745357587,0.0379437930243693,0.03347404626094,0.02910947323471,0.0249683959129026,0.0211365284484952,0.0176688147282975,0.0145929836869512,0.0119140794541472,0.00962028873509937,0.00768937870625683,0.00609714381301021,0.00483128522498038,0.0038753046292678,0.00335163402432567,0.00291908627553241,0.00422550241273391
"15",0.00466567654938699,0.00582898675455312,0.00788084081621583,0.0108536024088781,0.0145591261215999,0.0189310149317012,0.023894428374699,0.0292793096992965,0.0348399505589743,0.0402851442449455,0.0453127934115016,0.0496443488575767,0.0530514894587264,0.0553738061623908,0.056527695219436,0.0565068665515337,0.0553755429216072,0.0532560117669254,0.0503125988197786,0.0467342932192436,0.0427180419503968,0.038454269408471,0.034115609081667,0.0298492646279225,0.0257729286379577,0.0219737938412322,0.0185099490905031,0.0154134096054541,0.0126940979720314,0.0103454049755938,0.00835059714011161,0.00669196083349163,0.00536651654067874,0.00436568993177083,0.00384603222931072,0.00340550438369366,0.00501340290073218
"16",0.00450412820857826,0.00562867325763161,0.00761340631567797,0.0104908776307126,0.0140815695429802,0.0183241161263848,0.023149458535045,0.0283967641975666,0.0338318774041433,0.0391759454533135,0.0441383770234124,0.0484497377242571,0.0518873082470528,0.0542921494069267,0.0555778837463367,0.0557315676849875,0.0548076478450982,0.0529165428249864,0.0502097775614698,0.0468637555200738,0.0430640616459765,0.0389917615866728,0.0348126353891728,0.0306697547544812,0.0266793573820836,0.0229295932508104,0.0194814806532075,0.0163713820295812,0.0136143794355822,0.011209582428902,0.00914656326139641,0.00741547451917313,0.00602516512167311,0.00497725788625005,0.00447284647145009,0.00403011646054785,0.00603702346639338
"17",0.0043263505540677,0.00540809406536326,0.0073185978374865,0.0100905028486441,0.0135536050936179,0.0176518532576672,0.0223223136538608,0.0274140925920812,0.032705610904479,0.0379315987665058,0.0428142771314971,0.0470945737880912,0.050556441248699,0.0530432081838481,0.0544661813177943,0.054805843259931,0.0541065595762766,0.0524662152002335,0.0500225621548936,0.0469382136914942,0.0433860455939808,0.0395363718868729,0.03554677653574,0.0315549949482538,0.0276748179758337,0.0239946256815599,0.020577925567152,0.0174652631069727,0.0146769488908867,0.0122181594407018,0.0100854976858591,0.00827845389704465,0.00682062790867935,0.00572651922249995,0.00525442552609324,0.00481946105097834,0.00734638995434803
"18",0.00413465538451518,0.00517008894347725,0.00700014648101357,0.00965743864606476,0.0129816013787982,0.0169220635951425,0.0214222255501503,0.0263416634825366,0.0314721908017427,0.0365631486896817,0.0413507153173115,0.0455873347459182,0.0490646953478444,0.0516292808797063,0.0531907206889752,0.0537232601049987,0.0532611877180848,0.0518895209520792,0.0497315872645463,0.0469352841709684,0.0436596429251928,0.0400629596096196,0.0362933125459329,0.0324818380516253,0.0287387496669217,0.0251517302999403,0.0217860961270723,0.0186861515542329,0.0158772418669895,0.0133707333931146,0.0111708470660493,0.00928794720505685,0.00776373231020007,0.00662867890518987,0.00621340661611934,0.00580171811087292,0.00899640360230255
"19",0.00393078375719074,0.00491680215548827,0.0066608819042095,0.00919546704147838,0.0123704450421543,0.0161408074592733,0.0204563995561677,0.0251876598194231,0.0301404467947281,0.0350795745730623,0.0397561785563937,0.043935272506258,0.0474173059768316,0.0500528388740162,0.05175057056762,0.0524790239213017,0.0522626486061461,0.0511735303028709,0.049320201176794,0.04683518382635,0.0438627567653564,0.0405480992501894,0.0370285679679543,0.0334274509663378,0.0298501902918679,0.0263827133463778,0.0230912799023678,0.0200233062525485,0.0172087302777188,0.0146650024158937,0.0124043996510552,0.0104497661475918,0.00886472011371636,0.00769927353816249,0.00737425663586223,0.00700819151168898,0.0110492725475414
"20",0.00371682497622346,0.00465081461175987,0.00630422753360088,0.00870919315224201,0.0117261349041487,0.0153156028387824,0.0194338960698588,0.0239625559334879,0.0287219542184063,0.0334930459655965,0.0380427465185109,0.042149557367104,0.0456236412112718,0.0483205570060808,0.0501489038332484,0.0510721565654251,0.0511053899528656,0.0503079679552408,0.0487735562612234,0.046618942473562,0.0439730170278318,0.040966966917897,0.0377263671174503,0.0343654855928266,0.0309837948597934,0.0276643281627904,0.0244732763077158,0.021460316951436,0.0186592893145717,0.0160933768281539,0.0137831768983787,0.0117656798768768,0.0101307451641689,0.00895195545707443,0.00876121948890679,0.00847146858735069,0.0135718660981257
"21",0.00349545886857437,0.00437544270345396,0.00593459605065072,0.00820457602289047,0.0110564721956605,0.0144562897168758,0.0183666734823959,0.0226803291738967,0.0272323881881679,0.0318203776011935,0.0362275937527534,0.04024676728629,0.0436986179762819,0.0464446027231505,0.0483941167150497,0.0495064163511191,0.0497878979624453,0.0492857056738353,0.0480788953060629,0.0462684966696454,0.0439676966078801,0.0412930918211242,0.0383576298724867,0.0352655239829434,0.0321091326094059,0.0289674267722494,0.0259054083961091,0.0229739877292372,0.0202099715357313,0.0176416706153162,0.0152980754717856,0.0132320436429442,0.0115645188847777,0.0103971777087121,0.0103969866760717,0.0102241513820425,0.0166337918707774
"22",0.00326912177428979,0.00409371005464675,0.00555602971036726,0.00768710582805299,0.0103686945550905,0.0135720750784118,0.0172660366275634,0.0213543584864646,0.0256869815846679,0.0300782174500405,0.0343281291709336,0.0382442322338413,0.0416585133654335,0.0444391604171957,0.0464972733529797,0.0477888129435388,0.0483123636524555,0.0481035873558429,0.0472274711762022,0.0457695767549156,0.0438273887193497,0.0415026130801068,0.0388949808227573,0.0360978134104692,0.0331953376359249,0.0302613443032017,0.0273584969876111,0.0245377995738783,0.0218379007371572,0.0192914113192757,0.0169356148492758,0.0148410363033636,0.0131651121535949,0.0120426487652812,0.0123028910794735,0.0122988850202315,0.0203072736661013
"23",0.00304029684964759,0.003808704164243,0.00517266913524008,0.00716242785701908,0.00967027903460792,0.0126725255611391,0.0161438155352275,0.0199987669134611,0.0241019886870591,0.0282845708643613,0.0323635077053056,0.0361614560935403,0.0395222243486531,0.0423214698553912,0.0444728838131576,0.0459301094422502,0.0466849173823943,0.0467624252314373,0.046214348991853,0.0451113669147338,0.0435355763847829,0.0415738026482034,0.0393122567371189,0.0368327738100409,0.0342106160275238,0.0315133924268579,0.0288003184581104,0.0261213077124893,0.0235155870038032,0.0210190584179986,0.0186770540067054,0.016579676959883,0.0149268686311811,0.0138921347303356,0.0144974883004837,0.0147268235359219,0.0246645098278258
"24",0.00281157797140996,0.0035236540726229,0.00478885353026288,0.00663647284165639,0.00896910495384263,0.0117677613146745,0.0150125847593012,0.0186286562594907,0.0224949209163903,0.0264590205721887,0.0303548176172994,0.0340202572136102,0.0373113532961395,0.040111856572859,0.0423388887144948,0.0439447799998836,0.0449155860316483,0.0452669879872433,0.0450384573305628,0.0442866477000655,0.0430788860540103,0.0414874375313845,0.0395849901603939,0.0374415701663673,0.0351228704781584,0.0326894889499636,0.0301961862923463,0.027690622231317,0.0252112598242536,0.022796153449232,0.0204983363404219,0.0184295524768922,0.0168389002855181,0.0159447067668216,0.0169954404972968,0.0175362656004354,0.0297750932395284
"25",0.00258540672365402,0.00324160510064971,0.00440868835835371,0.00611487372314946,0.00827269099138197,0.0108674940621239,0.013884493707568,0.0172587370350711,0.0208830031355786,0.0246210561715916,0.02832334808706,0.0318430526064891,0.0350485948567797,0.0378323082675595,0.0401155060555528,0.041850196150448,0.0430178713651546,0.0436260039561476,0.0437030275614895,0.0432926610138263,0.0424483467636338,0.0412284024599405,0.0396922883951904,0.0378981874565799,0.0359018817841445,0.0337563521364274,0.03151106547185,0.0292103563996752,0.0268905765888185,0.0245907314824622,0.0223711651276278,0.0203675319048301,0.0188854171561272,0.0181946649794359,0.0198069281555899,0.0207516718716897,0.0357038129363354
"26",0.00236401358226273,0.00296534497875018,0.00403594462268043,0.0056028256432716,0.00758800546769333,0.00998077778667616,0.0127709486810875,0.0159029352495993,0.0192827026355413,0.0227895281717536,0.0262899776225198,0.0296521970362779,0.0327570490443815,0.0355057916611431,0.0378245869443382,0.0396660601198832,0.0410083010440087,0.0418518687275597,0.0422154928193997,0.0421312280408392,0.0416397444994701,0.0407862854524024,0.039617660382859,0.0381804633102493,0.0365205062985788,0.0346828081492723,0.0327109244618662,0.0306449518495651,0.0285178497794861,0.0263683845879913,0.0242638460916829,0.0223663356262769,0.0210459618282294,0.0206313728038708,0.0229369114997092,0.0243924626276826,0.0425079508711281
"27",0.00214947029974208,0.00269746694767612,0.00367413898311114,0.00510518787961463,0.006921589874884,0.00911614936165489,0.0116827615940668,0.0145745351705422,0.0177098473652473,0.0209827202500042,0.0242751786222323,0.0274699010987335,0.0304600403039113,0.033155969195072,0.0354892377847009,0.0374139523989833,0.0389059329270213,0.0399601469585468,0.0405870342807819,0.040808388896741,0.0406534013011272,0.0401553347657301,0.0393491777229502,0.0382704635426921,0.0369552582995515,0.0354405537402417,0.0337636341291445,0.0319596554554361,0.0300570349469535,0.0280931907425339,0.0261420872256803,0.0243951320208729,0.0232957108271665,0.0232391602973797,0.0263844131160769,0.0284717726104426,0.0502343690627399
"28",0.0019435503552113,0.00244019648552597,0.00332630187835061,0.00462616840450264,0.00627914196280632,0.0082810960337429,0.0106294919951091,0.013285393168107,0.0161787180648255,0.0192173362218201,0.0222979255292016,0.0253170953385925,0.0281799786932059,0.0308061021945596,0.0331328115676551,0.035116456102815,0.0367316541167181,0.0379690826592057,0.0388323327786892,0.0393344180558763,0.0394944683694041,0.0393350339526366,0.0388803253640497,0.0381555906157955,0.0371876460209747,0.0360056769854517,0.0346406182453583,0.0331222346005477,0.0314734395144652,0.0297293421731311,0.0279704717084929,0.0264207731133731,0.0256063704250391,0.0259977643270141,0.0301422819948124,0.0329956092657856,0.0589171017171352
"29",0.00174764230830178,0.00219528331373264,0.00299483208536088,0.00416912450402275,0.00566524974097064,0.00748171176319757,0.00961901653763433,0.012045414729185,0.0147014322641717,0.0175077963576173,0.0203749149730379,0.0232125916330547,0.0259374851779947,0.028478167104694,0.030778045413884,0.032796348441791,0.0345074601367149,0.0358989998802045,0.0369691236371947,0.0377235634914707,0.0381728757111905,0.0383302825654233,0.0382104263956929,0.0378292560128893,0.037205083575681,0.0363597875095735,0.0353181666963818,0.0341044245586033,0.0327352446216983,0.0312426733887627,0.0297139161624903,0.0284090923998575,0.0279471947437744,0.0288829275263815,0.0341971310114189,0.0379621694951031,0.0685751441308291
"30",0.0015628732486039,0.00196415245143316,0.00268169387910384,0.00373682278688339,0.00508372194888668,0.0067230988302749,0.00865799470703033,0.0108630673738168,0.013288476871199,0.015866752719513,0.0185210204880597,0.0211734318719584,0.0237515919703557,0.0261928735064241,0.0284468751559886,0.0304762069263541,0.0322558656315307,0.033771548422673,0.0350173236027242,0.0359931132640166,0.0367024044257995,0.0371505424645868,0.0373439274047625,0.0372903609241483,0.0370006095394142,0.0364899977151982,0.035777683542848,0.0348824262196923,0.0338142157227628,0.0326015299719806,0.0313386255344269,0.0303258486616753,0.0302857822955128,0.0318668819017344,0.0385292338068345,0.0433611568547008,0.0792102673570793
"31",0.00139004932755541,0.00174783008115675,0.00238831714707777,0.00333130214105422,0.00453740496452681,0.00600913073485512,0.00775157068696079,0.00974501644886195,0.0119482756081141,0.0143045891252745,0.0167487291430928,0.019214268476254,0.0216390769771081,0.023968965119634,0.0261597179742534,0.0281776911543037,0.029999205325316,0.0316090465298696,0.0329984402742606,0.0341628987791283,0.0351003122298379,0.0358096142136878,0.0362903528216158,0.0365434519160464,0.036573260973417,0.0363895229847796,0.036006509414377,0.0354379331797357,0.0346869033301872,0.0337780979310732,0.0328134901989933,0.0321381049526016,0.0325893131303998,0.0349192897880882,0.0431129377098946,0.0491736401600775,0.0908057390465168
"32",0.00122967772682389,0.00154696997727685,0.00211563084108132,0.00295391604204372,0.00402823348707523,0.00534250860515871,0.00690343032162281,0.00869617439882069,0.0106872191338293,0.0128294178260316,0.0150680885481864,0.0173472449774824,0.0196142624297019,0.0218229241466131,0.0239350752364941,0.0259210437507156,0.0277590407543836,0.0294338098658759,0.0309348485122661,0.0322545517659042,0.0333866105994762,0.0343249782800703,0.0350637556589797,0.0355983251021617,0.0359278698199638,0.0360577003504988,0.0359981804217108,0.0357586343388262,0.0353353773439205,0.0347493410577656,0.034111178179021,0.0338153982683084,0.0348256771480238,0.0380081765317193,0.0479171803146798,0.0553720962339855,0.103325452003489
"33",0.00108201264301052,0.00136190988741299,0.00186413681223036,0.00260543029626653,0.00355735530071437,0.00472491351734437,0.00611597854802229,0.0077198968576828,0.00950986881399064,0.0114472755881971,0.0134868763399378,0.0155821179443606,0.017689068204015,0.0197689370847053,0.0217893963168082,0.0237248441815321,0.0255558041817997,0.0272676948020775,0.0288492518675087,0.0302909116878645,0.0315834538869533,0.0327172075796682,0.0336821986996878,0.0344696216206427,0.0350748152024503,0.0354999332015794,0.0357525902743086,0.0358386051174058,0.0357478446980848,0.0354978253326771,0.0352091237982963,0.0353308093476232,0.0369644770779628,0.0411006597606869,0.0529055991259695,0.0619198528257961,0.116711701574714
"34",0.000947264510952514,0.00119293398496934,0.00163426703558054,0.00228651896790909,0.00312580291995895,0.0041578898959086,0.00539146962204277,0.00681938974964671,0.00842066228827074,0.0101641384934163,0.0120129230711713,0.0139288751623853,0.0158759021548401,0.017822025829007,0.0197404133709553,0.0216095070925714,0.0234124199321067,0.025135803877051,0.0267684365510827,0.0282997966970127,0.0297188998660944,0.0310136935557764,0.0321714235848543,0.0331804156024256,0.0340334995998449,0.0347310122001805,0.0352790946887934,0.0356811163390124,0.0359210752551559,0.0360136547187576,0.0360907993200824,0.0366611692392068,0.0389752664414482,0.0441578581972543,0.05802486488311,0.0687535861386973,0.130846129162454
"35",0.000833586158364559,0.00105030347047748,0.00144006468859526,0.00201680452504567,0.00276035626182712,0.00367698174512737,0.00477586128614272,0.00605256695465137,0.00749076842515891,0.00906537794492381,0.0107463266741701,0.012502406592913,0.0143040467302181,0.0161250138634801,0.0179432135898117,0.0197407135963541,0.0215031375178027,0.0232186112492626,0.0248764768506599,0.0264660140909534,0.0279754193596886,0.0293913410706738,0.030699419459695,0.0318863356917305,0.0329436449690563,0.033871076474423,0.034674461595684,0.0353558277859428,0.035894360539808,0.0363027336512181,0.0367245619628773,0.0377270932087635,0.0407057008661754,0.0469157488700811,0.0627960711110551,0.0752130324039313,0.144334538763244
"36",0.000723047103070149,0.000911520226141113,0.00125089436778026,0.0017537347592925,0.00240335065146847,0.0032062888431062,0.00417196437464789,0.0052983150382383,0.00657323213338141,0.00797721301786662,0.0094865433707086,0.0110765254955151,0.0127237775728552,0.0144076021535432,0.0161105818057699,0.0178185108143996,0.0195197925615099,0.0212044598329356,0.0228630042765027,0.0244852260687148,0.0260593344216927,0.0275716025591396,0.0290070703007113,0.0303518719988094,0.0315975188998994,0.0327445207004661,0.0337998492955483,0.0347654308676702,0.0356161923390623,0.0363636631851058,0.0371660701908459,0.0386597930853983,0.0424086588552714,0.0498199621243839,0.0680427588709065,0.0824443319639461,0.159615785873683
"37",0.000629996502594764,0.000794633643870659,0.00109143464141144,0.00153175541604221,0.00210173750606478,0.0028080397453844,0.00366011305631091,0.00465769639557419,0.0057920267166366,0.00704809152551005,0.00840732783738255,0.00985035164137326,0.0113588729589757,0.0129168002701567,0.0145106759351952,0.0161295398301835,0.0177643346333464,0.0194069892002766,0.0210493420780126,0.0226820922767507,0.0242939930592011,0.025871599352004,0.0274001072076582,0.0288659340492727,0.0302614208065372,0.0315887507473969,0.0328569475883985,0.0340687937538937,0.035196023789631,0.0362498980692808,0.0374034420774031,0.0393602259572306,0.0438460603012614,0.0524144129763841,0.0728875968951111,0.0892092706116711,0.174033670946599
