"","X0","X1","X2","X3","X4","X5","X6","X7","X8","X9","X10","X11","X12","X13","X14","X15","X16","X17","X18","X19","X20","X21","X22","X23","X24","X25","X26","X27","X28","X29","X30","X31","X32","X33","X34","X35","X36"
"1",0.136906562668315,0.138668278745356,0.141186175396022,0.138175701614354,0.1211090537364,0.0994514980636528,0.0762770198546111,0.0549344306246171,0.0372764218287489,0.0239039411525927,0.0145223251361065,0.00837636302163143,0.00459539819033557,0.00240161340580445,0.00119714092811809,0.000569761044377923,0.00025911485092749,0.000112668665268301,4.68603404930974e-05,1.86468646401195e-05,7.09972659212131e-06,2.58632643360497e-06,9.01230103427217e-07,3.00288020992702e-07,9.56233076747713e-08,2.90816772772189e-08,8.44001207228357e-09,2.3350822253947e-09,6.15165048138288e-10,1.54110147317671e-10,3.66575322303915e-11,8.26515410222735e-12,1.76310820859592e-12,3.55104856377123e-13,6.73803525250357e-14,1.20189119222093e-14,2.37441310841503e-15
"2",0.136881432321209,0.138645307229534,0.141167149903323,0.138162705799055,0.121104614789184,0.0994550544802787,0.0762866349791857,0.0549474001776441,0.0372901539369025,0.0239165113922666,0.0145326662095977,0.00838416422008327,0.00460086115592467,0.00240519356678366,0.0011993494566047,0.000571049025482857,0.000259827326473117,0.000113043486840984,4.70482652054135e-05,1.87368103950076e-05,7.14087996262071e-06,2.60434546543549e-06,9.08786819166556e-07,3.03325398467853e-07,9.67939948075367e-08,2.95144926181178e-08,8.59353156909707e-09,2.38732693740974e-09,6.32221917815972e-10,1.59451325140959e-10,3.82611462601625e-11,8.72654871130465e-12,1.89024685028472e-12,3.88630141093815e-13,7.58328518772837e-14,1.4055717066223e-14,2.9667961155486e-15
"3",0.136809090501819,0.138579015055147,0.141111958310944,0.1381246233843,0.121091029830284,0.0994645379384422,0.0763137899601418,0.0549845459857889,0.0373298336902385,0.0239531078098713,0.0145629896740252,0.00840720592494049,0.00461711753497458,0.00241593069742186,0.00120602765236721,0.000574977661937559,0.000262020674345702,0.000114208737032481,4.76386170987073e-05,1.90225303366098e-05,7.27316940652684e-06,2.66300883656922e-06,9.33725379971008e-07,3.13496318713954e-07,1.00775817955838e-07,3.10114812482295e-08,9.13414959531129e-09,2.57489584660714e-09,6.94744442179822e-10,1.79471573796482e-10,4.44179647443155e-11,1.05443103216695e-11,2.40522840760297e-12,5.28537183778669e-13,1.1225660057198e-13,2.31423950006095e-14,5.73657244338196e-15
"4",0.136650333189157,0.138432882105769,0.14098915450906,0.138038358388611,0.12105795016477,0.0994822484617102,0.0763711722309008,0.0550651896422856,0.0374174226503781,0.0240350247215976,0.0146317688735476,0.00846016466628555,0.00465499084858368,0.00244129941057253,0.00122203896909216,0.000584541960121704,0.000267446549355415,0.000117140028827443,4.91499944396686e-05,1.97675828240667e-05,7.62484034570184e-06,2.82213550587378e-06,1.00281800503069e-06,3.42306469653178e-07,1.12319776343828e-07,3.54584506030597e-08,1.07816218015166e-08,3.16198508378033e-09,8.96003228011539e-10,2.45838085591444e-10,6.54659807168984e-11,1.6962473676137e-11,4.2861038528331e-12,1.05797277215457e-12,2.55319792514962e-13,6.02636894742545e-14,1.76570036962661e-14
"5",0.136348662704323,0.13815375054096,0.140752023916662,0.13786830993973,0.120987506810306,0.099508491997387,0.0764746606962944,0.0552158692838234,0.0375845447374842,0.0241940656143498,0.0147675228629451,0.00856643624125187,0.00473229453183836,0.00249400340119381,0.00125592235033634,0.000605176232178923,0.000279390792409069,0.0001237300428108,5.26232005425181e-05,2.15193309781851e-05,8.47157913942648e-06,3.21486113256633e-06,1.17777068093366e-06,4.1722528997612e-07,1.43178327785722e-07,4.76900947385253e-08,1.54489647992125e-08,4.87683140791942e-09,1.50272961250414e-09,4.52548411683954e-10,1.33272384737313e-10,3.83718409969304e-11,1.07902965867025e-11,2.95825718054782e-12,7.8900693145464e-13,2.04432124069418e-13,6.64692712142275e-14
"6",0.135830490796486,0.13767170154455,0.140337884339775,0.137564971213723,0.120852261254023,0.0995391875283893,0.0766410431,0.055468626934775,0.0378716598765161,0.0244726915748665,0.0150098052210459,0.00875968397877992,0.0048756157751488,0.00259371583231787,0.00132140319359512,0.000645950049875662,0.000303548762993167,0.000137386443743842,6.00048963194077e-05,2.53412998133328e-05,1.03698348841483e-05,4.12032235347201e-06,1.59296212765431e-06,6.00383014472167e-07,2.20957751607011e-07,7.95004387838255e-08,2.79827011906296e-08,9.6355786164982e-09,3.24391785201798e-09,1.06649767606393e-09,3.41864520683323e-10,1.06643345323525e-10,3.23085184773332e-11,9.48659070997972e-12,2.69485779659995e-12,7.40369435968474e-13,2.57732377774932e-13
"7",0.135028839684742,0.136921341152598,0.13968498781184,0.137075352227866,0.120616842391424,0.0995595748249192,0.0768761076143065,0.0558465450527329,0.0383138773077466,0.0249120899315288,0.0154004518619119,0.0090782835836054,0.00511739923730373,0.00276601481346419,0.00143742489236003,0.00072011116148517,0.000348701827057702,0.000163642508380881,7.46171776661973e-05,3.31375334526513e-05,1.43630386560798e-05,6.08597552622395e-06,2.52370168939067e-06,1.02460713794508e-06,4.0718893239596e-07,1.5827485527906e-07,6.00991521275797e-08,2.22586598218223e-08,8.02735053488651e-09,2.81412292789166e-09,9.57391419558063e-10,3.15596792445901e-10,1.0065674404121e-10,3.10200370435173e-11,9.22818271642508e-12,2.6521567516339e-12,9.76475217484711e-13
"8",0.133893935230191,0.135851693407019,0.138741008662285,0.136349003070792,0.120240077596368,0.0995422948706215,0.0771692874802467,0.0563562189298206,0.0389327690581859,0.0255446906152795,0.015977721785235,0.00956146321845406,0.00549398116267005,0.00304189830887889,0.00162861841274824,0.000846024484614206,0.000427765755328251,0.000211099670747332,0.000101900866395408,4.81849601268158e-05,2.23342078142513e-05,1.01459078767991e-05,4.51347667269152e-06,1.9635936707769e-06,8.34071303814163e-07,3.45309916893018e-07,1.39099879313594e-07,5.44336452830896e-08,2.06640001340339e-08,7.60022050702157e-09,2.70538599951757e-09,9.31118743376408e-10,3.09581933979e-10,9.93560747922469e-11,3.07669091639009e-11,9.20728156224735e-12,3.57089060224264e-12
"9",0.132365608774194,0.134401458993279,0.137443365474627,0.135325565502964,0.119672061181076,0.0994526301832539,0.0775043119069512,0.0570005925936186,0.0397487820831891,0.0264046664647589,0.0167844753384762,0.0102554509387975,0.00605026124718495,0.00346148685356503,0.0019283603720318,0.00104973462201779,0.00055990211759162,0.000293100422415884,0.000150675065333905,7.60303053973727e-05,3.76094807654186e-05,1.82049989035632e-05,8.605668363253e-06,3.96461348366624e-06,1.77677666284053e-06,7.73356830465514e-07,3.26479266198153e-07,1.33530108575127e-07,5.28638663036022e-08,2.02428580882267e-08,7.49279746343288e-09,2.67936881870071e-09,9.25146439779385e-10,3.08292506875335e-10,9.91431477532891e-11,3.08385138961374e-11,1.25775960122645e-11
"10",0.130401296121701,0.132525231810506,0.135742043559902,0.133951874283034,0.118862268138909,0.0992474092008724,0.0778501423339729,0.0577643096198005,0.0407637941277644,0.0275102985018753,0.0178523680536364,0.0112007445544134,0.00683052113666115,0.00406822316376593,0.00237576234271741,0.00136396475163787,0.000770756918790924,0.000428576180203586,0.000234156021976623,0.00012542671224253,6.5702690278195e-05,3.35737071378387e-05,1.66980028709419e-05,8.06792188408186e-06,3.78126658922306e-06,1.7170615658663e-06,7.54785981252914e-07,3.20967606174699e-07,1.31970009694979e-07,5.24430278743307e-08,2.01347605688893e-08,7.46638224997114e-09,2.67324060982876e-09,9.23829564944954e-10,3.08217324316653e-10,9.95646001763659e-11,4.26667720347055e-11
"11",0.128011815379581,0.130227070786185,0.133628999781175,0.132204355792895,0.117770908109922,0.0988750891946956,0.0781512756410051,0.058597007905475,0.0419405679310844,0.0288425190053283,0.0191818049290552,0.0124150457099727,0.00786514885018234,0.00489952572845462,0.00300987258718728,0.00182515967813797,0.00109151390543705,0.000642325194141113,0.000370828786752209,0.000209365317369714,0.000115258087845126,6.17152876869506e-05,3.20783625090093e-05,1.61615547744054e-05,7.88379529245712e-06,3.72079610924535e-06,1.69805830880775e-06,7.49071286706651e-07,3.19322901994233e-07,1.31516885008696e-07,5.23234712550631e-08,2.01045353334449e-08,7.45908245473988e-09,2.67167649025809e-09,9.24221007493941e-10,3.09909374136853e-10,1.39462331321664e-10
"12",0.125132380990721,0.127441708652817,0.131038302864869,0.130019005830151,0.116342502259974,0.0982911324142453,0.0783757738230457,0.0594802560636527,0.0432747544026425,0.0304112279918495,0.0207963204174009,0.0139337549712602,0.00919840660865297,0.00600460041511618,0.00388064248195647,0.00248025398052403,0.00156332424454432,0.000968202708899429,0.000586937319296447,0.000347078405597171,0.000199636224961931,0.000111448878102877,6.02893571400909e-05,3.15679301524421e-05,1.59868218049351e-05,7.82659686916076e-06,3.70289383457023e-06,1.69270193591288e-06,7.47539512940056e-07,3.18904278191866e-07,1.31407557543449e-07,5.22962127965425e-08,2.00981591246636e-08,7.45814167531358e-09,2.6741186744194e-09,9.30479517721565e-10,4.39517733671748e-10
"13",0.121758673411118,0.124160895614214,0.127954343284882,0.127370400133502,0.114541054289954,0.0974503415050497,0.0784729014896077,0.0603632131278878,0.0447216126892005,0.0321835461073562,0.0226790651231843,0.0157578291874887,0.0108481834616232,0.00741507505974912,0.00502873012493343,0.00337374561693496,0.00222982787948542,0.00144546909947289,0.000915303510030685,0.000564271084041712,0.000337800865377364,0.000196007000825947,0.000110091661435347,5.98040710602731e-05,3.14020253316277e-05,1.59325991250905e-05,7.80965854273801e-06,3.69783786541517e-06,1.69126033788952e-06,7.47147005535591e-07,3.18802281166982e-07,1.31382382840788e-07,5.22907348307553e-08,2.00987709489754e-08,7.4673445840878e-09,2.69571225748964e-09,1.3361436244003e-09
"14",0.117898929591177,0.120389028096751,0.12437417335561,0.124244988225452,0.112339841513793,0.096313014427885,0.0783926145150154,0.0611903195121914,0.0462262720346279,0.0341118219264276,0.0247953384479892,0.0178694586031767,0.0128150515625759,0.00914877856260006,0.00648584863860135,0.00454641696966598,0.00313563489923173,0.00211784742945187,0.00139524224651907,0.000893797872451513,0.000555475234344164,0.000334362843310572,0.000194722417945708,0.000109632796343596,5.96473737427857e-05,3.13508782397787e-05,1.59166460121123e-05,7.80490540771216e-06,3.69648565732581e-06,1.69089321449276e-06,7.47052031920389e-07,3.18779313659048e-07,1.31378692526817e-07,5.22962793408284e-08,2.01298362976179e-08,7.5385172164406e-09,3.91991244859441e-09
"15",0.113571615949219,0.116141227620713,0.120306346731243,0.120641059237231,0.109722883988683,0.0948479255100743,0.0780898068076011,0.0619063013598234,0.0477287709764509,0.0361378615733726,0.0270952011941978,0.0202324928591348,0.015080351302813,0.0112058214603069,0.00826959498138875,0.00602987402208199,0.00432148282227045,0.00302993128440384,0.00207047168875815,0.00137497285472984,0.000885514165810737,0.000552240059324587,0.00033315511376647,0.000194291416775525,0.000109485769125372,5.95994397114697e-05,3.13359474198497e-05,1.59122043867273e-05,7.80364414789578e-06,3.69614406868669e-06,1.69080543043833e-06,7.47032163648898e-07,3.18780505812896e-07,1.31400051377697e-07,5.23955386372192e-08,2.03551162761952e-08,1.11021543827963e-08
"16",0.108806724205185,0.11144455164534,0.115772008600764,0.116569717916162,0.106685859476375,0.0930334368729734,0.0775259205610581,0.0624584842082263,0.0491670249005684,0.0381961660978419,0.0295163112520059,0.0227940948466166,0.0176060290202788,0.0135663619603463,0.0103793822198571,0.00784132154240172,0.00581876689458013,0.00422234975154852,0.00298553191275808,0.00205148883347914,0.00136722019403963,0.000882488423437212,0.000551111270311145,0.000332752554626225,0.000194154184739566,0.000109441058906446,5.95855225151637e-05,3.13318101235176e-05,1.59110304100859e-05,7.80332676714243e-06,3.69606378509036e-06,1.69079159816173e-06,7.4704808190633e-07,3.18851201203503e-07,1.31704176174932e-07,5.30814904547286e-08,3.03654196952515e-08
"17",0.103660206624104,0.106351286734616,0.110816104718109,0.11206288595789,0.103239519122525,0.0908567348728316,0.0766652230620078,0.0627917638112094,0.050471993832952,0.0402102278359565,0.0319815352691378,0.025483199273589,0.0203331077051169,0.0161882611691039,0.0127927860436968,0.0099786155564596,0.00764379393188605,0.00572600162922843,0.00418078843524136,0.00296775133834289,0.00204422002285127,0.0013643791998818,0.000881426411405732,0.000550731473913967,0.000332622595609875,0.000194111630207652,0.000109427723227337,5.95815224389124e-05,3.1330661824982e-05,1.59107162845376e-05,7.80324959711047e-06,3.69606352754229e-06,1.69085174202857e-06,7.47267200776887e-07,3.19748024013984e-07,1.33714966582198e-07,8.02232861447333e-08
"18",0.0982160920937629,0.10094124271779,0.105509928112517,0.107175956350974,0.0994120798834206,0.0883157263245232,0.0754761391663953,0.0628495449169754,0.0515685675718461,0.0420937021690851,0.0344005471650992,0.0282123441942164,0.0231832304502812,0.0190076498427104,0.0154645343833581,0.0124174104981751,0.00979328957777418,0.00755655470687736,0.00568679263354593,0.00416394413919544,0.00296082767248275,0.00204149474322925,0.0013633511139158,0.00088105441182974,0.00055060225477978,0.000332579462334834,0.000194097778375164,0.000109423437942829,5.95802446988143e-05,3.13302988723188e-05,1.59106330745178e-05,7.80328699103854e-06,3.69625475468061e-06,1.69150146567743e-06,7.49815989038503e-07,3.25425577842187e-07,2.04765156497804e-07
"19",0.0925314471263597,0.0952702233517135,0.099906264181645,0.101954140026818,0.0952330500625266,0.0854205322589285,0.0739477266743913,0.0626004619984175,0.0524073599399817,0.0437828437551984,0.0366997822715334,0.0309033281952147,0.0260791916064781,0.0219541097716514,0.0183364635563873,0.0151162770790756,0.0122453489634436,0.009712203042695,0.00752005192950482,0.0056710760437888,0.004157464812,0.00295826736127153,0.00204052402618952,0.00136299760979179,0.000880930615380674,0.000550560509013044,0.000332565886681283,0.000194093515099056,0.000109422147653731,5.95798833802817e-05,3.13302524579891e-05,1.59108005537951e-05,7.80386120469844e-06,3.69810982396374e-06,1.69848740238985e-06,7.6526277054604e-07,5.05023567101633e-07
"20",0.0866705057190781,0.0894016834518475,0.0940664226645184,0.096452040832627,0.0907416256623395,0.082190961987895,0.0720783815578605,0.0620217615863072,0.0529464194919733,0.0452195914802781,0.0388088897634032,0.0334778647179556,0.0289395981364557,0.0249483846060376,0.0213368977914394,0.0180163133206979,0.0149581268588999,0.0121708164912323,0.00967864292797044,0.00750559546734653,0.00566511166617068,0.0041551053676097,0.00295737143550664,0.00204019709779029,0.00136288282042242,0.000880891779185841,0.000550547829307259,0.000332561889901311,0.000194092312520085,0.000109421850046338,5.95799687619471e-05,3.13307996366184e-05,1.59124387727513e-05,7.80896173579244e-06,3.71658039319565e-06,1.73899262794314e-06,1.2036934418929e-06
"21",0.0807133446118093,0.0834148741898908,0.0880673623638923,0.0907390329657804,0.0859893018065579,0.078656302131034,0.0698732408771398,0.0610951549035348,0.0531465335137334,0.046347290885879,0.0406576535617463,0.0358561867109661,0.0316792741142475,0.0279042958586757,0.0243834137865668,0.0210438417536561,0.0178715108546518,0.0148898486951383,0.012140046122814,0.00966537157831965,0.00750011057841329,0.00566293691017156,0.00415427710156253,0.00295706804351028,0.00204009006301333,0.00136284639541426,0.000880879806286841,0.000550544037750023,0.000332560779126464,0.000194092154419493,0.000109422296803408,5.95815557435162e-05,3.13352762292903e-05,1.59259533829819e-05,7.85608160872648e-06,3.81897392849565e-06,2.77270659520104e-06
"22",0.0747262610913269,0.0773769749632677,0.0819771846021448,0.0848805164643069,0.0810303013413405,0.0748551160062923,0.0673520132028087,0.0598202023170191,0.0529874137935307,0.047127331629777,0.0421915160704878,0.0379707304788291,0.0342210218110305,0.0307388163963848,0.0273914545503691,0.0241175673067348,0.0209125564239298,0.0178096353588889,0.0148619743975022,0.0121280273277384,0.00966040528522616,0.00749814159028195,0.00566218696996921,0.00415400234432334,0.0029569710756652,0.00204005704904091,0.00136283554852907,0.000880876409633474,0.000550543161165908,0.000332561011560963,0.000194093587311769,0.000109426632273874,5.95933257763753e-05,3.13698022428769e-05,1.60419577723662e-05,8.1056514168597e-06,6.17306409315873e-06
"23",0.0687735560900516,0.0713537808871499,0.0758638112537376,0.0789435494617102,0.0759229559575214,0.0708326845700031,0.0645435011743808,0.0582073434110047,0.052460619822267,0.0475330282862301,0.0433670704538623,0.0397635385085987,0.0364949860009,0.033373273589258,0.0302770835722278,0.0271523946371324,0.0239996619915307,0.0208570639426064,0.0177846747190434,0.0148512304216539,0.0121235965615984,0.00965865264854154,0.00749747585252287,0.00566194383922396,0.00415391686372137,0.00295694211220269,0.00204004761907048,0.00136283272941633,0.000880876023412399,0.000550544393589005,0.000332565007153246,0.000194104902685394,0.000109456444733694,5.9678386887258e-05,3.16454414122005e-05,1.66285269588564e-05,1.32838959937113e-05
"24",0.0629209142309532,0.0654126190336154,0.0697970562191393,0.0729977098744105,0.0707290210402943,0.0666389745771949,0.0614827015632688,0.0562747485533809,0.0515667374176107,0.0475475388050084,0.0441509409644525,0.0411861814974855,0.0384396326913173,0.0357353859942625,0.032960055590625,0.0300634112503771,0.0270471514597577,0.0239502012055878,0.0208348526392622,0.0177751319657656,0.0148473035624007,0.0121220472225824,0.00965806592678438,0.0074972623628107,0.00566186911601589,0.00415389170633459,0.00295693407048937,0.00204004554003815,0.00136283336681622,0.000880879730730052,0.000550554788169191,0.000332593372259689,0.000194177687916077,0.000109658563698008,6.03105586166503e-05,3.29749414441065e-05,2.7630909117542e-05
"25",0.0572268124487872,0.0596141396178052,0.0638411455425213,0.067108937193146,0.0655097754701224,0.0623271018011069,0.0582113993662605,0.0540505577016845,0.0503187040913708,0.0471677699456599,0.044523882684468,0.0422038178235208,0.0400056941474627,0.0377631687531842,0.0353678608207554,0.0327702628817099,0.0299700632972377,0.0270033502904737,0.0239305666724204,0.0208264344569783,0.0177716763479576,0.0148459441432034,0.0121215342434296,0.00965788007637916,0.00749719767346518,0.00566184754948637,0.00415388511747675,0.00295693317373076,0.00204004850546282,0.00136284307026928,0.000880905515258481,0.000550623229251472,0.000332764702122196,0.000194640928722923,0.000111058071380536,6.32167358369729e-05,5.5555909883953e-05
"26",0.0517415167892939,0.0540111630108662,0.0580532936036317,0.0613377990768498,0.0603240641628025,0.0579512625043079,0.0547761685572923,0.0515711664069681,0.0487405904814294,0.046403810883114,0.0444809368529358,0.04279605075354,0.0411576537543153,0.0394069760256355,0.0374383104818006,0.0352003330672433,0.0326879887211251,0.0299315222840109,0.026986106390634,0.0239231897637046,0.020823414203257,0.0177704919441899,0.014845498923941,0.0121213737135264,0.00965782457485509,0.00749717948949347,0.00566184266945395,0.00415388647632489,0.0029569415110288,0.0020400722727289,0.00136290447733846,0.00088106461159005,0.000551012139162134,0.000333788841044092,0.000197631626322687,0.000117184900857032,0.000107984053378285
"27",0.046510093394948,0.0486512954051346,0.0524855788009455,0.0557402584130995,0.0552275727219772,0.0535645886627466,0.0512251503192166,0.0488774624141544,0.0468638820599064,0.0452757724746599,0.0440291788990171,0.0429557419705707,0.0418736098964655,0.0406302958840887,0.0391211267692509,0.0372910472786674,0.0351280847324869,0.0326541803590468,0.0299164132118262,0.026979650968787,0.0239205506019236,0.0208223809871217,0.0177701043398519,0.0148453595386153,0.0121213257935192,0.00965780938824908,0.0074971769330307,0.00566184873016028,0.00415390701014092,0.00295699712017566,0.00204021306455135,0.00136326099778764,0.000881916116398608,0.000553196381258215,0.000339958142199988,0.000210089432486343,0.000202920785526414
"28",0.0415682091051859,0.0435728783372806,0.0471811676063396,0.050364406224955,0.0502704608856749,0.0492176718982249,0.0476073172921919,0.0460146084495755,0.0447275957344188,0.0438141479709972,0.0431883284918171,0.0426899274885095,0.0421465511368548,0.0414114026885482,0.0403799614364021,0.0389922553426885,0.0372278657752639,0.0350985385404558,0.0326409844149384,0.0299107786970004,0.0269773488704026,0.0239196499418796,0.020822043373709,0.0177699831185209,0.0148453182237295,0.012121313805831,0.00965781095902075,0.00749719325653227,0.00566189631495962,0.00415403225889793,0.00295730841274365,0.00204098374414131,0.00136505979306843,0.000886410698037375,0.000565481495541346,0.00036438977949673,0.00036871843615791
"29",0.0369397491201438,0.0388026559721463,0.0421720707401066,0.0452484100407159,0.0454956982403677,0.0449572605061879,0.043971434098361,0.0430311418137743,0.0423774388882272,0.0420590387031207,0.0419901369867414,0.0420195126172584,0.0419844983547934,0.0417440308537146,0.0411936130071931,0.0402679544907819,0.0389373967143564,0.0372022382779258,0.0350871054459881,0.032636108564231,0.0299087893143844,0.0269765718176775,0.0239193592854131,0.0208219394946656,0.0177699486210184,0.0148453108721175,0.0121213238894753,0.00965784969201675,0.00749729922421942,0.00566216889394378,0.00415469697728495,0.00295891673163849,0.00204465165244997,0.00137398480316677,0.000910027743812082,0.000611696934315584,0.000647970616257661
"30",0.0326419229119959,0.0343604683539569,0.0374830488556101,0.0404231375582545,0.0409397638471939,0.0408249915138965,0.0403630837875106,0.0399747925478983,0.0398610060521095,0.0400552944210933,0.0404739478477848,0.040975609764824,0.0414078472724013,0.0416358177759721,0.0415555435105253,0.0410967603369768,0.0402205584235754,0.0389152741672731,0.0371923773920072,0.0350829039298168,0.0326343960273793,0.0299081212047222,0.026976322446149,0.0239192709604911,0.0208219122465435,0.0177699491667777,0.0148453391550615,0.0121214108408126,0.00965807846411937,0.00749787409841528,0.00566354199523164,0.00415794042985862,0.00296614013136206,0.00206175875532326,0.00141781895020979,0.000994355730695718,0.00110161912616341
"31",0.0286835300826779,0.0302575906270847,0.0331300820530651,0.0359108451016229,0.0366316868252931,0.0368567241438314,0.0368241533406027,0.0368919391198778,0.0372270497394753,0.0378515250318566,0.0386854842911123,0.0395982424716546,0.0404482003330142,0.0411074903009009,0.0414736020110516,0.0414722637171371,0.0410560414943886,0.0402015690052521,0.0389068174719227,0.0371887777542648,0.03508143853571,0.032633825517477,0.0299079095422914,0.0269762498153862,0.0239192542379337,0.0208219296255475,0.0177700180662539,0.0148455294624975,0.0121218931779541,0.00965925752492018,0.00750062366828615,0.00566987061336634,0.00417168870556253,0.00299780187338792,0.00214031607801784,0.00156625441642089,0.00181252422289304
"32",0.0250660222655993,0.026497714217959,0.0291211878068602,0.0317257081843709,0.0325931147269283,0.033082077575669,0.0333918270473766,0.033826096432571,0.034523539052311,0.0354978347824383,0.036674393617153,0.0379338680146048,0.0391460667056817,0.0401909547816772,0.04096869759892,0.0414024203126241,0.0414374993319471,0.0410398517546614,0.0401943742360764,0.0389037667067356,0.0371875461809919,0.0350809691871201,0.0326336622928562,0.0299078672919249,0.0269762632425312,0.0239193190864775,0.0208220966508461,0.0177704328584756,0.014846528893965,0.0121242507963466,0.00966460096387909,0.0075125771187629,0.00569516382500499,0.00422827026968099,0.00313372822083339,0.00239234484520941,0.00288736312292184
"33",0.0217852159972696,0.0230785669741198,0.0254578567205194,0.0278749220213531,0.0288388513737388,0.0295243443711083,0.0300978879327144,0.0308166793841012,0.0317959867446192,0.033043820153467,0.0344920250494618,0.0360330561601425,0.0375485885679847,0.0389272478161624,0.0400731681447712,0.0409085153578246,0.0413732311316278,0.041424096621792,0.0410340764089846,0.0401920949372158,0.0389030014920127,0.0371873912091588,0.0350810324041533,0.0326337852794772,0.0299080017919609,0.0269764322612769,0.0239196359117138,0.0208228501440902,0.0177722662685447,0.0148508705976029,0.0121340229400666,0.00968609797550715,0.00755713857167552,0.00579230687209109,0.00445474071280185,0.00354577779347109,0.00445441590540996
"34",0.0188358134943895,0.0199966611337763,0.0221402016184533,0.024364189308399,0.0253822934837929,0.0262057249345508,0.0269736400238898,0.0279035733053174,0.0290916743299342,0.0305424812612519,0.0321950693323232,0.0339539052134249,0.0357127935918981,0.0373697044118333,0.038833962388114,0.0400284611386762,0.0408896682060129,0.0413672070192991,0.0414238349647947,0.0410359328750295,0.0401942547487866,0.0389045796739465,0.0371879622570797,0.0350804058100642,0.0326319156672252,0.0299049797266251,0.0269725441667051,0.0239155226492633,0.0208198150339652,0.0177729883532577,0.014860541205257,0.0121632822591711,0.00975339923790288,0.00770911635166448,0.00614669746990145,0.00509352457292961,0.00664167878108654
"35",0.0163796159058683,0.0174242715129209,0.0193597895110995,0.0214052088956198,0.0224446806570177,0.0233545153817102,0.0242525061429962,0.0253246172511694,0.0266523720811279,0.0282385468274238,0.0300292747065527,0.031940068929274,0.0338759567898734,0.035743916383979,0.037458907620856,0.0389457700241995,0.0401393498423328,0.0409843886443398,0.0414358866024719,0.0414600476907639,0.0410355804283012,0.0401550041308139,0.0388256255542841,0.0370699466136042,0.0349253950479567,0.032443395252774,0.0296878755063196,0.0267333314076618,0.0236625036806945,0.0205639342451731,0.0175291579168842,0.0146514183065592,0.0120217586881505,0.0097510475308745,0.0080135891199141,0.00686375531221786,0.00921698985621225
"36",0.014028677810765,0.0149553487079998,0.016678169241787,0.0185319121758626,0.0195639046884481,0.0205226188430501,0.0215068310536024,0.0226737925044907,0.0240923616526957,0.0257648104216312,0.0276451575242974,0.0296606903836997,0.0317285373346879,0.0337658479149254,0.0356946950685166,0.0374436092905864,0.0389477277075621,0.0401488484274389,0.040996003055671,0.0414466570701844,0.0414683608781731,0.0410405476486457,0.040156151908865,0.0388227701994583,0.0370631817227433,0.0349151732355392,0.0324307326412391,0.0296747710915414,0.0267235185059793,0.0236630836642857,0.0205878270821795,0.0176011813037238,0.0148121796228983,0.0123697958829538,0.0105246841878652,0.00936140976135049,0.0129884297846489
"37",0.0120739742605694,0.0128981375059508,0.0144352477765777,0.0161160449339367,0.0171234822854682,0.0181005083331972,0.0191309429297439,0.0203490609765753,0.0218139805683343,0.0235282568365292,0.0254531534196789,0.0275265089539422,0.0296764085387665,0.0318295097459859,0.0339149931521929,0.0358657556222308,0.0376185205836419,0.0391139551724596,0.0402973204814067,0.0411197659765764,0.0415401408512825,0.041527078837598,0.0410610690972375,0.0401362301775443,0.0387615545968385,0.0369614920258169,0.0347758699674836,0.032259302713182,0.0294802818212198,0.0265206905998742,0.0234753125598572,0.0204549261076865,0.0175833481020943,0.0150462243115173,0.0131734987840282,0.0120766450012366,0.0171808063917312
