"","X0","X1","X2","X3","X4","X5","X6","X7","X8","X9","X10","X11","X12","X13","X14","X15","X16","X17","X18","X19","X20","X21","X22","X23","X24","X25","X26","X27","X28","X29","X30","X31","X32","X33","X34","X35","X36"
"1",0.104409400263721,0.0952045366945537,0.111976503062446,0.115662063798181,0.113611042283728,0.104527157359538,0.0908294812587172,0.0747156930470711,0.0584675779808721,0.0436249299167987,0.0311081929665981,0.0212392916736445,0.0139067214769686,0.00874452591040694,0.00528694820812589,0.00307677026732781,0.00172509384096658,0.00093263475103829,0.000486515127433243,0.000245034300088092,0.000119212203491069,5.60474378981933e-05,2.54725459257068e-05,1.11937360418472e-05,4.75701191930675e-06,1.95518236321707e-06,7.77212134226498e-07,2.98789497599153e-07,1.11072862009844e-07,3.99190630837961e-08,1.38664309872786e-08,4.65384917002928e-09,1.50849308823831e-09,4.72009215174116e-10,1.42602664989264e-10,4.16675690520912e-11,1.55247321980752e-11
"2",0.104392972374126,0.0951907383549084,0.111962115189592,0.11565008329613,0.113602827742425,0.104523716620216,0.0908308333578562,0.0747210850629501,0.0584757297274301,0.043634422599863,0.0311177628594509,0.0212480134432035,0.0139140630405854,0.00875030542751352,0.00529123807897603,0.00307978965481382,0.0017271175211904,0.000933930488763934,0.000487309739939309,0.000245501986648572,0.000119476842052954,5.61916037257375e-05,2.55482456285306e-05,1.12320871312315e-05,4.77577363686111e-06,1.96405145582446e-06,7.81265784172988e-07,3.00581658183256e-07,1.11839576274338e-07,4.02365613055542e-08,1.3993720075943e-08,4.70326229491821e-09,1.52706793967402e-09,4.78770949197101e-10,1.44990253429614e-10,4.24883995639827e-11,1.59043340405091e-11
"3",0.104345530661706,0.0951508261142139,0.111920398524395,0.115615190392917,0.113578697923398,0.10451331387082,0.0908342918583946,0.0747363100585623,0.0584990812313982,0.0436618241207231,0.0311455491258443,0.0212734699738005,0.0139355995503048,0.0087673456366174,0.00530395179449841,0.00308878600478385,0.00173318069946777,0.000937835222051945,0.000489718876087595,0.000246928968452667,0.000120289691304213,5.66375250979274e-05,2.57841225218355e-05,1.13525162401675e-05,4.83517112002298e-06,1.99237243040045e-06,7.94327925314499e-07,3.06412140407939e-07,1.14359321590363e-07,4.12912227124729e-08,1.44213645665899e-08,4.8712760070686e-09,1.5910340917794e-09,5.02372559469322e-10,1.53445424198581e-10,4.54411828829762e-11,1.73001613412741e-11
"4",0.104240813184648,0.095062469835083,0.111827648055357,0.115536980030231,0.113523781169308,0.104488443779228,0.090840083016601,0.07476846430336,0.058549803294328,0.0437222107465152,0.0312074551394063,0.0213307376761634,0.0139845013145357,0.00880639832389717,0.00533336501133991,0.00310980160006233,0.00174748673125156,0.000947144368499013,0.000495524499310814,0.000250406371767063,0.000122293634347944,5.77502069566941e-05,2.638011812677e-05,1.16608001341891e-05,4.98929695667637e-06,2.06690395886199e-06,8.29211229557606e-07,3.2222233701609e-07,1.21301389774022e-07,4.42453344553774e-08,1.56399991030154e-08,5.3587154287539e-09,1.78010925270642e-09,5.73506253628342e-10,1.79456068063467e-10,5.47252639030078e-11,2.18218978780849e-11
"5",0.104040458821618,0.0948928267422448,0.111648647169556,0.115384576132085,0.113414829810067,0.104436326785595,0.0908467025074197,0.0748263652203147,0.0586446642733678,0.0438372684936942,0.0313270460105597,0.0214427247386815,0.0140812536659233,0.00888457216249168,0.00539294825767938,0.00315289866895397,0.00177719895260118,0.000966734663040308,0.000507909991108406,0.000257930910520749,0.000126694158990615,6.02311896221816e-05,2.77302421974543e-05,1.23707182025067e-05,5.35030179852275e-06,2.24457466044893e-06,9.13893868450907e-07,3.61331876391654e-07,1.38810971233638e-07,5.18474310421056e-08,1.88417177859203e-08,6.6670626609104e-09,2.29893984283892e-09,7.731990084816e-10,2.54231573059958e-10,8.20932775960125e-11,3.56115232130553e-11
"6",0.10369381052325,0.0945982176021578,0.111336069947584,0.115115693654368,0.113218944011135,0.104337391373704,0.0908493381316716,0.074919140479638,0.0588039987617852,0.0440347885618326,0.0315356200169793,0.0216407674637521,0.0142546505479617,0.00902655775657984,0.00550265877429098,0.00323338392086555,0.00183350914065643,0.00100443406531156,0.000532126809609171,0.000272888704894368,0.000135593358512626,6.53386308395539e-05,3.05613666317716e-05,1.38880095824442e-05,6.13719557750196e-06,2.63978190757271e-06,1.10623403056537e-06,4.52089328994085e-07,1.80349782374032e-07,7.02951474243858e-08,2.67936653640433e-08,9.99475481480218e-09,3.65108693107861e-09,1.30677119885207e-09,4.59258359240539e-10,1.59194416656701e-10,7.58986065506227e-11
"7",0.103153005260927,0.094136606085207,0.110843171945422,0.114686657191653,0.11289964273195,0.104166561026984,0.0908365638446562,0.0750493015636823,0.0590426235741676,0.0443389534496639,0.0318631399379039,0.0219570455291184,0.0145360629690592,0.00926072859515565,0.00568659915182672,0.00337063605611244,0.00193124131843356,0.00107107250795594,0.000575752727721508,0.000300369363332736,0.000152278521037834,7.51173203284788e-05,3.60999702616256e-05,1.69227970584424e-05,7.747228559432e-06,3.46740403759775e-06,1.51869535354074e-06,6.51481603336158e-07,2.73888155016003e-07,1.12891892689011e-07,4.56295669139354e-08,1.80840444383765e-08,7.02564839715434e-09,2.67446681416858e-09,9.994418287399e-10,3.68232865231215e-10,1.89373155102411e-10
"8",0.102380029993104,0.0934735536372062,0.110130017918542,0.114057564049775,0.112420275175129,0.103894358157124,0.0907890370803237,0.0752093520658925,0.0593650096590188,0.0447648749456385,0.0323329097139,0.0224199954146697,0.0149559369072993,0.00961681732735304,0.00597176412456926,0.00358769321808315,0.00208900805995184,0.00118095485370693,0.000649284253494869,0.000347746751377382,0.000181720095658784,9.27878266726563e-05,4.63549730070937e-05,2.26830115850423e-05,1.08812861742156e-05,5.12025545265314e-06,2.36410034801648e-06,1.07105209921094e-06,4.76014904295377e-07,2.07441483736782e-07,8.85854624217406e-08,3.70422945144158e-08,1.51549466941794e-08,6.06195612227085e-09,2.37591573265154e-09,9.16833293568365e-10,4.99041955448255e-10
"9",0.101329091454344,0.092567567631775,0.109148426186781,0.113180057088898,0.111735959890877,0.10348386429402,0.0906812309168983,0.0753872744120373,0.0597730837976456,0.0453272984471064,0.0329700790320871,0.0230619403735776,0.0155502680052972,0.01013123145077,0.00639233699888958,0.00391470925110776,0.00233198654720047,0.00135407891230457,0.000767886059698684,0.00042602978621664,0.00023158558057551,0.000123482594521183,6.46330764741043e-05,3.32217496786178e-05,1.67691719793331e-05,8.30968258419689e-06,4.04009895584243e-06,1.92578460299545e-06,8.9920781971484e-07,4.10923601064538e-07,1.83623410421895e-07,8.01675870365025e-08,3.41700470538354e-08,1.42108836972474e-08,5.78344013517702e-09,2.31588634365147e-09,1.32041563710817e-09
"10",0.0999655000201715,0.0913862083969169,0.107859138024449,0.112012196830804,0.110804499713842,0.102896250609244,0.0904811724077901,0.075560961825849,0.0602565778235151,0.04602846834561,0.033788671036448,0.0239067002962521,0.0163498176077247,0.0108384442582066,0.00698340293499448,0.00438481202351754,0.00268954381131216,0.00161506856663342,0.000951186512633013,0.000550147828048365,0.000312740432484926,0.000174785188142535,9.6019503718674e-05,5.18201247772519e-05,2.74506106130273e-05,1.42587429206432e-05,7.25474926535259e-06,3.61177930624691e-06,1.75774415356874e-06,8.35504317597514e-07,3.87589980619859e-07,1.75367041443421e-07,7.73475086333336e-08,3.32456931353436e-08,1.39764787878837e-08,5.78213274156517e-09,3.4374967112566e-09
"11",0.0982899166023711,0.0899268415749367,0.106254067560447,0.110537976122534,0.109601092682438,0.102098875000485,0.0901513566599141,0.0756924505259332,0.0607819642500182,0.0468436100751862,0.0347755428293031,0.0249537489435584,0.0173657804564968,0.0117590019507001,0.00777165193385603,0.00502746446512082,0.00319093883587856,0.00199074527853551,0.00122220348622001,0.000738755444859647,0.000439545475508677,0.000257240966069912,0.000147923798668202,8.34719123785145e-05,4.61602226589338e-05,2.4984275441253e-05,1.32201951710052e-05,6.83204985894533e-06,3.44546327648704e-06,1.69447812604203e-06,8.12236876805278e-07,3.79318000583723e-07,1.72528592029813e-07,7.64222792809437e-08,3.31112016350718e-08,1.41262853629658e-08,8.74080732691305e-09
"12",0.0962532752239877,0.0881448783984305,0.104281031398442,0.108703977561258,0.108074082772257,0.101045630395919,0.089654135058952,0.0757547082934997,0.061334097898996,0.0477699740375594,0.0359400726929709,0.0262235372423898,0.0186278638358064,0.0129294174298886,0.00879756244193467,0.00588421084475152,0.00387616518512713,0.00251749604468444,0.00161237839568666,0.00101774429266232,0.000632374068875436,0.000386200693101749,0.000231441067558246,0.00013588133353902,7.80443796563815e-05,4.37972975122735e-05,2.39902761655914e-05,1.28160845355313e-05,6.67325115882963e-06,3.3851452317585e-06,1.67233273435767e-06,8.04381388072654e-07,3.76637815770389e-07,1.71690130016545e-07,7.65828746859376e-08,3.36673311843069e-08,2.1665182301419e-08
"13",0.0938476569450047,0.0860309725369231,0.101925626466562,0.106489815882019,0.106196387412947,0.0997031915649659,0.0889516327013256,0.0757081698728801,0.0618753696806742,0.0487757713620366,0.0372597094069777,0.0277051276390153,0.0201376855765264,0.0143632636273722,0.010084707315886,0.00698573316802201,0.00477972613011171,0.00323048996086479,0.00215493671099711,0.00141656940925885,0.00091591887870046,0.000581341311905249,0.000361532304534054,0.000219933057015764,0.000130697600023619,7.57889183591897e-05,4.28490918668806e-05,2.36050382888274e-05,1.26648108692407e-05,6.61583720072817e-06,3.3640860424135e-06,1.66487618679992e-06,8.01865062956212e-07,3.75939300573647e-07,1.72567589722851e-07,7.81553605643018e-08,5.2291317460532e-08
"14",0.0910745276707903,0.0835841937100981,0.099183067023998,0.103884465944261,0.103949128649817,0.0980441767126041,0.0880087454866835,0.0755122374919589,0.0623631277461288,0.0498204347811724,0.0387001566873291,0.0293740554918317,0.0218829872419873,0.0160613387308269,0.0116462129373347,0.00835540463599236,0.00593224807159197,0.00416424607869137,0.00288508973364524,0.001968500960472,0.0013196719273603,0.000867382286373444,0.000557892177202752,0.000350598997570333,0.000215010892101117,0.000128557148981824,7.48895863613486e-05,4.24839331379971e-05,2.34617422542411e-05,1.26104637656588e-05,6.5959222115808e-06,3.35705796089363e-06,1.66257260338528e-06,8.01456624652954e-07,3.78556206565904e-07,1.76627514685009e-07,1.22864548719841e-07
"15",0.0879434767836204,0.0808111137720063,0.0960574910323278,0.100886168518588,0.101322354435862,0.0960488110012628,0.0867956947013831,0.0751284945216373,0.0627531557605261,0.0508578655403859,0.0402178774434629,0.0311936656256268,0.0238375576394069,0.018010170341683,0.0134820817280092,0.0100058582062142,0.00735681430669514,0.00534922931399537,0.00383727129042383,0.00270870772746241,0.00187688341502209,0.00127380688822123,0.000845236624974604,0.000547572560147319,0.000345955800960821,0.00021299293722773,0.000127709794178284,7.45457459238306e-05,4.23490910906089e-05,2.34106398836922e-05,1.25917632016498e-05,6.58937532831479e-06,3.35508471972411e-06,1.66282502224341e-06,8.0820790005761e-07,3.88543405600241e-07,2.81012206953495e-07
"16",0.0844731344101383,0.0777266320821298,0.0925629323184326,0.0975034752073859,0.0983161909972889,0.0937062425731179,0.0852895841941569,0.0745225477545369,0.0630017570327412,0.0518385890125015,0.0417620260534135,0.033116453683527,0.0259616337619629,0.0201812467747371,0.0155772229612136,0.0119360097599938,0.009065359256533,0.00680809180828309,0.00504169025952632,0.00367147699691767,0.00262264117216619,0.001833822104245,0.00125302660526245,0.000835558529037276,0.000543220329193947,0.000344065292218176,0.000212199508893693,0.000127388001792912,7.44196169412804e-05,4.23013247808149e-05,2.33932011905331e-05,1.25857865116105e-05,6.58800784764699e-06,3.35688677229014e-06,1.67915828289895e-06,8.31932149365754e-07,6.25644170382105e-07
"17",0.0807007302751314,0.0743620747136329,0.0887318947289858,0.0937626374850487,0.0949463385517616,0.0910176356811077,0.0834751361665018,0.0736628605751059,0.0630633796155614,0.0527068529719879,0.0432715035262823,0.0350812737276061,0.0281991894632721,0.0225281567208297,0.0178982009073876,0.014127289283578,0.0110544446918669,0.00855123832860195,0.006520042031136,0.00488644052954133,0.00359089623696962,0.00258232629538243,0.00181436574443428,0.00124396322622319,0.000831481258581194,0.00054144829280978,0.000343321020382769,0.000211897346970527,0.000127269415598623,7.43746562565195e-05,4.22849592468676e-05,2.33878952715558e-05,1.25856396677517e-05,6.59342346406538e-06,3.39483508386893e-06,1.73383337602932e-06,1.35594534780767e-06
"18",0.0766838293100999,0.070766814522352,0.0846173057189582,0.0897096826943499,0.0912461586708398,0.087998132498553,0.0813464479624442,0.0725222963976128,0.0628920040750586,0.0534019363947948,0.0446762205639845,0.03701449018304,0.0304787932665826,0.0249868845850499,0.0203926919453278,0.0165420738721334,0.0133026529090812,0.0105733659242498,0.00828155329694055,0.00637457449346882,0.00481085553180312,0.00355302746263022,0.00256401765335098,0.00180581782919944,0.00124010712307352,0.000829799595189009,0.00054073901307914,0.000343031594074896,0.000211783067907032,0.000127225827016901,7.43588569727754e-05,4.22805510788365e-05,2.33903967095537e-05,1.25993618371856e-05,6.67881430756189e-06,3.51729628762254e-06,2.86074055401077e-06
"19",0.0724631954381623,0.0669765747042395,0.0802586801550421,0.0853809903185235,0.087244850756561,0.0846653528181076,0.0789065634175289,0.0710878329258354,0.062458741371651,0.053880754695397,0.0459218053042406,0.0388542873128462,0.0327356397768394,0.0274943452932967,0.0230039005293619,0.0191338559606604,0.0157767699299769,0.0128562241561634,0.0103230879486694,0.00814652251721394,0.00630438334363752,0.00477566727173697,0.00353600017359492,0.00255605895797899,0.00180222230607399,0.00123853622622266,0.000829135528783852,0.000540467291573089,0.000342923986425808,0.000211742029316846,0.000127211419436356,7.43567432923809e-05,4.22892934155055e-05,2.34229390385975e-05,1.27860874038545e-05,6.94558224761828e-06,5.87548949746798e-06
"20",0.0680855343052846,0.0630327193753199,0.075702529940472,0.0808207622203453,0.0829800803347304,0.0810456675629809,0.076167189298842,0.0693546060157648,0.0617419014311389,0.0541059513832921,0.046957582849456,0.0405399426248968,0.0349029029998918,0.0299819803556648,0.0256660588318622,0.0218440031164102,0.0184290798592823,0.0153658335770266,0.0126259276462592,0.0101988720792251,0.0080819652798746,0.00627202249247855,0.00476000797306298,0.00352867996481558,0.00255275103901878,0.00180077648354859,0.00123792469388488,0.00082888515058036,0.000540368164503752,0.000342886579184791,0.000211730220343384,0.000127214502638601,7.43795524211939e-05,4.23631924705814e-05,2.38200710039648e-05,1.33513545461873e-05,1.17474774707643e-05
"21",0.0636093642637347,0.0589872706851212,0.0710077288532129,0.076085702593228,0.0785014745057034,0.077176093131735,0.0731489053471016,0.0673246503850269,0.0607247270465123,0.0540432117986911,0.0477340568028938,0.0420099505555131,0.0369107760753293,0.0323757401194013,0.0283051319108983,0.0246027731381522,0.0211981810774108,0.0180526216733904,0.015154893089982,0.012512156409989,0.0101397377418147,0.00805231583156929,0.00625766954809804,0.00475329455299603,0.00352564385277575,0.00255142265823302,0.00180021392164574,0.0012376940946817,0.000828793993410219,0.00054033475869084,0.000342879209778403,0.000211744574571461,0.0001272680368752,7.45417442178064e-05,4.31850361482061e-05,2.49852163688149e-05,2.28657650908101e-05
"22",0.0590848886879258,0.054885663326562,0.0662269943635364,0.0712287300123432,0.0738582721695225,0.0730973657164986,0.0698801090662896,0.065011275062283,0.0594040578534224,0.0536727606215779,0.0482157987569357,0.0432151116842033,0.0386989173694119,0.0346073721738091,0.0308486652528926,0.0273375539638704,0.0240154848651779,0.0208560552067789,0.0178610264303714,0.015051608504922,0.0124584974446632,0.010112844739681,0.00803930202775918,0.00625158443860579,0.0047505433405397,0.00352444041367458,0.00255091318156717,0.00180000537687433,0.00123761246411072,0.000828766662376934,0.000540336481446688,0.000342918180821448,0.000211863687822905,0.000127613552751879,7.61970147533707e-05,4.55212598147515e-05,4.33286443945674e-05
"23",0.0545615986574135,0.0507730777108787,0.0614134013925761,0.0663042415418255,0.0691026902268911,0.0688549563323936,0.0663957256506269,0.0624359106959302,0.057786031780725,0.0529847153599172,0.0483771824863206,0.0441152061437823,0.0402144055449658,0.0366137769897509,0.0332264488590757,0.0299745557572482,0.0268075016395307,0.0237069887870146,0.0206834530002015,0.0177680677865191,0.0150033607353213,0.0124343408380528,0.0101011676129015,0.00803384822076767,0.00624912176645836,0.00474946768300641,0.00352398596960024,0.00255072816661927,0.00179993504823351,0.00123759503789311,0.000828787249198408,0.00054042789656588,0.00034317343025813,0.000212579099356774,0.000130858505921059,8.07536140431325e-05,7.99327822084442e-05
"24",0.0500902884658698,0.0466960353110096,0.0566218818943855,0.0613690756836977,0.0642901567493418,0.0644984811546054,0.0627358882481251,0.0596262965202727,0.0558841047779475,0.0519772792366274,0.0482010486356898,0.0446783545312331,0.0414119367536781,0.038338097327723,0.0353724684913534,0.0324414969353541,0.0294990249397487,0.0265309989582602,0.0235524330477589,0.0206002939502437,0.0177249494234005,0.0149817950835948,0.0124239279377502,0.0100963102498088,0.0080316579046095,0.0062481667163059,0.0047490654609447,0.0035238241662614,0.00255067135313852,0.00179993503040754,0.00123765473240791,0.000828987482962702,0.000540957909952273,0.000344613929340041,0.000218770956877042,0.00013950299271777,0.000143567056587673
"25",0.0457170613416518,0.0426971808144219,0.0519034817901517,0.0564772131242628,0.0594749209399322,0.0600786639923596,0.0589444437276243,0.0566165063899429,0.0537203951879937,0.0506591116300863,0.0476817925858498,0.0448845583050538,0.0422576316197719,0.0397336928043656,0.0372290169047128,0.0346718475848091,0.0320174742157897,0.0292527133950325,0.0263934549723927,0.023478502346456,0.0205620012781899,0.0177058190221988,0.0149725693615462,0.0124196302066614,0.0100943753635341,0.00803081615956679,0.00624781428495236,0.00474892779574724,0.00352378634516273,0.00255070477565985,0.00180007526042052,0.00123807475528243,0.000830056484638279,0.000543778896629308,0.000356114292815415,0.000234722046815259,0.000251069997511019
"26",0.0414824066355904,0.0388143708382314,0.0473041797198155,0.0516783854891014,0.0547084790539631,0.0556456603634406,0.0550672862378057,0.0534454277781746,0.0513244499431019,0.0490485108062968,0.0468250633395926,0.0447259762944002,0.0427299153633185,0.0407656252071511,0.038748773003208,0.036607480127485,0.0342960694163719,0.0317994076205824,0.0291310661185934,0.0263281377474361,0.0234447085258775,0.0205451384319273,0.0176976973441246,0.0149687914543701,0.0124179324797863,0.0100936393117677,0.00803051181367405,0.00624770422785263,0.00474892107721145,0.00352388605431044,0.0025510074916961,0.00180092654793776,0.00124017073734788,0.000835429355583757,0.000564570269358477,0.000384741588209954,0.00042755218529604
"27",0.037422995087964,0.0350820860938734,0.0428661906942084,0.0470188501295417,0.0500396087433995,0.0512482231691653,0.0511506983565737,0.0501544717158169,0.0487306260391961,0.0471708106296676,0.0456454970187852,0.0442052469697769,0.0428185894941577,0.0414105528376235,0.0398955261932641,0.0382001908024323,0.0362760918937053,0.0341039189179508,0.0316923022102554,0.0290736019171913,0.0262984302638751,0.0234298966479358,0.0205380106247949,0.0176943850246632,0.0149673053665028,0.0124172915524434,0.0100933816855907,0.00803043741871504,0.0062477535364513,0.00474915183224621,0.00352450796578727,0.00255268004843288,0.00180492228641616,0.00125012228798167,0.000872017669636518,0.00061453975316699,0.000709087120803251
"28",0.0335686914716135,0.0315287967372148,0.0386250036264822,0.0425385378750612,0.0455118141226796,0.0469316274543719,0.0472398307352855,0.0467866047989108,0.0459776186668051,0.0450583373622554,0.0441670491197955,0.0433361679767365,0.0425258527606441,0.0416581010154254,0.0406459119842119,0.0394138208866665,0.0379094148032457,0.0361076036431583,0.0340100619865804,0.0316419758523905,0.0290475991245621,0.0262854725633616,0.0234236646368274,0.0205351168785558,0.0176930896282909,0.0149667528715989,0.0124170848116693,0.0100933622676209,0.00803059311340858,0.00624823923498608,0.00475038296633046,0.00352769773394227,0.00256008633339046,0.00182284547810035,0.00131279874596422,0.000956852436622252,0.00114553829522624
"29",0.0299408153782155,0.0281754049241668,0.0346075891284838,0.0382692541105854,0.0411616043765936,0.0427361125643275,0.0433773409727594,0.0433851858783136,0.0431074822131686,0.0427496134135125,0.0424224050207094,0.0421433638194511,0.041866291781057,0.0415112407317305,0.0409902301716293,0.0402255480295642,0.0391602870850736,0.0377626245747597,0.0360258974823752,0.0339662846019672,0.0316193742759678,0.0290363453537148,0.0262800650959108,0.0234211577224996,0.0205340005475629,0.0176926265769523,0.0149666119446011,0.0124171610321645,0.0100937215054299,0.00803156267179857,0.00625059859819196,0.00475629108160544,0.00354104430742892,0.00259147360338508,0.00192736494777967,0.00145289139824006,0.00180313307831471
"30",0.0265554756963313,0.0250380300289861,0.0308352649845332,0.0342369709782386,0.0370198726884298,0.0386970683701589,0.0396023164671276,0.0399917421944939,0.0401625338642511,0.0402857512533724,0.0404492522656772,0.0406587949908793,0.0408639177936984,0.0409840558249567,0.040931053969389,0.0406253691473551,0.0400056647384809,0.0390330748237302,0.0376918662124423,0.0359880118535167,0.0339467381140266,0.0316096486732369,0.0290316767734572,0.0262779061967203,0.0234202074015545,0.0205336328719381,0.0176925819441922,0.0149668615272023,0.0124179034079625,0.0100955837926283,0.00803594866307926,0.0062612300466692,0.00477967375768644,0.0035944884820815,0.00276116707215042,0.00215241483706818,0.0027662482922899
"31",0.0234223441900233,0.0221269269699461,0.0273224760560339,0.0304606378760057,0.0331107923362802,0.0348440573891338,0.0359494080845795,0.0366451639653418,0.0371845434177434,0.0377095890926299,0.038289352427938,0.0389208075182483,0.0395512826884939,0.0401010443785363,0.0404828413443441,0.0406161288577504,0.0404357319381691,0.0398960339510061,0.0389721396093471,0.0376592630276101,0.0359712028002107,0.0339383816636157,0.0316056436576736,0.0290298349592258,0.0262771181052746,0.0234199571141107,0.0205337477448123,0.0176931515902442,0.014968311135636,0.0124213680264532,0.0101035032411111,0.00805454170131801,0.00630105918975554,0.00486816027270427,0.00386275742870451,0.0031129177468989,0.00413777850308211
"32",0.0205453450274095,0.0194470554505727,0.024077363766475,0.026952597651979,0.0294519815940504,0.0312006338226786,0.0324482466764861,0.0333807018510049,0.034213338142914,0.035063968236598,0.0359865905106106,0.0369720826123476,0.037967477567718,0.0388953233614064,0.0396704958114102,0.0402125627809974,0.0404535164928806,0.0403418039482888,0.0398438723312636,0.0389442581529438,0.037644906742066,0.0359640809181528,0.0339349854981495,0.0316041086979446,0.0290292309471044,0.0262770460453233,0.0234203626384328,0.0205349124708797,0.0176958817132859,0.0149745761561175,0.0124352687227215,0.0101351124542083,0.00812050030270367,0.00644351195468201,0.00528117052308918,0.00439774280416419,0.00603738562093187
"33",0.0179238215640447,0.0169990775959729,0.0211028302705878,0.0237195022869941,0.0260551507660696,0.0277846046300765,0.0291232532376054,0.0302293102419723,0.0312857102198998,0.0323902706461087,0.0335852350489928,0.034857732091952,0.0361561927628158,0.0374067944329075,0.038527783049313,0.039440101329662,0.0400741938669399,0.0403737911997401,0.0402977001292484,0.0398204494003733,0.0389323340645337,0.0376391148413472,0.0359614327129951,0.0339339035127503,0.0316038315688684,0.029029492751105,0.0262779645330808,0.0234225313547384,0.0205397610337637,0.0177067048885298,0.0149980427011919,0.012487189080669,0.0102409105173686,0.00834300708166445,0.00706217756248701,0.00607232218192924,0.00859577484169324
"34",0.0155561892099867,0.0147827859558709,0.0184007300441167,0.0207669096257429,0.0229309821503424,0.0246129971000526,0.0259985425097484,0.0272223740374963,0.0284399039885847,0.0297326419226921,0.0311339030234676,0.032629034482,0.0341692716401286,0.0356855742643677,0.0371007025106388,0.038338243759649,0.039328508279736,0.0400119890940752,0.0403412588533899,0.0402820113400793,0.0398136814194861,0.038929820943526,0.0376382344688038,0.0359607996808361,0.0339328878640113,0.031602328707361,0.0290279070481139,0.0262774426337865,0.0234255673316985,0.0205517707807968,0.0177382713108105,0.0150732673238098,0.0126437358406243,0.010569516468791,0.00923462347362118,0.00818850949478959,0.0119270814169603
"35",0.0135765906868503,0.0129258239494919,0.0161301528877592,0.018274553356556,0.020277852767806,0.0218980648383765,0.0232966210792544,0.0245896769618978,0.0259108105529386,0.0273290987329557,0.0288715761040648,0.0305232565732988,0.0322388665666681,0.0339545219505583,0.0355979312319161,0.0370960623614132,0.0383802275536653,0.0393891960883078,0.0400710880958133,0.0403846522768934,0.0403002855726437,0.0398009208661446,0.0388827485734324,0.0375556645055166,0.0358433322329463,0.0337827883438674,0.0314235801759916,0.0288265140589797,0.0260621686957008,0.0232099179427318,0.0203567523301918,0.0176032515199575,0.0150545499308654,0.0128667668683523,0.0115494394631779,0.010506267704617,0.0156584265983894
"36",0.0116726365040421,0.0111352658177369,0.0139330884889142,0.0158496743900521,0.0176778593725412,0.0192122319176776,0.0205917323652768,0.0219156516416461,0.0232977876162101,0.0247965282237313,0.0264341494297528,0.0281966400848716,0.0300434242417851,0.0319169932235294,0.0337513204193794,0.0354782019698061,0.0370315090162069,0.0383498812722954,0.0393785062752523,0.0400704976826511,0.040388173358594,0.0403043286027679,0.039803452062085,0.0388827582021572,0.0375529018099755,0.0358382814681009,0.0337769136508935,0.0314199810177524,0.0288312651531751,0.0260874764346261,0.0232784217978565,0.0205169678378921,0.0179274532727492,0.0157099658760042,0.0145405181317876,0.0136098461814332,0.0207977151887834
"37",0.010083577640477,0.00963787820066546,0.0120907455759595,0.0138076932091448,0.0154762645052422,0.016921566186228,0.0182641919841564,0.0195899591390446,0.020996883741599,0.0225351964424211,0.0242239856404078,0.0260508643661665,0.0279800395285953,0.0299602622505189,0.0319317617359988,0.0338314704945447,0.0355965504514528,0.0371666835418195,0.038485683265071,0.0395028707850067,0.0401744766029648,0.0404651490709154,0.0403495157703745,0.0398136690787989,0.0388564305589212,0.0374902842759779,0.0357419494542104,0.0336527150112029,0.0312787986293391,0.0286930382539998,0.0259864843138724,0.0232827237510414,0.0207234316424038,0.0185522230031669,0.0176193582745237,0.0168789554872633,0.0263066681364957
