"","X0","X1","X2","X3","X4","X5","X6","X7","X8","X9","X10","X11","X12","X13","X14","X15","X16","X17","X18","X19","X20","X21","X22","X23","X24","X25","X26","X27","X28","X29","X30","X31","X32","X33","X34","X35","X36"
"1",0.00693811582573408,0.00739528104863978,0.0105589771770853,0.015191728842787,0.0201224299688543,0.0262319644304191,0.0331009054352069,0.040057681559366,0.0467474578962498,0.0527066047372598,0.0575507221445027,0.0609971678079811,0.0628786792982132,0.0631497706341167,0.0618845921215698,0.0592546463072837,0.055503056958597,0.0509145290986821,0.0457853680130434,0.0403983085972506,0.0350033484241197,0.0298055127395588,0.0249591820627913,0.0205681161988489,0.0166898556306981,0.0133428553534167,0.0105152682175404,0.00817466096145751,0.0062705583311006,0.00475207623965143,0.00354349563259933,0.00261628697647001,0.00191611691316606,0.00140364271395927,0.00107892888957297,0.000852338136484382,0.0011397686757148
"2",0.0069372539847393,0.00739438939315072,0.0105577350097191,0.0151899861911669,0.020120201119364,0.0262291909812656,0.0330976055289146,0.0400539710387176,0.046743504410308,0.0527026245041942,0.0575469545297673,0.0609938476421315,0.0628760115492028,0.0631479099842541,0.0618836292022585,0.0592546029462897,0.0555038895497451,0.0509161387707699,0.0457876154679598,0.0404010309951583,0.0350063759726119,0.0298086831147472,0.0249623514711691,0.0205711665582842,0.0166926979366592,0.0133454297629968,0.0105175417660747,0.00817662438850549,0.00627221850679585,0.00475345565369129,0.00354461274706283,0.00261718086725551,0.0019168254983245,0.00140420624507802,0.00107940574630972,0.000852746514092044,0.00114038445125656
"3",0.00693475590192881,0.00739180390917712,0.0105541320433882,0.0151849299110127,0.0201137312492345,0.0262211354212756,0.0330880136805767,0.0400431757566636,0.0467319893801428,0.0526910155394687,0.0575359463167218,0.0609841237070266,0.0628681707196481,0.0631424067521563,0.0618807331495172,0.0592543841727173,0.0555062276628599,0.0509207517237063,0.0457941021573638,0.0404089200574302,0.0350151739771998,0.0298179166799979,0.0249715997780484,0.0205800826707488,0.0167010190481826,0.0133529778578647,0.0105242173253684,0.00818239746877292,0.00627710661663083,0.00475752268213342,0.0035479105288827,0.0026198231041993,0.00191892282373591,0.00140587672524443,0.00108082192307882,0.000853961210805475,0.00114222036708034
"4",0.00692920457033024,0.00738605433227925,0.0105461152076142,0.015173672671384,0.0200993149709336,0.0262031660842399,0.0330665879454746,0.0400190212006799,0.0467061714334702,0.052664920948029,0.0575111221567996,0.060962100428054,0.0628502982668965,0.0631297202818834,0.0618738601203355,0.0592535086957365,0.055511107259847,0.0509307787453307,0.0458083966946422,0.0404264377136452,0.0350348133571328,0.0298386142404592,0.0249924039148038,0.0206002031800527,0.016719851928623,0.0133701085287477,0.0105394080124177,0.00819556857388232,0.00628828684606175,0.0047668484363222,0.00355548974173837,0.00262591017154621,0.00192376653711333,0.00140974524818682,0.0010841126906249,0.000856791835290325,0.00114651702938254
"5",0.00691849577717564,0.00737495355089487,0.0105306260807853,0.0151519069427443,0.0200714130787479,0.0261683402090944,0.0330249928603644,0.0399720308132115,0.0466558173960944,0.0526138675230984,0.0574623601753607,0.0609186083448207,0.0628147252491576,0.0631041232349039,0.0618595180653907,0.059250846200078,0.0555197189207804,0.0509495410164386,0.0458356425743324,0.0404601626849778,0.0350728833597309,0.0298789514304543,0.0250331338647687,0.0206397552907582,0.0167570122501601,0.0134040303393492,0.010569591000036,0.00822182606151093,0.0063106478348896,0.00478556123423162,0.00357074292459231,0.00263819813404925,0.00193357595643464,0.00141760766865791,0.00109083049756473,0.000862591658478466,0.00115536979587228
"6",0.0068998011371552,0.00735555605948428,0.0105035392246544,0.0151138129604499,0.020022524915209,0.026107228284161,0.0329518647734495,0.0398892255741024,0.0465668330391681,0.0525233305632181,0.0573755005860498,0.0608406732329584,0.0627504248587136,0.0630571648904445,0.061832270097669,0.0592441891466759,0.0555330726561877,0.0509810463358586,0.0458824564145262,0.0405188128839272,0.0351396320916278,0.0299501243206695,0.0251053850005636,0.0207102522561647,0.0168235383075647,0.0134650118770233,0.0106240686346071,0.00826940440371737,0.00635132087907559,0.00481972964936224,0.00359869135739984,0.00266079549921235,0.00195168419550221,0.00143218350765397,0.00110335038976975,0.000873448411516876,0.00117205158449753
"7",0.00687032616046101,0.00732493797354352,0.0104607439068536,0.015053569106818,0.0199451072256936,0.0260102797664831,0.0328355929078479,0.0397572027619313,0.0464244778489738,0.0523778849984773,0.0572352205182093,0.0607139152699588,0.0626447727865695,0.0629786829158606,0.0617849510807029,0.0592296916336814,0.055550733684601,0.0510281408720859,0.0459546428939483,0.0406106818843289,0.0352452785044407,0.0300636741970375,0.0252214279066794,0.0208241513072728,0.0169316105003866,0.0135645891001315,0.0107134672302729,0.00834786069907387,0.00641870860275108,0.00487661111689457,0.00364541867413813,0.00269874716906817,0.00198224080085765,0.00145690982952108,0.00112472946642085,0.000892089125593001,0.00120092957242066
"8",0.00682767714030247,0.00728057531795411,0.0103986695643793,0.0149660868370327,0.0198325098394714,0.0258689796790406,0.0326656825460594,0.0395636481888508,0.046214945514291,0.0521627526606623,0.0570264382965354,0.0605237058029132,0.0624843696050812,0.062857231931664,0.0617086765364354,0.0592014677599078,0.0555700513098936,0.0510914349749809,0.0460559003838128,0.0407422140387271,0.0353985443392529,0.0302300538973754,0.0253928717300985,0.0209936590172089,0.0170935257260889,0.0137147192944719,0.0108490674909024,0.0084675688085196,0.00652212251517377,0.00496441087728831,0.00371792192859718,0.00275795789443701,0.00203018973604877,0.00149596140534853,0.00115876757348925,0.000921965224427129,0.00124767461326572
"9",0.00676895220948574,0.00721940442442406,0.0103129776579379,0.014845176627459,0.0196766316724446,0.025672934277661,0.0324292894663118,0.0392934391626382,0.0459212068543236,0.0518596045406645,0.0567303160937641,0.0602516053824725,0.062252118483686,0.0626779553785836,0.0615916009497896,0.0591512629110818,0.0555867079387764,0.0511706428221224,0.0461898260913233,0.0409205272291985,0.0356095385368516,0.0304617224937793,0.0256338319735443,0.0212338556715203,0.0173246857024491,0.013930565279228,0.0110453400159621,0.00864198437838782,0.0066737691465192,0.00509400055682816,0.00382555678727345,0.00284640005757315,0.00210227515052553,0.00155509955792939,0.00121078432293016,0.000967963357668807,0.0013204468368707
"10",0.00669176391755857,0.00713888264945722,0.0102000424244421,0.014685629773001,0.0194705909625516,0.0254132061039354,0.0321152051432671,0.0389331465916711,0.0455278299554374,0.0514514363202503,0.0563288939839357,0.0598794587215189,0.0619305148783691,0.062424862717968,0.0614200543473345,0.0590684098860118,0.0555935418479848,0.0512623949402485,0.0463568993746599,0.0411497839134597,0.0358857460897385,0.0307689744703912,0.0259567983617529,0.021558764648355,0.0176399892530472,0.0142272896493407,0.0113171813193177,0.00888532935541693,0.00688686357796379,0.00527742378045266,0.00397888525299773,0.00297325053298547,0.00220641514995307,0.00164123550934015,0.00128732616983821,0.00103621492288228,0.00142976350315361
"11",0.00659556835541308,0.00703836949158041,0.0100588816893684,0.0144859369852986,0.0192122197060134,0.0250866912150751,0.0317191073572914,0.0384769962323895,0.0450274038320143,0.0509291211432684,0.0558113899073731,0.0593950531365421,0.0615063087212211,0.0620842103146108,0.0611804536612969,0.0589401933527902,0.055579399082387,0.0513577124414564,0.0465507930229416,0.0414266074867973,0.0362268425071155,0.0311544435983419,0.0263670953645326,0.0219759964276728,0.018048836571062,0.0146155426672474,0.0116759573177613,0.00920921764884522,0.00717282727904272,0.00552562870831085,0.00418788903818659,0.00314751756789722,0.002350673633325,0.0017616813764828,0.0013956234861161,0.0011337048235386,0.0015881048493813
"12",0.00647716251448136,0.00691446418270004,0.00988465700232242,0.014239162844232,0.0188923800704775,0.0246815608659816,0.0312262087632587,0.0379073168784126,0.0443996515164752,0.0502703107102407,0.0551541381116442,0.0587743258773983,0.0609560617981145,0.0616342320256092,0.0608536985093922,0.0587510454085814,0.0555329223268908,0.0514498937224036,0.0467696498779627,0.0417539158894753,0.0366402123143107,0.0316294696470228,0.026879352945463,0.0225027086949848,0.0185701108279161,0.0151151449353695,0.0121417030092817,0.0096333111718895,0.00755041732877432,0.00585617633382065,0.00446830796994294,0.00338321314492227,0.00254746259140705,0.00192760486111616,0.00154666015511553,0.00127101811220842,0.00181436706038923
"13",0.00633558668018127,0.00676609320798827,0.00967577878596224,0.013942939480137,0.0185077922407322,0.0241933011309905,0.0306304575085643,0.0372162926946339,0.0436348206340214,0.0494632531279798,0.0543434620586423,0.0580019110609368,0.0602631233968376,0.0610575563731157,0.0604223902525647,0.0584843157832001,0.0554390063087052,0.0515261294210751,0.047003597215918,0.0421252493567752,0.0371230831002335,0.032195023135662,0.0274981260106872,0.0231466923920355,0.0192143404829713,0.0157387631443763,0.0127285819887642,0.0101726811345382,0.00803499330203604,0.00628431135322966,0.00483440456659549,0.00369358574044324,0.00280901370733855,0.00215049656370892,0.00175229538565677,0.00145997309225041,0.00213057818049999
"14",0.00617044798265361,0.0065927761198655,0.00943149075787721,0.0135960781873152,0.0180567018802251,0.0236193245331505,0.0299281321501154,0.0363987728818862,0.0427260421005953,0.0484991304045142,0.0533684645659264,0.0570648440355972,0.0594126464002714,0.0603378262201884,0.0598692141390325,0.0581224342600117,0.0552806265738908,0.0515707756926179,0.0472391680862097,0.0425300057477286,0.0376682383100504,0.0328475858649973,0.0282236805963242,0.0239118607335687,0.0199887505769051,0.0164964414899316,0.0134488662586959,0.0108412483726765,0.00864144962270407,0.0068254485543121,0.00530101588064141,0.00409282489766047,0.00314881218352991,0.00244342294002145,0.00202649476574949,0.00171482318818007,0.0025641330443672
"15",0.00598188635296794,0.00639459530121866,0.00915183358950482,0.013198526872386,0.0175388410998799,0.0229589480661242,0.0291178574825324,0.0354523518227948,0.0416695031309997,0.0473723506172326,0.0522214580309945,0.0559531360471872,0.0583922964188358,0.0594605142722657,0.0591778158152349,0.057647789258131,0.0550396536921669,0.0515660376722815,0.0474597957015765,0.0429537026058758,0.0382640238373906,0.0335789013451988,0.0290515092596682,0.0247975692131296,0.0208964402246276,0.017394696378299,0.0143120085714833,0.0116508913083359,0.00938340350503694,0.00749448058966771,0.00588297661948207,0.0045956205821024,0.00358130087430707,0.00282088755281275,0.00238538185389756,0.00205245525288795,0.00314855918146985
"16",0.00577064042466366,0.00617226757746755,0.00883774873047793,0.01275152165911,0.0169556333691958,0.0222136674079229,0.0282009620210835,0.0343778190849742,0.0404649968146065,0.0460811994030969,0.0508987141433577,0.0546606108237015,0.0571931547145965,0.0584138617061499,0.0583337351564477,0.0570436081798121,0.0546976265693586,0.05149258206353,0.0476462170598308,0.0433781346539639,0.0388942380814762,0.0343755950406061,0.0299716989278169,0.0257977667275206,0.0219353672683884,0.0184353942372862,0.0153234767753923,0.0126103007498565,0.0102721226814135,0.00830482787515685,0.00659429542275249,0.00521649461571248,0.00412138235257502,0.0032985217906038,0.00284715084384149,0.00249248131417754,0.00392418373206451
"17",0.00553856742479357,0.00592768547912834,0.00849183649255742,0.0122586563698873,0.0163115723890634,0.0213888918651718,0.0271835733396191,0.033181563436287,0.0391185539889213,0.0446305893297163,0.0494032033020811,0.0531875027320075,0.0558120517472839,0.0571908411487875,0.0573259167420861,0.0562949604332084,0.0542362202166324,0.0513294671424038,0.0477758849642848,0.0437803065858553,0.0395366400209388,0.0352173249578426,0.0309668009442501,0.0268986685155032,0.0230959104414007,0.0196132881983479,0.0164823454006068,0.0137226999988119,0.0113144323932088,0.00926658186615503,0.00744654395547233,0.00596845587669955,0.00478334762025479,0.00389229377251567,0.00343155907893933,0.0030569701390571,0.00493829169020724
"18",0.00528876382878902,0.00566404643218196,0.00811854120553688,0.0117261499077147,0.0156145779823484,0.0204944111019439,0.0260772112107784,0.031876296691684,0.0376432962248636,0.0430330322876371,0.0477456692598791,0.0515416098630475,0.0542527689003982,0.055790371820403,0.0561478983658732,0.0553898751221308,0.0536382454593557,0.0510549762774971,0.0478235889313724,0.0441328003834642,0.0401630315197112,0.0360765610370741,0.0320113062518196,0.0280779440340835,0.024359804695516,0.020914751160362,0.0177798884422257,0.0149843678364362,0.0125112365439812,0.0103850929436921,0.0084475457505322,0.0068618385774827,0.00557990025424464,0.00461775294176358,0.0041594191808475,0.00377016414387621,0.00624526342944004
"19",0.00502354539088362,0.00538375571603584,0.00772122178585947,0.0111587248960961,0.0148707045154896,0.0195377768224288,0.0248908641255747,0.0304720798753748,0.0360497958933141,0.0412988452848783,0.0459352636698163,0.0497299473220422,0.0525192451978559,0.0542125048721849,0.0547952496551742,0.054319136146657,0.0528897312027185,0.0506507629607196,0.0477673156909761,0.0444109224368934,0.0407472253806645,0.0369269142896158,0.033079917891142,0.0293125841748929,0.0257073397769177,0.022324133251078,0.0192050110932207,0.0163891417710657,0.0138611419079863,0.0116638224145081,0.00960352348943062,0.00790590149200939,0.00652335694466769,0.00549099379494525,0.00505354031065282,0.00465943908645042,0.0079086194697664
"20",0.00474566976943916,0.00508969514653497,0.00730392360440912,0.01056210004794,0.0140873405635911,0.0185283045130706,0.0236357821643784,0.0289817590000089,0.0343519336774652,0.03944213818708,0.0439853367037942,0.0477640153193439,0.0506200341540329,0.0524618449972588,0.0532678178690081,0.0530773010941646,0.0519797495657931,0.0501005851889806,0.0475860454967039,0.0445897421967168,0.0412615142300835,0.0377392152191915,0.0341433990383355,0.0305746545947583,0.0271131295032419,0.0238196351624155,0.0207402966196467,0.0179246931124658,0.0153570059838302,0.0131011961627273,0.0109162881054322,0.00910635942618039,0.00762352755948704,0.00652688574232502,0.00613725572817872,0.00575412628027029,0.00999969827170328
"21",0.00445865787571748,0.0047855573115179,0.0068718462628295,0.0099436496362402,0.0132740582530286,0.0174781403487902,0.0223267622742282,0.0274224342660838,0.0325684990214906,0.0374824751713222,0.0419150807932021,0.0456613478863463,0.0485696904608771,0.0505487251817302,0.0515706617653623,0.0516633862600824,0.0509008617392128,0.0493905336447448,0.0472597888948042,0.0446439619303087,0.041676390862664,0.038481093230998,0.0351680113643216,0.0318305873600736,0.0285452501451559,0.0253722910088938,0.0223608402152025,0.0195712297664922,0.0169845399331035,0.0146891475460128,0.0123817721219923,0.0104639499785272,0.00888636453714471,0.00773785349497923,0.00743333880598638,0.00708460856111903,0.0125966120894012
"22",0.00416568673858094,0.00447469450879684,0.00642973370362281,0.0093101357879048,0.0124396966578439,0.0163986048011539,0.0209777576509419,0.0258104683393416,0.0307178018579166,0.0354393663882387,0.0397442213224924,0.0434407306992495,0.0463848191680647,0.0484863384985456,0.0497124414277168,0.0500806010266253,0.0496501910838936,0.0485113509008788,0.0467729856412282,0.0445521732454343,0.0419654053682054,0.0391221638628035,0.0361207685747666,0.0330462612805199,0.0299699462288344,0.0269501460863775,0.0240377982114372,0.0213043704388664,0.0187245097620131,0.0164146901266109,0.0139910406630391,0.0119749797080152,0.0103141563133453,0.00913383909315381,0.00896384457321658,0.00868214565618712,0.0157841346041239
"23",0.00386997858012549,0.00416052004184107,0.0059824318898652,0.00866848892069886,0.0115933565444581,0.0153014246349293,0.0196033349390666,0.0241631131195357,0.0288193913112198,0.0333339818894413,0.0374946228302256,0.0411236040214221,0.044085199285178,0.0462915347155878,0.0477058735725457,0.0483364806199336,0.0482292801518083,0.0474580788047016,0.0461140167692161,0.0442963049153106,0.0421046064874393,0.0396335010117768,0.036968953155302,0.0341865540183982,0.0313511906738766,0.0285177868635574,0.0257378472532617,0.0230944952251432,0.0205519588824323,0.0182589988385358,0.015729273056475,0.0136302120926813,0.0119043517567261,0.0107210942634619,0.0107488360934691,0.0105776367440288,0.0196516860263106
"24",0.00357488886660444,0.00384659699897616,0.00553500984914901,0.00802597374968438,0.0107446058667005,0.0141989770073889,0.0182189469525594,0.0224987912683441,0.026894322243427,0.031189377895806,0.0351904527445705,0.0387341492224222,0.0416937895619877,0.0439847550738431,0.0455676185582708,0.046442760141417,0.0466439941759275,0.0462300360256749,0.0452752965772662,0.0438618590723357,0.0420729356833562,0.0399881828037753,0.0376807870623823,0.0352160914609216,0.032651452086741,0.0300370576490424,0.0274237817438962,0.024907159075809,0.0224363963608094,0.0201973374175165,0.0175754713285795,0.015414348906926,0.0136488375926056,0.0125012782634038,0.0128052577437457,0.0128004029624122,0.0242910200057087
"25",0.00328355995608831,0.00353627580207986,0.00509225001613707,0.00738946740692914,0.00990254412156681,0.0131031041895429,0.0168394901976349,0.0208354281275656,0.0249633156460863,0.0290285642709139,0.0328562517530499,0.0362974663751471,0.0392351172961058,0.0415887276231048,0.0433173617276355,0.0444149005310291,0.0449045264381121,0.0448313127274305,0.044254242105096,0.043239318110426,0.0418540134280332,0.0401633813083224,0.038227734340724,0.0361016622671605,0.0338341148807411,0.0314693805592709,0.029056634691198,0.026704922364222,0.0243432759158335,0.0222001303886705,0.0195031673076728,0.0173063519644928,0.0155338905371575,0.0144710562623451,0.015146128323844,0.0153771360383463,0.0297937950002703
"26",0.00299884684862839,0.00323261377662021,0.00465853200700389,0.00676529029095925,0.00907557496478659,0.0120248117204812,0.0154789163445605,0.0191899719610138,0.023046188248814,0.0268738518517145,0.0305162154662719,0.033838815212328,0.0367345113899124,0.0391277318402343,0.040977153792915,0.042271551212912,0.0430250290181419,0.0432706113232947,0.0430533583647847,0.0424244979001789,0.0414367696449309,0.0401412624530028,0.0385856440318762,0.0368135583216122,0.0348649544788557,0.0327772890043841,0.0305971840940655,0.0284487349316519,0.0262351824974532,0.0242338656388057,0.0214810743057641,0.0192797769733773,0.0175401643955048,0.0166217034067255,0.0177796417841646,0.0183306585302039,0.036248461972052
"27",0.00272339090069158,0.00293844826997312,0.00423793080636635,0.00615933843647429,0.00827156569263219,0.0109744499276201,0.0141504214775604,0.0175785669667744,0.0211619806922552,0.0247469052860852,0.0281941441723844,0.0313834416476026,0.0342177972231559,0.0366271680479713,0.0385708768381249,0.0400339498321239,0.0410229959620033,0.0415606711721092,0.0416797657450184,0.0414182362014017,0.0408153424727869,0.0399091299005055,0.0387351547369242,0.0373262333275846,0.0357130200765321,0.0339254829259071,0.0320071098163589,0.0300991006530447,0.0280729228386361,0.0262620023956007,0.0234738411598161,0.0213032681267261,0.0196428555432274,0.0189388545342204,0.0207083187664604,0.0216786324956255,0.0437366849317013
"28",0.00245943796269515,0.00265620475276038,0.00383394504985869,0.00557669589410029,0.00749733976051436,0.00996106228485558,0.0128656389885566,0.0160155984869644,0.0193278734557408,0.0226675607928968,0.0259122036022258,0.0289553296200055,0.0317100912938114,0.0341124470556659,0.0361232787628009,0.0377251467089041,0.0389187167741023,0.0397179829073581,0.0401451990471366,0.0402266917176286,0.0399896833034956,0.0394603316100781,0.0386628864885987,0.0376197506784325,0.0363522951504744,0.034882644422259,0.0332508925865742,0.0316179656547041,0.0298173216026809,0.0282465613441336,0.0254434694704838,0.0233416828248656,0.0218124452261527,0.0214027472771296,0.0239285399580689,0.0254325262838852,0.0523298111993876
"29",0.00220872658317096,0.00238777791296265,0.00344932754869313,0.0050213913447405,0.00675835518163816,0.00899196741724909,0.0116341138917329,0.0145130591822555,0.0175584502397731,0.0206529997642161,0.0236900284844604,0.02657625995323,0.0292348452044362,0.0316080523977027,0.0336590890028866,0.0353692103216412,0.0367346079774168,0.037762281398003,0.0384656950496501,0.0388612559937452,0.038965717599458,0.0387946869914879,0.0383621421592687,0.037680755084988,0.0367629210677222,0.0356228792093331,0.0342974211985502,0.0329704099671811,0.03143092352001,0.0301497198967189,0.027350837632842,0.0253574042621932,0.0240156809373557,0.0239887126848397,0.0274302884748523,0.0295967205849049,0.0620852838786761
"30",0.00197265505876653,0.00213470269687376,0.00308632139123462,0.0044967261002605,0.00605911799195762,0.0080732629565606,0.0104638847240838,0.0130811755267379,0.0158663236170541,0.0187183178957475,0.0215451756642724,0.0242660914666683,0.0268139093008945,0.0291373575646127,0.03120258127112,0.0329905502327623,0.0344943331280453,0.0357155191693968,0.0366604904018171,0.0373374556926251,0.0377543337864205,0.0379176403964495,0.0378322931115781,0.0375021421027066,0.0369311819679216,0.0361260248700561,0.035120605242439,0.0341255060439709,0.0328790371229266,0.0319349250029506,0.0291569199631461,0.027311506935145,0.0262165372408624,0.026667726391476,0.0311969816569988,0.0341676868796986,0.0730429994337484
"31",0.00175220470586756,0.00189807273225437,0.0027465436540489,0.00400510704280729,0.00540296132991142,0.00720953803449127,0.00936112102548453,0.0117279685645646,0.0142616203260959,0.0168759402516755,0.0194924773772322,0.0220420634379878,0.0244667974403703,0.026721868205811,0.028776810441176,0.0306131683649556,0.0322220910411308,0.033601217222841,0.0347514636864074,0.0356745169996921,0.0363711024222896,0.0368401670690497,0.0370789012349701,0.0370834200365035,0.0368501216293436,0.036378525681277,0.0357004938978402,0.0350576357247361,0.0341312050078306,0.0335684198919747,0.0308244162187264,0.0291653448999857,0.0283776149722612,0.0294074074799855,0.0352057664141606,0.0391336035074492,0.0852223020267974
"32",0.00154797079336597,0.00167857105548398,0.0024310266184293,0.00354810206468959,0.00479211185237302,0.00640394801167982,0.00833019900885594,0.0104593176952035,0.0127520164889817,0.0151356080424746,0.0175439582902096,0.0199186224488708,0.0222104065070156,0.0243808229854736,0.0264030914464369,0.0282600223366169,0.0299418805525246,0.0314436588243537,0.0327622955370111,0.0338945372975881,0.0348355100817318,0.0355781222563842,0.0361132352256098,0.0364304406007971,0.0365195272238509,0.0363736958053251,0.036023827085645,0.0357473050846511,0.0351622554640374,0.0350204524444002,0.0323191685165082,0.0308820411885008,0.0304615511520599,0.0321731232882696,0.0394280051459273,0.0444741965376321,0.0986193750410179
"33",0.00136022441106411,0.00147653378415988,0.0021403059954861,0.00312656309465006,0.00422784559916522,0.00565840571002983,0.00737392414520176,0.00927920221445221,0.0113429803387579,0.0135045995499627,0.0157090084491657,0.0179075205733021,0.0200590152754038,0.0221310736210793,0.0241007486871219,0.0259526421740891,0.0276769935163974,0.0292672792178014,0.030717786405055,0.0320217717956507,0.0331702629116076,0.0341516141869387,0.034951766676915,0.0355550694970646,0.0359458197551963,0.0361118649533279,0.0360844549423788,0.0361818178575511,0.0359532169392441,0.0362663470750472,0.0336115124626467,0.0324279568791917,0.0324324207439652,0.0349290216093498,0.0438294758058206,0.0501600795483015,0.113202873597444
"34",0.00118917784152116,0.00129223621528146,0.00187483325409578,0.00274122493499702,0.00371129137584448,0.00497464591833662,0.00649490140202906,0.0081913997638757,0.010039811218009,0.011990106363152,0.0139970793572607,0.0160208019758008,0.0180275230205933,0.0199905310532372,0.0218907229205513,0.0237148518762105,0.0254538084261005,0.0271004939302556,0.0286476882704963,0.0300864433503911,0.031405054276027,0.0325887126063829,0.0336198037950106,0.034478728387996,0.0351454833102216,0.0356036652305452,0.0358864175691097,0.0363578940032571,0.0364934347128631,0.037287621701269,0.0346777494512679,0.0337735874494942,0.0342551658184732,0.0376343183812238,0.0483601593448205,0.0561369078771945,0.128865723616791
"35",0.00104507993495741,0.00113680537716534,0.00165073712541146,0.00241564565556499,0.00327429687732098,0.00439527495316667,0.00574861285599126,0.00726563511576479,0.00892755663142214,0.0106930452198053,0.0125249835710996,0.0143906984719005,0.0162626269186321,0.0181189636295583,0.0199440676120063,0.0217268545243036,0.0234592321556893,0.0251341918486472,0.026743905335232,0.0282782928533573,0.0297241109338052,0.0310646580793624,0.0322800727514107,0.0333481244551139,0.0342458119178313,0.0349537467387299,0.0355080790863783,0.0363190583494435,0.0367906203802732,0.0380421009391306,0.0354691978417372,0.0348379801800339,0.0357945320280445,0.0400559068590111,0.0525913089798972,0.0618183404908368,0.14401984332195
"36",0.000905204158293302,0.000985726223264671,0.00143267016424384,0.00209846642030696,0.0028479193382521,0.00382887217718618,0.00501726959621484,0.00635573625832738,0.00783050030650953,0.00940833729646858,0.0110596996550106,0.0127587641192823,0.0144838969859726,0.016218112547359,0.0179493352417941,0.0196689360558064,0.021370315116431,0.0230471946433562,0.0246919222262008,0.0262941871210974,0.027840195025092,0.0293123940195409,0.0306897388314516,0.0319484191003774,0.0330634562749277,0.0340135251647474,0.0348398985852669,0.0360083912940993,0.0368409611985398,0.0386037565086112,0.0360591657684016,0.0357408202158475,0.0372584449078003,0.0425722572843984,0.0572514896669836,0.0682209877497168,0.161483032752806
"37",0.000787617902455605,0.00085858867608138,0.00124899911363822,0.00183107944975099,0.00248804348439969,0.00335008180818646,0.00439789507458199,0.00558338433678924,0.00689674169354567,0.0083113271759101,0.00980375635736662,0.011353818803141,0.0129447915698908,0.0145637524823264,0.0162017305295829,0.0178523677223514,0.0195106255341253,0.0211712432347464,0.0228272068708848,0.0244685788473985,0.0260817311957594,0.027649070663826,0.0291492538305922,0.0305578419012152,0.031848887136764,0.0330001764364938,0.0340589692963438,0.0355457916560348,0.0367045738144108,0.0389437559604328,0.0364149290471726,0.0363923206760508,0.0384529631456471,0.0447939326745848,0.0615580378550681,0.0742382293394371,0.178157904703
