"","X0","X1","X2","X3","X4","X5","X6","X7","X8","X9","X10","X11","X12","X13","X14","X15","X16","X17","X18","X19","X20","X21","X22","X23","X24","X25","X26","X27","X28","X29","X30","X31","X32","X33","X34","X35","X36"
"1",0.00433431153034585,0.00575178872112387,0.0084085796051737,0.0119734918034493,0.0161666037136322,0.0212195172760696,0.0269837369826899,0.0332056004810555,0.0395566000634877,0.0456477580917047,0.051093754392287,0.0555592381444532,0.0587874191615187,0.0606199792813744,0.0610041520423039,0.0599883296587042,0.0577081116639854,0.0543654027154429,0.0502037928606502,0.045483729533066,0.0404602098895669,0.0353649421691588,0.0303939636894053,0.0257008431932369,0.0213949306676897,0.0175436573429935,0.0141777214864459,0.0112977452118912,0.00888131511774829,0.0068903407558348,0.00527682712227014,0.00399303616582078,0.00299195153832953,0.00223849977130134,0.00173449102750821,0.00132509923886175,0.00227252788941165
"2",0.00433378323078258,0.00575109840209598,0.00840759194994727,0.0119721209741352,0.0161648133482248,0.0212172619769791,0.0269810107506152,0.033202447197905,0.0395531167047581,0.0456440920758972,0.0510900908497408,0.0555557808163844,0.0587843689574939,0.0606175134322254,0.0610024067757601,0.0599873885038903,0.0577080004233264,0.0543660910986563,0.0502052018517567,0.0454857428722787,0.0404626877453046,0.0353677350995967,0.0303969252920759,0.0257038403109853,0.0213978505500671,0.0175464116561389,0.0141802474751157,0.0113000044491247,0.00888329037165025,0.00689203201774737,0.0052782468462977,0.00399420776207359,0.00299290607504604,0.0022392777954271,0.00173515599322763,0.00132565451169205,0.00227360385556817
"3",0.00433225156825433,0.0057490966185614,0.00840472717473282,0.0119681434905624,0.0161596164080554,0.0212107121117366,0.0269730882668757,0.0331932768358713,0.0395429773363067,0.0456334094973972,0.0510794013185081,0.0555456759997406,0.0587754338979634,0.0606102660005453,0.060997247104762,0.059984564559062,0.0577075928055986,0.0543680171629046,0.0502092365403966,0.0454915516428103,0.0404698660485016,0.0353758488996696,0.0304055479566342,0.0257125825397971,0.02140638154146,0.0175544711434549,0.0141876494676965,0.0113066338974065,0.0088890942609404,0.00689700794978389,0.00528242920937191,0.00399766355532026,0.00299572529022195,0.0022415789775122,0.00173712625600867,0.0013273024299154,0.00227680423565087
"4",0.00432884636337261,0.00574464464501139,0.00839835272319344,0.0119592878963912,0.0161480369092509,0.0211961043802657,0.0269553990500444,0.0331727731940717,0.0395202697725824,0.0456094378942384,0.0510553557212558,0.0555228755984001,0.0587551896913667,0.0605937457915109,0.0609853617244801,0.0599778892019205,0.0577063306985861,0.0543720061604566,0.0502179932481574,0.045504343091598,0.0404857967548862,0.0353939510808081,0.0304248643989434,0.0257322345143734,0.0214256175203285,0.0175726952611819,0.0142044313914694,0.011321702634102,0.00890231911401877,0.00690837355767703,0.00529200469727466,0.00400559409402191,0.00300221049189278,0.00224688647446411,0.00174168526690164,0.00133112690121544,0.00228426209027783
"5",0.00432227401356363,0.00573604815017171,0.00838603646496796,0.0119421652698126,0.0161256263539098,0.0211678002720672,0.0269210757512413,0.0331329211885819,0.0394760440111081,0.0455626353418068,0.0510082669648065,0.0554780547059141,0.0587151907382512,0.0605608615643812,0.0609614010683382,0.0599640202260352,0.0577030045731976,0.0543789636073373,0.0502343442476029,0.0455287012877436,0.0405164455120756,0.0354290176621444,0.0304624817661967,0.0257706756065296,0.0214633932432907,0.0176086135716399,0.0142376202061259,0.0113516009706055,0.00892864230743483,0.00693106625368517,0.0053111811525625,0.00402152422464396,0.00301527773070907,0.00225761725886451,0.00175094163641566,0.00133892185799766,0.00229954323823107
"6",0.00431079360888623,0.00572102467490991,0.00836449752991255,0.0119121966075712,0.016086361394903,0.0211181453569106,0.0268607663110467,0.0330627642306511,0.0393980096640863,0.0454798267857798,0.050924670191536,0.0553981435895652,0.0586434704366355,0.0605014112422373,0.0609174795031136,0.0599377825475225,0.0576953573303991,0.0543895636890875,0.0502617269673073,0.0455705068166577,0.0405697043541256,0.0354904543450568,0.0305288005792852,0.0258388010982101,0.021530649067497,0.0176728339617115,0.0142971978688762,0.011405478079302,0.00897625399560293,0.00697226120264399,0.00534611721671841,0.00405064953664607,0.0030392564640766,0.00227738857364154,0.00176808228283029,0.00135342271297538,0.00232815018207296
"7",0.00429268003268696,0.00569730705272353,0.00833046621045227,0.0118648006413108,0.0160241853949809,0.0210393957097136,0.0267649392756967,0.0329510370792659,0.0392733983257919,0.0453471556952873,0.0507901947242486,0.0552689409522892,0.0585267269971875,0.0604037004182101,0.0608441300337545,0.0598924144264389,0.0576796309156349,0.0544031541540768,0.05030250448534,0.0456348768876334,0.0406530482464867,0.0355876059657433,0.0306345022055594,0.0259480934623674,0.021639167883436,0.01777700167313,0.0143943146876947,0.0114937207576706,0.00905459543562708,0.00704035102807245,0.00540411731948735,0.00409921646819877,0.00307942363849268,0.00231067547072617,0.00179712162911714,0.00137813035049022,0.00237727436496675
"8",0.00426644837563358,0.00566293611929923,0.00828110166437497,0.011795971727791,0.0159337598139039,0.0209246587599817,0.0266250118748244,0.0327874562272711,0.0390903675593444,0.0451515309445343,0.0505909675743006,0.055076381642567,0.0583513672488889,0.0602552885126093,0.06073070154123,0.0598195920732655,0.0576502236651025,0.054417078860989,0.0503570078827695,0.0457249972915241,0.0407722338077395,0.0357283988824426,0.0307892050429024,0.0261093509008775,0.021800420159849,0.0179327897082137,0.014540439413232,0.0116272649578843,0.00917382370077249,0.00714454836851722,0.00549335219516673,0.00417434017608749,0.00314189972896934,0.00236277027635502,0.00184291873318047,0.00141736773559803,0.00245602685199743
"9",0.00423029704483478,0.00561553332315933,0.00821295176806792,0.0117008369742247,0.0158085809043847,0.0207655222235637,0.0264304847962229,0.0325594054561798,0.0388343362503343,0.0448767618413734,0.0503097354875019,0.0548028510050478,0.0581002151181675,0.0600402693883288,0.0605633492289925,0.0597082165355991,0.0575993048665736,0.0544270978225717,0.0504246932810648,0.0458439123289904,0.0409335948577387,0.0359220042298359,0.0310043581847454,0.0263356838450926,0.0220285519460181,0.0181547871570711,0.0147500784963556,0.0118200979083445,0.0093470675867603,0.007296882559367,0.00562459506769813,0.00428549316145174,0.00323491476146546,0.00244086967232726,0.00191217362240922,0.00147716802491089,0.00257732327321458
"10",0.00418273560684482,0.00555312218826569,0.00812313051359776,0.0115752938261603,0.0156431240634719,0.0205547635675696,0.0261722287536294,0.0322557514977183,0.0384922160814669,0.044508028490532,0.0499303476784714,0.0544314262866676,0.0577562570244285,0.0597422915763734,0.0603271491356277,0.0595455073197201,0.057516846311536,0.0544263895307964,0.050502213945368,0.0459918178900496,0.0411407421509808,0.0361751455461642,0.0312893559379548,0.0266386182227065,0.0223366307450676,0.0184570071290124,0.0150376289898699,0.0120865038315467,0.00958808303261745,0.00751025646993593,0.00580965276947799,0.00444327138837704,0.00336786375091936,0.00255337099242592,0.00201291020496216,0.00156491491035125,0.0027574026393247
"11",0.00412340174353344,0.00547519817578039,0.00801085338215444,0.0114181488093262,0.0154356500866696,0.0202899049022751,0.0258468105698694,0.0318718871572472,0.0380580331747534,0.044037859915367,0.0494438016509954,0.0539516622708948,0.0573078331723517,0.0593488485805789,0.060009238409813,0.0593188238655013,0.0573910493395166,0.0544046032761547,0.0505812050827089,0.0461627575051473,0.0413903997610266,0.0364873313511588,0.0316464263471344,0.0270228836897855,0.0227315459420718,0.0188480706778751,0.0154129715362078,0.0124371460501659,0.00990786287100521,0.00779558737137587,0.00605901390708277,0.0046575061517505,0.00354982635061845,0.00270873473237664,0.00215359878914871,0.0016886938110247,0.00301482958954173
"12",0.00405029968989223,0.00537911860143932,0.00787226910182849,0.0112239388943733,0.0151788205700754,0.019961377437943,0.0254421656939222,0.0313931305957584,0.0375145506221734,0.0434467418205931,0.0488287985683556,0.0533411582473179,0.0567322701829801,0.0588379122892751,0.0595891745753091,0.0590102036530836,0.0572072153182076,0.0543509234855124,0.050655148896738,0.0463546993626667,0.0416849802345352,0.0368651616697492,0.0320859147462851,0.0275019850277069,0.0232292810688316,0.0193457160486738,0.0158948822357192,0.012891170621596,0.0103253286883099,0.00817107081951166,0.00638973056852006,0.00494387173241357,0.00379505570918376,0.00292007702947424,0.00234723782484966,0.00186083694696404,0.00337778142022068
"13",0.00396281109766018,0.00526404302358268,0.00770610955283551,0.0109907936749555,0.0148700008290936,0.0195655538025544,0.0249534318330118,0.0308131516726584,0.036853773947601,0.0427248896977295,0.0480737392677903,0.0525866014720755,0.0560147847295231,0.0581936173052403,0.0590505326855453,0.0586032914030441,0.056949753108689,0.054251231284722,0.0507120644650263,0.0465583696733732,0.0420183438655281,0.0373058833786396,0.0326085172074595,0.0280799426732416,0.0238368880162021,0.0199595989710262,0.0164951023756056,0.0134618402477556,0.0108546880637062,0.00865130496070399,0.00681626416342085,0.00531633071285946,0.00411684650986463,0.00320022361957895,0.00260722384457307,0.00209457169158296,0.00387788517152907
"14",0.00386066748780198,0.00512959067910904,0.00751176918224542,0.0107177701736205,0.0145077801549925,0.0191003669767874,0.0243776576004017,0.0301278598659384,0.0360702126579352,0.0418651775445314,0.0471696870417405,0.0516771655250877,0.055142710048836,0.0574016569968798,0.0583777263101887,0.0580817315615132,0.0566021721204785,0.0540896151618759,0.0507373584588132,0.0467611970536336,0.0423805512005585,0.0378026555189775,0.0332107791272251,0.0287567802225128,0.0245577664905887,0.0206962196773662,0.0172228204815761,0.0141605251463374,0.0115089249729411,0.009250298220131,0.00735304327841162,0.00578929403351292,0.00452936378641078,0.00356330149118219,0.00294887332348861,0.00240544499327593,0.00455348543308165
"15",0.00374393123658303,0.0049758176368804,0.00728927635330391,0.0104048198460386,0.0140919405017379,0.0185652898138302,0.02371380713132,0.0293354530065528,0.0351609953919792,0.0408633423009871,0.0461106811411844,0.0506049454828252,0.0541060544249983,0.0564499532366166,0.0575567617254408,0.0574299664332706,0.0561478733493418,0.0538490983212465,0.0507144327810881,0.0469477513135576,0.0427580963676127,0.0383445571659742,0.0338848762289625,0.0295280954337999,0.0253910577325423,0.0215581838583362,0.0180838519336066,0.0149958543796435,0.0122989721188651,0.00998070407025532,0.0080137903954396,0.00637706240242185,0.00504721622387862,0.0040244630829351,0.0033893308504591,0.00281139452120564,0.00545030180526737
"16",0.00361303725748498,0.00480327265753542,0.00703937610646177,0.0100529082681404,0.0136236213024749,0.0179615565978705,0.0229630500342179,0.0284367863166485,0.0341263267297168,0.0397185336811442,0.0448943801200509,0.0493656891696645,0.0528983073575547,0.0553295161477234,0.0565761212327409,0.0566341050431296,0.0555709595601349,0.0535123428143123,0.0506252361523615,0.0471001014563612,0.043134040392421,0.0389164786459743,0.0346182623274839,0.0303844798870829,0.0263308669126583,0.0225432712773622,0.0190796059257295,0.0159726371209717,0.0132326408669543,0.0108528078368588,0.00881060273740719,0.00709303171571919,0.005684810570177,0.00459941398452773,0.00394730246566113,0.00333267620224522,0.0066218431250251
"17",0.00346911296171694,0.00461341666560952,0.00676413313796305,0.00966485685519272,0.0131064272727884,0.017293572436106,0.0221304871831479,0.027437402290058,0.0329717791356031,0.0384357966428598,0.043524639423897,0.0479613595389447,0.0515188715845553,0.0540366356657206,0.0554286175584871,0.0556833631342175,0.0548572066180046,0.0530621220774499,0.0504502311709129,0.0471972920759566,0.0434870306057369,0.0394977335247014,0.0353919362719649,0.0313095128500817,0.0273640621308342,0.0236421208413742,0.0202047367087546,0.0170895556784401,0.0143124233009467,0.011872493542468,0.00975212480063145,0.00794810089212571,0.00645501415271285,0.00530334188921991,0.00464225014549087,0.0039913276725464,0.0081289115627671
"18",0.00331405385400184,0.00440872330465006,0.00646707927688026,0.00924555364070676,0.0125467143118723,0.0165692905428209,0.021225633517074,0.0263481291523555,0.0317090118153277,0.0370269086403091,0.0420124578955776,0.0464011743065203,0.0499741731389336,0.0525740332892757,0.0541125531873797,0.0545711913574421,0.0539951182323299,0.0524822578402207,0.0501691689858153,0.0472159140921952,0.0437916316343557,0.0400621233181805,0.0361802262050102,0.0322792655873412,0.0284695150448271,0.0248372391972414,0.021445965313101,0.0183378556528789,0.0155341114452416,0.0130398530546739,0.0108422025742495,0.00894942147052165,0.0073680437183172,0.00614998215451342,0.00549365765064683,0.00481066111109575,0.0100391044861034
"19",0.00314928266820297,0.00419105471623484,0.00615088411238155,0.00879871112598434,0.011949339951177,0.0157948361029581,0.0202558863257997,0.0251774819440327,0.0303473213684663,0.0355014228719495,0.0403669565284352,0.0446930202264398,0.0482700178008197,0.0509446223405355,0.0526272552227513,0.0532928303429437,0.0529756023684064,0.0517593715815524,0.0497647345711632,0.0471353527453785,0.0440248086552658,0.0405852494803408,0.0369585212711478,0.0332700733670499,0.0296255882367927,0.0261099492843355,0.0227883134250457,0.0197067666265426,0.0168913748326943,0.0143529464109945,0.0120828907161384,0.0101027522253665,0.00843329326738709,0.00715307495532218,0.0065223355496394,0.00581645684212657,0.0124296199381856
"20",0.00297650023449732,0.00396264421423329,0.00581876403537623,0.00832882719602589,0.0113202334311868,0.0149777581858175,0.0192304783982846,0.0239362676972216,0.0288987757835813,0.0338721363739963,0.0386009310742356,0.0428488114300203,0.0464164762585019,0.0491556692996429,0.0509763140741911,0.0518474955301114,0.0517930452002307,0.0508828622927859,0.0492215046534655,0.0469358486139751,0.0441632437309785,0.0410412498424681,0.0376995913784987,0.0342545899026926,0.0308060577000004,0.027436293836787,0.0242110808713523,0.0211796286917452,0.0183720959470687,0.0158043931179485,0.0134713354945752,0.0114096578347271,0.00965686188559248,0.00832421564599066,0.00774852540633499,0.00703538989270611,0.01538444484314
"21",0.00279788313232606,0.00372635528741905,0.00547485430277384,0.00784170408308069,0.0106670779531742,0.0141278963834853,0.0181615369235225,0.0226388272936488,0.0273796113947258,0.0321565963282443,0.0367324084310169,0.0408860297776213,0.0444293429141634,0.047220113216005,0.0491687187683268,0.0502392998898026,0.0504460093017932,0.049845382498474,0.0485262140637328,0.0465985718546577,0.0441832356429418,0.0414025381547033,0.0383731750671472,0.0352012268305622,0.031979403871549,0.0287861778284924,0.0256868429096779,0.0227327548392484,0.0199571168561925,0.0173800313398773,0.0149983828383123,0.0128661065893638,0.0110401838330637,0.00967155093791213,0.00919065099109892,0.00849392957199854,0.0189922580998519
"22",0.00261540295436829,0.00348478988648624,0.00512292885018939,0.00734266431088871,0.00999696847087234,0.013254411634028,0.0170604669395923,0.0212988147891851,0.0258055216830245,0.0303720821212455,0.0347795626887473,0.0388228504336668,0.0423257548844973,0.0451529429086023,0.0472162131018942,0.0484757462947938,0.0489369437926612,0.0486437677963302,0.0476698298120398,0.0461086994597376,0.0440645873155165,0.0416442747461498,0.0389507913435677,0.0360790676522974,0.0331136077000982,0.0301278587804793,0.0271854882470404,0.0243389165653874,0.0216231193637591,0.0190611834557921,0.0166502576546965,0.0144636233289641,0.0125807385785061,0.0112001439367915,0.0108654368126818,0.0102183200880929,0.0233462216173158
"23",0.0024310643526152,0.00324059899573673,0.0047668436892199,0.00683716457480828,0.00931721085167017,0.0123667889127243,0.0159391575643035,0.0199305846801673,0.0241931798356938,0.0285371964043226,0.0327622937009221,0.0366796224294227,0.0401254949468898,0.0429722582517022,0.0451340741107905,0.0465682088069237,0.0472723808633338,0.0472789840519487,0.0466473005797203,0.0454550262131224,0.0437901358698034,0.041743863728668,0.0394052366710331,0.0368573788851201,0.0341756724312413,0.0314274610285295,0.0286736983357962,0.0259667580396253,0.0233419482999134,0.0208238724864727,0.0184076722964692,0.0161882972367684,0.0142709726555711,0.0129108148031503,0.0127866105843176,0.0122332691783819,0.0285409036530882
"24",0.00224695815629127,0.00299655112618402,0.00441063307252075,0.00633092619023735,0.00863548707639334,0.0114750372039656,0.0148102115300269,0.0185494400985705,0.0225604896853579,0.0266720995442314,0.0307024253967463,0.0344790142691859,0.0378510743681739,0.0406992893915223,0.0429410776095434,0.0445318651999789,0.0454628649123268,0.0457560883995334,0.0454575858684412,0.0446300940721345,0.0433460049575126,0.0416813373148741,0.0397110938440506,0.0375062188996921,0.0351322922282891,0.0326496520987396,0.0301155729530204,0.0275813123950943,0.0250809676618868,0.0226389807724814,0.0202457707036911,0.0180205054976802,0.0160978071880904,0.0147994273347945,0.014963901874473,0.0145607899807561,0.0346691511234954
"25",0.00206504753499313,0.00275525126166591,0.00405810409719154,0.00582936696005081,0.00795910387262876,0.0105887282459607,0.0136857609128821,0.0171702310832353,0.0209249936280946,0.0247967769903356,0.0286219024149443,0.032244224289199,0.0355260492468503,0.0383569116274657,0.0406582972218491,0.0423848525506889,0.0435225191141072,0.0440842400734177,0.0441041217385701,0.0436311007065326,0.0427229222769091,0.0414410287088889,0.0398466895872593,0.0379985959434101,0.0359521168863786,0.0337599157811787,0.0314748139632305,0.0291460050912049,0.0268048060878748,0.0244736790635886,0.0221352088131771,0.0199356268179471,0.0180429792019748,0.0168568454048147,0.0174025448922713,0.0172193774624332,0.0418192604467817
"26",0.00188712114174103,0.00251907818702792,0.00371274412753235,0.00533746781964034,0.00729481014894845,0.00971675317194131,0.012577152489352,0.0158069608353677,0.0193033961607608,0.0229304823170342,0.0265421617863078,0.0299982975742396,0.0331743067531503,0.0359689319974664,0.03830842808955,0.0401476688353642,0.0414685673453263,0.0422763840329687,0.0425947033614845,0.0424600108434552,0.0419165790438605,0.0410121856628235,0.0397949525949955,0.0383115443122718,0.0366070031400855,0.0347259205249722,0.0327161406443117,0.0306240388347491,0.0284766346678044,0.0262925282415913,0.02404302996753,0.0219046441485851,0.0200833301418679,0.0190688479323213,0.0201026869869965,0.0202230240076184,0.050071482128943
"27",0.00171483712586923,0.00229024073162246,0.00337779869874694,0.0048598766544716,0.00664892508093216,0.00886747177197145,0.0114951094231258,0.0144729449680971,0.0177117003931321,0.0210918270300781,0.0244841513933545,0.0277640514567325,0.0308198828612241,0.0335597945426868,0.0359153873693827,0.0378426896667668,0.0393208008161507,0.0403487115687107,0.0409409905211432,0.0411231598129806,0.0409273817567224,0.0403889123732836,0.039543574357242,0.0384265158785409,0.0370726290790665,0.0355183284555265,0.0338062452988464,0.031979431484194,0.0300592140887363,0.0280584614196525,0.0259335197421161,0.0238948039101462,0.0221911972528792,0.0214161521632872,0.0230588578964674,0.0235802242937629,0.0594941986623373
"28",0.00154961025562862,0.00207062876397703,0.00305605527259637,0.00440060302101806,0.00602693045965011,0.00804818459053321,0.0104490708343012,0.0131800145938991,0.0161642807800836,0.0192977403286472,0.0224672048390539,0.0255629024967556,0.0284857849583726,0.0311534458015634,0.0335032708155006,0.0354932625741346,0.0371008529229713,0.0383201531833067,0.039158249274597,0.0396312670167859,0.0397607518641841,0.0395707601541879,0.0390858850226191,0.0383305236285255,0.0373298751423234,0.0361123702200367,0.0347155046683918,0.0331787946666341,0.0315166646031714,0.0297344685219587,0.0277697398698372,0.0258709235927616,0.0243354098786263,0.0238749807800086,0.0262599081392155,0.0272933415086355,0.0701405849554936
"29",0.00139254217488977,0.00186172074369743,0.00274970829568394,0.00396282633958761,0.00543321228977703,0.00726479463363344,0.00944676286961169,0.0119379902397908,0.0146732588101915,0.0175627519944926,0.0205082436012027,0.0234140061436261,0.0261930926568249,0.0287724248230426,0.0310954633705792,0.0331228717740359,0.0348314529371584,0.0362117559808252,0.0372648867272116,0.0379991594137055,0.0384270654652738,0.0385629053323815,0.0384212840061876,0.0380168299127675,0.0373657631502737,0.0364890140695535,0.0354193425623847,0.0341928376631153,0.032816047464423,0.0312851847606386,0.0295150587585914,0.0277967798904931,0.0264824319164208,0.0264178130392025,0.0296891374285002,0.0313581302079673,0.0820454485522441
"30",0.00124452312684174,0.00166471590005339,0.00246054678241933,0.0035491536283199,0.00487139271463303,0.00652221768563989,0.00849468206914943,0.0107552212502245,0.0132490693205449,0.0158995454968663,0.0186222692775403,0.0213346380282739,0.0239611814186119,0.0264378915987193,0.0287144490822407,0.030754724016138,0.0325358016942642,0.0340458822578205,0.0352815224723986,0.0362447787666092,0.0369406672822616,0.037375243102429,0.0375544832125429,0.0374843991703809,0.0371731641224872,0.0366349553593222,0.0358985048608818,0.0349969076104912,0.0339281295667808,0.0326778227708639,0.0311341906151453,0.0296361637352929,0.028597311316852,0.0290140535765007,0.0333244138088477,0.0357632807798618,0.0952221025217359
"31",0.00110618409323647,0.00148047078964319,0.0021898616951544,0.00316148779517401,0.00434415242397403,0.00582414944255839,0.00759779929572715,0.00963822099607159,0.0119000244880708,0.0143184517843609,0.0168217916501343,0.0193395638864122,0.0218070446721486,0.0241689141671594,0.0263810783224069,0.0284110134209598,0.0302368540814888,0.0318455323489409,0.0332303771884484,0.0343886637908478,0.0353194758852356,0.0360221459047497,0.0364954475031646,0.0367380460516761,0.0367511734809873,0.0365432288765735,0.036139905882571,0.0355720512180548,0.0348286277588523,0.0338835544678601,0.032594666887445,0.0313543622056614,0.0306450595411441,0.0316311420400729,0.0371387673412109,0.0404904295158683,0.109660279105941
"32",0.000977915269338113,0.00130952289896819,0.00193847859477185,0.00280107101852401,0.0038532838247816,0.00517312663266739,0.00675962402241886,0.00859172603870919,0.0106323559309537,0.012827459073931,0.0151167885941432,0.0174409312433102,0.0197451000839672,0.0219821755775725,0.0241141669629383,0.0261124116661537,0.0279567076989794,0.0296336486276619,0.0311345182127982,0.0324531720746185,0.0335842236730756,0.0345217678554321,0.0352588118237696,0.0357880121040976,0.0361048891323897,0.0362132211667812,0.0361368944255597,0.0359055374526581,0.035498975237715,0.0348784932363529,0.0338679992792734,0.032919431938183,0.0325919251271709,0.0342356576482583,0.0411010817223314,0.0455143319320593,0.125324562197672
"33",0.000859903854120163,0.00115213986799274,0.00170682772532847,0.00246858139914229,0.00339981608945658,0.00457068241898196,0.00598238845389237,0.00761890272336448,0.0094504324471207,0.0114324253831298,0.0135148929906734,0.0156484079139134,0.0177872566370583,0.0198919487675782,0.0219303629743649,0.0238778171643091,0.0257162341821062,0.0274326383641168,0.0290172934954027,0.0304618543781649,0.0317578091841886,0.0328954191642131,0.033863325678239,0.0346495290181544,0.0352451393494146,0.0356506018731551,0.0358894152920586,0.0359912602475669,0.0359269621779357,0.0356445557875903,0.0349307430210658,0.0343033951980106,0.0344065951386974,0.0367943036178715,0.045176501678073,0.0508025823233297,0.142151054020205
"34",0.000752301057527246,0.00100854243712686,0.00149527262553684,0.00216460540092691,0.0029846608767572,0.00401820651197296,0.00526816077117518,0.00672274607609982,0.00835846782837398,0.0101391063051231,0.0120237384166643,0.0139718310983858,0.0159458417371033,0.0179132677662532,0.0198475221109973,0.0217278928625775,0.0235387367607659,0.0252681110053085,0.0269061125043203,0.0284432478457529,0.0298690760864966,0.0311713084147879,0.0323355388051986,0.0333464279460648,0.0341919915060039,0.0348706952814709,0.0354071797434688,0.0358326115860414,0.0361092145909659,0.0361714662344202,0.0357660520290557,0.0354830960431913,0.0360597487056369,0.0392708014241328,0.0493178023127102,0.0563019437826352,0.159996673508957
"35",0.000661586378041443,0.000887412216142873,0.00131667396318796,0.00190774076891566,0.0026334244834457,0.00355010706238322,0.00466193997070374,0.00596049027027194,0.00742731273733908,0.00903295679332288,0.010743914119126,0.012526974316093,0.0143513830656109,0.016190523539776,0.0180225778363434,0.0198304009256748,0.0216007382151867,0.0233229654456468,0.0249875856375924,0.0265847659021284,0.0281031274986126,0.0295289553334138,0.030846007570129,0.0320368644409098,0.0330877137592372,0.0339962760824143,0.0347894741185106,0.0355010321994872,0.0360857260474267,0.0364655231082833,0.0363484632195493,0.036395864234694,0.0374365552032351,0.0414607532481265,0.0531443095488235,0.0614840755579783,0.177087805182222
"36",0.000573452130060434,0.00076964361666963,0.0011428600702432,0.00165746693277831,0.00229069221377972,0.00309251886007769,0.00406804156824645,0.00521177952807759,0.00650986852194002,0.0079391090586494,0.00947289681663427,0.0110848901947109,0.0127507667319867,0.0144495709612909,0.01616418672766,0.0178811398144058,0.0195898437540472,0.0212814425033734,0.0229474516937235,0.0245784425490538,0.0261629546191307,0.0276867871784249,0.0291328601461141,0.0304827216894497,0.0317218892189894,0.0328487270281589,0.033894372666151,0.0348970764380233,0.035804333787823,0.0365246881164542,0.0367219424690812,0.0371415932198233,0.0387208373393123,0.0437011206304993,0.0573034937770721,0.0672618666515335,0.196536670776537
"37",0.00049931122420636,0.000670518196454981,0.000996448439581773,0.00144645798499138,0.00200139578372152,0.00270573231381542,0.00356518614334558,0.00457656069962899,0.0057296261898619,0.00700621929187079,0.00838533481706992,0.00984623293314131,0.0113698759834306,0.0129400119672213,0.0145435008950164,0.0161700664920634,0.0178115705947902,0.0194609428327871,0.0211109397189688,0.0227529449397439,0.0243759743720089,0.0259660224603856,0.0275059519772363,0.0289771382898504,0.0303653343896634,0.0316704600503055,0.0329286976902162,0.0341836619945047,0.0353767817551807,0.0364044855993912,0.0368886018625056,0.0376565352926682,0.0397509107213485,0.0456552107949855,0.0611103288452355,0.0726508050582616,0.214944221404528
