"","X0","X1","X2","X3","X4","X5","X6","X7","X8","X9","X10","X11","X12","X13","X14","X15","X16","X17","X18","X19","X20","X21","X22","X23","X24","X25","X26","X27","X28","X29","X30","X31","X32","X33","X34","X35","X36"
"1",0.887163473873328,0.107532227162439,0.00487040500679569,0.000347133118809258,7.04731571423456e-05,1.42352291324939e-05,1.8964940938596e-06,1.4948780753314e-07,6.35789074089905e-09,1.12562118999139e-10,0,0,0,0,0,0,0,0,0,0,0,0,0,0,0,0,0,0,0,0,0,0,0,0,0,0,0
"2",0.884514650688057,0.108378000713113,0.00603686449717817,0.000778549918935502,0.000213848399147399,6.27630872977667e-05,1.33909637558406e-05,1.78526307450905e-06,1.4040255787203e-07,5.96146509476389e-09,1.05417177002315e-10,0,0,0,0,0,0,0,0,0,0,0,0,0,0,0,0,0,0,0,0,0,0,0,0,0,0
"3",0.87859912204021,0.109299388735788,0.00887256167431811,0.00225992623520247,0.000680280154047277,0.000210681046363468,6.27194138485852e-05,1.33891232618812e-05,1.78511413599002e-06,1.40396059090946e-07,5.96134796456722e-09,1.05417177002315e-10,0,0,0,0,0,0,0,0,0,0,0,0,0,0,0,0,0,0,0,0,0,0,0,0,0
"4",0.868953019579508,0.110011477877958,0.01250987400721,0.00538016565201195,0.00217898587704372,0.000677771623555392,0.000210665269017701,6.27194134720952e-05,1.33891232618812e-05,1.78511413599002e-06,1.40396059090946e-07,5.96134796456722e-09,1.05417177002315e-10,0,0,0,0,0,0,0,0,0,0,0,0,0,0,0,0,0,0,0,0,0,0,0,0
"5",0.853857688130657,0.111590469098946,0.0168054997968169,0.00929848626793622,0.00530520033642944,0.00217619940418614,0.000677753044351486,0.000210663859690442,6.27193607635067e-05,1.33891232618812e-05,1.78511413599002e-06,1.40396059090946e-07,5.96134796456722e-09,1.05417177002315e-10,0,0,0,0,0,0,0,0,0,0,0,0,0,0,0,0,0,0,0,0,0,0,0
"6",0.830955189236947,0.114992419247486,0.0226182696434386,0.0137815805138408,0.0092099518687681,0.00530020969074644,0.00217595253056889,0.000677724418142115,0.00021066278907531,6.27193607635067e-05,1.33891232618812e-05,1.78511413599002e-06,1.40396059090946e-07,5.96134796456722e-09,1.05417177002315e-10,0,0,0,0,0,0,0,0,0,0,0,0,0,0,0,0,0,0,0,0,0,0
"7",0.80252207387611,0.117687184688251,0.0293544964992392,0.0192403106516009,0.0135634633832521,0.00919203317852897,0.00529841112504208,0.0021756334394355,0.000677692291010769,0.000210660859250739,6.27193080549182e-05,1.33891232618812e-05,1.78511413599002e-06,1.40396059090946e-07,5.96134796456722e-09,1.05417177002315e-10,0,0,0,0,0,0,0,0,0,0,0,0,0,0,0,0,0,0,0,0,0
"8",0.771302183940479,0.119212813056214,0.0349538409697777,0.0247838175810663,0.0186163946051816,0.0135088403128219,0.00918429194027536,0.00529615131145256,0.00217529778089064,0.00067766828984546,0.000210660203715741,6.27193080549182e-05,1.33891232618812e-05,1.78511413599002e-06,1.40396059090946e-07,5.96134796456722e-09,1.05417177002315e-10,0,0,0,0,0,0,0,0,0,0,0,0,0,0,0,0,0,0,0,0
"9",0.736504947098409,0.120866301883547,0.0397788708554994,0.0294097768747238,0.0238018794863667,0.0185217492735447,0.0134967753220859,0.00918211831508366,0.0052959285018556,0.00217528425643176,0.000677667920456891,0.000210660203715741,6.27193080549182e-05,1.33891232618812e-05,1.78511413599002e-06,1.40396059090946e-07,5.96134796456722e-09,1.05417177002315e-10,0,0,0,0,0,0,0,0,0,0,0,0,0,0,0,0,0,0,0
"10",0.698539913923513,0.121873490315486,0.0447454802537468,0.0335714542333662,0.0281202459205736,0.0235803973282287,0.0184641839354302,0.0134862914602131,0.00918103008421919,0.0052958619734066,0.00217528243936471,0.000677667920456891,0.000210660203715741,6.27193080549182e-05,1.33891232618812e-05,1.78511413599002e-06,1.40396059090946e-07,5.96134796456722e-09,1.05417177002315e-10,0,0,0,0,0,0,0,0,0,0,0,0,0,0,0,0,0,0
"11",0.661068787043476,0.121087996149659,0.0481732697708902,0.0374313400800462,0.0317562792549648,0.0276349866993869,0.0233563312288351,0.018397026037369,0.0134761865913942,0.00918030441859368,0.00529584215356835,0.00217528243936471,0.000677667920456891,0.000210660203715741,6.27193080549182e-05,1.33891232618812e-05,1.78511413599002e-06,1.40396059090946e-07,5.96134796456722e-09,1.05417177002315e-10,0,0,0,0,0,0,0,0,0,0,0,0,0,0,0,0,0
"12",0.621594145384073,0.119613203080818,0.0506851789782426,0.0407598140138345,0.0356672779022244,0.031387205555053,0.0274918206588915,0.0233165291700871,0.0183912613156481,0.0134757779552006,0.00918029326054289,0.00529584215356835,0.00217528243936471,0.000677667920456891,0.000210660203715741,6.27193080549182e-05,1.33891232618812e-05,1.78511413599002e-06,1.40396059090946e-07,5.96134796456722e-09,1.05417177002315e-10,0,0,0,0,0,0,0,0,0,0,0,0,0,0,0,0
"13",0.579861616276706,0.117693816631975,0.0529555171720674,0.0435058428603721,0.0390982156096306,0.0353460729066309,0.0312774400604442,0.0274641875351875,0.0233127357796054,0.0183909983234264,0.013475770858026,0.00918029326054289,0.00529584215356835,0.00217528243936471,0.000677667920456891,0.000210660203715741,6.27193080549182e-05,1.33891232618812e-05,1.78511413599002e-06,1.40396059090946e-07,5.96134796456722e-09,1.05417177002315e-10,0,0,0,0,0,0,0,0,0,0,0,0,0,0,0
"14",0.537093103421647,0.11465167961842,0.054538600422439,0.0461063614948823,0.041997155318738,0.0388338620272231,0.0352639974872999,0.0312569250464375,0.0274612302534977,0.0233125343624755,0.0183909937029853,0.013475770858026,0.00918029326054289,0.00529584215356835,0.00217528243936471,0.000677667920456891,0.000210660203715741,6.27193080549182e-05,1.33891232618812e-05,1.78511413599002e-06,1.40396059090946e-07,5.96134796456722e-09,1.05417177002315e-10,0,0,0,0,0,0,0,0,0,0,0,0,0,0
"15",0.493806159409518,0.110704648725908,0.0552392075120397,0.0481399593828131,0.0447730431775406,0.0417980690925756,0.0387798498251608,0.0352472798738979,0.0312536872738569,0.0274610131113051,0.0233125320684443,0.0183909937029853,0.013475770858026,0.00918029326054289,0.00529584215356835,0.00217528243936471,0.000677667920456891,0.000210660203715741,6.27193080549182e-05,1.33891232618812e-05,1.78511413599002e-06,1.40396059090946e-07,5.96134796456722e-09,1.05417177002315e-10,0,0,0,0,0,0,0,0,0,0,0,0,0
"16",0.449928863085826,0.10641985105554,0.0553710295449441,0.0493876677114697,0.0469874835008585,0.0446256206679993,0.0417623932618696,0.0387627508846466,0.0352428537369302,0.0312533915102849,0.0274610124242479,0.0233125320684443,0.0183909937029853,0.013475770858026,0.00918029326054289,0.00529584215356835,0.00217528243936471,0.000677667920456891,0.000210660203715741,6.27193080549182e-05,1.33891232618812e-05,1.78511413599002e-06,1.40396059090946e-07,5.96134796456722e-09,1.05417177002315e-10,0,0,0,0,0,0,0,0,0,0,0,0
"17",0.407098323066677,0.101136481196688,0.0548609029033382,0.0499285483923648,0.0483463990230604,0.0468473337766727,0.0445758313451922,0.0417073291261432,0.0387456665111253,0.0352416983125832,0.0312533913065225,0.0274610124242479,0.0233125320684443,0.0183909937029853,0.013475770858026,0.00918029326054289,0.00529584215356835,0.00217528243936471,0.000677667920456891,0.000210660203715741,6.27193080549182e-05,1.33891232618812e-05,1.78511413599002e-06,1.40396059090946e-07,5.96134796456722e-09,1.05417177002315e-10,0,0,0,0,0,0,0,0,0,0,0
"18",0.366719494676786,0.0951086417648256,0.0533438857545813,0.0496107646158099,0.0488419725684322,0.0481281477199742,0.0467189062956138,0.0443865258183554,0.0416469069825382,0.0387415692109403,0.0352416982459889,0.0312533913065225,0.0274610124242479,0.0233125320684443,0.0183909937029853,0.013475770858026,0.00918029326054289,0.00529584215356835,0.00217528243936471,0.000677667920456891,0.000210660203715741,6.27193080549182e-05,1.33891232618812e-05,1.78511413599002e-06,1.40396059090946e-07,5.96134796456722e-09,1.05417177002315e-10,0,0,0,0,0,0,0,0,0,0
"19",0.328467722422943,0.0887715656240599,0.0512130261780156,0.048510972119611,0.0485699486552038,0.0485941747645778,0.0479635635230848,0.0464669703601031,0.044305866802684,0.0416414357549406,0.0387415692026328,0.0352416982459889,0.0312533913065225,0.0274610124242479,0.0233125320684443,0.0183909937029853,0.013475770858026,0.00918029326054289,0.00529584215356835,0.00217528243936471,0.000677667920456891,0.000210660203715741,6.27193080549182e-05,1.33891232618812e-05,1.78511413599002e-06,1.40396059090946e-07,5.96134796456722e-09,1.05417177002315e-10,0,0,0,0,0,0,0,0,0
"20",0.292511442639771,0.0820729567320369,0.0487072730945721,0.046855116085552,0.0475684428094956,0.0483283473281489,0.0484274157128202,0.0477075310548771,0.046384979856124,0.0443003051372433,0.0416414357545822,0.0387415692026328,0.0352416982459889,0.0312533913065225,0.0274610124242479,0.0233125320684443,0.0183909937029853,0.013475770858026,0.00918029326054289,0.00529584215356835,0.00217528243936471,0.000677667920456891,0.000210660203715741,6.27193080549182e-05,1.33891232618812e-05,1.78511413599002e-06,1.40396059090946e-07,5.96134796456722e-09,1.05417177002315e-10,0,0,0,0,0,0,0,0
"21",0.259242830546745,0.0752362943917281,0.0457161298064351,0.0447617361519161,0.0459806674405506,0.0473231458351009,0.0481513439953822,0.0481528181508311,0.0476195291656225,0.0463790098290916,0.0443003051372383,0.0416414357545822,0.0387415692026328,0.0352416982459889,0.0312533913065225,0.0274610124242479,0.0233125320684443,0.0183909937029853,0.013475770858026,0.00918029326054289,0.00529584215356835,0.00217528243936471,0.000677667920456891,0.000210660203715741,6.27193080549182e-05,1.33891232618812e-05,1.78511413599002e-06,1.40396059090946e-07,5.96134796456722e-09,1.05417177002315e-10,0,0,0,0,0,0,0
"22",0.228327324494897,0.0685027258914674,0.0425759575807837,0.0422767475307486,0.043997791788451,0.045760166836481,0.0471604933940859,0.0478977544499772,0.0480715198673265,0.0476140136500927,0.0463790098290916,0.0443003051372383,0.0416414357545822,0.0387415692026328,0.0352416982459889,0.0312533913065225,0.0274610124242479,0.0233125320684443,0.0183909937029853,0.013475770858026,0.00918029326054289,0.00529584215356835,0.00217528243936471,0.000677667920456891,0.000210660203715741,6.27193080549182e-05,1.33891232618812e-05,1.78511413599002e-06,1.40396059090946e-07,5.96134796456722e-09,1.05417177002315e-10,0,0,0,0,0,0
"23",0.199609302944145,0.0620236384820421,0.0393930161554903,0.0396028194810302,0.0416353144071748,0.0438217620998525,0.045629281117669,0.0469560656236057,0.0478322085578071,0.048067072965402,0.0476140136500927,0.0463790098290916,0.0443003051372383,0.0416414357545822,0.0387415692026328,0.0352416982459889,0.0312533913065225,0.0274610124242479,0.0233125320684443,0.0183909937029853,0.013475770858026,0.00918029326054289,0.00529584215356835,0.00217528243936471,0.000677667920456891,0.000210660203715741,6.27193080549182e-05,1.33891232618812e-05,1.78511413599002e-06,1.40396059090946e-07,5.96134796456722e-09,1.05417177002315e-10,0,0,0,0,0
"24",0.173440263724819,0.0556656711217152,0.0361246785465479,0.0367881946938758,0.0390601823314276,0.0414990422098528,0.0437204483505047,0.0454708885517011,0.0469052765507261,0.0478287627876468,0.048067072965402,0.0476140136500927,0.0463790098290916,0.0443003051372383,0.0416414357545822,0.0387415692026328,0.0352416982459889,0.0312533913065225,0.0274610124242479,0.0233125320684443,0.0183909937029853,0.013475770858026,0.00918029326054289,0.00529584215356835,0.00217528243936471,0.000677667920456891,0.000210660203715741,6.27193080549182e-05,1.33891232618812e-05,1.78511413599002e-06,1.40396059090946e-07,5.96134796456722e-09,1.05417177002315e-10,0,0,0,0
"25",0.149772194261422,0.0495944230896355,0.0328441369325562,0.0338212331350446,0.0363165710600677,0.0389591058105678,0.0414253224896936,0.0436050215342561,0.0454338725902919,0.046902765177634,0.0478287627876468,0.048067072965402,0.0476140136500927,0.0463790098290916,0.0443003051372383,0.0416414357545822,0.0387415692026328,0.0352416982459889,0.0312533913065225,0.0274610124242479,0.0233125320684443,0.0183909937029853,0.013475770858026,0.00918029326054289,0.00529584215356835,0.00217528243936471,0.000677667920456891,0.000210660203715741,6.27193080549182e-05,1.33891232618812e-05,1.78511413599002e-06,1.40396059090946e-07,5.96134796456722e-09,1.05417177002315e-10,0,0,0
"26",0.12847292706043,0.0439088711275371,0.0296284757022714,0.0308303936238654,0.0334171771999652,0.0362460411228117,0.0389090230075196,0.0413469244699494,0.0435798806924759,0.0454321668967104,0.046902765177634,0.0478287627876468,0.048067072965402,0.0476140136500927,0.0463790098290916,0.0443003051372383,0.0416414357545822,0.0387415692026328,0.0352416982459889,0.0312533913065225,0.0274610124242479,0.0233125320684443,0.0183909937029853,0.013475770858026,0.00918029326054289,0.00529584215356835,0.00217528243936471,0.000677667920456891,0.000210660203715741,6.27193080549182e-05,1.33891232618812e-05,1.78511413599002e-06,1.40396059090946e-07,5.96134796456722e-09,1.05417177002315e-10,0,0
"27",0.109605453998123,0.0385474324110495,0.0265135608273726,0.0278658032465459,0.0304788073255532,0.0333636397741767,0.0362084353691697,0.0388499937912867,0.0413279911456219,0.0435785961179264,0.0454321668967104,0.046902765177634,0.0478287627876468,0.048067072965402,0.0476140136500927,0.0463790098290916,0.0443003051372383,0.0416414357545822,0.0387415692026328,0.0352416982459889,0.0312533913065225,0.0274610124242479,0.0233125320684443,0.0183909937029853,0.013475770858026,0.00918029326054289,0.00529584215356835,0.00217528243936471,0.000677667920456891,0.000210660203715741,6.27193080549182e-05,1.33891232618812e-05,1.78511413599002e-06,1.40396059090946e-07,5.96134796456722e-09,1.05417177002315e-10,0
"28",0.0930434264086567,0.033607000936257,0.0235067222772323,0.0249658990576276,0.0275512626826629,0.0304340074187446,0.0333323922090588,0.0361592658209885,0.0388342201549961,0.0413269209226744,0.0435785961179264,0.0454321668967104,0.046902765177634,0.0478287627876468,0.048067072965402,0.0476140136500927,0.0463790098290916,0.0443003051372383,0.0416414357545822,0.0387415692026328,0.0352416982459889,0.0312533913065225,0.0274610124242479,0.0233125320684443,0.0183909937029853,0.013475770858026,0.00918029326054289,0.00529584215356835,0.00217528243936471,0.000677667920456891,0.000210660203715741,6.27193080549182e-05,1.33891232618812e-05,1.78511413599002e-06,1.40396059090946e-07,5.96134796456722e-09,1.05417177002315e-10
"29",0.0785511662501796,0.0290981610731216,0.0206868458756535,0.0221925135166129,0.0246988541767225,0.0275179600853013,0.0304111580851562,0.0332963872639995,0.0361477142551078,0.0388334363843698,0.0413269209226744,0.0435785961179264,0.0454321668967104,0.046902765177634,0.0478287627876468,0.048067072965402,0.0476140136500927,0.0463790098290916,0.0443003051372383,0.0416414357545822,0.0387415692026328,0.0352416982459889,0.0312533913065225,0.0274610124242479,0.0233125320684443,0.0183909937029853,0.013475770858026,0.00918029326054289,0.00529584215356835,0.00217528243936471,0.000677667920456891,0.000210660203715741,6.27193080549182e-05,1.33891232618812e-05,1.78511413599002e-06,1.40396059090946e-07,6.06676514156953e-09
"30",0.065945593858448,0.0250429349330185,0.0180676253854184,0.0195832362051092,0.0219698469207551,0.02467324634466,0.0275003408081738,0.0303833593456848,0.0332874677211826,0.0361471090594045,0.0388334363843698,0.0413269209226744,0.0435785961179264,0.0454321668967104,0.046902765177634,0.0478287627876468,0.048067072965402,0.0476140136500927,0.0463790098290916,0.0443003051372383,0.0416414357545822,0.0387415692026328,0.0352416982459889,0.0312533913065225,0.0274610124593869,0.0233125320684443,0.0183909936678462,0.0134757708931651,0.00918029326054289,0.00529584222384647,0.00217528240422565,0.000677667850178773,0.0002106602388548,6.27194486111542e-05,1.33889827056452e-05,1.78511413599002e-06,1.46427685173514e-07
"31",0.0550372244199351,0.0214360997961317,0.0156699387690695,0.0171555334917329,0.019401784682638,0.0219504554306226,0.024659849605881,0.0274791868473012,0.0303765714993712,0.033287007205661,0.0361471091447422,0.0388334364797473,0.0413269209653432,0.0435785963111912,0.0454321671702931,0.0469027651650843,0.0478287629382428,0.0480670734824482,0.0476140137028012,0.0463790099696478,0.044300305521258,0.041641436399635,0.0387415691976129,0.0352416983815253,0.0312533934885766,0.0274610128358768,0.0233125307874561,0.0183909950166027,0.0134757711441583,0.0091802972506711,0.00529583890228289,0.00217527853959408,0.000677671068835114,0.000210666201125275,6.271265806286e-05,1.33885208780126e-05,1.92700796004205e-06
"32",0.0456564542450768,0.018220869862152,0.0135230029510841,0.0149316574896755,0.0170110217382831,0.0193878154049212,0.0219407707327673,0.0246445532947458,0.0274742809067258,0.0303762428486075,0.0332870136100228,0.0361471159739048,0.0388334426461588,0.0413269314431116,0.0435786106140543,0.0454321723631938,0.0469027774881466,0.0478287880030974,0.0480670794411574,0.0476140285527437,0.0463790273916711,0.0443003333681481,0.0416414426176824,0.0387415777711574,0.035241753318408,0.0312534111153204,0.0274609960888671,0.0233125478153853,0.0183910072279195,0.0134758537299769,0.00918018528150631,0.00529575796699208,0.00217537008721618,0.000677755202719554,0.000210527350833489,6.26953134183047e-05,1.512874314433e-05
"33",0.0376452644580611,0.0154057712278632,0.0115784740596433,0.0129179742928399,0.0148152034551104,0.0170015995685099,0.01938130864186,0.02193048029237,0.0246413629563236,0.0274742498820231,0.0303764881966602,0.0332872752376566,0.0361473967387045,0.0388337779052112,0.0413273363941447,0.0435789253101431,0.045432603350392,0.0469033541453262,0.0478290805791936,0.0480675672897028,0.0476144445799998,0.0463795714026205,0.0443006042793383,0.0416416978951634,0.0387422897886849,0.0352420226102437,0.0312532455328998,0.0274609631118062,0.0233126221059675,0.0183915717076041,0.0134739962821454,0.00917926990544504,0.00529672184832348,0.0021754602461695,0.000675991450173897,0.000210025150375895,7.40081212964857e-05
"34",0.0308815509537068,0.0129470258098764,0.00984615340526005,0.011084693823989,0.012826816538909,0.0148120891287838,0.0170011015185188,0.0193790067324208,0.0219331966134264,0.0246468337643088,0.0274806076444104,0.0303833022541779,0.0332946362089412,0.0361553036877474,0.0388422953166176,0.0413355590972628,0.0435878695995089,0.0454417978905142,0.0469105619488503,0.0478374142003401,0.0480741804637675,0.0476211143084882,0.0463838789963388,0.0443034468841338,0.0416452434082604,0.0387417318887317,0.0352372230161056,0.0312472657500494,0.0274558326749183,0.0233071376368904,0.018371867249548,0.0134633216911905,0.00917649886428304,0.00528381019362517,0.00215539854447718,0.00066407908971256,0.000240153201905769
"35",0.0255316835051807,0.0109537502814452,0.00843434246358063,0.00955850200848026,0.011137227008293,0.0129672225606936,0.0149706569655121,0.0171747296665322,0.0195718374958553,0.0221443549446151,0.0248734885086787,0.0277203032287128,0.0306330638784251,0.0335499778888723,0.0364111275854475,0.0390904775649619,0.0415713715757093,0.0438049022938302,0.0456323693369388,0.0470723925455528,0.0479581849855545,0.0481478748631247,0.0476354697662173,0.0463346213560943,0.0441865183227328,0.0414582901402511,0.0385067110071687,0.0349655674782869,0.030937125038947,0.0271201413613503,0.0229465866721586,0.0179989339597868,0.0130534905723129,0.00875103949805114,0.00489105889222499,0.00182945092759936,0.000475153850817913
"36",0.0207445066324409,0.00909622911395159,0.00709323225040453,0.00811535739952406,0.00950825360939793,0.0111474599049547,0.0129800076067854,0.0149853759164915,0.0171920418548041,0.0195919395637831,0.0221670366674421,0.0248975418923937,0.0277456204779293,0.0306604317467337,0.0335795284349657,0.0364373905517094,0.0391195037973784,0.0416036344841006,0.0438266406239824,0.0456582229663792,0.0470932828279522,0.0479798826493518,0.0481572029708373,0.0476400723832106,0.0463487409585574,0.0441823683281912,0.0414375721582658,0.0384875305455416,0.0349471863405297,0.0309320272289291,0.0270388528938308,0.0228936154676939,0.0180012800401943,0.0130276606152668,0.00867066333446484,0.00485383626836603,0.00215826949326161
"37",0.0169784849537905,0.0075887434575005,0.00598390612154548,0.00690909113819855,0.00816201079354017,0.00961184029482012,0.0112697733042684,0.0131261753591005,0.0151395025327489,0.0173665569858054,0.0197892019818831,0.0223784493391088,0.0251259690765734,0.0279908389300354,0.0309245001957742,0.033834718874049,0.0367147843966038,0.0394042932945786,0.0418272383824607,0.0440850308473224,0.0458630073262745,0.0472995249449918,0.0481134381413353,0.048245142435342,0.0477478219110122,0.046330887634571,0.0440345120234715,0.041250642566349,0.0383279089377488,0.0347730815624138,0.0303238827729634,0.0267111238775125,0.0228042615362613,0.0175949991728449,0.01241163292897,0.00830144897274903,0.00565557299547811
