"","X0","X1","X2","X3","X4","X5","X6","X7","X8","X9","X10","X11","X12","X13","X14","X15","X16","X17","X18","X19","X20","X21"
"1",0.848785211968039,0.141464201994673,0.00943094679964486,0.000314364893321495,5.23941488869158e-06,3.49294325912771e-08,0,0,0,0,0,0,0,0,0,0,0,0,0,0,0,0
"2",0,0.848785211968039,0.141464201994673,0.00943094679964486,0.000314364893321495,5.23941488869158e-06,3.49294325912771e-08,0,0,0,0,0,0,0,0,0,0,0,0,0,0,0
"3",0,0,0.848785211968039,0.141464201994673,0.00943094679964486,0.000314364893321495,5.23941488869158e-06,3.49294325912771e-08,0,0,0,0,0,0,0,0,0,0,0,0,0,0
"4",0,0,0,0.848785211968039,0.141464201994673,0.00943094679964486,0.000314364893321495,5.23941488869158e-06,3.49294325912771e-08,0,0,0,0,0,0,0,0,0,0,0,0,0
"5",0,0,0,0,0.848785211968039,0.141464201994673,0.00943094679964486,0.000314364893321495,5.23941488869158e-06,3.49294325912771e-08,0,0,0,0,0,0,0,0,0,0,0,0
"6",0,0,0,0,0,0.848785211968039,0.141464201994673,0.00943094679964486,0.000314364893321495,5.23941488869158e-06,3.49294325912771e-08,0,0,0,0,0,0,0,0,0,0,0
"7",0,0,0,0,0,0,0.848785211968039,0.141464201994673,0.00943094679964486,0.000314364893321495,5.23941488869158e-06,3.49294325912771e-08,0,0,0,0,0,0,0,0,0,0
"8",0,0,0,0,0,0,0,0.848785211968039,0.141464201994673,0.00943094679964486,0.000314364893321495,5.23941488869158e-06,3.49294325912771e-08,0,0,0,0,0,0,0,0,0
"9",0,0,0,0,0,0,0,0,0.848785211968039,0.141464201994673,0.00943094679964486,0.000314364893321495,5.23941488869158e-06,3.49294325912771e-08,0,0,0,0,0,0,0,0
"10",0,0,0,0,0,0,0,0,0,0.848785211968039,0.141464201994673,0.00943094679964486,0.000314364893321495,5.23941488869158e-06,3.49294325912771e-08,0,0,0,0,0,0,0
"11",0,0,0,0,0,0,0,0,0,0,0.848785211968039,0.141464201994673,0.00943094679964486,0.000314364893321495,5.23941488869158e-06,3.49294325912771e-08,0,0,0,0,0,0
"12",0,0,0,0,0,0,0,0,0,0,0,0.848785211968039,0.141464201994673,0.00943094679964486,0.000314364893321495,5.23941488869158e-06,3.49294325912771e-08,0,0,0,0,0
"13",0,0,0,0,0,0,0,0,0,0,0,0,0.848785211968039,0.141464201994673,0.00943094679964486,0.000314364893321495,5.23941488869158e-06,3.49294325912771e-08,0,0,0,0
"14",0,0,0,0,0,0,0,0,0,0,0,0,0,0.848785211968039,0.141464201994673,0.00943094679964486,0.000314364893321495,5.23941488869158e-06,3.49294325912771e-08,0,0,0
"15",0,0,0,0,0,0,0,0,0,0,0,0,0,0,0.848785211968039,0.141464201994673,0.00943094679964486,0.000314364893321495,5.23941488869158e-06,3.49294325912771e-08,0,0
"16",0,0,0,0,0,0,0,0,0,0,0,0,0,0,0,0.848785211968039,0.141464201994673,0.00943094679964486,0.000314364893321495,5.23941488869158e-06,3.49294325912771e-08,0
"17",0,0,0,0,0,0,0,0,0,0,0,0,0,0,0,0,0.848785211968039,0.141464201994673,0.00943094679964486,0.000314364893321495,5.23941488869158e-06,3.49294325912771e-08
"18",0,0,0,0,0,0,0,0,0,0,0,0,0,0,0,0,0,0.848785211968039,0.141464201994673,0.00943094679964486,0.000314364893321495,5.27434432128285e-06
"19",0,0,0,0,0,0,0,0,0,0,0,0,0,0,0,0,0,0,0.848785211968039,0.141464201994673,0.00943094679964486,0.000319639237642778
"20",0,0,0,0,0,0,0,0,0,0,0,0,0,0,0,0,0,0,0,0.848785211968039,0.141464201994673,0.00975058603728764
"21",0,0,0,0,0,0,0,0,0,0,0,0,0,0,0,0,0,0,0,0,0.848785211968039,0.151214788031961
"22",0,0,0,0,0,0,0,0,0,0,0,0,0,0,0,0,0,0,0,0,0,1
